# Blender v2.78 (sub 0) OBJ File: ''
# www.blender.org
mtllib Oak_Tree_NoLeaves_l_02.mtl
o Oak_Tree_NoLeaves_l_02
v -0.251746 0.276483 -0.397869
v -0.246942 0.522877 -0.332040
v -0.000038 0.536694 -0.405618
v 0.000021 0.276499 -0.458670
v 0.486038 0.276499 -0.097707
v 0.486038 0.276498 0.082650
v 0.686161 0.012785 0.059270
v 0.686161 0.012785 -0.100027
v -0.367012 0.276260 -0.368638
v -0.575256 0.012275 -0.497470
v -0.667112 0.012275 -0.371041
v -0.470884 0.276260 -0.225671
v 0.264010 0.276499 -0.372097
v 0.241244 0.536694 -0.328238
v 0.395342 0.522890 -0.125236
v 0.431938 0.276499 -0.165514
v 0.246529 0.274149 0.413976
v 0.068025 0.274149 0.473222
v 0.159063 0.007768 0.630093
v 0.292957 0.007768 0.581799
v -0.430961 0.276498 0.132028
v -0.390440 0.536694 0.124760
v -0.395426 0.522877 -0.129796
v -0.450330 0.276483 -0.124541
v 0.431938 0.276498 0.150458
v 0.395342 0.522890 0.123811
v 0.242314 0.522766 0.332334
v 0.280243 0.276344 0.354294
v -0.299753 0.276232 0.349173
v -0.242713 0.522677 0.333142
v -0.386538 0.011946 0.442998
v -0.545425 0.012785 0.155976
v 0.566677 0.012785 0.178068
v 0.359462 0.012298 0.441244
v -0.000381 0.012785 -0.589734
v 0.333676 0.012785 -0.479511
v -0.583702 0.012736 -0.168690
v 0.000447 0.513407 0.413419
v 0.566677 0.012785 -0.218825
v -0.325980 0.012736 -0.523415
v -0.236781 0.272447 0.439501
v -0.299431 0.004134 0.680990
v -0.165393 0.004134 0.724541
v -0.073952 0.272447 0.492407
v 0.018044 0.276077 0.463718
v 0.022816 0.011459 0.597165
v 0.294575 0.912378 -0.300054
v 0.466147 0.908629 -0.109530
v 0.012733 0.929427 0.370398
v -0.297009 0.873397 0.299941
v 0.467706 0.909259 0.128940
v 0.298407 0.913926 0.321817
v -0.296821 0.872012 -0.310310
v 0.011165 0.927839 -0.358802
v -0.466412 0.866604 0.113283
v -0.466318 0.865912 -0.122873
v -0.708928 1.311558 0.122836
v -0.899364 1.226247 0.018135
v -0.895797 1.219528 -0.176224
v -0.701734 1.297679 -0.283692
v -0.292857 1.346453 -0.219273
v -0.294900 1.358992 0.101788
v -1.869946 1.982676 -0.260564
v -1.710185 2.067573 -0.315632
v -1.564311 2.110853 -0.194088
v -1.600417 2.089772 -0.002342
v -1.774477 2.010531 0.047675
v -1.902092 1.954154 -0.078914
v -2.243416 2.902492 0.205528
v -2.353932 2.870076 0.104454
v -1.948130 2.792478 -0.019162
v -2.066838 2.949384 0.156540
v -2.330481 2.898159 -0.045350
v -2.147159 2.947957 -0.088123
v -2.541992 4.804750 0.140529
v -2.684312 4.843935 0.232676
v -2.772902 4.663356 0.212093
v -2.764046 4.864376 0.053931
v -2.093251 3.150647 0.048205
v -2.533042 4.821642 0.026326
v -2.626968 4.827023 -0.042857
v -1.303588 3.555142 0.181214
v -1.341145 3.665562 0.079865
v -1.294798 3.610480 -0.038034
v -1.224499 3.492660 0.025454
v -0.598104 5.103974 0.170294
v -0.537975 5.097500 0.070617
v -0.445598 5.025796 0.118278
v -0.528226 5.029463 0.249556
v -0.417506 6.435120 0.533852
v -0.467030 6.448940 0.485212
v -0.373939 6.472188 0.471163
v -0.433906 6.474724 0.437514
v -0.133741 7.262719 0.645614
v -0.111654 7.279224 0.614350
v -0.072690 7.276988 0.636221
v -0.101197 7.253516 0.676526
v -2.243721 6.119268 -0.555901
v -2.241883 6.135840 -0.490010
v -2.341701 6.079634 -0.556504
v -2.298321 6.164633 -0.463271
v -2.746445 5.100322 0.121876
v -3.155209 5.348232 0.844541
v -3.103662 5.434000 0.867487
v -2.347735 6.184325 -0.508768
v -3.091969 5.340160 0.969299
v -3.154933 5.270494 0.938133
v -3.357522 5.894331 1.687436
v -3.308495 5.938827 1.690426
v -3.297389 5.874316 1.752377
v -3.352208 5.841963 1.746201
v -3.642842 6.374818 2.994401
v -3.632694 6.340106 3.006477
v -3.650471 6.325700 2.992122
v -3.657043 6.356004 2.979739
v -2.207316 7.319597 -0.548750
v -2.203567 7.321111 -0.523398
v -2.237338 7.268631 -0.542784
v -2.225627 7.322743 -0.513111
v 0.889089 1.876575 0.041467
v 0.909824 1.884951 0.260194
v 0.692943 1.926757 -0.103364
v 0.738399 1.946128 0.434605
v 0.512638 1.963650 0.327967
v 0.486232 1.949801 0.003152
v 1.757671 3.254340 0.295043
v 1.730855 3.210690 0.061453
v 1.809335 3.105363 0.041045
v 1.838164 3.029913 0.239150
v 1.713342 3.030968 0.427474
v 2.848814 4.461911 -0.708604
v 2.736107 4.318076 -0.794432
v 1.988646 3.321913 0.280126
v 2.971290 4.410155 -0.625288
v 2.097903 3.257920 1.349280
v 2.179750 3.252630 1.308067
v 2.889822 4.358757 -0.831629
v 2.987083 4.339574 -0.702066
v 2.160131 3.150529 1.321252
v 2.096237 3.164722 1.355797
v 2.741186 3.062116 2.400385
v 2.731293 3.014028 2.404140
v 2.701315 3.019961 2.419735
v 2.704053 3.063510 2.423415
v 3.251639 3.202980 2.792417
v 3.279783 3.209837 2.773573
v 3.261189 3.169315 2.793112
v 3.285424 3.171858 2.780171
v 3.366427 5.549230 -0.553890
v 3.351640 5.567468 -0.491173
v 3.324651 5.560746 -0.595452
v 2.873938 4.547428 -0.848657
v 3.277951 5.591471 -0.569229
v 1.825554 4.642560 -1.523618
v 1.827201 4.703607 -1.487842
v 3.295001 5.592548 -0.497661
v 4.117258 6.444832 -0.649194
v 4.112302 6.444801 -0.673630
v 4.134601 6.433997 -0.647517
v 4.095201 6.391935 -0.669468
v 1.801976 4.703145 -1.451856
v 1.798584 4.651896 -1.480098
v 1.586335 5.423190 -2.053477
v 1.577347 5.401390 -2.022382
v 1.572373 5.402417 -2.055441
v 1.587047 5.379982 -2.062493
v 1.582257 5.420507 -2.072319
v 1.798419 4.677857 -1.463140
v -2.270164 6.723560 -0.580936
v -2.408078 5.491714 -0.174569
v 0.411471 0.392417 0.139822
v -2.909082 5.095669 0.600630
v -1.382733 1.584415 -0.228093
v 0.321843 0.010033 0.522078
v -0.459701 0.289611 -0.175444
v -0.519036 0.133588 -0.148807
v 4.153663 6.451998 -0.663925
v -2.268210 6.150558 -0.473069
v -2.264508 2.920011 -0.078402
v 3.725926 6.064675 -0.567063
v -0.271802 0.391990 0.341679
v 3.134084 4.964901 -0.713067
v 3.268435 3.189876 2.800580
v -0.568564 5.066999 0.218523
v -2.783378 4.712497 0.153326
v -0.519061 1.309781 -0.271147
v 0.402862 0.536694 -0.000445
v 0.319436 0.133354 0.401300
v 3.003488 3.127841 2.647390
v -1.727153 3.302618 0.060934
v 0.301650 0.133614 -0.430399
v -0.892463 4.266534 0.206647
v -1.254831 3.547261 -0.016240
v -0.037564 0.390519 0.446320
v -0.269282 0.126964 0.568746
v 1.575809 5.410964 -2.073290
v 4.145330 6.458817 -0.652091
v -1.260534 3.515325 0.109355
v 2.449752 3.151747 1.875217
v -2.228690 7.349514 -0.524567
v 1.761896 3.004646 0.376512
v -1.879532 2.477142 0.072120
v 0.021975 0.132906 0.530536
v 0.123536 0.536694 -0.375953
v -3.093630 5.392735 0.920293
v -2.304205 2.884129 0.161692
v 0.240301 0.391316 0.372235
v 3.082089 5.034313 -0.683574
v -2.238138 6.125485 -0.522938
v -1.240909 1.648705 0.073325
v -0.479323 0.133222 -0.437003
v -0.254131 6.898277 0.617122
v 0.112552 1.571225 0.223893
v 1.315484 2.404324 0.244154
v -1.630690 2.093251 -0.262782
v -0.650538 1.033421 0.069419
v -3.195059 5.606499 1.339392
v 0.477901 0.908944 0.009705
v 0.248789 0.405170 -0.346524
v -2.576004 4.824568 -0.013902
v -0.080944 1.179078 0.254116
v 3.722045 5.991400 -0.603008
v -0.124770 0.536427 0.378336
v -1.572788 2.105130 -0.095537
v 2.308744 4.494702 -1.147213
v 0.489047 0.276498 -0.007528
v -0.480685 5.022196 0.188521
v 3.098262 5.032660 -0.599100
v -3.257634 5.620078 1.244820
v -0.110151 7.275625 0.665171
v 0.459356 0.289732 0.116284
v -3.661091 6.351290 3.015581
v -0.267934 6.930205 0.540001
v -0.401296 6.476016 0.450623
v -2.436828 3.873598 -0.039879
v 0.459623 0.012785 0.307849
v 2.777861 4.296831 -0.820603
v 0.414110 0.699319 -0.121844
v 1.998660 3.119428 0.785270
v 1.730168 3.238750 0.143038
v -3.485403 6.178403 2.382792
v -2.979621 5.110408 0.451333
v -0.159755 0.872361 -0.351925
v -0.290814 0.133588 -0.462927
v 2.874813 4.551250 -0.803883
v 3.704210 5.996926 -0.620499
v 3.168226 4.995745 -0.582495
v -0.248531 0.392392 -0.366605
v -3.129721 5.397176 0.848818
v -2.563749 3.777390 0.140635
v -0.809818 4.232249 0.060491
v -0.255935 0.699319 0.318993
v -0.344480 0.133166 0.397889
v 2.896794 4.496242 -0.870281
v -2.670593 4.901655 -0.049544
v -1.204444 1.670445 -0.306679
v 1.567610 5.464640 -2.092720
v -0.524965 1.323935 0.118734
v -0.238150 0.003294 0.721795
v 2.342671 3.857518 -0.222325
v -1.698112 3.186706 0.166611
v -2.738616 4.700531 0.252675
v -0.159926 0.873619 0.342108
v 2.700455 3.042022 2.422878
v -2.248025 6.798533 -0.511554
v 1.841380 3.080602 0.098412
v -0.486387 5.061368 0.085850
v 0.486257 1.404474 0.380784
v -2.218670 7.347350 -0.545174
v 3.286375 3.173746 2.794250
v 2.091868 3.212017 1.355232
v -2.350670 2.881787 0.027796
v 0.037452 0.391316 0.439671
v 3.282777 5.593732 -0.532684
v 2.392891 3.155462 1.908499
v -1.321481 3.646597 0.014894
v 0.263066 0.288547 0.385335
v 0.503346 0.133614 -0.191431
v -3.205456 5.684887 1.255895
v -0.817494 1.269027 0.077888
v 2.394375 3.722139 -0.368975
v 1.914228 3.264569 0.822431
v -1.824111 2.458099 -0.106558
v -0.414110 0.699319 -0.121844
v 0.660113 1.370250 0.195391
v -3.255559 5.556014 1.322443
v -0.492688 0.133614 0.145115
v 0.134910 0.276499 -0.424691
v -0.293446 1.393937 -0.059163
v -0.629972 0.012506 -0.279160
v -0.267427 0.287689 0.394864
v -0.324291 0.536694 0.231392
v 2.127439 3.150659 1.339256
v 0.795418 1.899393 -0.043307
v -0.444298 0.276498 -0.000600
v 0.459623 0.012785 -0.348606
v 2.984212 4.373178 -0.660174
v -0.649841 1.028283 -0.145771
v 0.436045 0.392417 -0.109022
v 2.723149 3.065868 2.411985
v 0.255935 0.699319 0.318993
v -3.159257 5.303708 0.889437
v -0.423374 0.392392 -0.125954
v 3.761836 6.047410 -0.563768
v 0.436045 0.392417 0.101255
v -0.302602 0.392305 -0.346934
v 0.100167 1.558682 -0.120681
v 0.255934 0.699320 -0.318993
v 0.229969 0.007281 0.614868
v 2.139571 3.262241 1.327942
v 0.271612 0.129757 0.503213
v 2.030953 3.258500 0.788338
v -0.083889 7.296162 0.628021
v 1.126980 2.621363 0.314512
v 2.334011 4.560685 -1.098172
v 2.346876 4.564178 -1.158270
v -3.474420 6.129302 2.417784
v -0.519929 5.796749 0.325040
v -2.530655 4.812571 0.084029
v -0.390588 0.870000 0.211926
v -2.332927 6.228811 -0.551541
v -2.592157 4.805176 0.170854
v -3.333623 5.920811 1.684487
v -0.472662 5.808525 0.251438
v 0.263071 0.392169 0.342632
v 1.768507 3.157853 0.041258
v 0.636481 0.012785 -0.153898
v 0.354906 0.276498 0.252483
v -3.510371 6.107282 2.407993
v -1.400951 1.573434 -0.040170
v 0.645301 1.975482 0.402902
v -2.539006 5.589687 -0.217390
v -0.889144 4.331730 0.004744
v -0.000000 0.699320 -0.394297
v -0.000379 0.133614 -0.529563
v 1.649795 5.067360 -1.766164
v -2.471614 3.835217 0.226470
v 1.693993 3.104529 0.403520
v -0.574266 5.106171 0.115852
v -2.149217 2.374555 0.007250
v -0.123852 0.126964 0.615999
v 2.308950 3.796010 -0.342522
v 0.213939 1.417041 0.346204
v -2.348504 3.927438 0.057438
v -0.156525 0.272181 0.469228
v -2.171578 2.924694 0.189390
v -0.468490 0.012785 0.302667
v 1.814757 4.707411 -1.467601
v 2.175143 3.200883 1.311966
v -1.625121 3.112371 0.006785
v 1.577356 5.431098 -2.051369
v -0.952208 1.706583 -0.213519
v -0.909835 1.216441 -0.078655
v -0.460868 0.012506 -0.511912
v -0.414110 0.699319 0.121845
v -0.576078 0.133222 -0.303831
v -0.422928 0.276244 -0.299139
v 3.299173 5.576480 -0.586365
v -1.974081 2.822142 0.068678
v -0.366643 0.276498 0.246669
v 1.828239 4.672746 -1.508568
v -0.078498 7.282835 0.660253
v 2.754560 4.356294 -0.751764
v -2.281441 6.738040 -0.550175
v 0.389239 0.910503 -0.210106
v 0.354905 0.276499 -0.267540
v 3.323441 5.580625 -0.489593
v -2.213790 7.348798 -0.517611
v -1.844844 1.978305 -0.007697
v -2.204683 7.347911 -0.535548
v -0.454347 6.462025 0.458438
v 1.307404 2.400656 0.144147
v -2.213777 6.772894 -0.573281
v 1.670916 5.070400 -1.791439
v 0.459356 0.289732 -0.130439
v 0.124913 0.536539 0.377142
v -0.400257 0.536694 0.000005
v 2.389502 3.089196 1.907347
v 0.411471 0.392417 -0.147589
v -1.327184 3.614661 0.140490
v 0.592651 0.133614 -0.098876
v -2.350853 3.863397 0.178218
v 2.715775 3.013940 2.411852
v -2.082668 3.102728 0.112697
v -0.166466 0.012785 -0.561715
v 0.605871 1.957656 -0.059690
v -0.115541 7.288952 0.632938
v 0.414110 0.699319 0.121845
v -0.340501 0.008040 0.572428
v 0.170732 0.012785 -0.551120
v 0.503346 0.133614 0.162773
v -0.466546 1.070508 -0.294608
v 0.094158 0.010033 0.608124
v -3.645516 6.368110 3.031259
v -2.125462 3.103300 -0.018585
v 0.696897 0.012785 -0.020379
v -0.444895 6.439471 0.513247
v 0.636481 0.012785 0.113141
v 3.362525 5.557043 -0.520946
v -0.390447 0.868962 -0.221906
v 0.116489 0.129757 0.556615
v -0.327537 0.536678 -0.234507
v 0.000030 0.405170 -0.427749
v 3.033669 3.089131 2.631708
v -0.131144 0.276499 -0.431619
v 0.830933 1.914245 0.358760
v -3.298987 5.909246 1.721526
v -2.932478 5.214451 0.490826
v 0.955210 1.934274 0.154964
v -2.118839 2.400472 -0.159373
v 3.035167 3.131099 2.626775
v -0.477339 0.866258 -0.004795
v 1.112224 2.597008 0.080552
v -3.516719 6.148160 2.374099
v -0.426135 0.392305 -0.176906
v 0.323482 0.536694 0.231789
v 0.521533 2.023329 0.172780
v 3.714739 6.063733 -0.614207
v -2.971582 5.009665 0.552514
v -2.487578 5.515020 -0.138460
v -2.563116 5.450641 -0.259990
v 0.391935 0.911592 0.230693
v 1.649251 5.033904 -1.788995
v 1.918658 3.338728 0.289890
v 0.168583 0.915536 0.361183
v 0.198452 1.408876 -0.192644
v -0.021896 0.287689 0.474641
v 3.295842 3.195101 2.783927
v 3.007360 3.090417 2.645668
v 1.978065 3.238940 0.263484
v 0.648186 1.365432 -0.040472
v -0.947909 4.360971 0.115323
v 1.570908 5.421554 -2.052339
v -0.812002 1.257908 -0.237913
v 4.141271 6.457960 -0.678290
v 3.277902 3.211231 2.790257
v -2.210430 6.782753 -0.529325
v -0.394440 5.773584 0.291932
v -0.255935 0.699320 -0.318993
v 0.008413 0.383353 0.441705
v 1.665862 5.027996 -1.820843
v 4.134421 6.464330 -0.665025
v -2.280925 6.129540 -0.573007
v 0.000000 0.699319 0.394297
v -0.637648 0.012226 -0.442677
v 1.811900 4.643192 -1.504107
v 0.457901 1.393019 -0.208579
v -0.294759 6.907721 0.577881
v -2.030539 2.414640 0.123466
v 0.323481 0.536694 -0.232680
v -0.391844 6.453462 0.505433
v -0.567468 0.012785 -0.009784
v 1.225425 2.509920 0.005616
v -0.970807 1.698417 0.027176
v -1.793083 2.024345 -0.298698
v -0.236051 0.390519 0.381828
v -0.219121 6.930594 0.567541
v -0.309398 0.289612 -0.382318
v -0.404389 0.405170 0.127637
v 2.435501 3.079304 1.885314
v -2.518731 5.443457 -0.279742
v 0.592651 0.133614 0.070217
v -1.729651 3.213816 -0.060986
v 0.165611 0.914335 -0.338422
v 2.365814 4.478549 -1.193718
v -3.358820 5.865473 1.716694
v -1.684430 2.050931 0.033267
v -0.083219 1.169559 -0.282512
v 2.738468 3.037785 2.400959
v -3.648908 6.343017 3.029060
v -2.403609 5.487041 -0.265942
v -1.895595 1.963598 -0.172417
v 3.385567 5.604628 -0.579556
v -0.458266 5.753817 0.388760
v -3.657700 6.376383 3.017779
v -3.324183 5.853909 1.753733
v 3.186664 4.955083 -0.655351
v 2.960115 4.337944 -0.743203
v 2.928015 4.434496 -0.630884
v -2.724645 5.042449 0.180848
v 1.918308 3.139737 0.853220
v -0.467970 1.081005 0.213415
v -2.325800 6.176870 -0.482465
v -3.123166 5.299267 0.960912
v 0.157919 0.273994 0.445441
v 2.463021 3.828584 -0.212074
v -2.767437 5.053710 0.085942
v -2.557588 3.845419 0.008374
v -0.071813 0.008040 0.659730
v -0.123284 0.536694 -0.376403
v 2.452118 3.707207 -0.273201
v -2.017032 2.821072 -0.066966
v -1.967831 2.462974 -0.210719
v 1.229005 2.519744 0.405000
v 0.037176 0.288547 0.465775
v 1.648160 5.050736 -1.775516
v 1.669752 5.049094 -1.808205
v 1.657354 5.028210 -1.806806
v 1.660558 5.071620 -1.776915
v 2.340672 4.567908 -1.125169
v 2.337050 4.481150 -1.173517
v 3.085946 5.037207 -0.640912
v 2.318851 4.528151 -1.118842
v 4.202019 6.516603 -0.675599
v 3.729808 6.054628 -0.624078
v 3.767664 6.041982 -0.584697
v 3.744037 6.056378 -0.562227
v 3.717936 6.065461 -0.590272
v 3.133160 5.015451 -0.585329
v 2.358871 4.520906 -1.179845
v 3.105734 5.000034 -0.703233
v 3.162781 4.956093 -0.687735
v 3.181704 4.973917 -0.616379
v 3.320026 3.204462 2.814558
v 3.020600 3.086906 2.638804
v 3.036513 3.110186 2.627993
v 3.003329 3.109058 2.647778
v 3.019242 3.132338 2.636966
v 2.387481 3.122821 1.909921
v 2.421959 3.158615 1.891535
v 2.411865 3.079239 1.896654
v 2.446342 3.115033 1.878268
v 2.021926 3.188011 0.783118
v 2.463702 3.766337 -0.239051
v 1.909149 3.203106 0.841511
v 1.957465 3.120050 0.820246
v 2.348711 3.757644 -0.363392
v 2.425709 3.707836 -0.323958
v 1.973610 3.271068 0.804383
v 2.404545 3.849529 -0.210958
v 2.318468 3.830114 -0.281737
v -2.213777 7.429504 -0.528831
v 0.118309 1.643344 0.057404
v 1.300340 2.489220 0.340081
v 1.163908 2.554101 0.030416
v 1.173887 2.573163 0.372941
v 1.293215 2.482345 0.064573
v 1.112479 2.615767 0.196933
v 0.581035 1.386715 0.296425
v 0.347916 1.408439 -0.203613
v 0.371460 1.417950 0.383898
v 0.559684 1.378090 -0.133362
v 0.666257 1.365737 0.076871
v -2.264599 6.802279 -0.525472
v -2.228130 6.790798 -0.517823
v -2.238291 6.778229 -0.580418
v -2.209054 6.776856 -0.551618
v -3.675928 6.391332 3.114125
v -3.515975 6.125833 2.390378
v -3.501687 6.166531 2.375957
v -3.491769 6.115042 2.415377
v -3.477481 6.155741 2.400956
v -3.260667 5.583881 1.282619
v -3.224858 5.576111 1.336738
v -3.196187 5.649858 1.298656
v -3.231996 5.657628 1.244537
v -2.979562 5.053171 0.498759
v -2.515760 5.555844 -0.174291
v -2.916820 5.161925 0.548893
v -2.939196 5.044737 0.584194
v -2.546042 5.555706 -0.255497
v -2.957185 5.170360 0.463458
v -2.446370 5.500684 -0.150648
v -2.445089 5.496725 -0.294149
v -2.400081 5.488030 -0.219946
v -0.073617 7.339239 0.656849
v -0.233396 6.914109 0.594744
v -0.276679 6.901019 0.600661
v -0.241294 6.932379 0.550612
v -0.284577 6.919290 0.556528
v -0.429538 5.792194 0.265529
v -0.501349 5.805450 0.284474
v -0.421300 5.760887 0.344111
v -0.493110 5.774143 0.363056
v -0.846272 4.242387 0.138881
v -0.925294 4.316047 0.170259
v -0.844373 4.279696 0.023343
v -0.923395 4.353355 0.054721
v -1.674839 3.157201 -0.037278
v -1.656791 3.141687 0.092963
v -2.388528 3.903614 0.003115
v -1.733226 3.266068 -0.006291
v -1.715178 3.250555 0.123950
v -2.499956 3.860007 -0.023547
v -2.342645 3.898170 0.119511
v -2.567851 3.808497 0.073268
v -2.521967 3.803052 0.189664
v -2.408189 3.849118 0.209244
v -1.953036 2.448119 0.107791
v -1.888951 2.461883 -0.166419
v -2.047285 2.432996 -0.194105
v -2.143048 2.383939 -0.078279
v -1.841826 2.469444 -0.015471
v -2.095923 2.391501 0.072669
v -0.943428 1.705194 -0.091556
v -1.402757 1.573292 -0.135276
v -1.330883 1.609112 0.024240
v -1.101336 1.675932 0.062375
v -1.071933 1.691775 -0.271079
v -1.301715 1.626693 -0.276663
v -0.661804 1.027629 -0.037981
v -0.302885 1.085939 0.232806
v -0.301534 1.075975 -0.310563
v -0.569251 1.049048 -0.226824
v -0.570367 1.057275 0.147776
v -0.424342 0.699319 0.000000
v 0.424342 0.699319 0.000000
v -0.343300 0.699320 -0.225865
v 0.131129 0.699319 0.365457
v -0.343300 0.699319 0.225865
v 0.131129 0.699320 -0.365457
v -0.131129 0.699320 -0.365457
v 0.343300 0.699319 0.225865
v -0.131129 0.699319 0.365457
v 0.068615 0.131556 0.542092
v 0.294490 0.131556 0.458681
v 0.554379 0.133614 0.114032
v 0.554379 0.133614 -0.142690
v 0.343300 0.699320 -0.225865
v -0.391195 0.133405 -0.451809
v -0.551203 0.133405 -0.231576
v -0.048857 0.130065 0.573506
v -0.306469 0.130065 0.489803
v -0.137098 0.403059 0.415182
v -0.199298 0.126516 0.601146
v -0.149469 0.133614 -0.499847
v 0.436518 0.405170 -0.003528
v -0.365934 0.405045 -0.261998
v 0.409506 0.133614 -0.310071
v 0.138226 0.403946 0.405725
v -0.508777 0.133614 -0.005302
v 0.153615 0.133614 -0.490821
v 0.409506 0.133614 0.281412
v -0.420168 0.133614 0.275729
v -0.340227 0.405170 0.237331
v 0.333817 0.405170 0.240474
v 0.127323 0.405170 -0.396302
v -0.415879 0.405170 0.000043
v 0.195856 0.129497 0.534180
v 0.333817 0.405170 -0.247529
v -0.535864 0.133196 -0.374568
v 0.598181 0.133614 -0.014329
v -0.125323 0.405170 -0.399873
vt 0.9093 0.8038
vt 0.9093 0.8056
vt 0.9074 0.8056
vt 0.9074 0.8038
vt 0.8960 0.8015
vt 0.8949 0.8019
vt 0.8942 0.7995
vt 0.8952 0.7991
vt 0.9146 0.7993
vt 0.9153 0.7966
vt 0.9162 0.7967
vt 0.9158 0.7995
vt 0.9016 0.8046
vt 0.9020 0.8064
vt 0.9001 0.8068
vt 0.8997 0.8050
vt 0.8884 0.8064
vt 0.8876 0.8072
vt 0.8863 0.8053
vt 0.8869 0.8047
vt 0.9176 0.8055
vt 0.9168 0.8073
vt 0.9150 0.8066
vt 0.9158 0.8048
vt 0.9054 0.8039
vt 0.9056 0.8058
vt 0.9038 0.8060
vt 0.9035 0.8041
vt 0.8941 0.8075
vt 0.8950 0.8090
vt 0.8934 0.8098
vt 0.8925 0.8084
vt 0.9210 0.8071
vt 0.9202 0.8088
vt 0.9186 0.8080
vt 0.9194 0.8063
vt 0.9228 0.8035
vt 0.9218 0.8054
vt 0.9201 0.8046
vt 0.9210 0.8026
vt 0.8921 0.8041
vt 0.8932 0.8059
vt 0.8916 0.8069
vt 0.8904 0.8053
vt 0.9050 0.7998
vt 0.9052 0.8020
vt 0.9032 0.8022
vt 0.9029 0.8001
vt 0.9192 0.8017
vt 0.9183 0.8038
vt 0.9165 0.8030
vt 0.9173 0.8008
vt 0.8910 0.8094
vt 0.8899 0.8104
vt 0.8889 0.8090
vt 0.8899 0.8081
vt 0.9008 0.8005
vt 0.9013 0.8027
vt 0.8993 0.8032
vt 0.8986 0.8010
vt 0.9136 0.8041
vt 0.9140 0.8020
vt 0.9154 0.8023
vt 0.9152 0.8044
vt 0.8977 0.8056
vt 0.8961 0.8062
vt 0.8956 0.8043
vt 0.8970 0.8038
vt 0.9092 0.7996
vt 0.9092 0.8019
vt 0.9073 0.8019
vt 0.9072 0.7997
vt 0.9275 0.8057
vt 0.9295 0.8037
vt 0.9300 0.8042
vt 0.9283 0.8063
vt 0.9244 0.8091
vt 0.9256 0.8077
vt 0.9266 0.8085
vt 0.9256 0.8100
vt 0.9272 0.8096
vt 0.9259 0.8105
vt 0.9269 0.8090
vt 0.9219 0.8096
vt 0.9227 0.8080
vt 0.9232 0.8083
vt 0.9257 0.8047
vt 0.9273 0.8029
vt 0.9289 0.8031
vt 0.9268 0.8050
vt 0.9286 0.8074
vt 0.9160 0.8026
vt 0.9165 0.8002
vt 0.9112 0.8057
vt 0.9111 0.8038
vt 0.9119 0.8037
vt 0.9123 0.7993
vt 0.9128 0.7968
vt 0.9143 0.7964
vt 0.9135 0.7990
vt 0.9023 0.8086
vt 0.9040 0.8082
vt 0.9042 0.8104
vt 0.9027 0.8109
vt 0.8979 0.8010
vt 0.8972 0.8010
vt 0.8961 0.7987
vt 0.8971 0.7987
vt 0.8992 0.8051
vt 0.8944 0.8024
vt 0.8938 0.8029
vt 0.8929 0.8009
vt 0.8936 0.8002
vt 0.8948 0.8049
vt 0.8952 0.8046
vt 0.8957 0.8066
vt 0.8887 0.8094
vt 0.8888 0.8092
vt 0.8898 0.8105
vt 0.8922 0.8084
vt 0.8898 0.8054
vt 0.8892 0.8056
vt 0.8875 0.8041
vt 0.8884 0.8038
vt 0.8874 0.8077
vt 0.8871 0.8082
vt 0.9222 0.8123
vt 0.9236 0.8132
vt 0.9226 0.8149
vt 0.9211 0.8141
vt 0.8960 0.8109
vt 0.8975 0.8103
vt 0.8985 0.8123
vt 0.8971 0.8128
vt 0.9093 0.8079
vt 0.9110 0.8080
vt 0.9109 0.8102
vt 0.9092 0.8101
vt 0.9057 0.8080
vt 0.9075 0.8077
vt 0.9075 0.8099
vt 0.9059 0.8102
vt 0.9192 0.8108
vt 0.9208 0.8115
vt 0.9196 0.8133
vt 0.9181 0.8127
vt 0.8932 0.8124
vt 0.8945 0.8116
vt 0.8957 0.8133
vt 0.8942 0.8141
vt 0.9127 0.8084
vt 0.9144 0.8089
vt 0.9138 0.8112
vt 0.9123 0.8107
vt 0.8991 0.8097
vt 0.9007 0.8090
vt 0.9012 0.8113
vt 0.8999 0.8118
vt 0.9160 0.8095
vt 0.9176 0.8101
vt 0.9166 0.8122
vt 0.9152 0.8117
vt 0.9512 0.8067
vt 0.9529 0.8069
vt 0.9504 0.8102
vt 0.9488 0.8097
vt 0.9563 0.8184
vt 0.9546 0.8188
vt 0.9524 0.8160
vt 0.9540 0.8155
vt 0.9603 0.8182
vt 0.9579 0.8180
vt 0.9555 0.8150
vt 0.9584 0.8151
vt 0.9553 0.8067
vt 0.9576 0.8066
vt 0.9560 0.8102
vt 0.9532 0.8102
vt 0.9482 0.8058
vt 0.9495 0.8066
vt 0.9472 0.8093
vt 0.9460 0.8086
vt 0.9068 0.8441
vt 0.9060 0.8453
vt 0.8970 0.8432
vt 0.8977 0.8421
vt 0.9093 0.8419
vt 0.9076 0.8428
vt 0.8983 0.8409
vt 0.8989 0.8397
vt 0.9105 0.8360
vt 0.9116 0.8375
vt 0.8999 0.8354
vt 0.8998 0.8339
vt 0.9090 0.8330
vt 0.9094 0.8344
vt 0.8997 0.8325
vt 0.8996 0.8311
vt 0.9088 0.8302
vt 0.9087 0.8316
vt 0.8996 0.8298
vt 0.8998 0.8285
vt 0.9112 0.8392
vt 0.9232 0.8396
vt 0.9227 0.8415
vt 0.8935 0.8307
vt 0.8935 0.8319
vt 0.8874 0.8313
vt 0.8874 0.8303
vt 0.8940 0.8357
vt 0.8943 0.8370
vt 0.8891 0.8356
vt 0.8884 0.8345
vt 0.8937 0.8284
vt 0.8935 0.8296
vt 0.8874 0.8293
vt 0.8877 0.8282
vt 0.8919 0.8400
vt 0.8913 0.8410
vt 0.8856 0.8388
vt 0.8862 0.8379
vt 0.8934 0.8380
vt 0.8925 0.8390
vt 0.8867 0.8371
vt 0.8879 0.8364
vt 0.8936 0.8331
vt 0.8938 0.8343
vt 0.8876 0.8333
vt 0.8875 0.8323
vt 0.9387 0.8202
vt 0.9386 0.8212
vt 0.9250 0.8209
vt 0.9251 0.8201
vt 0.9390 0.8184
vt 0.9387 0.8193
vt 0.9251 0.8193
vt 0.9258 0.8185
vt 0.9388 0.8165
vt 0.9394 0.8174
vt 0.9264 0.8177
vt 0.9254 0.8169
vt 0.9380 0.8219
vt 0.9374 0.8227
vt 0.9244 0.8225
vt 0.9247 0.8217
vt 0.9380 0.8257
vt 0.9381 0.8266
vt 0.9242 0.8260
vt 0.9241 0.8252
vt 0.9495 0.8531
vt 0.9499 0.8542
vt 0.9436 0.8540
vt 0.9432 0.8528
vt 0.9496 0.8510
vt 0.9491 0.8519
vt 0.9427 0.8517
vt 0.9428 0.8507
vt 0.9377 0.8238
vt 0.9380 0.8248
vt 0.9240 0.8243
vt 0.9242 0.8234
vt 0.9498 0.8556
vt 0.9498 0.8570
vt 0.9436 0.8568
vt 0.9436 0.8554
vt 0.9501 0.8489
vt 0.9502 0.8500
vt 0.9429 0.8496
vt 0.9433 0.8485
vt 0.9306 0.8506
vt 0.9305 0.8516
vt 0.9184 0.8515
vt 0.9184 0.8506
vt 0.9311 0.8486
vt 0.9307 0.8497
vt 0.9185 0.8497
vt 0.9188 0.8487
vt 0.9310 0.8526
vt 0.9313 0.8537
vt 0.9191 0.8534
vt 0.9187 0.8525
vt 0.9313 0.8550
vt 0.9313 0.8564
vt 0.9190 0.8560
vt 0.9190 0.8547
vt 0.9090 0.8525
vt 0.9092 0.8533
vt 0.8992 0.8531
vt 0.8993 0.8526
vt 0.9090 0.8542
vt 0.9088 0.8551
vt 0.8986 0.8543
vt 0.8989 0.8537
vt 0.9088 0.8512
vt 0.9088 0.8518
vt 0.8993 0.8521
vt 0.8992 0.8517
vt 0.9088 0.8498
vt 0.9087 0.8505
vt 0.8990 0.8513
vt 0.8988 0.8508
vt 0.8926 0.8518
vt 0.8928 0.8521
vt 0.8862 0.8521
vt 0.8860 0.8518
vt 0.8923 0.8510
vt 0.8924 0.8514
vt 0.8859 0.8515
vt 0.8857 0.8512
vt 0.8927 0.8526
vt 0.8926 0.8530
vt 0.8860 0.8529
vt 0.8861 0.8525
vt 0.8924 0.8535
vt 0.8921 0.8540
vt 0.8856 0.8537
vt 0.8858 0.8533
vt 0.9311 0.8132
vt 0.9311 0.8135
vt 0.9307 0.8136
vt 0.9307 0.8132
vt 0.9143 0.8226
vt 0.9141 0.8232
vt 0.9039 0.8239
vt 0.9038 0.8234
vt 0.9138 0.8248
vt 0.9140 0.8240
vt 0.9036 0.8252
vt 0.9038 0.8246
vt 0.9143 0.8213
vt 0.9144 0.8220
vt 0.9037 0.8230
vt 0.9036 0.8225
vt 0.9377 0.8072
vt 0.9381 0.8080
vt 0.9315 0.8073
vt 0.9313 0.8066
vt 0.9131 0.8188
vt 0.9128 0.8196
vt 0.9031 0.8210
vt 0.9031 0.8203
vt 0.9376 0.8030
vt 0.9372 0.8038
vt 0.9307 0.8036
vt 0.9310 0.8029
vt 0.9372 0.8051
vt 0.9373 0.8063
vt 0.9311 0.8058
vt 0.9309 0.8047
vt 0.9135 0.8201
vt 0.9143 0.8206
vt 0.9034 0.8220
vt 0.9032 0.8215
vt 0.9377 0.8090
vt 0.9374 0.8101
vt 0.9307 0.8090
vt 0.9311 0.8081
vt 0.9504 0.8410
vt 0.9507 0.8415
vt 0.9450 0.8414
vt 0.9449 0.8409
vt 0.9501 0.8397
vt 0.9501 0.8404
vt 0.9448 0.8404
vt 0.9447 0.8397
vt 0.9504 0.8383
vt 0.9501 0.8391
vt 0.9445 0.8390
vt 0.9445 0.8385
vt 0.9507 0.8422
vt 0.9506 0.8429
vt 0.9445 0.8425
vt 0.9448 0.8419
vt 0.9340 0.8401
vt 0.9340 0.8406
vt 0.9232 0.8408
vt 0.9233 0.8405
vt 0.9340 0.8393
vt 0.9339 0.8396
vt 0.9233 0.8402
vt 0.9234 0.8400
vt 0.9342 0.8410
vt 0.9343 0.8413
vt 0.9236 0.8412
vt 0.9234 0.8410
vt 0.9342 0.8417
vt 0.9341 0.8421
vt 0.9237 0.8417
vt 0.9237 0.8414
vt 0.9316 0.8138
vt 0.9316 0.8141
vt 0.9314 0.8140
vt 0.9314 0.8137
vt 0.8947 0.8237
vt 0.8947 0.8240
vt 0.8856 0.8241
vt 0.8856 0.8239
vt 0.8947 0.8244
vt 0.8946 0.8248
vt 0.8857 0.8244
vt 0.8856 0.8242
vt 0.8946 0.8230
vt 0.8946 0.8234
vt 0.8856 0.8237
vt 0.8856 0.8235
vt 0.8944 0.8224
vt 0.8945 0.8227
vt 0.8856 0.8234
vt 0.8856 0.8232
vt 0.9031 0.8197
vt 0.8943 0.8214
vt 0.8971 0.7711
vt 0.8974 0.7695
vt 0.9038 0.7720
vt 0.9036 0.7736
vt 0.8956 0.7922
vt 0.8945 0.7910
vt 0.9007 0.7878
vt 0.9016 0.7893
vt 0.8943 0.7769
vt 0.8954 0.7758
vt 0.9022 0.7785
vt 0.9014 0.7798
vt 0.8936 0.7897
vt 0.8927 0.7885
vt 0.8998 0.7850
vt 0.9002 0.7864
vt 0.8961 0.7742
vt 0.8968 0.7726
vt 0.9034 0.7751
vt 0.9028 0.7768
vt 0.9120 0.7834
vt 0.9237 0.7838
vt 0.9238 0.7850
vt 0.9118 0.7850
vt 0.9124 0.7887
vt 0.9120 0.7875
vt 0.9233 0.7871
vt 0.9232 0.7882
vt 0.9122 0.7807
vt 0.9122 0.7795
vt 0.9222 0.7805
vt 0.9229 0.7815
vt 0.9119 0.7862
vt 0.9236 0.7861
vt 0.9127 0.7782
vt 0.9132 0.7768
vt 0.9231 0.7785
vt 0.9226 0.7795
vt 0.8938 0.7836
vt 0.8942 0.7816
vt 0.9007 0.7811
vt 0.9002 0.7831
vt 0.9322 0.8137
vt 0.9324 0.8137
vt 0.9324 0.8139
vt 0.9322 0.8138
vt 0.9381 0.7838
vt 0.9385 0.7828
vt 0.9534 0.7829
vt 0.9526 0.7838
vt 0.9389 0.7818
vt 0.9392 0.7809
vt 0.9534 0.7811
vt 0.9534 0.7820
vt 0.9590 0.8313
vt 0.9591 0.8323
vt 0.9519 0.8320
vt 0.9520 0.8313
vt 0.9378 0.7875
vt 0.9378 0.7867
vt 0.9523 0.7862
vt 0.9524 0.7869
vt 0.9378 0.7858
vt 0.9378 0.7849
vt 0.9518 0.7848
vt 0.9520 0.7855
vt 0.9587 0.8350
vt 0.9589 0.8357
vt 0.9516 0.8345
vt 0.9517 0.8340
vt 0.9588 0.8332
vt 0.9584 0.8342
vt 0.9517 0.8334
vt 0.9518 0.8327
vt 0.9386 0.7800
vt 0.9379 0.7789
vt 0.9528 0.7795
vt 0.9531 0.7803
vt 0.9590 0.8293
vt 0.9589 0.8303
vt 0.9521 0.8307
vt 0.9519 0.8300
vt 0.9431 0.8303
vt 0.9431 0.8309
vt 0.9342 0.8310
vt 0.9342 0.8306
vt 0.9430 0.8333
vt 0.9430 0.8336
vt 0.9343 0.8328
vt 0.9344 0.8325
vt 0.9431 0.8313
vt 0.9431 0.8319
vt 0.9343 0.8317
vt 0.9342 0.8313
vt 0.9431 0.8324
vt 0.9431 0.8328
vt 0.9344 0.8323
vt 0.9344 0.8320
vt 0.9288 0.8313
vt 0.9290 0.8316
vt 0.9236 0.8315
vt 0.9234 0.8312
vt 0.9290 0.8319
vt 0.9290 0.8322
vt 0.9235 0.8322
vt 0.9236 0.8318
vt 0.9288 0.8307
vt 0.9288 0.8310
vt 0.9233 0.8310
vt 0.9233 0.8307
vt 0.9288 0.8325
vt 0.9288 0.8327
vt 0.9232 0.8326
vt 0.9233 0.8324
vt 0.9317 0.8131
vt 0.9319 0.8131
vt 0.9320 0.8134
vt 0.9317 0.8134
vt 0.9631 0.7819
vt 0.9629 0.7812
vt 0.9731 0.7830
vt 0.9731 0.7836
vt 0.9624 0.7872
vt 0.9624 0.7866
vt 0.9724 0.7870
vt 0.9725 0.7875
vt 0.9627 0.7860
vt 0.9630 0.7855
vt 0.9725 0.7861
vt 0.9725 0.7865
vt 0.9544 0.8009
vt 0.9546 0.8016
vt 0.9453 0.8011
vt 0.9453 0.8005
vt 0.9632 0.7833
vt 0.9633 0.7826
vt 0.9731 0.7841
vt 0.9729 0.7846
vt 0.9822 0.7866
vt 0.9823 0.7862
vt 0.9918 0.7875
vt 0.9918 0.7877
vt 0.9824 0.7860
vt 0.9825 0.7857
vt 0.9919 0.7872
vt 0.9919 0.7873
vt 0.9825 0.7853
vt 0.9826 0.7849
vt 0.9920 0.7868
vt 0.9920 0.7870
vt 0.9726 0.7880
vt 0.9822 0.7881
vt 0.9821 0.7873
vt 0.9822 0.7870
vt 0.9918 0.7879
vt 0.9918 0.7880
vt 0.9309 0.8139
vt 0.9307 0.8139
vt 0.9307 0.8137
vt 0.9309 0.8137
vt 0.9544 0.7987
vt 0.9547 0.7993
vt 0.9452 0.7993
vt 0.9453 0.7989
vt 0.9631 0.7847
vt 0.9631 0.7839
vt 0.9728 0.7850
vt 0.9727 0.7855
vt 0.9543 0.7976
vt 0.9541 0.7982
vt 0.9453 0.7985
vt 0.9452 0.7981
vt 0.9545 0.7997
vt 0.9542 0.8002
vt 0.9452 0.8000
vt 0.9452 0.7997
vt 0.9380 0.8001
vt 0.9380 0.8004
vt 0.9307 0.8007
vt 0.9308 0.8005
vt 0.9380 0.7990
vt 0.9381 0.7993
vt 0.9308 0.8000
vt 0.9308 0.7998
vt 0.9380 0.8007
vt 0.9381 0.8011
vt 0.9308 0.8011
vt 0.9308 0.8009
vt 0.9381 0.7995
vt 0.9381 0.7998
vt 0.9309 0.8004
vt 0.9309 0.8002
vt 0.9325 0.8131
vt 0.9324 0.8132
vt 0.9323 0.8131
vt 0.9325 0.8128
vt 0.9325 0.8130
vt 0.9323 0.8130
vt 0.8856 0.7920
vt 0.8863 0.7890
vt 0.8877 0.7821
vt 0.8866 0.7786
vt 0.8931 0.7780
vt 0.8856 0.7750
vt 0.8934 0.7855
vt 0.8869 0.7861
vt 0.9320 0.8131
vt 0.9321 0.8132
vt 0.9322 0.8134
vt 0.9379 0.7987
vt 0.9307 0.7997
vt 0.9451 0.7977
vt 0.9641 0.7992
vt 0.9637 0.7997
vt 0.9633 0.8003
vt 0.9545 0.7970
vt 0.9639 0.7964
vt 0.9634 0.7971
vt 0.9629 0.7978
vt 0.9535 0.7849
vt 0.9534 0.7839
vt 0.9635 0.7985
vt 0.9310 0.8139
vt 0.9310 0.8137
vt 0.9310 0.8140
vt 0.9309 0.8140
vt 0.9307 0.8140
vt 0.9821 0.7876
vt 0.9918 0.7882
vt 0.9636 0.8012
vt 0.9639 0.8021
vt 0.9529 0.7855
vt 0.9625 0.7878
vt 0.9524 0.7876
vt 0.9314 0.8131
vt 0.9314 0.8134
vt 0.9314 0.8128
vt 0.9317 0.8128
vt 0.9319 0.8128
vt 0.9288 0.8303
vt 0.9233 0.8304
vt 0.9343 0.8303
vt 0.9431 0.8298
vt 0.9518 0.8293
vt 0.9590 0.8282
vt 0.9663 0.8272
vt 0.9661 0.8286
vt 0.9658 0.8300
vt 0.9251 0.7808
vt 0.9240 0.7796
vt 0.9230 0.7784
vt 0.9663 0.8326
vt 0.9657 0.8338
vt 0.9652 0.8350
vt 0.9657 0.8360
vt 0.9662 0.8370
vt 0.9377 0.7884
vt 0.9231 0.7892
vt 0.9661 0.8313
vt 0.9236 0.7826
vt 0.9244 0.7817
vt 0.9320 0.8137
vt 0.9320 0.8138
vt 0.9320 0.8135
vt 0.9322 0.8135
vt 0.9324 0.8135
vt 0.8873 0.7841
vt 0.9135 0.7753
vt 0.9122 0.7818
vt 0.9129 0.7900
vt 0.9026 0.7907
vt 0.8887 0.7730
vt 0.8895 0.7715
vt 0.8903 0.7701
vt 0.8884 0.7941
vt 0.8870 0.7930
vt 0.8871 0.7740
vt 0.8966 0.7935
vt 0.8907 0.7963
vt 0.8895 0.7952
vt 0.8906 0.7686
vt 0.8910 0.7671
vt 0.8943 0.8220
vt 0.8856 0.8231
vt 0.9316 0.8135
vt 0.9314 0.8134
vt 0.9318 0.8136
vt 0.9318 0.8139
vt 0.9318 0.8141
vt 0.9341 0.8390
vt 0.9236 0.8399
vt 0.9445 0.8380
vt 0.9565 0.8416
vt 0.9566 0.8425
vt 0.9567 0.8434
vt 0.9506 0.8376
vt 0.9567 0.8371
vt 0.9562 0.8382
vt 0.9557 0.8392
vt 0.9555 0.8398
vt 0.9554 0.8404
vt 0.9560 0.8410
vt 0.9447 0.8087
vt 0.9444 0.8099
vt 0.9441 0.8112
vt 0.9225 0.8182
vt 0.9238 0.8188
vt 0.9436 0.8039
vt 0.9435 0.8054
vt 0.9435 0.8069
vt 0.9380 0.8022
vt 0.9312 0.8022
vt 0.9448 0.8022
vt 0.9442 0.8031
vt 0.9134 0.8180
vt 0.9237 0.8163
vt 0.9231 0.8173
vt 0.9441 0.8078
vt 0.9139 0.8256
vt 0.9311 0.8128
vt 0.9307 0.8128
vt 0.9314 0.8128
vt 0.9314 0.8131
vt 0.9314 0.8135
vt 0.8921 0.8506
vt 0.8856 0.8509
vt 0.8985 0.8503
vt 0.9088 0.8490
vt 0.9190 0.8477
vt 0.9314 0.8476
vt 0.9438 0.8474
vt 0.9501 0.8477
vt 0.9564 0.8480
vt 0.9569 0.8492
vt 0.9574 0.8504
vt 0.9562 0.8544
vt 0.9561 0.8558
vt 0.9560 0.8572
vt 0.9504 0.8230
vt 0.9512 0.8241
vt 0.9519 0.8252
vt 0.9564 0.8513
vt 0.9554 0.8522
vt 0.9558 0.8533
vt 0.9519 0.8262
vt 0.9519 0.8272
vt 0.9522 0.8214
vt 0.9513 0.8222
vt 0.9383 0.8155
vt 0.9245 0.8161
vt 0.9522 0.8150
vt 0.9523 0.8160
vt 0.9523 0.8171
vt 0.9523 0.8182
vt 0.9523 0.8193
vt 0.9523 0.8203
vt 0.8995 0.8384
vt 0.8939 0.8272
vt 0.8879 0.8272
vt 0.9000 0.8272
vt 0.8997 0.8369
vt 0.9109 0.8409
vt 0.9222 0.8434
vt 0.9090 0.8289
vt 0.9181 0.8305
vt 0.9179 0.8319
vt 0.9177 0.8333
vt 0.9184 0.8348
vt 0.9191 0.8363
vt 0.9211 0.8379
vt 0.9196 0.8441
vt 0.9170 0.8448
vt 0.9160 0.8461
vt 0.9149 0.8474
vt 0.9469 0.8051
vt 0.9449 0.8079
vt 0.9490 0.8022
vt 0.9504 0.8030
vt 0.9518 0.8038
vt 0.9554 0.8036
vt 0.9573 0.8033
vt 0.9592 0.8029
vt 0.9627 0.8183
vt 0.9612 0.8152
vt 0.9641 0.8215
vt 0.9622 0.8212
vt 0.9603 0.8210
vt 0.9585 0.8212
vt 0.9568 0.8215
vt 0.9536 0.8037
vt 0.8966 0.8082
vt 0.8984 0.8075
vt 0.9131 0.8061
vt 0.8918 0.8133
vt 0.8928 0.8149
vt 0.8908 0.8117
vt 0.8921 0.8108
vt 0.9232 0.8105
vt 0.9246 0.8115
vt 0.8859 0.8061
vt 0.8856 0.8070
vt 0.8892 0.8036
vt 0.8913 0.8070
vt 0.8910 0.8071
vt 0.8988 0.8033
vt 0.8983 0.8033
vt 0.8980 0.7988
vt 0.9118 0.8018
vt 0.9126 0.8017
vt 0.9111 0.8018
vt 0.9112 0.7995
vt 0.9113 0.7973
vt 0.9172 0.7977
vt 0.9181 0.7987
vt 0.9303 0.8059
vt 0.9306 0.8075
vt 0.9289 0.8086
vt 0.9240 0.8066
vt 0.9246 0.8069
vt 0.9235 0.8063
vt 0.9245 0.8045
vt 0.9256 0.8026
vt 0.9092 0.7973
vt 0.9071 0.7974
vt 0.9003 0.7983
vt 0.9026 0.7979
vt 0.9201 0.7996
vt 0.9220 0.8006
vt 0.9049 0.7976
vt 0.8910 0.8023
vt 0.9238 0.8016
vn -0.2525 0.2155 -0.9433
vn -0.2763 0.1205 -0.9535
vn 0.0037 0.1160 -0.9932
vn 0.0119 0.2031 -0.9791
vn 0.7908 0.6121 0.0006
vn 0.7664 0.5527 0.3273
vn 0.7652 0.5752 0.2890
vn 0.7833 0.6216 -0.0018
vn -0.5869 0.6893 -0.4248
vn -0.5832 0.6966 -0.4179
vn -0.7604 0.6418 -0.0995
vn -0.7926 0.6085 -0.0377
vn 0.7718 0.1830 -0.6090
vn 0.7873 0.0400 -0.6153
vn 0.9348 0.0737 -0.3475
vn 0.8020 0.2147 -0.5574
vn 0.2702 0.5586 0.7842
vn -0.0033 0.5057 0.8627
vn 0.0234 0.5272 0.8494
vn 0.2750 0.5686 0.7753
vn -0.9830 0.1761 0.0522
vn -0.9997 -0.0028 0.0257
vn -0.9571 0.0995 -0.2721
vn -0.9739 0.2217 0.0483
vn 0.3037 0.1898 -0.9337
vn 0.2984 0.1011 -0.9491
vn 0.5707 0.0713 -0.8181
vn 0.5728 0.1869 -0.7981
vn 0.7954 0.1587 0.5850
vn 0.7976 0.0329 0.6023
vn 0.5903 0.1114 0.7995
vn 0.7887 0.1807 0.5876
vn -0.8257 0.1746 0.5365
vn -0.8114 0.0363 0.5834
vn -0.9470 -0.0032 0.3212
vn -0.9389 0.1641 0.3024
vn -0.7895 0.4059 0.4605
vn -0.8138 0.3042 0.4952
vn -0.9052 0.3126 0.2878
vn -0.8687 0.4114 0.2758
vn 0.7232 0.4094 0.5563
vn 0.7662 0.2909 0.5730
vn 0.8260 0.2851 0.4862
vn 0.7951 0.3900 0.4645
vn 0.2802 0.4404 -0.8529
vn 0.2937 0.3320 -0.8964
vn 0.5465 0.3402 -0.7653
vn 0.5155 0.4464 -0.7314
vn -0.9028 0.4218 0.0841
vn -0.9463 0.3151 0.0716
vn -0.9343 0.3208 0.1555
vn -0.8874 0.4170 0.1965
vn 0.3005 0.2854 0.9101
vn 0.1320 0.2609 0.9563
vn 0.0551 0.4143 0.9085
vn 0.2849 0.4410 0.8511
vn 0.6819 0.4479 -0.5783
vn 0.7309 0.3315 -0.5965
vn 0.7130 0.3432 -0.6115
vn 0.6571 0.4541 -0.6017
vn -0.7372 0.4100 -0.5371
vn -0.6569 0.5842 -0.4766
vn -0.8352 0.5335 -0.1332
vn -0.9074 0.3584 -0.2193
vn 0.9464 0.3230 -0.0001
vn 0.9111 0.2825 0.3000
vn 0.8373 0.4607 0.2942
vn 0.8670 0.4983 0.0001
vn -0.1962 0.4555 -0.8684
vn -0.2219 0.3466 -0.9114
vn 0.0196 0.3483 -0.9372
vn 0.0223 0.4527 -0.8914
vn -0.2230 0.6916 0.6870
vn -0.2199 0.7007 0.6787
vn 0.1010 0.6458 0.7568
vn 0.1435 0.6153 0.7751
vn -0.2879 0.3490 0.8918
vn -0.2573 0.5546 0.7913
vn 0.0377 0.5124 0.8579
vn -0.0430 0.3092 0.9500
vn 0.0673 0.3420 0.9373
vn 0.0753 0.2384 0.9682
vn 0.3095 0.3435 0.8867
vn -0.5938 0.1344 0.7933
vn -0.7686 0.2190 0.6011
vn -0.5463 0.3139 0.7765
vn -0.7917 0.4690 0.3914
vn -0.8121 0.4708 0.3447
vn -0.5213 0.6478 0.5555
vn -0.5644 0.6188 0.5463
vn 0.4099 0.4649 0.7848
vn -0.9180 0.3388 0.2060
vn -0.8555 0.4311 0.2868
vn -0.5301 0.1664 -0.8314
vn -0.2990 0.2540 -0.9198
vn -0.5229 0.3647 -0.7704
vn -0.1366 0.4900 -0.8610
vn -0.1099 0.4968 -0.8609
vn -0.3817 0.6463 -0.6608
vn -0.3582 0.6225 -0.6959
vn 0.7699 -0.0875 -0.6322
vn 0.5422 -0.0100 -0.8402
vn 0.4556 0.0241 -0.8899
vn 0.7222 -0.1227 -0.6807
vn 0.6476 0.4763 -0.5948
vn 0.7538 0.5752 -0.3176
vn 0.7503 0.5920 -0.2945
vn 0.6299 0.4865 -0.6054
vn 0.9070 0.2985 -0.2970
vn 0.6653 0.4300 0.6104
vn 0.6743 0.4059 0.6169
vn 0.6585 0.4212 0.6237
vn 0.6489 0.4389 0.6215
vn 0.7245 0.3004 0.6203
vn 0.7386 0.3082 0.5996
vn 0.8069 0.1845 0.5612
vn -0.1754 0.2836 0.9428
vn 0.5742 0.2615 0.7758
vn 0.8140 0.3954 0.4255
vn 0.5833 0.5053 0.6360
vn 0.5519 0.5262 0.6469
vn 0.8197 0.4028 0.4072
vn -0.1976 0.4304 0.8808
vn 0.1229 0.4484 0.8854
vn -0.2763 0.0752 0.9581
vn -0.0192 0.0821 0.9964
vn -0.1418 0.1486 0.9787
vn -0.2474 0.1851 0.9511
vn 0.7725 -0.1231 0.6229
vn 0.9275 -0.1722 0.3318
vn 0.8843 -0.3234 0.3368
vn 0.7149 -0.2736 0.6435
vn -0.2532 0.0588 -0.9656
vn -0.5376 -0.0268 -0.8428
vn -0.4280 -0.1254 -0.8950
vn -0.1676 0.1010 -0.9807
vn 0.2673 0.0669 -0.9613
vn 0.0072 0.0901 -0.9959
vn 0.0203 0.2030 -0.9790
vn 0.1717 0.1589 -0.9723
vn -0.7730 -0.1081 0.6251
vn -0.5423 -0.0058 0.8402
vn -0.4421 0.0568 0.8952
vn -0.6831 -0.2286 0.6936
vn 0.2589 0.0330 0.9653
vn 0.5476 -0.0528 0.8351
vn 0.4598 -0.1788 0.8699
vn 0.1258 -0.0213 0.9918
vn -0.7701 -0.1125 -0.6279
vn -0.9251 -0.1871 -0.3305
vn -0.7750 -0.5265 -0.3496
vn -0.6521 -0.3681 -0.6628
vn 0.9833 -0.1822 -0.0026
vn 0.9275 -0.1504 -0.3423
vn 0.8915 -0.2377 -0.3857
vn 0.9499 -0.3121 -0.0158
vn -0.9758 -0.2187 0.0078
vn -0.9212 -0.1897 0.3398
vn -0.8041 -0.4457 0.3935
vn -0.8354 -0.5496 0.0078
vn -0.5406 -0.3036 0.7846
vn -0.3304 0.0827 0.9402
vn -0.1889 0.0287 0.9816
vn -0.4050 -0.3396 0.8489
vn -0.4576 -0.5131 -0.7261
vn -0.5741 -0.7216 -0.3869
vn -0.5005 -0.7157 -0.4871
vn -0.3116 -0.4545 -0.8345
vn -0.0519 0.1610 -0.9856
vn -0.2735 -0.1878 -0.9434
vn -0.0992 -0.1109 -0.9889
vn 0.1083 0.2473 -0.9629
vn -0.1668 0.3510 0.9214
vn -0.3399 0.3072 0.8889
vn -0.1692 0.6876 0.7061
vn -0.0077 0.3415 0.9398
vn -0.6381 -0.7698 0.0146
vn -0.6417 -0.6229 0.4475
vn -0.5668 -0.6696 0.4800
vn -0.5968 -0.8023 -0.0144
vn -0.2292 -0.3652 -0.9023
vn -0.4707 -0.6622 -0.5830
vn -0.6013 -0.4438 -0.6645
vn -0.2829 -0.1489 -0.9475
vn 0.2645 0.3813 -0.8858
vn 0.0332 0.0084 -0.9994
vn 0.0605 0.1609 -0.9851
vn 0.4049 0.4913 -0.7712
vn 0.0990 0.2741 0.9566
vn 0.3325 0.6847 0.6486
vn 0.5212 0.5140 0.6813
vn 0.2051 0.1337 0.9696
vn -0.3810 -0.4523 0.8064
vn -0.1406 -0.1015 0.9848
vn -0.1675 -0.2482 0.9541
vn -0.4771 -0.4897 0.7298
vn -0.5945 -0.7969 -0.1076
vn -0.5646 -0.7243 0.3958
vn -0.7162 -0.6423 0.2729
vn -0.7505 -0.6277 -0.2069
vn 0.4863 0.8716 0.0623
vn -0.0168 0.9993 -0.0348
vn -0.5532 -0.4176 0.7209
vn -0.1509 -0.2497 0.9565
vn -0.1706 -0.1474 0.9742
vn -0.6037 -0.2742 0.7485
vn 0.8703 0.4223 0.2533
vn 0.7887 0.5362 -0.3007
vn 0.9328 -0.0313 -0.3589
vn 0.8203 -0.1369 0.5553
vn -0.8909 -0.3978 -0.2193
vn -0.8347 -0.4705 0.2862
vn -0.8875 -0.3233 0.3285
vn -0.9419 -0.2784 -0.1882
vn -0.3296 0.0588 -0.9423
vn -0.7182 -0.2109 -0.6631
vn -0.7592 -0.1608 -0.6306
vn -0.3186 0.0285 -0.9475
vn 0.5149 0.4580 -0.7247
vn 0.1053 0.2866 -0.9523
vn 0.0128 0.1608 -0.9869
vn 0.4456 0.1433 -0.8837
vn 0.2886 -0.0138 0.9573
vn 0.6457 0.2034 0.7360
vn 0.3534 -0.0100 0.9354
vn 0.2893 0.0102 0.9572
vn 0.3817 0.0879 0.9201
vn 0.6977 0.1863 0.6918
vn 0.7605 0.1685 0.6271
vn 0.5023 0.1847 0.8447
vn -0.5367 -0.1634 0.8278
vn 0.0448 -0.0114 0.9989
vn 0.6156 0.0845 0.7835
vn -0.0206 -0.3694 0.9290
vn -0.9597 -0.2129 -0.1836
vn -0.9087 -0.2317 0.3473
vn -0.8673 -0.3819 0.3195
vn -0.9343 -0.2340 -0.2689
vn 0.9515 0.2517 0.1771
vn 0.9154 0.2299 -0.3304
vn 0.9132 -0.0893 -0.3975
vn 0.9940 0.0314 0.1047
vn -0.3559 -0.0506 -0.9331
vn -0.7776 -0.1444 -0.6120
vn -0.8289 -0.0743 -0.5544
vn -0.5416 -0.1799 -0.8212
vn -0.3801 0.5198 0.7651
vn 0.1081 -0.1236 0.9864
vn 0.1437 -0.1265 0.9815
vn -0.5670 0.4188 0.7093
vn -0.4358 0.6873 -0.5811
vn -0.5665 0.8126 0.1368
vn -0.7943 0.5956 0.1199
vn -0.6621 0.5462 -0.5131
vn 0.6695 0.1815 -0.7203
vn 0.2423 0.0878 -0.9662
vn 0.1052 -0.1350 -0.9852
vn 0.5497 -0.1587 -0.8202
vn 0.5319 -0.6045 0.5929
vn 0.6812 -0.6851 -0.2581
vn 0.7661 -0.5983 -0.2348
vn 0.6510 -0.5375 0.5360
vn 0.3043 -0.2605 -0.9163
vn -0.0721 0.2115 -0.9747
vn -0.1463 0.1912 -0.9706
vn 0.3861 -0.2482 -0.8884
vn -0.7522 0.4199 -0.5078
vn -0.8858 0.4479 0.1214
vn -0.9655 0.2425 0.0948
vn -0.7969 0.3031 -0.5227
vn 0.4282 -0.1575 -0.8898
vn -0.2185 0.1840 -0.9583
vn -0.1594 0.2274 -0.9607
vn 0.4945 0.0201 -0.8690
vn -0.6402 0.2978 0.7082
vn 0.1235 -0.1051 0.9868
vn 0.1907 -0.1528 0.9697
vn -0.6995 0.1007 0.7075
vn 0.7474 -0.4144 0.5193
vn 0.8680 -0.4315 -0.2457
vn 0.9414 -0.2226 -0.2532
vn 0.8096 -0.2887 0.5110
vn -0.7407 -0.0777 0.6674
vn 0.1058 -0.2035 0.9733
vn 0.0676 -0.1831 0.9808
vn -0.7115 0.0018 0.7027
vn 0.8389 -0.1664 0.5182
vn 0.9783 0.0016 -0.2074
vn 0.9482 -0.1287 -0.2904
vn 0.8517 -0.2630 0.4532
vn -0.8368 0.2021 -0.5088
vn -0.9924 0.0724 0.0995
vn -0.9718 0.1658 0.1676
vn -0.8514 0.2938 -0.4345
vn 0.5192 0.1842 -0.8346
vn -0.2200 0.2678 -0.9380
vn -0.2978 0.3159 -0.9009
vn 0.4912 0.1148 -0.8634
vn -0.8329 0.4191 -0.3615
vn -0.9145 0.3258 0.2400
vn -0.8768 0.4056 0.2584
vn -0.7122 0.6606 -0.2376
vn 0.4913 -0.0058 -0.8710
vn -0.2735 0.3220 -0.9064
vn -0.2031 0.3863 -0.8997
vn 0.4945 0.3787 -0.7823
vn -0.6665 0.1342 0.7333
vn 0.1417 -0.2102 0.9673
vn 0.2192 -0.1549 0.9633
vn -0.4863 0.3597 0.7963
vn 0.8495 -0.3915 0.3537
vn 0.8978 -0.2786 -0.3410
vn 0.9345 -0.1772 -0.3086
vn 0.7913 -0.0490 0.6095
vn 0.2598 0.9356 0.2393
vn 0.9795 -0.1948 0.0514
vn 0.7898 -0.3873 -0.4756
vn 0.7521 -0.2597 -0.6057
vn 0.9897 -0.1425 -0.0112
vn -0.1119 -0.3496 -0.9302
vn 0.2950 -0.4363 -0.8501
vn -0.4639 -0.1662 -0.8702
vn 0.1442 -0.1727 -0.9744
vn 0.5090 0.2733 0.8162
vn 0.8391 0.0676 0.5398
vn 0.8807 0.0052 0.4737
vn 0.4812 0.1567 0.8625
vn -0.6870 0.4752 -0.5498
vn -0.8945 0.0227 -0.4465
vn -0.9025 0.1259 -0.4119
vn -0.6234 0.5461 -0.5596
vn -0.9424 0.2171 -0.2546
vn -0.8143 0.4727 0.3368
vn -0.9301 0.2848 0.2319
vn -0.9022 0.0959 -0.4205
vn 0.4245 -0.5856 0.6906
vn 0.8420 -0.0874 0.5323
vn 0.8608 -0.2072 0.4648
vn 0.3909 -0.6729 0.6281
vn 0.8878 0.3816 0.2571
vn 0.2601 0.9217 -0.2876
vn 0.3241 0.8607 -0.3926
vn 0.9419 0.2984 0.1538
vn -0.2800 0.5539 0.7841
vn 0.3354 0.3737 0.8648
vn -0.0173 0.2821 0.9592
vn -0.6039 0.3191 0.7304
vn -0.9253 -0.2833 -0.2521
vn -0.5917 -0.7335 0.3343
vn -0.5455 -0.7595 0.3545
vn -0.9528 -0.2436 -0.1810
vn -0.6050 0.5984 -0.5253
vn -0.9111 0.2084 -0.3556
vn -0.9059 0.2609 -0.3337
vn -0.5817 0.6721 -0.4581
vn 0.9660 0.2408 0.0936
vn 0.3885 0.8264 -0.4076
vn 0.3674 0.8767 -0.3105
vn 0.9537 0.2793 0.1113
vn 0.3991 -0.7010 0.5910
vn 0.8814 -0.2503 0.4006
vn 0.8963 -0.2549 0.3630
vn 0.4052 -0.7681 0.4958
vn -0.9772 -0.1786 -0.1144
vn -0.5445 -0.7401 0.3948
vn -0.5163 -0.8012 0.3024
vn -0.9709 -0.2104 -0.1147
vn 0.9405 0.3095 0.1401
vn 0.3473 0.9129 -0.2143
vn 0.3574 0.9167 -0.1784
vn 0.8804 0.4004 0.2542
vn 0.3924 -0.8216 0.4135
vn 0.8877 -0.2994 0.3497
vn 0.8836 -0.2951 0.3636
vn 0.1816 -0.8046 0.5654
vn -0.5790 0.7179 -0.3865
vn -0.9186 0.2538 -0.3028
vn -0.9229 0.2548 -0.2886
vn -0.4345 0.8828 -0.1784
vn -0.9575 -0.2591 -0.1266
vn -0.4824 -0.8492 0.2147
vn -0.4864 -0.8465 0.2165
vn -0.9541 -0.2994 0.0001
vn -0.3053 0.2869 0.9080
vn 0.9973 -0.0260 -0.0688
vn 0.7318 -0.0166 -0.6813
vn 0.6727 0.0458 -0.7385
vn 0.9601 0.1561 -0.2320
vn 0.0109 0.0371 -0.9993
vn -0.6109 0.0510 -0.7901
vn -0.8743 0.1095 -0.4728
vn -0.2341 0.2307 -0.9444
vn 0.4315 0.0121 0.9020
vn 0.8709 -0.0087 0.4913
vn 0.8711 0.0010 0.4910
vn 0.3393 0.1592 0.9271
vn -0.8294 0.0769 0.5534
vn -0.1910 0.0534 0.9801
vn -0.2814 0.0374 0.9588
vn -0.9188 0.2183 0.3290
vn 0.9129 -0.4058 -0.0430
vn 0.8428 -0.2944 -0.4506
vn 0.7842 -0.3970 -0.4769
vn 0.8287 -0.5577 -0.0483
vn 0.6479 -0.1349 -0.7497
vn 0.2988 0.0876 -0.9503
vn 0.1419 0.1214 -0.9824
vn 0.5820 -0.2343 -0.7788
vn -0.1172 0.0264 0.9928
vn 0.3049 -0.2116 0.9286
vn 0.1543 -0.0959 0.9834
vn -0.3275 0.2539 0.9101
vn -0.0640 0.2959 -0.9531
vn -0.0598 0.3582 -0.9317
vn -0.5248 0.6340 -0.5680
vn -0.2835 0.4026 -0.8703
vn 0.6441 -0.3642 0.6726
vn 0.8288 -0.4228 0.3664
vn 0.7794 -0.4958 0.3831
vn 0.5915 -0.4053 0.6970
vn -0.7123 0.7016 -0.0200
vn -0.7227 0.6885 -0.0608
vn -0.6799 0.4642 -0.5677
vn -0.5936 0.6125 -0.5220
vn 0.6189 -0.4688 -0.6303
vn 0.1960 -0.0607 -0.9787
vn 0.1768 -0.4099 -0.8948
vn 0.5891 -0.6666 -0.4568
vn -0.4100 0.3915 0.8238
vn 0.1266 -0.1011 0.9868
vn -0.3086 -0.4251 0.8509
vn -0.7223 0.3740 0.5817
vn -0.2793 0.3442 -0.8964
vn -0.3449 0.0350 -0.9380
vn 0.5896 -0.5118 0.6249
vn 0.7525 -0.6051 0.2602
vn 0.7299 -0.6809 -0.0609
vn 0.4150 -0.8175 0.3994
vn -0.6188 0.7855 -0.0046
vn -0.5886 0.5439 0.5981
vn -0.6078 0.5102 0.6085
vn -0.7092 0.7046 0.0212
vn 0.0301 0.9995 0.0093
vn -0.7673 0.6366 -0.0770
vn -0.5345 0.7745 0.3383
vn -0.6012 0.5214 0.6055
vn -0.8509 0.3652 0.3776
vn -0.0265 0.6577 0.7528
vn 0.5701 0.1423 0.8092
vn 0.5326 -0.0782 0.8427
vn -0.2093 0.3466 0.9144
vn -0.0209 0.9980 0.0595
vn -0.6391 0.7370 0.2201
vn -0.5974 0.7327 0.3260
vn 0.0855 0.9946 0.0593
vn 0.5164 -0.7445 -0.4232
vn 0.1611 -0.6546 -0.7386
vn 0.4983 -0.4479 -0.7423
vn 0.6669 -0.4975 -0.5547
vn -0.3822 -0.3056 -0.8721
vn -0.7772 0.2635 -0.5714
vn -0.9225 -0.3766 -0.0843
vn -0.1158 -0.7358 -0.6672
vn -0.0453 -0.9852 0.1650
vn 0.6248 -0.7773 -0.0737
vn 0.5249 -0.8195 -0.2302
vn -0.1982 -0.9789 0.0505
vn -0.9256 0.1266 0.3567
vn -0.7179 -0.5894 0.3705
vn -0.7647 -0.5622 0.3147
vn -0.9119 0.0526 0.4071
vn 0.8146 -0.3521 0.4609
vn 0.7553 -0.6554 0.0048
vn 0.8678 -0.4815 -0.1233
vn 0.8385 -0.3262 0.4365
vn 0.9431 -0.2692 -0.1953
vn 0.8042 0.5851 -0.1050
vn 0.7537 0.6169 -0.2265
vn 0.9081 -0.2161 -0.3586
vn 0.8506 -0.2259 -0.4749
vn 0.7612 0.5813 -0.2876
vn 0.5799 0.6115 -0.5383
vn 0.7383 -0.2033 -0.6431
vn -0.2143 -0.9768 -0.0065
vn 0.4611 -0.8161 -0.3483
vn 0.4329 -0.8479 -0.3061
vn -0.1051 -0.9829 0.1510
vn 0.1218 0.9861 0.1129
vn -0.5451 0.7157 0.4366
vn -0.5648 0.6233 0.5409
vn -0.0099 0.9999 -0.0037
vn -0.8656 0.0349 0.4995
vn -0.7310 -0.5940 0.3358
vn -0.5758 -0.6279 0.5236
vn -0.7346 -0.0281 0.6780
vn -0.1748 0.9772 -0.1209
vn -0.5253 0.6319 0.5698
vn -0.4687 0.6357 0.6134
vn -0.0010 0.9797 0.2003
vn -0.5336 -0.0804 0.8419
vn -0.3126 -0.6259 0.7145
vn -0.1713 -0.6347 0.7535
vn -0.2863 0.0035 0.9581
vn 0.5781 -0.1224 -0.8068
vn 0.3023 0.6314 -0.7141
vn 0.3432 0.6619 -0.6664
vn 0.7741 0.0743 -0.6286
vn 0.0951 -0.9598 0.2640
vn 0.5004 -0.7705 -0.3950
vn 0.6003 -0.6715 -0.4345
vn 0.4116 -0.8074 0.4228
vn 0.7679 0.2394 0.5942
vn 0.8630 -0.3187 0.3919
vn 0.9521 -0.2937 -0.0853
vn 0.9118 -0.4006 -0.0902
vn 0.8206 -0.4713 0.3234
vn 0.7348 -0.1509 -0.6612
vn 0.5149 -0.0233 -0.8569
vn 0.1169 0.0759 -0.9902
vn 0.5726 -0.4463 -0.6877
vn -0.0453 0.2595 -0.9647
vn -0.7570 0.4173 -0.5029
vn -0.7764 0.4821 -0.4059
vn -0.2937 0.2461 -0.9237
vn 0.5405 0.3093 -0.7825
vn 0.3720 -0.4922 -0.7870
vn 0.1027 -0.6244 -0.7744
vn 0.7868 0.2782 -0.5510
vn -0.2981 -0.0225 0.9543
vn 0.4147 -0.2369 0.8786
vn 0.3957 -0.2518 0.8832
vn -0.1364 0.0535 0.9892
vn -0.6947 0.7032 0.1515
vn -0.4566 0.5644 0.6877
vn -0.4168 0.5960 0.6863
vn -0.5856 0.8095 0.0413
vn -0.0026 0.1859 0.9826
vn 0.4950 -0.2945 0.8175
vn 0.5362 -0.3245 0.7792
vn 0.1827 0.2536 0.9499
vn 0.7418 -0.6474 0.1749
vn 0.6946 -0.6382 -0.3320
vn 0.4706 -0.5246 -0.7095
vn 0.8155 -0.5786 -0.0121
vn -0.2309 0.1067 -0.9671
vn -0.6541 0.5819 -0.4832
vn -0.6106 0.5752 -0.5442
vn 0.0042 0.0884 -0.9961
vn 0.6842 0.7186 -0.1246
vn -0.6278 -0.2520 0.7364
vn -0.4492 0.4968 0.7426
vn -0.5284 0.4021 0.7477
vn -0.8024 -0.2568 0.5386
vn -0.9316 0.3337 0.1444
vn -0.7614 0.1891 0.6201
vn -0.6182 0.3489 0.7043
vn -0.8474 0.4955 0.1907
vn -0.2293 -0.9635 -0.1381
vn -0.5483 -0.7286 0.4106
vn -0.7581 -0.6104 0.2295
vn -0.5544 -0.8135 -0.1754
vn 0.0449 0.9841 0.1716
vn 0.3986 0.8085 -0.4330
vn 0.7471 0.6427 -0.1695
vn 0.3801 0.8588 0.3436
vn 0.5813 0.6141 0.5338
vn 0.9152 0.3845 0.1203
vn 0.9095 0.3899 0.1441
vn -0.0139 0.7515 0.6596
vn -0.7872 -0.5053 -0.3536
vn -0.9427 -0.3299 -0.0493
vn -0.9605 -0.2521 -0.1177
vn -0.3879 -0.3563 -0.8500
vn 0.9552 0.0967 -0.2798
vn 0.1734 -0.5133 -0.8405
vn 0.2013 -0.4963 -0.8445
vn 0.8108 -0.0243 -0.5848
vn -0.9664 -0.1095 0.2325
vn -0.4741 0.4861 0.7341
vn -0.4515 0.4956 0.7420
vn -0.9461 0.1760 0.2719
vn -0.1870 0.7991 -0.5714
vn 0.0194 0.3139 -0.9493
vn -0.3561 0.2015 0.9125
vn -0.2889 0.6580 -0.6954
vn 0.0876 0.6381 -0.7650
vn -0.7060 0.6750 0.2142
vn -0.0815 0.7624 -0.6420
vn 0.1981 -0.2593 -0.9453
vn 0.4961 0.1096 -0.8613
vn 0.9092 -0.3950 0.1318
vn 0.7737 0.3655 0.5175
vn -0.6395 0.7362 0.2213
vn -0.1065 0.8999 0.4229
vn 0.7582 -0.5701 -0.3164
vn -0.6517 0.6373 0.4113
vn -0.9922 0.1147 0.0480
vn -0.5445 0.8201 0.1760
vn 0.6182 0.4918 0.6132
vn -0.7183 -0.0824 -0.6908
vn -0.8748 0.2566 -0.4109
vn 0.4772 0.8566 -0.1961
vn 0.2842 0.4814 -0.8291
vn 0.4605 0.5118 0.7253
vn 0.6055 0.7044 -0.3704
vn 0.6807 0.7143 0.1624
vn 0.4352 0.7302 -0.5267
vn 0.9345 0.0625 0.3505
vn 0.9979 0.0641 0.0005
vn -0.7891 0.1504 -0.5956
vn 0.0152 0.1926 0.9812
vn 0.2993 0.1509 0.9421
vn -0.2947 0.1747 0.9395
vn -0.2216 0.4383 0.8711
vn 0.1847 0.4729 0.8615
vn 0.7859 0.4093 0.4636
vn 0.8302 0.2806 0.4817
vn 0.5659 0.4184 0.7104
vn 0.7284 0.3481 -0.5902
vn 0.8285 0.4810 -0.2868
vn 0.6424 0.4707 -0.6048
vn -0.2137 0.3800 -0.8999
vn -0.4485 0.5377 -0.7139
vn -0.2045 0.3594 -0.9105
vn -0.1621 0.4622 -0.8719
vn -0.1422 0.4766 -0.8675
vn -0.8428 0.4288 0.3254
vn -0.8734 0.4276 0.2332
vn 0.4628 0.4632 0.7559
vn -0.7786 0.3553 0.5172
vn -0.5347 0.5158 0.6693
vn -0.8100 0.3239 0.4888
vn -0.8021 0.4208 0.4238
vn -0.8112 0.4335 0.3925
vn -0.1875 0.4662 -0.8646
vn 0.0221 0.4589 -0.8882
vn 0.6712 0.4591 -0.5819
vn 0.5105 0.4523 -0.7313
vn -0.8963 0.4337 0.0925
vn -0.8673 0.4178 0.2707
vn 0.2784 0.4476 -0.8498
vn 0.7135 0.4243 0.5577
vn -0.7897 0.4164 0.4506
usemtl None
s 1
f 643/1/1 490/2/2 3/3/3 403/4/4
f 642/5/5 462/6/6 7/7/7 396/8/8
f 641/9/9 445/10/10 11/11/11 356/12/12
f 640/13/13 450/14/14 15/15/15 379/16/16
f 639/17/17 401/18/18 19/19/19 309/20/20
f 638/21/21 377/22/22 23/23/23 303/24/24
f 637/25/25 204/26/26 14/27/27 219/28/28
f 636/29/29 416/30/30 27/31/31 325/32/32
f 635/33/33 292/34/34 22/35/35 459/36/36
f 634/37/37 360/38/38 21/39/39 287/40/40
f 633/41/41 328/42/42 28/43/43 188/44/44
f 632/45/45 288/46/46 13/47/47 191/48/48
f 631/49/49 295/50/50 24/51/51 176/52/52
f 630/53/53 273/54/54 18/55/55 485/56/56
f 629/57/57 366/58/58 16/59/59 278/60/60
f 628/61/61 357/62/62 12/63/63 415/64/64
f 627/65/65 305/66/66 6/67/67 226/68/68
f 626/69/69 405/70/70 4/71/71 335/72/72
f 625/73/73 259/74/74 43/75/75 341/76/76
f 624/77/77 345/78/78 44/79/79 194/80/80
f 45/81/81 440/82/82 427/83/83
f 30/84/84 181/85/85 456/86/86
f 623/87/87 389/88/88 42/89/89 195/90/90
f 622/91/91 427/83/83 44/79/79 341/76/76
f 24/51/51 303/24/24 175/92/92
f 621/93/93 175/92/92 12/63/63 356/12/12
f 2/94/94 248/95/95 306/96/96
f 620/97/97 354/98/98 10/99/99 211/100/100
f 619/101/101 308/102/102 47/103/103 365/104/104
f 618/105/105 381/106/106 8/107/107 327/108/108
f 15/15/15 299/109/109 379/16/16
f 617/110/110 391/111/111 33/112/112 398/113/113
f 25/114/114 231/115/115 171/116/116
f 45/117/81 495/118/117 440/119/82
f 27/31/31 207/120/118 325/32/32
f 616/121/119 311/122/120 20/123/121 174/124/122
f 615/125/123 495/118/117 45/117/81 203/126/124
f 614/127/125 444/128/126 49/129/127 263/130/128
f 613/131/129 388/132/130 51/133/131 422/134/132
f 612/135/133 439/136/134 53/137/135 243/138/136
f 611/139/137 334/140/138 54/141/139 464/142/140
f 610/143/141 252/144/142 50/145/143 320/146/144
f 609/147/145 301/148/146 52/149/147 425/150/148
f 608/151/149 284/152/150 56/153/151 400/154/152
f 607/155/153 238/156/154 48/157/155 218/158/156
f 606/159/157 355/160/158 55/161/159 412/162/160
f 605/163/161 482/164/162 57/165/163 280/166/164
f 604/167/165 298/168/166 59/169/167 434/170/168
f 603/171/169 392/172/170 60/173/171 186/174/172
f 602/175/173 221/176/174 62/177/175 258/178/176
f 601/179/177 216/180/178 58/181/179 353/182/180
f 600/183/181 173/184/182 63/185/183 455/186/184
f 599/187/185 256/188/186 64/189/187 215/190/188
f 598/191/189 454/192/190 66/193/191 467/194/192
f 597/195/193 210/196/194 67/197/195 369/198/196
f 596/199/197 330/200/198 68/201/199 472/202/200
f 595/203/201 454/192/190 62/204/175 289/205/202
f 594/206/203 449/207/204 69/208/205 206/209/206
f 593/210/207 283/211/208 71/212/209 359/213/210
f 592/214/211 340/215/212 70/216/213 272/217/214
f 591/218/215 410/219/216 73/220/217 179/221/218
f 590/222/219 493/223/220 74/224/221 492/225/222
f 589/226/223 202/227/224 72/228/225 346/229/226
f 588/230/227 382/231/228 75/232/229 322/233/230
f 587/234/231 337/235/232 76/236/233 262/237/234
f 586/238/235 250/239/236 77/240/237 185/241/238
f 585/242/239 344/243/240 80/244/241 319/245/242
f 584/246/243 488/247/244 78/248/245 255/249/246
f 583/250/247 261/251/248 82/252/249 380/253/250
f 582/254/251 190/255/252 83/256/253 276/257/254
f 581/258/255 235/259/256 81/260/257 220/261/258
f 580/262/259 350/263/260 85/264/261 198/265/262
f 579/266/263 463/267/264 84/268/265 193/269/266
f 578/270/267 432/271/268 86/272/269 339/273/270
f 577/274/271 333/275/272 87/276/273 267/277/274
f 576/278/275 192/279/276 89/280/277 184/281/278
f 575/282/279 251/283/280 88/284/281 227/285/282
f 574/286/283 474/287/284 90/288/285 397/289/286
f 573/290/287 438/291/288 92/292/289 451/293/290
f 572/294/291 318/295/292 91/296/293 371/297/294
f 571/298/295 324/299/296 93/300/297 234/301/298
f 570/302/299 448/303/300 94/304/301 387/305/302
f 569/306/303 233/307/304 95/308/305 313/309/306
f 568/310/307 212/311/308 97/312/309 230/313/310
f 567/314/311 457/315/312 96/316/313 362/317/314
f 566/318/315 230/319/310 97/320/309 362/321/314
f 565/322/316 471/323/317 98/324/318 209/325/319
f 81/260/257 255/249/246 461/326/320
f 564/327/321 461/326/320 100/328/322 443/329/323
f 563/330/324 170/331/325 99/332/326 178/333/327
f 562/334/328 242/335/329 103/336/330 249/337/331
f 561/338/332 332/339/333 105/340/334 321/341/335
f 560/342/336 172/343/337 106/344/338 484/345/339
f 559/346/340 408/347/341 104/348/342 205/349/343
f 558/350/344 420/351/345 101/352/346 483/353/347
f 557/354/348 419/355/349 107/356/350 302/357/351
f 556/358/352 229/359/353 108/360/354 323/361/355
f 555/362/356 279/363/357 109/364/358 407/365/359
f 554/366/360 217/367/361 110/368/362 476/369/363
f 553/370/364 286/371/365 111/372/366 466/373/367
f 552/374/368 241/375/369 112/376/370 394/377/371
f 551/378/372 317/379/373 113/380/374 470/381/375
f 550/382/376 414/383/377 115/384/378 475/385/379
f 549/386/380 329/387/381 114/388/382 232/389/383
f 548/390/384 470/391/375 113/392/374 394/393/371
f 547/394/385 373/395/386 116/396/387 370/397/388
f 546/398/389 169/399/390 118/400/391 269/401/392
f 545/402/393 437/403/394 117/404/395 368/405/396
f 544/406/397 265/407/398 119/408/399 200/409/400
f 100/410/322 321/341/335 169/411/390
f 543/412/401 431/413/402 120/414/403 409/415/404
f 542/416/405 447/417/406 122/418/407 294/419/408
f 541/420/409 268/421/410 123/422/411 331/423/412
f 540/424/413 426/425/414 125/426/415 386/427/416
f 539/428/417 285/429/418 121/430/419 406/431/420
f 538/432/421 240/433/422 127/434/423 413/435/424
f 537/436/425 453/437/426 128/438/427 266/439/428
f 536/440/429 494/441/430 130/442/431 338/443/432
f 535/444/433 413/435/424 127/434/423 326/445/434
f 534/446/435 214/447/436 129/448/437 201/449/438
f 121/430/419 409/415/404 214/447/436
f 533/450/439 213/451/440 124/452/441 417/453/442
f 532/454/443 370/455/388 116/456/387 269/457/392
f 531/458/444 260/459/445 131/460/446 363/461/447
f 530/462/448 486/463/449 134/464/450 479/465/451
f 529/466/452 282/467/453 135/468/454 310/469/455
f 528/470/456 281/471/457 137/472/458 478/473/459
f 527/474/460 342/475/461 132/476/462 237/477/463
f 526/478/464 239/479/465 139/480/466 293/481/467
f 525/482/468 481/483/469 140/484/470 271/485/471
f 524/486/472 491/487/473 138/488/474 297/489/475
f 523/490/476 312/491/477 136/492/478 349/493/479
f 522/494/480 199/495/481 141/496/482 469/497/483
f 521/498/484 460/499/485 142/500/486 383/501/487
f 520/502/488 275/503/489 144/504/490 300/505/491
f 519/506/492 378/507/493 143/508/494 264/509/495
f 518/510/496 189/511/497 145/512/498 436/513/499
f 517/514/500 429/515/501 147/516/502 183/517/503
f 516/518/504 411/519/505 146/520/506 428/521/507
f 515/522/508 404/523/509 148/524/510 270/525/511
f 514/526/512 428/527/507 146/528/506 436/529/499
f 513/530/513 477/531/514 149/532/515 399/533/516
f 512/534/517 182/535/518 151/536/519 473/537/520
f 511/538/521 208/539/522 153/540/523 358/541/524
f 510/542/525 465/543/526 154/544/527 361/545/528
f 509/546/529 247/547/530 150/548/531 367/549/532
f 508/550/533 180/551/534 157/552/535 442/553/536
f 507/554/537 304/555/538 159/556/539 197/557/540
f 506/558/541 222/559/542 160/560/543 177/561/544
f 149/562/515 473/537/520 222/563/542
f 505/564/545 418/565/546 158/566/547 435/567/548
f 504/568/549 197/569/540 159/570/539 177/571/544
f 503/572/550 315/573/551 161/574/552 168/575/553
f 502/576/554 228/577/555 156/578/556 274/579/557
f 501/580/558 225/581/559 162/582/560 446/583/561
f 500/584/562 316/585/563 155/586/564 348/587/565
f 499/588/566 374/589/567 163/590/568 351/591/569
f 498/592/570 423/593/571 165/594/572 196/595/573
f 497/596/574 441/597/575 166/598/576 167/599/577
f 496/600/578 336/601/579 164/602/580 433/603/581
f 165/604/572 433/605/581 257/606/582
f 166/607/576 196/608/573 167/609/577
f 54/610/139 468/611/583 426/425/414
f 62/612/175 221/613/174 213/451/440
f 213/451/440 343/614/584 124/452/441
f 213/451/440 221/613/174 343/614/584
f 221/613/174 49/615/127 343/614/584
f 426/425/414 307/616/585 125/426/415
f 426/425/414 468/611/583 307/616/585
f 468/611/583 61/617/586 307/616/585
f 167/609/577 257/606/582 163/618/568
f 167/609/577 196/608/573 257/606/582
f 196/608/573 165/604/572 257/606/582
f 257/606/582 351/619/569 163/618/568
f 257/606/582 433/605/581 351/619/569
f 433/605/581 164/620/580 351/619/569
f 423/593/571 496/600/578 433/603/581 165/594/572
f 162/582/560 168/575/553 496/600/578 423/593/571
f 168/575/553 161/574/552 336/601/579 496/600/578
f 374/589/567 497/596/574 167/599/577 163/590/568
f 155/586/564 361/545/528 497/596/574 374/589/567
f 361/545/528 154/544/527 441/597/575 497/596/574
f 441/621/575 498/592/570 196/595/573 166/622/576
f 154/623/527 446/583/561 498/592/570 441/621/575
f 446/583/561 162/582/560 423/593/571 498/592/570
f 336/601/579 499/588/566 351/591/569 164/602/580
f 161/574/552 348/587/565 499/588/566 336/601/579
f 348/587/565 155/586/564 374/589/567 499/588/566
f 315/573/551 500/584/562 348/587/565 161/574/552
f 131/624/446 245/625/587 500/584/562 315/573/551
f 245/625/587 152/626/588 316/585/563 500/584/562
f 465/627/526 501/580/558 446/583/561 154/623/527
f 137/628/458 237/629/463 501/580/558 465/627/526
f 237/629/463 132/630/462 225/581/559 501/580/558
f 208/539/522 502/576/554 274/579/557 153/540/523
f 152/631/588 245/632/587 502/576/554 208/539/522
f 245/632/587 131/460/446 228/577/555 502/576/554
f 225/581/559 503/572/550 168/575/553 162/582/560
f 132/630/462 363/633/447 503/572/550 225/581/559
f 363/633/447 131/624/446 315/573/551 503/572/550
f 435/634/548 504/568/549 177/571/544 160/635/543
f 158/636/547 442/637/536 504/568/549 435/634/548
f 442/637/536 157/638/535 197/569/540 504/568/549
f 246/639/589 505/564/545 435/567/548 160/640/543
f 151/536/519 358/541/524 505/564/545 246/639/589
f 358/541/524 153/540/523 418/565/546 505/564/545
f 222/563/542 246/639/589 160/640/543
f 222/563/542 473/537/520 246/639/589
f 473/537/520 151/536/519 246/639/589
f 304/555/538 506/558/541 177/561/544 159/556/539
f 150/548/531 399/533/516 506/558/541 304/555/538
f 399/533/516 149/532/515 222/559/542 506/558/541
f 180/551/534 507/554/537 197/557/540 157/552/535
f 156/578/556 367/549/532 507/554/537 180/551/534
f 367/549/532 150/548/531 304/555/538 507/554/537
f 418/565/546 508/550/533 442/553/536 158/566/547
f 153/540/523 274/579/557 508/550/533 418/565/546
f 274/579/557 156/578/556 180/551/534 508/550/533
f 228/577/555 509/546/529 367/549/532 156/578/556
f 131/460/446 479/465/451 509/546/529 228/577/555
f 479/465/451 134/464/450 247/547/530 509/546/529
f 316/585/563 510/542/525 361/545/528 155/586/564
f 152/626/588 254/641/590 510/542/525 316/585/563
f 254/641/590 137/642/458 465/543/526 510/542/525
f 182/535/518 511/538/521 358/541/524 151/536/519
f 137/472/458 254/643/590 511/538/521 182/535/518
f 254/643/590 152/631/588 208/539/522 511/538/521
f 477/644/514 512/534/517 473/537/520 149/562/515
f 138/645/474 478/473/459 512/534/517 477/644/514
f 478/473/459 137/472/458 182/535/518 512/534/517
f 247/547/530 513/530/513 399/533/516 150/548/531
f 134/464/450 297/489/475 513/530/513 247/547/530
f 297/489/475 138/488/474 477/531/514 513/530/513
f 183/646/503 514/526/512 436/529/499 145/647/498
f 147/648/502 270/649/511 514/526/512 183/646/503
f 270/649/511 148/650/510 428/527/507 514/526/512
f 429/515/501 515/522/508 270/525/511 147/516/502
f 143/508/494 383/501/487 515/522/508 429/515/501
f 383/501/487 142/500/486 404/523/509 515/522/508
f 404/651/509 516/518/504 428/521/507 148/652/510
f 142/653/486 469/497/483 516/518/504 404/651/509
f 469/497/483 141/496/482 411/519/505 516/518/504
f 189/511/497 517/514/500 183/517/503 145/512/498
f 144/504/490 264/509/495 517/514/500 189/511/497
f 264/509/495 143/508/494 429/515/501 517/514/500
f 411/519/505 518/510/496 436/513/499 146/520/506
f 141/496/482 300/505/491 518/510/496 411/519/505
f 300/505/491 144/504/490 189/511/497 518/510/496
f 275/503/489 519/506/492 264/509/495 144/504/490
f 135/468/454 271/485/471 519/506/492 275/503/489
f 271/485/471 140/484/470 378/507/493 519/506/492
f 199/495/481 520/502/488 300/505/491 141/496/482
f 136/492/478 310/469/455 520/502/488 199/495/481
f 310/469/455 135/468/454 275/503/489 520/502/488
f 378/507/493 521/498/484 383/501/487 143/508/494
f 140/484/470 293/481/467 521/498/484 378/507/493
f 293/481/467 139/480/466 460/499/485 521/498/484
f 460/654/485 522/494/480 469/497/483 142/653/486
f 139/655/466 349/493/479 522/494/480 460/654/485
f 349/493/479 136/492/478 199/495/481 522/494/480
f 239/656/465 523/490/476 349/493/479 139/655/466
f 129/657/437 430/658/591 523/490/476 239/656/465
f 430/658/591 133/659/592 312/491/477 523/490/476
f 486/463/449 524/486/472 297/489/475 134/464/450
f 133/660/592 430/661/591 524/486/472 486/463/449
f 430/661/591 129/662/437 491/487/473 524/486/472
f 282/467/453 525/482/468 271/485/471 135/468/454
f 126/663/593 338/664/432 525/482/468 282/467/453
f 338/664/432 130/665/431 481/483/469 525/482/468
f 481/483/469 526/478/464 293/481/467 140/484/470
f 130/665/431 201/666/438 526/478/464 481/483/469
f 201/666/438 129/667/437 239/479/465 526/478/464
f 281/471/457 527/474/460 237/477/463 137/472/458
f 128/438/427 326/445/434 527/474/460 281/471/457
f 326/445/434 127/434/423 342/475/461 527/474/460
f 491/668/473 528/470/456 478/473/459 138/645/474
f 129/669/437 266/439/428 528/470/456 491/668/473
f 266/439/428 128/438/427 281/471/457 528/470/456
f 312/491/477 529/466/452 310/469/455 136/492/478
f 133/659/592 424/670/594 529/466/452 312/491/477
f 424/670/594 126/663/593 282/467/453 529/466/452
f 260/459/445 530/462/448 479/465/451 131/460/446
f 126/671/593 424/672/594 530/462/448 260/459/445
f 424/672/594 133/660/592 486/463/449 530/462/448
f 342/475/461 531/458/444 363/461/447 132/476/462
f 127/434/423 240/433/422 531/458/444 342/475/461
f 240/433/422 126/671/593 260/459/445 531/458/444
f 200/673/400 532/454/443 269/457/392 118/674/391
f 119/675/399 368/676/396 532/454/443 200/673/400
f 368/676/396 117/677/395 370/455/388 532/454/443
f 307/616/585 533/450/439 417/453/442 125/426/415
f 61/617/586 289/678/202 533/450/439 307/616/585
f 289/678/202 62/612/175 213/451/440 533/450/439
f 214/447/436 372/679/595 129/448/437
f 214/447/436 409/415/404 372/679/595
f 409/415/404 120/414/403 372/679/595
f 494/441/430 534/446/435 201/449/438 130/442/431
f 123/422/411 406/431/420 534/446/435 494/441/430
f 406/431/420 121/430/419 214/447/436 534/446/435
f 453/437/426 535/444/433 326/445/434 128/438/427
f 122/418/407 386/427/416 535/444/433 453/437/426
f 386/427/416 125/426/415 413/435/424 535/444/433
f 314/680/596 536/440/429 338/443/432 126/671/593
f 124/452/441 331/423/412 536/440/429 314/680/596
f 331/423/412 123/422/411 494/441/430 536/440/429
f 372/681/595 537/436/425 266/439/428 129/669/437
f 120/682/403 294/419/408 537/436/425 372/681/595
f 294/419/408 122/418/407 453/437/426 537/436/425
f 417/453/442 538/432/421 413/435/424 125/426/415
f 124/452/441 314/680/596 538/432/421 417/453/442
f 314/680/596 126/671/593 240/433/422 538/432/421
f 268/421/410 539/428/417 406/431/420 123/422/411
f 52/683/147 422/684/132 539/428/417 268/421/410
f 422/684/132 51/685/131 285/429/418 539/428/417
f 447/417/406 540/424/413 386/427/416 122/418/407
f 47/686/103 464/687/140 540/424/413 447/417/406
f 464/687/140 54/610/139 426/425/414 540/424/413
f 343/614/584 541/420/409 331/423/412 124/452/441
f 49/615/127 425/688/148 541/420/409 343/614/584
f 425/688/148 52/683/147 268/421/410 541/420/409
f 431/689/402 542/416/405 294/419/408 120/682/403
f 48/690/155 365/691/104 542/416/405 431/689/402
f 365/691/104 47/686/103 447/417/406 542/416/405
f 285/429/418 543/412/401 409/415/404 121/430/419
f 51/685/131 218/692/156 543/412/401 285/429/418
f 218/692/156 48/693/155 431/413/402 543/412/401
f 169/411/390 364/694/597 118/695/391
f 169/411/390 321/341/335 364/694/597
f 321/341/335 105/340/334 364/694/597
f 364/694/597 544/406/397 200/409/400 118/695/391
f 105/340/334 483/353/347 544/406/397 364/694/597
f 483/353/347 101/352/346 265/407/398 544/406/397
f 265/407/398 545/402/393 368/405/396 119/408/399
f 101/352/346 178/333/327 545/402/393 265/407/398
f 178/333/327 99/332/326 437/403/394 545/402/393
f 373/395/386 546/398/389 269/401/392 116/396/387
f 98/324/318 443/329/323 546/398/389 373/395/386
f 443/329/323 100/328/322 169/399/390 546/398/389
f 437/403/394 547/394/385 370/397/388 117/404/395
f 99/332/326 209/325/319 547/394/385 437/403/394
f 209/325/319 98/324/318 373/395/386 547/394/385
f 475/696/379 548/390/384 394/393/371 112/697/370
f 115/698/378 232/699/383 548/390/384 475/696/379
f 232/699/383 114/700/382 470/391/375 548/390/384
f 414/383/377 549/386/380 232/389/383 115/384/378
f 108/360/354 466/373/367 549/386/380 414/383/377
f 466/373/367 111/372/366 329/387/381 549/386/380
f 241/375/369 550/382/376 475/385/379 112/376/370
f 109/364/358 323/361/355 550/382/376 241/375/369
f 323/361/355 108/360/354 414/383/377 550/382/376
f 329/701/381 551/378/372 470/381/375 114/702/382
f 111/703/366 476/369/363 551/378/372 329/701/381
f 476/369/363 110/368/362 317/379/373 551/378/372
f 317/379/373 552/374/368 394/377/371 113/380/374
f 110/368/362 407/365/359 552/374/368 317/379/373
f 407/365/359 109/364/358 241/375/369 552/374/368
f 229/359/353 553/370/364 466/373/367 108/360/354
f 103/704/330 302/705/351 553/370/364 229/359/353
f 302/705/351 107/706/350 286/371/365 553/370/364
f 286/707/365 554/366/360 476/369/363 111/703/366
f 107/708/350 484/709/339 554/366/360 286/707/365
f 484/709/339 106/710/338 217/367/361 554/366/360
f 217/367/361 555/362/356 407/365/359 110/368/362
f 106/710/338 205/711/343 555/362/356 217/367/361
f 205/711/343 104/712/342 279/363/357 555/362/356
f 279/363/357 556/358/352 323/361/355 109/364/358
f 104/712/342 249/713/331 556/358/352 279/363/357
f 249/713/331 103/704/330 229/359/353 556/358/352
f 242/335/329 557/354/348 302/357/351 103/336/330
f 78/714/245 185/715/238 557/354/348 242/335/329
f 185/715/238 77/716/237 419/355/349 557/354/348
f 332/339/333 558/350/344 483/353/347 105/340/334
f 102/717/598 480/718/599 558/350/344 332/339/333
f 480/718/599 76/236/233 420/351/345 558/350/344
f 172/343/337 559/346/340 205/349/343 106/344/338
f 76/719/233 480/720/599 559/346/340 172/343/337
f 480/720/599 102/721/598 408/347/341 559/346/340
f 419/722/349 560/342/336 484/345/339 107/723/350
f 77/724/237 262/725/234 560/342/336 419/722/349
f 262/725/234 76/719/233 172/343/337 560/342/336
f 421/726/600 561/338/332 321/341/335 100/410/322
f 78/727/245 487/728/601 561/338/332 421/726/600
f 487/728/601 102/717/598 332/339/333 561/338/332
f 408/347/341 562/334/328 249/337/331 104/348/342
f 102/721/598 487/729/601 562/334/328 408/347/341
f 487/729/601 78/714/245 242/335/329 562/334/328
f 420/351/345 563/330/324 178/333/327 101/352/346
f 76/236/233 322/233/230 563/330/324 420/351/345
f 322/233/230 75/232/229 170/331/325 563/330/324
f 471/323/317 564/327/321 443/329/323 98/324/318
f 80/244/241 220/261/258 564/327/321 471/323/317
f 220/261/258 81/260/257 461/326/320 564/327/321
f 461/326/320 421/730/600 100/328/322
f 461/326/320 255/249/246 421/730/600
f 255/249/246 78/248/245 421/730/600
f 170/331/325 565/322/316 209/325/319 99/332/326
f 75/232/229 319/245/242 565/322/316 170/331/325
f 319/245/242 80/244/241 471/323/317 565/322/316
f 313/731/306 566/318/315 362/321/314 96/732/313
f 95/733/305 387/734/302 566/318/315 313/731/306
f 387/734/302 94/735/301 230/319/310 566/318/315
f 212/311/308 567/314/311 362/317/314 97/312/309
f 90/288/285 451/293/290 567/314/311 212/311/308
f 451/293/290 92/292/289 457/315/312 567/314/311
f 448/303/300 568/310/307 230/313/310 94/304/301
f 91/296/293 397/289/286 568/310/307 448/303/300
f 397/289/286 90/288/285 212/311/308 568/310/307
f 457/736/312 569/306/303 313/309/306 96/737/313
f 92/738/289 234/301/298 569/306/303 457/736/312
f 234/301/298 93/300/297 233/307/304 569/306/303
f 233/307/304 570/302/299 387/305/302 95/308/305
f 93/300/297 371/297/294 570/302/299 233/307/304
f 371/297/294 91/296/293 448/303/300 570/302/299
f 438/739/288 571/298/295 234/301/298 92/738/289
f 88/740/281 267/277/274 571/298/295 438/739/288
f 267/277/274 87/276/273 324/299/296 571/298/295
f 324/299/296 572/294/291 371/297/294 93/300/297
f 87/276/273 339/273/270 572/294/291 324/299/296
f 339/273/270 86/272/269 318/295/292 572/294/291
f 474/287/284 573/290/287 451/293/290 90/288/285
f 89/280/277 227/285/282 573/290/287 474/287/284
f 227/285/282 88/284/281 438/291/288 573/290/287
f 318/295/292 574/286/283 397/289/286 91/296/293
f 86/272/269 184/281/278 574/286/283 318/295/292
f 184/281/278 89/280/277 474/287/284 574/286/283
f 192/279/276 575/282/279 227/285/282 89/280/277
f 82/252/249 198/265/262 575/282/279 192/279/276
f 198/265/262 85/264/261 251/283/280 575/282/279
f 432/271/268 576/278/275 184/281/278 86/272/269
f 83/256/253 380/253/250 576/278/275 432/271/268
f 380/253/250 82/252/249 192/279/276 576/278/275
f 251/741/280 577/274/271 267/277/274 88/740/281
f 85/742/261 193/269/266 577/274/271 251/741/280
f 193/269/266 84/268/265 333/275/272 577/274/271
f 333/275/272 578/270/267 339/273/270 87/276/273
f 84/268/265 276/257/254 578/270/267 333/275/272
f 276/257/254 83/256/253 432/271/268 578/270/267
f 350/743/260 579/266/263 193/269/266 85/742/261
f 71/744/209 492/745/222 579/266/263 350/743/260
f 492/745/222 74/746/221 463/267/264 579/266/263
f 261/251/248 580/262/259 198/265/262 82/252/249
f 72/747/225 359/748/210 580/262/259 261/251/248
f 359/748/210 71/749/209 350/263/260 580/262/259
f 344/243/240 581/258/255 220/261/258 80/244/241
f 79/750/602 395/751/603 581/258/255 344/243/240
f 395/751/603 74/752/221 235/259/256 581/258/255
f 463/267/264 582/254/251 276/257/254 84/268/265
f 74/746/221 395/753/603 582/254/251 463/267/264
f 395/753/603 79/754/602 190/255/252 582/254/251
f 190/255/252 583/250/247 380/253/250 83/256/253
f 79/754/602 384/755/604 583/250/247 190/255/252
f 384/755/604 72/747/225 261/251/248 583/250/247
f 235/259/256 584/246/243 255/249/246 81/260/257
f 74/752/221 179/756/218 584/246/243 235/259/256
f 179/756/218 73/757/217 488/247/244 584/246/243
f 382/231/228 585/242/239 319/245/242 75/232/229
f 72/758/225 384/759/604 585/242/239 382/231/228
f 384/759/604 79/750/602 344/243/240 585/242/239
f 488/760/244 586/238/235 185/241/238 78/761/245
f 73/762/217 272/763/214 586/238/235 488/760/244
f 272/763/214 70/764/213 250/239/236 586/238/235
f 250/239/236 587/234/231 262/237/234 77/240/237
f 70/764/213 206/765/206 587/234/231 250/239/236
f 206/765/206 69/766/205 337/235/232 587/234/231
f 337/235/232 588/230/227 322/233/230 76/236/233
f 69/766/205 346/767/226 588/230/227 337/235/232
f 346/767/226 72/758/225 382/231/228 588/230/227
f 449/207/204 589/226/223 346/229/226 69/208/205
f 67/197/195 467/194/192 589/226/223 449/207/204
f 467/194/192 66/193/191 202/227/224 589/226/223
f 283/211/208 590/222/219 492/225/222 71/212/209
f 65/768/605 215/190/188 590/222/219 283/211/208
f 215/190/188 64/189/187 493/223/220 590/222/219
f 493/223/220 591/218/215 179/221/218 74/224/221
f 64/189/187 455/186/184 591/218/215 493/223/220
f 455/186/184 63/185/183 410/219/216 591/218/215
f 410/769/216 592/214/211 272/217/214 73/770/217
f 63/771/183 472/202/200 592/214/211 410/769/216
f 472/202/200 68/201/199 340/215/212 592/214/211
f 202/227/224 593/210/207 359/213/210 72/228/225
f 66/193/191 224/772/606 593/210/207 202/227/224
f 224/772/606 65/768/605 283/211/208 593/210/207
f 340/215/212 594/206/203 206/209/206 70/216/213
f 68/201/199 369/198/196 594/206/203 340/215/212
f 369/198/196 67/197/195 449/207/204 594/206/203
f 352/773/607 595/203/201 289/205/202 61/774/586
f 65/768/605 224/772/606 595/203/201 352/773/607
f 224/772/606 66/193/191 454/192/190 595/203/201
f 173/775/182 596/199/197 472/202/200 63/771/183
f 59/776/167 353/777/180 596/199/197 173/775/182
f 353/777/180 58/778/179 330/200/198 596/199/197
f 330/200/198 597/195/193 369/198/196 68/201/199
f 58/778/179 280/779/164 597/195/193 330/200/198
f 280/779/164 57/780/163 210/196/194 597/195/193
f 210/196/194 598/191/189 467/194/192 67/197/195
f 57/780/163 258/781/176 598/191/189 210/196/194
f 258/781/176 62/204/175 454/192/190 598/191/189
f 352/773/607 599/187/185 215/190/188 65/768/605
f 61/774/586 186/782/172 599/187/185 352/773/607
f 186/782/172 60/783/171 256/188/186 599/187/185
f 256/188/186 600/183/181 455/186/184 64/189/187
f 60/783/171 434/784/168 600/183/181 256/188/186
f 434/784/168 59/785/167 173/184/182 600/183/181
f 298/786/166 601/179/177 353/182/180 59/787/167
f 56/788/151 412/789/160 601/179/177 298/786/166
f 412/789/160 55/790/159 216/180/178 601/179/177
f 482/164/162 602/175/173 258/178/176 57/165/163
f 50/791/143 263/792/128 602/175/173 482/164/162
f 263/792/128 49/793/127 221/176/174 602/175/173
f 468/794/583 603/171/169 186/174/172 61/795/586
f 54/796/139 243/797/136 603/171/169 468/794/583
f 243/797/136 53/798/135 392/172/170 603/171/169
f 392/172/170 604/167/165 434/170/168 60/173/171
f 53/798/135 400/799/152 604/167/165 392/172/170
f 400/799/152 56/800/151 298/168/166 604/167/165
f 216/180/178 605/163/161 280/166/164 58/181/179
f 55/790/159 320/801/144 605/163/161 216/180/178
f 320/801/144 50/791/143 482/164/162 605/163/161
f 284/152/150 606/159/157 412/162/160 56/153/151
f 23/23/23 377/22/22 606/159/157 284/152/150
f 377/22/22 22/35/35 355/160/158 606/159/157
f 388/132/130 607/155/153 218/158/156 51/133/131
f 26/802/608 187/803/609 607/155/153 388/132/130
f 187/803/609 15/15/15 238/156/154 607/155/153
f 439/136/134 608/151/149 400/154/152 53/137/135
f 2/94/94 402/804/610 608/151/149 439/136/134
f 402/804/610 23/23/23 284/152/150 608/151/149
f 444/805/126 609/147/145 425/150/148 49/806/127
f 38/807/611 376/808/612 609/147/145 444/805/126
f 376/808/612 27/31/31 301/148/146 609/147/145
f 355/160/158 610/143/141 320/146/144 55/161/159
f 22/35/35 292/34/34 610/143/141 355/160/158
f 292/34/34 30/84/84 252/144/142 610/143/141
f 308/102/102 611/139/137 464/142/140 47/103/103
f 14/27/27 204/26/26 611/139/137 308/102/102
f 204/26/26 3/3/3 334/140/138 611/139/137
f 334/140/138 612/135/133 243/138/136 54/141/139
f 3/3/3 490/2/2 612/135/133 334/140/138
f 490/2/2 2/94/94 439/136/134 612/135/133
f 301/148/146 613/131/129 422/134/132 52/149/147
f 27/31/31 416/30/30 613/131/129 301/148/146
f 416/30/30 26/802/608 388/132/130 613/131/129
f 252/144/142 614/127/125 263/130/128 50/145/143
f 30/84/84 223/809/613 614/127/125 252/144/142
f 223/809/613 38/810/611 444/128/126 614/127/125
f 393/811/614 615/125/123 203/126/124 46/812/615
f 19/19/19 401/18/18 615/125/123 393/811/614
f 401/18/18 18/55/55 495/118/117 615/125/123
f 188/44/44 616/121/119 174/124/122 34/813/616
f 28/43/43 277/814/617 616/121/119 188/44/44
f 277/814/617 17/815/618 311/122/120 616/121/119
f 325/32/32 277/814/617 28/43/43
f 325/32/32 207/120/118 277/814/617
f 207/120/118 17/815/618 277/814/617
f 440/119/82 273/54/54 38/807/611
f 440/119/82 495/118/117 273/54/54
f 495/118/117 18/55/55 273/54/54
f 171/116/116 305/66/66 26/802/608
f 171/116/116 231/115/115 305/66/66
f 231/115/115 6/67/67 305/66/66
f 462/6/6 617/110/110 398/113/113 7/7/7
f 6/67/67 231/115/115 617/110/110 462/6/6
f 231/115/115 25/114/114 391/111/111 617/110/110
f 379/16/16 375/816/619 16/59/59
f 379/16/16 299/109/109 375/816/619
f 299/109/109 5/817/620 375/816/619
f 278/60/60 618/105/105 327/108/108 39/818/621
f 16/59/59 375/816/619 618/105/105 278/60/60
f 375/816/619 5/817/620 381/106/106 618/105/105
f 238/156/154 619/101/101 365/104/104 48/157/155
f 15/15/15 450/14/14 619/101/101 238/156/154
f 450/14/14 14/27/27 308/102/102 619/101/101
f 458/819/622 620/97/97 211/100/100 9/820/623
f 1/821/624 244/822/625 620/97/97 458/819/622
f 244/822/625 40/823/626 354/98/98 620/97/97
f 306/96/96 458/819/622 9/820/623
f 306/96/96 248/95/95 458/819/622
f 248/95/95 1/821/624 458/819/622
f 290/824/627 621/93/93 356/12/12 11/11/11
f 37/825/628 176/52/52 621/93/93 290/824/627
f 176/52/52 24/51/51 175/92/92 621/93/93
f 175/92/92 415/64/64 12/63/63
f 175/92/92 303/24/24 415/64/64
f 303/24/24 23/23/23 415/64/64
f 489/826/629 622/91/91 341/76/76 43/75/75
f 46/827/615 203/828/124 622/91/91 489/826/629
f 203/828/124 45/81/81 427/83/83 622/91/91
f 291/829/630 623/87/87 195/90/90 41/830/631
f 29/831/632 253/832/633 623/87/87 291/829/630
f 253/832/633 31/833/634 389/88/88 623/87/87
f 456/86/86 291/829/630 41/830/631
f 456/86/86 181/85/85 291/829/630
f 181/85/85 29/831/632 291/829/630
f 427/83/83 194/80/80 44/79/79
f 427/83/83 440/82/82 194/80/80
f 440/82/82 38/810/611 194/80/80
f 223/809/613 624/77/77 194/80/80 38/810/611
f 30/84/84 456/86/86 624/77/77 223/809/613
f 456/86/86 41/830/631 345/78/78 624/77/77
f 345/78/78 625/73/73 341/76/76 44/79/79
f 41/830/631 195/90/90 625/73/73 345/78/78
f 195/90/90 42/89/89 259/74/74 625/73/73
f 385/834/635 626/69/69 335/72/72 35/835/636
f 40/823/626 244/822/625 626/69/69 385/834/635
f 244/822/625 1/821/624 405/70/70 626/69/69
f 299/109/109 627/65/65 226/68/68 5/817/620
f 15/15/15 187/803/609 627/65/65 299/109/109
f 187/803/609 26/802/608 305/66/66 627/65/65
f 402/804/610 628/61/61 415/64/64 23/23/23
f 2/94/94 306/96/96 628/61/61 402/804/610
f 306/96/96 9/820/623 357/62/62 628/61/61
f 296/836/637 629/57/57 278/60/60 39/818/621
f 36/837/638 191/48/48 629/57/57 296/836/637
f 191/48/48 13/47/47 366/58/58 629/57/57
f 207/120/118 630/53/53 485/56/56 17/815/618
f 27/31/31 376/808/612 630/53/53 207/120/118
f 376/808/612 38/807/611 273/54/54 630/53/53
f 452/838/639 631/49/49 176/52/52 37/825/628
f 32/839/640 287/40/40 631/49/49 452/838/639
f 287/40/40 21/39/39 295/50/50 631/49/49
f 390/840/641 632/45/45 191/48/48 36/837/638
f 35/835/636 335/72/72 632/45/45 390/840/641
f 335/72/72 4/71/71 288/46/46 632/45/45
f 236/841/642 633/41/41 188/44/44 34/813/616
f 33/112/112 391/111/111 633/41/41 236/841/642
f 391/111/111 25/114/114 328/42/42 633/41/41
f 347/842/643 634/37/37 287/40/40 32/839/640
f 31/833/634 253/832/633 634/37/37 347/842/643
f 253/832/633 29/831/632 360/38/38 634/37/37
f 360/38/38 635/33/33 459/36/36 21/39/39
f 29/831/632 181/85/85 635/33/33 360/38/38
f 181/85/85 30/84/84 292/34/34 635/33/33
f 328/42/42 636/29/29 325/32/32 28/43/43
f 25/114/114 171/116/116 636/29/29 328/42/42
f 171/116/116 26/802/608 416/30/30 636/29/29
f 288/46/46 637/25/25 219/28/28 13/47/47
f 4/71/71 403/4/4 637/25/25 288/46/46
f 403/4/4 3/3/3 204/26/26 637/25/25
f 295/50/50 638/21/21 303/24/24 24/51/51
f 21/39/39 459/36/36 638/21/21 295/50/50
f 459/36/36 22/35/35 377/22/22 638/21/21
f 311/122/120 639/17/17 309/20/20 20/123/121
f 17/815/618 485/56/56 639/17/17 311/122/120
f 485/56/56 18/55/55 401/18/18 639/17/17
f 366/58/58 640/13/13 379/16/16 16/59/59
f 13/47/47 219/28/28 640/13/13 366/58/58
f 219/28/28 14/27/27 450/14/14 640/13/13
f 357/62/62 641/9/9 356/12/12 12/63/63
f 9/820/623 211/100/100 641/9/9 357/62/62
f 211/100/100 10/99/99 445/10/10 641/9/9
f 381/106/106 642/5/5 396/8/8 8/107/107
f 5/817/620 226/68/68 642/5/5 381/106/106
f 226/68/68 6/67/67 462/6/6 642/5/5
f 405/70/70 643/1/1 403/4/4 4/71/71
f 1/821/624 248/95/95 643/1/1 405/70/70
f 248/95/95 2/94/94 490/2/2 643/1/1
