# Blender v2.78 (sub 0) OBJ File: ''
# www.blender.org
mtllib Oak_Tree_m_04.mtl
o Oak_Tree_m_04
v -1.620457 2.329241 -0.887139
v -1.719289 2.581103 -1.744003
v -0.469839 2.946311 -1.249156
v 0.413576 3.393977 -0.527842
v -0.700261 2.712255 -0.277072
v -0.381696 3.077887 0.315918
v -2.082664 2.610783 -0.119431
v -2.615483 2.974549 0.670381
v -3.170689 3.038478 -0.063503
v -1.458609 3.268907 0.895145
v -2.971954 2.816152 -1.528239
v -2.106385 3.015996 -2.296664
v 0.526152 4.521795 1.188843
v 1.153522 4.039644 0.009118
v 1.552719 5.187411 0.301023
v 0.081122 3.529738 0.864061
v 0.928826 6.030402 1.510433
v 1.194611 6.829706 0.079256
v 0.925359 6.972334 1.512539
v -0.741223 5.176684 2.005389
v -1.819813 5.441648 1.844906
v -1.742261 4.318525 1.908937
v -0.850336 6.998926 1.722389
v -0.878723 4.010950 1.641596
v -0.204528 7.624022 0.055181
v 0.457110 6.848846 -1.102994
v -1.194816 6.871093 -1.381699
v -0.477544 5.662130 -2.284432
v -1.843947 6.201034 -2.202407
v -2.018310 7.021009 0.059957
v -3.375356 5.676308 -0.079575
v -2.549110 6.530003 0.758617
v -2.646086 5.762957 -1.649228
v 0.497841 7.506781 1.057613
v -1.934847 4.597603 -2.660155
v -0.642274 4.356879 -2.739410
v -2.201244 3.590778 -2.704800
v -0.436118 3.378811 -2.199965
v -3.143346 4.037666 -1.963460
v -3.375816 3.908951 -1.389216
v -3.514723 4.732592 -1.333506
v -1.892655 5.776463 -2.448407
v -3.758301 4.089911 -0.578794
v -3.451637 4.139079 0.361776
v -2.829757 4.098588 1.319000
v -2.836094 5.700389 0.822960
v 0.162355 4.698736 -2.133936
v 0.888893 4.975356 -1.456023
v 1.381407 5.254286 -0.661604
v 0.702950 3.831570 -1.029589
v 0.056500 1.187835 0.009189
v -0.140733 1.196009 0.053530
v -0.107680 0.393143 0.089912
v 0.154183 0.382814 0.064384
v -0.212706 0.400528 -0.151441
v -0.253456 0.040464 -0.182662
v -0.133705 0.039393 0.119123
v -0.110222 1.195199 -0.272316
v 0.075357 1.187334 -0.192195
v 0.210998 0.383816 -0.192744
v -0.015752 0.394764 -0.326132
v -0.003465 0.039639 -0.389842
v 0.190296 0.037905 0.098457
v 0.270789 0.038058 -0.216101
v -0.243957 1.193075 -0.119674
v -0.036374 2.100806 -0.054493
v -0.212625 2.113525 -0.068665
v -0.273978 1.956900 -0.192444
v -0.149378 2.099761 -0.276158
v 0.002886 2.091944 -0.189828
v 0.052588 3.195550 -0.040243
v -0.050557 3.233829 -0.028744
v -0.021883 4.249033 0.027354
v -0.077877 4.253203 0.037528
v 0.071168 3.181234 -0.149067
v -0.238371 2.293065 -0.194662
v -0.623037 2.259699 -0.381449
v -0.621496 2.329448 -0.310196
v -0.094124 3.255008 -0.129837
v -0.020493 3.210664 -0.204825
v -0.105361 4.265667 -0.012030
v -0.014761 4.258920 -0.028491
v -0.066353 4.269200 -0.052831
v -0.679459 2.218936 -0.322739
v -0.662613 2.269147 -0.248750
v -1.167391 2.637742 -0.522740
v -1.152801 2.674386 -0.476995
v -1.202266 2.617565 -0.487080
v -1.187587 2.643896 -0.442294
v -0.191327 1.194791 -0.207584
v -0.119600 0.771755 0.075032
v -0.421152 3.739814 1.299680
v 0.030868 0.038649 0.150935
v 0.841921 7.353040 0.636324
v -2.254085 4.199789 1.667110
v -2.329935 6.785769 0.576967
v 0.183014 7.404342 -0.552554
v -0.048630 4.249345 0.038363
v -0.667649 3.377478 0.975480
v -0.617116 2.299508 -0.351691
v 0.109687 0.389038 -0.279543
v -0.063252 0.772950 -0.294915
v -0.676187 2.239107 -0.279875
v 0.369984 4.063482 -1.863882
v -1.445468 3.105205 -2.335960
v -0.640779 2.305175 -0.272134
v -2.940375 4.875197 1.075442
v -0.047628 2.092579 -0.239599
v -2.273522 5.743280 -2.212478
v 0.377657 3.455926 0.161420
v -1.865682 5.299006 -2.521836
v 0.690361 3.750033 0.453114
v 0.605583 3.566665 -0.798101
v -1.944640 2.791688 -2.048461
v -1.733064 2.850136 0.369956
v -3.313600 3.449350 -1.452211
v -0.090501 4.268718 -0.036499
v 0.939358 4.217246 0.616887
v -1.338159 3.469588 -2.603412
v -0.197775 3.261523 0.551878
v -1.443136 6.174614 1.852364
v 0.582214 7.436651 0.030462
v -3.367558 3.501026 0.167226
v 0.145295 6.512396 1.853027
v -1.081153 2.896236 0.274452
v 0.205413 0.382164 -0.058922
v 0.293616 7.042952 1.742842
v -0.489948 2.937083 0.054394
v -1.199622 2.627581 -0.460093
v -1.299724 5.425115 2.031981
v -0.097110 4.258644 0.015747
v 0.108401 0.761735 0.037410
v 0.927578 6.649096 1.520624
v -3.526539 4.940023 0.154631
v 0.071340 3.184475 -0.092604
v 0.025292 0.387520 0.100503
v -2.668370 6.243246 0.798837
v -1.220167 6.064947 -2.249401
v -1.732830 2.424788 -1.335955
v -1.296357 5.681572 -2.462028
v -0.712592 7.356948 -0.666206
v -0.121516 1.628913 -0.270548
v -1.121845 2.877750 -1.992774
v -2.410444 6.473153 -0.777865
v -0.179894 4.449946 -2.478633
v 0.254636 0.170943 -0.207133
v -3.570495 3.951601 -1.087666
v 1.117887 4.544402 -0.856976
v 0.156354 0.038848 -0.338579
v 0.000384 1.633538 -0.025794
v -0.225949 1.977244 -0.247197
v 0.005151 4.036526 -2.240498
v 0.845939 6.954309 -0.559361
v -3.141720 2.906547 -0.696355
v -3.219221 5.186336 -1.439217
v -2.563153 2.580818 -0.760381
v -0.652524 2.233441 -0.359433
v -0.005049 0.177204 -0.368549
v 0.810433 4.314352 -1.341774
v -2.744328 3.190350 -2.244414
v 1.175362 4.829681 0.751470
v -3.348610 4.466362 -1.665428
v -2.281231 2.423288 -1.163189
v -0.039750 3.804352 -0.124505
v -0.129596 0.398641 -0.256470
v -2.104401 4.052087 -2.750596
v -1.923051 6.802894 1.180575
v -0.058315 3.807302 0.007587
v -3.509393 5.194737 -0.807658
v -1.320737 4.719402 2.031296
v -1.381167 2.612075 -0.133658
v 0.397113 5.723961 -1.687310
v -1.130862 5.075297 -2.599163
v -0.123625 0.176229 0.112016
v -1.851413 2.419754 -0.568313
v -0.000902 5.244500 -2.194080
v 0.181352 0.170341 0.089873
v 0.098164 5.652745 1.830840
v -2.885442 2.962150 0.326364
v 0.028536 1.629265 -0.192576
v -0.225688 0.778686 -0.130356
v 1.539457 5.303935 -0.200134
v -0.071047 4.852311 1.677001
v 0.029713 3.193166 -0.186012
v -0.229983 4.236092 1.495507
v -0.109393 3.022497 -0.482950
v -3.274820 4.928070 0.561854
v -0.723054 6.410182 -1.852245
v -1.074722 2.555446 -1.054072
v -0.409718 2.250920 -0.246484
v -1.726553 3.812454 1.502155
v -2.414257 4.823263 1.610807
v -0.238992 2.257521 -0.131669
v -0.952641 2.469125 -0.354882
v 0.232668 3.583365 -1.601439
v 0.707815 7.261182 1.311365
v -0.201366 2.248926 -0.245917
v -1.155401 2.659213 -0.504461
v -0.062963 2.645244 -0.244896
v -3.670674 4.164565 -0.067047
v -0.003319 7.425293 1.408369
v -0.064066 3.235034 -0.174985
v 0.209404 7.598454 0.670766
v -1.168023 2.663113 -0.453687
v -2.961311 6.235047 0.396513
v -0.010814 1.191045 -0.249390
v -0.005018 2.096273 -0.118079
v 0.821208 3.667526 -0.262831
v -2.539401 2.874284 -2.077512
v 0.002488 3.215051 -0.024160
v -2.150501 3.067519 0.791142
v -0.113201 2.667223 -0.048174
v -0.167067 1.635829 -0.000690
v 0.493005 4.805406 -1.836540
v 0.320233 3.961932 1.057819
v -0.263131 1.984411 -0.126022
v 0.146169 3.349273 -1.225337
v -0.243171 1.601823 -0.148732
v -0.556904 3.859745 -2.571825
v -0.910148 2.512689 -0.400624
v -0.430207 2.168263 -0.160476
v -0.779553 3.108285 0.572297
v 0.794828 5.977525 -1.253255
v -0.037936 4.265644 -0.046173
v -3.317369 3.887222 -1.642832
v -0.565758 7.506937 0.930369
v -0.714584 6.098738 2.012155
v -0.080893 3.248559 -0.074955
v -1.871431 5.999986 -2.326849
v 1.134044 6.038197 -0.800171
v -3.091247 3.442761 0.585049
v -0.478581 4.904610 -2.576560
v -1.248100 4.467028 -2.782228
v -0.155313 0.040051 -0.318836
v 0.011547 3.190600 -0.049767
v -2.332182 2.759288 0.358219
v 1.138855 6.970700 0.970796
v -2.002952 6.469923 -1.474832
v 0.059484 3.195211 -0.916695
v -1.587770 6.421840 -1.915250
v -3.215546 5.679408 0.396131
v -0.415954 3.089881 -1.708789
v -0.150067 2.722270 -0.163749
v 0.038497 2.622305 -0.175264
v -0.238828 0.180470 -0.171304
v -2.197331 6.126653 -1.999851
v -0.287474 7.012460 -1.229373
v -1.977521 6.406543 1.357829
v -0.967688 2.432410 -0.413014
v -0.376560 2.156864 -0.325089
v -0.037408 1.191654 0.049113
v -2.784395 6.414762 -0.054285
v -0.095233 3.819354 -0.066770
v -3.195980 4.100197 0.847133
v -3.067660 5.834829 -0.806487
v -3.689476 4.526659 -0.919790
v -2.281559 5.645302 1.405063
v -1.187000 2.623682 -0.510868
v -0.012058 4.253672 0.000094
v 0.031459 3.783030 -0.085831
v 0.143226 0.762473 -0.191230
v 0.019985 3.784854 -0.004194
v 0.007449 2.635889 -0.053683
v 0.770740 5.231044 1.380955
v 1.187576 5.199571 -1.017704
v -3.128011 3.395964 -1.874147
v -2.761661 3.718157 -2.380728
v 1.409588 4.603612 0.147098
v -2.346694 2.560434 -1.680689
v -0.450518 2.101139 -0.253045
v 0.084257 1.186794 -0.090504
v 0.271420 0.037982 -0.048245
v -3.478933 3.389013 -0.992905
v -2.963369 4.823315 -1.894054
v -1.337036 4.138009 1.808261
v 1.333419 5.613207 0.875302
v -2.614925 4.316741 -2.360794
v -2.156363 3.221815 -2.485565
v -0.207763 1.195167 -0.023099
v -3.490854 4.269794 -1.377239
v -1.458851 7.207429 0.921435
v -1.823340 4.830131 1.944992
v -2.254105 3.601541 1.217801
v -0.923977 2.461377 -0.459857
v -3.532330 3.493890 -0.340195
v -1.361259 3.952590 -2.804721
v -0.106756 2.105690 -0.040181
v -2.695413 2.735824 -0.126320
v 1.349316 4.613201 -0.376220
v -2.420263 5.088686 -2.249063
v -0.830966 4.510684 1.862804
v 1.484685 5.996172 0.204964
v 1.388747 5.953954 -0.433206
v -2.756465 3.452366 0.982006
v -0.525418 2.788569 -0.783187
v -0.181754 0.397702 -0.021588
v -1.143285 2.474468 -0.583008
v -3.699066 4.832916 -0.325096
v -1.112824 7.418277 0.114107
v 1.022388 3.973305 -0.542690
v -1.621247 7.023364 -0.712957
v 1.275846 6.434748 0.870051
v -1.093904 2.705245 -1.543165
v -0.232868 0.039928 -0.016300
v -1.140086 3.657845 1.366782
v 0.033863 6.276757 -1.717215
v -0.929942 2.495334 -0.371849
v -0.964501 2.447119 -0.379291
v -0.947285 2.442466 -0.442339
v -0.912726 2.490681 -0.434898
v -0.445113 2.127740 -0.198810
v -0.420608 2.217699 -0.194870
v -0.141449 2.700052 -0.101849
v -0.412893 2.120894 -0.297677
v 0.030849 0.173055 0.128427
v -0.000975 3.792894 -0.111768
v -0.072611 3.813433 -0.100990
v 0.032802 3.781869 -0.043739
v -0.083109 3.815101 -0.026299
v -0.006699 2.629030 -0.219705
v -0.113042 2.687623 -0.213084
v -0.388388 2.210852 -0.293737
v 0.033567 2.627087 -0.111408
v -0.017960 3.795594 0.009084
v 0.029487 1.630955 -0.106645
v -0.218812 1.617542 -0.067742
v -0.052662 2.649139 -0.039722
v -0.039389 1.630457 -0.245258
v -0.193056 1.613632 -0.220331
v -0.191133 0.775967 -0.018087
v 0.146389 0.761134 -0.073782
v -0.081064 1.636783 0.001637
v -0.159272 0.776642 -0.227272
v 0.139335 0.173947 -0.311246
v 0.244734 0.170067 -0.052034
v -0.139692 0.179334 -0.290987
v 0.049328 0.767475 -0.261693
v -0.206740 0.178783 -0.019254
v -0.002225 0.766382 0.076775
vt 0.7144 0.5580
vt 0.7172 0.5563
vt 0.7178 0.5608
vt 0.7212 0.5635
vt 0.7199 0.5666
vt 0.7169 0.5638
vt 0.7126 0.5641
vt 0.7156 0.5669
vt 0.7110 0.5662
vt 0.7079 0.5564
vt 0.7048 0.5564
vt 0.7068 0.5530
vt 0.7075 0.5638
vt 0.7103 0.5603
vt 0.7052 0.5599
vt 0.7146 0.5525
vt 0.7201 0.5547
vt 0.7175 0.5509
vt 0.7219 0.5524
vt 0.7113 0.5517
vt 0.7040 0.5832
vt 0.7105 0.5798
vt 0.7115 0.5849
vt 0.7071 0.5738
vt 0.7128 0.5718
vt 0.7120 0.5752
vt 0.6643 0.5324
vt 0.6714 0.5354
vt 0.6640 0.5373
vt 0.6637 0.5423
vt 0.6687 0.5468
vt 0.6638 0.5455
vt 0.6492 0.5403
vt 0.6487 0.5450
vt 0.6436 0.5429
vt 0.6604 0.5475
vt 0.6565 0.5413
vt 0.6532 0.5466
vt 0.7014 0.5759
vt 0.7055 0.5785
vt 0.7048 0.5687
vt 0.7082 0.5710
vt 0.6892 0.5757
vt 0.6895 0.5699
vt 0.6940 0.5721
vt 0.6668 0.5593
vt 0.6702 0.5554
vt 0.6711 0.5597
vt 0.6669 0.5622
vt 0.6671 0.5651
vt 0.6723 0.5682
vt 0.6673 0.5682
vt 0.6590 0.5629
vt 0.6557 0.5652
vt 0.6562 0.5616
vt 0.6636 0.5691
vt 0.6630 0.5640
vt 0.6595 0.5681
vt 0.6619 0.5561
vt 0.6660 0.5565
vt 0.6652 0.5537
vt 0.6611 0.5532
vt 0.6646 0.5512
vt 0.6581 0.5579
vt 0.6707 0.5832
vt 0.6740 0.5772
vt 0.6778 0.5822
vt 0.6714 0.5884
vt 0.7301 0.5446
vt 0.7297 0.5532
vt 0.7269 0.5473
vt 0.6557 0.5879
vt 0.6501 0.5875
vt 0.6535 0.5828
vt 0.7225 0.5458
vt 0.7246 0.5385
vt 0.7191 0.5324
vt 0.7169 0.5397
vt 0.7148 0.5345
vt 0.6654 0.5782
vt 0.6697 0.5792
vt 0.6686 0.5752
vt 0.6643 0.5742
vt 0.6681 0.5733
vt 0.6579 0.5805
vt 0.7010 0.5354
vt 0.7079 0.5412
vt 0.7033 0.5425
vt 0.6934 0.5445
vt 0.6975 0.5504
vt 0.6913 0.5499
vt 0.6892 0.5553
vt 0.6959 0.5594
vt 0.6895 0.5597
vt 0.6342 0.5547
vt 0.6412 0.5522
vt 0.6409 0.5574
vt 0.6477 0.5601
vt 0.6524 0.5565
vt 0.6506 0.5602
vt 0.6342 0.5670
vt 0.6433 0.5673
vt 0.6372 0.5718
vt 0.6524 0.5675
vt 0.6562 0.5703
vt 0.6518 0.5726
vt 0.6873 0.5686
vt 0.6824 0.5699
vt 0.6813 0.5644
vt 0.6879 0.5567
vt 0.6808 0.5540
vt 0.6862 0.5512
vt 0.6844 0.5458
vt 0.6790 0.5486
vt 0.6815 0.5422
vt 0.7254 0.5710
vt 0.7220 0.5703
vt 0.7233 0.5673
vt 0.7282 0.5848
vt 0.7226 0.5806
vt 0.7268 0.5779
vt 0.7380 0.5784
vt 0.7336 0.5701
vt 0.7404 0.5735
vt 0.7206 0.5591
vt 0.7253 0.5626
vt 0.7247 0.5583
vt 0.7135 0.5611
vt 0.7111 0.5572
vt 0.6711 0.5404
vt 0.6568 0.5364
vt 0.6966 0.5795
vt 0.7030 0.5712
vt 0.6988 0.5686
vt 0.6942 0.5663
vt 0.7006 0.5660
vt 0.6694 0.5525
vt 0.6712 0.5626
vt 0.6629 0.5611
vt 0.6730 0.5732
vt 0.7350 0.5512
vt 0.6632 0.5855
vt 0.6972 0.5400
vt 0.6995 0.5470
vt 0.6403 0.5766
vt 0.6457 0.5772
vt 0.6424 0.5818
vt 0.7057 0.5360
vt 0.6954 0.5559
vt 0.6342 0.5609
vt 0.6409 0.5635
vt 0.6360 0.5501
vt 0.6479 0.5548
vt 0.6464 0.5720
vt 0.6501 0.5638
vt 0.6876 0.5626
vt 0.6817 0.5584
vt 0.6861 0.5749
vt 0.7331 0.5816
vt 0.7317 0.5747
vt 0.7236 0.5857
vt 0.7212 0.5738
vt 0.7428 0.5686
vt 0.7361 0.5652
vt 0.7413 0.5632
vt 0.7273 0.5664
vt 0.9253 0.6580
vt 0.9219 0.6586
vt 0.9205 0.6478
vt 0.9244 0.6470
vt 0.9151 0.6447
vt 0.9110 0.6461
vt 0.9087 0.6421
vt 0.9133 0.6405
vt 0.9388 0.6585
vt 0.9354 0.6576
vt 0.9360 0.6464
vt 0.9398 0.6473
vt 0.9489 0.6457
vt 0.9451 0.6439
vt 0.9465 0.6395
vt 0.9507 0.6416
vt 0.9322 0.6418
vt 0.9279 0.6417
vt 0.9275 0.6373
vt 0.9324 0.6373
vt 0.9408 0.6429
vt 0.9366 0.6418
vt 0.9372 0.6373
vt 0.9419 0.6384
vt 0.9452 0.6605
vt 0.9420 0.6594
vt 0.9436 0.6483
vt 0.9470 0.6498
vt 0.9262 0.6806
vt 0.9287 0.6804
vt 0.9282 0.6924
vt 0.9261 0.6924
vt 0.9320 0.6575
vt 0.9287 0.6574
vt 0.9282 0.6462
vt 0.9321 0.6463
vt 0.9187 0.6594
vt 0.9155 0.6603
vt 0.9133 0.6501
vt 0.9169 0.6489
vt 0.9410 0.6815
vt 0.9435 0.6816
vt 0.9408 0.6913
vt 0.9386 0.6919
vt 0.9360 0.6811
vt 0.9384 0.6815
vt 0.9364 0.6926
vt 0.9344 0.6925
vt 0.9261 0.7072
vt 0.9280 0.7070
vt 0.9277 0.7216
vt 0.9260 0.7221
vt 0.9213 0.6808
vt 0.9237 0.6809
vt 0.9241 0.6924
vt 0.9220 0.6916
vt 0.9311 0.6805
vt 0.9291 0.6685
vt 0.9320 0.6687
vt 0.9609 0.6543
vt 0.9620 0.6538
vt 0.9628 0.6693
vt 0.9621 0.6693
vt 0.9298 0.7069
vt 0.9316 0.7068
vt 0.9309 0.7212
vt 0.9293 0.7214
vt 0.9588 0.7335
vt 0.9595 0.7354
vt 0.9528 0.7348
vt 0.9528 0.7332
vt 0.9370 0.7087
vt 0.9387 0.7100
vt 0.9373 0.7234
vt 0.9358 0.7228
vt 0.9335 0.7071
vt 0.9353 0.7074
vt 0.9342 0.7221
vt 0.9325 0.7217
vt 0.9586 0.6550
vt 0.9599 0.6547
vt 0.9613 0.6693
vt 0.9606 0.6696
vt 0.9631 0.6536
vt 0.9643 0.6534
vt 0.9643 0.6695
vt 0.9635 0.6694
vt 0.9677 0.6545
vt 0.9688 0.6549
vt 0.9674 0.6696
vt 0.9667 0.6697
vt 0.9655 0.6537
vt 0.9667 0.6540
vt 0.9659 0.6697
vt 0.9651 0.6696
vt 0.9236 0.6425
vt 0.9193 0.6434
vt 0.9180 0.6389
vt 0.9227 0.6381
vt 0.9587 0.7370
vt 0.9579 0.7386
vt 0.9520 0.7374
vt 0.9524 0.7361
vt 0.9224 0.7083
vt 0.9243 0.7075
vt 0.9244 0.7226
vt 0.9227 0.7226
vt 0.9587 0.7298
vt 0.9581 0.7316
vt 0.9529 0.7316
vt 0.9528 0.7300
vt 0.9586 0.7263
vt 0.9592 0.7279
vt 0.9527 0.7285
vt 0.9524 0.7271
vt 0.9428 0.7328
vt 0.9426 0.7340
vt 0.9325 0.7333
vt 0.9327 0.7325
vt 0.9423 0.7351
vt 0.9420 0.7361
vt 0.9319 0.7348
vt 0.9322 0.7340
vt 0.9424 0.7282
vt 0.9427 0.7292
vt 0.9327 0.7299
vt 0.9323 0.7292
vt 0.9428 0.7304
vt 0.9429 0.7316
vt 0.9329 0.7316
vt 0.9328 0.7307
vt 0.9420 0.7271
vt 0.9320 0.7285
vt 0.9521 0.7258
vt 0.9581 0.7246
vt 0.9640 0.7234
vt 0.9649 0.7254
vt 0.9658 0.7274
vt 0.9646 0.7295
vt 0.9633 0.7316
vt 0.9206 0.7091
vt 0.9210 0.7226
vt 0.9202 0.6957
vt 0.9222 0.6940
vt 0.9661 0.7360
vt 0.9649 0.7379
vt 0.9638 0.7399
vt 0.9643 0.6373
vt 0.9658 0.6379
vt 0.9674 0.6384
vt 0.9688 0.6393
vt 0.9702 0.6402
vt 0.9612 0.6383
vt 0.9627 0.6378
vt 0.9574 0.6552
vt 0.9598 0.6698
vt 0.9550 0.6406
vt 0.9567 0.6403
vt 0.9584 0.6401
vt 0.9324 0.6924
vt 0.9383 0.6946
vt 0.9401 0.6966
vt 0.9647 0.7338
vt 0.9303 0.6924
vt 0.9598 0.6392
vt 0.9337 0.6806
vt 0.9349 0.6689
vt 0.9188 0.6806
vt 0.9199 0.6907
vt 0.9177 0.6706
vt 0.9205 0.6700
vt 0.9234 0.6693
vt 0.9377 0.6697
vt 0.9405 0.6704
vt 0.9434 0.6711
vt 0.9463 0.6719
vt 0.9262 0.6689
vt 0.9484 0.6616
vt 0.9505 0.6513
vt 0.9527 0.6474
vt 0.9550 0.6436
vt 0.7293 0.5618
vt 0.7346 0.5598
vt 0.7399 0.5578
vt 0.7178 0.5731
vt 0.7186 0.5697
vt 0.7170 0.5765
vt 0.7180 0.5816
vt 0.7190 0.5866
vt 0.6745 0.5558
vt 0.6736 0.5514
vt 0.6754 0.5601
vt 0.6811 0.5762
vt 0.6774 0.5712
vt 0.6849 0.5812
vt 0.6530 0.5638
vt 0.6535 0.5602
vt 0.6512 0.5778
vt 0.6526 0.5512
vt 0.6571 0.5528
vt 0.6482 0.5496
vt 0.6430 0.5475
vt 0.6379 0.5455
vt 0.7020 0.5599
vt 0.7025 0.5635
vt 0.7016 0.5564
vt 0.7036 0.5530
vt 0.7056 0.5496
vt 0.7127 0.5418
vt 0.7148 0.5470
vt 0.7105 0.5366
vt 0.6479 0.5824
vt 0.6445 0.5870
vt 0.6600 0.5732
vt 0.7192 0.5485
vt 0.7237 0.5500
vt 0.6639 0.5907
vt 0.6720 0.5936
vt 0.6725 0.5713
vt 0.6675 0.5713
vt 0.6638 0.5723
vt 0.6764 0.5656
vt 0.6688 0.5501
vt 0.6639 0.5488
vt 0.6961 0.5638
vt 0.6897 0.5641
vt 0.6605 0.5508
vt 0.6761 0.5450
vt 0.6785 0.5385
vt 0.7140 0.5689
vt 0.7094 0.5682
vt 0.7060 0.5659
vt 0.7265 0.5559
vt 0.6556 0.5755
vt 0.6553 0.5565
vt 0.7102 0.5483
vt 0.6784 0.5874
vn 0.0929 -0.9957 0.0052
vn 0.1106 -0.9530 -0.2820
vn 0.3892 -0.8980 -0.2054
vn 0.4953 -0.8392 -0.2244
vn 0.5578 -0.8103 -0.1794
vn 0.4877 -0.8667 -0.1044
vn 0.3770 -0.8920 0.2494
vn 0.5386 -0.8413 0.0465
vn 0.3647 -0.8711 0.3290
vn -0.0900 -0.9458 0.3121
vn -0.0880 -0.9155 0.3925
vn -0.3676 -0.9088 0.1973
vn 0.1589 -0.8610 0.4831
vn 0.1224 -0.9014 0.4153
vn 0.1137 -0.8573 0.5021
vn -0.2700 -0.9611 -0.0583
vn 0.1237 -0.8773 -0.4637
vn -0.2243 -0.8940 -0.3879
vn 0.0155 -0.7805 -0.6250
vn -0.3869 -0.9154 0.1106
vn 0.5520 -0.3822 0.7411
vn 0.7067 -0.4611 0.5365
vn 0.7524 -0.3396 0.5644
vn 0.4303 -0.7271 0.5349
vn 0.5157 -0.8312 0.2077
vn 0.6226 -0.6811 0.3854
vn 0.5815 -0.2967 0.7576
vn 0.6515 -0.0852 0.7539
vn 0.9460 0.1581 0.2830
vn 0.6835 0.0329 0.7292
vn 0.1965 -0.1190 0.9733
vn -0.1466 0.0831 0.9857
vn 0.0181 -0.1690 0.9855
vn 0.2121 0.0945 0.9727
vn 0.3322 -0.1353 0.9334
vn 0.0113 0.1437 0.9896
vn 0.3961 -0.4019 0.8256
vn 0.5286 -0.4801 0.7001
vn 0.1587 -0.7920 0.5895
vn 0.3590 -0.8492 0.3874
vn 0.2704 -0.3293 0.9047
vn -0.0197 0.9921 -0.1240
vn 0.4708 0.8573 -0.2082
vn 0.2546 0.8682 -0.4259
vn -0.1511 0.9143 -0.3758
vn -0.1667 0.8226 -0.5437
vn 0.1537 0.6442 -0.7492
vn -0.1383 0.8131 -0.5655
vn -0.5024 0.8605 -0.0847
vn -0.6835 0.7186 -0.1280
vn -0.5830 0.7940 0.1726
vn -0.4980 0.7840 -0.3706
vn -0.4092 0.8588 -0.3082
vn -0.5992 0.7384 -0.3094
vn -0.2114 0.9457 0.2470
vn 0.1317 0.9897 0.0569
vn 0.3233 0.9095 0.2615
vn -0.0013 0.8512 0.5248
vn 0.4774 0.7553 0.4491
vn -0.3952 0.8718 0.2894
vn -0.2872 0.2414 -0.9270
vn 0.0541 0.2712 -0.9610
vn -0.0041 0.1779 -0.9840
vn -0.3096 0.1013 -0.9454
vn -0.2551 -0.2712 -0.9281
vn 0.1658 -0.5054 -0.8468
vn -0.1107 -0.5867 -0.8022
vn -0.7665 0.0427 -0.6408
vn -0.9129 -0.1261 -0.3882
vn -0.7886 0.1295 -0.6011
vn -0.5618 -0.4481 -0.6954
vn -0.6360 -0.0385 -0.7707
vn -0.8207 -0.2873 -0.4939
vn -0.5873 0.2573 -0.7674
vn -0.2621 0.1830 -0.9475
vn -0.2610 0.3140 -0.9128
vn -0.6497 0.3114 -0.6935
vn -0.2383 0.5090 -0.8271
vn -0.6476 0.3053 -0.6982
vn -0.9899 -0.1365 -0.0379
vn -0.8925 -0.4134 -0.1804
vn -0.8914 -0.4304 0.1418
vn -0.8782 -0.1066 0.4663
vn -0.7397 -0.4370 0.5117
vn -0.8288 -0.1343 0.5431
vn -0.6208 -0.2259 0.7507
vn -0.1628 -0.6146 0.7719
vn -0.3849 -0.3455 0.8558
vn -0.5933 0.1231 0.7955
vn -0.7549 0.1918 0.6272
vn -0.7117 0.2601 0.6526
vn -0.5792 0.3599 0.7315
vn -0.6978 0.3181 0.6417
vn -0.9010 0.1609 0.4030
vn -0.9425 -0.1073 0.3165
vn -0.8844 0.4644 0.0472
vn -0.7286 0.6131 -0.3055
vn -0.8722 0.4273 -0.2380
vn 0.6791 0.0534 -0.7321
vn 0.5835 0.2360 -0.7771
vn 0.6208 0.2665 -0.7373
vn 0.7682 0.0140 -0.6401
vn 0.7861 0.3054 -0.5373
vn 0.8445 0.0143 -0.5354
vn 0.9116 -0.0315 -0.4098
vn 0.8978 0.2649 -0.3518
vn 0.9837 -0.0315 -0.1768
vn 0.7671 -0.5137 -0.3842
vn 0.6697 -0.7002 -0.2473
vn 0.6064 -0.7474 -0.2713
vn 0.9223 -0.2969 -0.2473
vn 0.8666 -0.2840 -0.4102
vn 0.7403 -0.3160 -0.5934
vn 0.6758 0.0535 -0.7351
vn 0.3634 -0.8778 -0.3121
vn 0.5060 -0.7917 -0.3423
vn 0.2869 -0.7965 -0.5323
vn 0.2838 -0.9476 0.1467
vn -0.1028 -0.9569 0.2717
vn 0.8750 -0.0785 0.4777
vn 0.3958 -0.3042 0.8665
vn 0.2836 -0.6078 0.7417
vn 0.2145 -0.5378 0.8153
vn 0.0644 -0.5257 0.8482
vn 0.0511 -0.7210 0.6910
vn 0.6196 0.7849 0.0001
vn 0.1234 0.7500 -0.6499
vn -0.3165 0.9465 -0.0637
vn 0.0957 0.3378 -0.9363
vn 0.0699 -0.1731 -0.9824
vn -0.5755 0.2199 -0.7877
vn -0.8312 -0.3909 0.3953
vn -0.9648 0.0961 -0.2448
vn -0.9123 -0.1568 -0.3783
vn -0.4632 -0.5170 0.7198
vn -0.8268 0.1504 0.5419
vn -0.6359 0.2949 0.7132
vn -0.9747 0.2065 0.0859
vn -0.8322 0.2932 0.4707
vn 0.6873 0.2892 -0.6663
vn 0.5925 -0.0198 -0.8054
vn 0.8255 -0.3171 -0.4669
vn 0.8261 -0.4974 -0.2649
vn 0.6521 -0.2820 -0.7038
vn 0.6842 -0.5977 -0.4179
vn 0.1613 0.0757 0.9840
vn -0.4487 0.0221 0.8934
vn -0.4897 0.0740 0.8687
vn 0.1108 0.1020 0.9886
vn -0.9170 0.1222 0.3797
vn -0.9602 0.1522 -0.2341
vn -0.9530 0.1676 -0.2526
vn -0.9213 0.1362 0.3643
vn 0.4536 0.1027 -0.8853
vn 0.8814 0.1500 -0.4480
vn 0.9013 0.1880 -0.3903
vn 0.5014 0.1569 -0.8509
vn -0.6370 0.1627 -0.7535
vn -0.0658 0.1942 -0.9788
vn -0.0584 0.1989 -0.9783
vn -0.6258 0.1778 -0.7595
vn 0.9575 0.1680 0.2344
vn 0.6407 0.1563 0.7518
vn 0.6374 0.1418 0.7574
vn 0.9589 0.1532 0.2387
vn 0.5206 0.1907 -0.8322
vn 0.9098 0.1968 -0.3655
vn 0.9114 0.1846 -0.3679
vn 0.5246 0.1882 -0.8303
vn -0.7101 -0.0108 -0.7040
vn -0.1598 0.0453 -0.9861
vn -0.0930 0.1309 -0.9870
vn -0.6656 0.0757 -0.7425
vn 0.1227 0.1104 0.9863
vn 0.6920 0.1221 0.7115
vn 0.6315 0.0240 0.7750
vn 0.0176 0.0479 0.9987
vn 0.9761 0.1536 0.1540
vn 0.7024 0.1331 0.6993
vn 0.6644 0.1541 0.7313
vn 0.9634 0.1715 0.2061
vn -0.8890 -0.0273 0.4570
vn -0.9882 -0.0325 -0.1498
vn -0.9768 0.0566 -0.2065
vn -0.9114 0.0413 0.4094
vn -0.6757 -0.0637 -0.7344
vn -0.9859 -0.0529 -0.1590
vn -0.8648 -0.4630 -0.1940
vn -0.4103 -0.3010 -0.8609
vn 0.4593 0.0289 -0.8878
vn -0.1138 -0.0159 -0.9934
vn 0.1420 -0.0119 -0.9898
vn 0.5145 0.0048 -0.8575
vn 0.0297 -0.0186 0.9994
vn 0.6355 -0.0607 0.7697
vn 0.6894 -0.0331 0.7236
vn 0.0979 -0.0411 0.9943
vn -0.8816 0.0009 0.4720
vn -0.4595 0.0731 0.8851
vn -0.4108 0.0477 0.9105
vn -0.7823 -0.2242 0.5811
vn 0.9805 0.1019 0.1682
vn 0.7235 0.1381 0.6763
vn 0.9829 0.1373 0.1226
vn 0.1340 -0.0522 0.9896
vn 0.7094 0.0057 0.7048
vn 0.7102 0.0140 0.7039
vn 0.1335 -0.0542 0.9896
vn 0.9670 -0.0729 0.2440
vn 0.9318 -0.0461 -0.3601
vn 0.9187 0.0268 -0.3941
vn 0.9826 -0.0130 0.1852
vn 0.2714 0.6058 -0.7479
vn 0.1615 -0.0404 -0.9860
vn 0.1957 -0.0776 -0.9776
vn 0.4794 0.6151 -0.6259
vn -0.5969 0.1398 -0.7901
vn -0.9544 0.1554 -0.2548
vn -0.9767 0.0634 -0.2048
vn -0.6656 0.0993 -0.7397
vn 0.5438 0.0001 -0.8392
vn 0.0037 0.0710 -0.9975
vn -0.0582 0.1071 -0.9925
vn 0.5396 0.0713 -0.8389
vn -0.9003 -0.0543 0.4318
vn -0.4815 -0.0710 0.8736
vn -0.5056 -0.0816 0.8589
vn -0.8982 -0.0677 0.4343
vn 0.9871 0.0664 0.1456
vn 0.8982 0.1194 -0.4230
vn 0.8705 0.1410 -0.4715
vn 0.9878 0.0834 0.1314
vn -0.7039 0.0767 -0.7061
vn -0.9874 0.0056 -0.1585
vn -0.9869 -0.0039 -0.1616
vn -0.7213 0.0703 -0.6890
vn 0.5056 0.1446 -0.8506
vn -0.1168 0.1368 -0.9837
vn -0.1810 0.1376 -0.9738
vn 0.4608 0.1591 -0.8732
vn 0.0787 0.1248 0.9891
vn -0.5161 0.1282 0.8469
vn -0.5324 0.1312 0.8363
vn 0.0677 0.1193 0.9905
vn -0.1632 -0.6328 -0.7569
vn -0.5147 -0.8512 -0.1028
vn -0.5081 -0.8567 -0.0895
vn -0.2170 -0.6899 -0.6906
vn -0.9196 0.1259 0.3722
vn -0.5310 0.0556 0.8456
vn -0.5105 -0.0149 0.8598
vn -0.9188 0.0197 0.3942
vn -0.1666 0.6686 0.7247
vn 0.0895 0.9955 -0.0317
vn 0.4263 0.9014 0.0759
vn 0.0940 0.6725 0.7341
vn -0.5576 -0.5620 0.6110
vn -0.4021 0.0352 0.9149
vn -0.3443 0.0106 0.9388
vn -0.5603 -0.6195 0.5498
vn 0.5515 0.5661 -0.6127
vn 0.2089 -0.0672 -0.9756
vn 0.1797 -0.1071 -0.9779
vn 0.5571 0.5514 -0.6210
vn -0.2866 -0.6580 -0.6963
vn -0.5831 -0.8063 -0.0991
vn -0.5950 -0.7979 -0.0969
vn -0.3137 -0.6656 -0.6772
vn -0.6159 -0.5766 0.5368
vn -0.3203 0.0364 0.9466
vn -0.3384 0.0094 0.9409
vn -0.6273 -0.5793 0.5204
vn 0.1707 0.6346 0.7537
vn 0.5224 0.8473 0.0959
vn 0.5362 0.8394 0.0892
vn 0.1789 0.6287 0.7568
vn -0.6861 0.3928 0.6124
vn -0.7273 0.6346 -0.2614
vn 0.9260 0.0010 -0.3776
vn -0.2028 0.3549 -0.9127
vn 0.9699 0.0023 0.2434
vn 0.8933 0.0730 -0.4435
vn 0.8684 0.1155 -0.4823
vn -0.9938 -0.0231 -0.1090
vn -0.8726 0.0002 0.4885
vn -0.4176 0.0556 0.9069
vn 0.4226 0.0616 -0.9042
vn -0.2028 0.0163 -0.9791
vn -0.7352 -0.0217 -0.6776
vn 0.1911 0.1003 0.9764
vn 0.4792 -0.6107 -0.6304
vn 0.4016 -0.3635 -0.8406
vn 0.3001 -0.0104 -0.9539
vn 0.6635 -0.7480 0.0144
vn 0.5675 -0.8233 -0.0115
vn 0.8256 -0.5503 0.1251
vn 0.9180 -0.3589 0.1685
vn 0.9676 -0.1313 0.2156
vn 0.6902 0.5747 -0.4398
vn 0.8588 0.4823 -0.1727
vn 0.4971 0.5714 -0.6530
vn 0.3262 0.2530 -0.9108
vn 0.3119 0.4060 -0.8590
vn -0.7886 0.5581 0.2582
vn -0.6765 0.5704 0.4659
vn -0.8653 0.2334 -0.4437
vn -0.3881 0.3080 0.8686
vn -0.2336 0.5912 0.7719
vn -0.4721 0.2171 0.8544
vn -0.3510 0.0125 0.9363
vn -0.1882 -0.3666 0.9111
vn 0.0265 -0.7253 0.6879
vn 0.0545 -0.7784 0.6254
vn -0.3203 -0.7346 0.5981
vn -0.5606 -0.7368 0.3779
vn -0.6970 -0.6743 0.2439
vn -0.8908 -0.2751 -0.3617
vn -0.6504 -0.7087 -0.2733
vn -0.9127 -0.1702 -0.3714
vn -0.9044 -0.0975 -0.4153
vn -0.7098 0.5228 -0.4721
vn -0.3285 -0.7257 -0.6046
vn -0.0383 -0.7120 -0.7012
vn 0.1338 0.5773 -0.8055
vn -0.2290 0.7116 -0.6642
vn -0.5963 0.6562 -0.4625
vn 0.4141 0.4742 -0.7770
vn 0.8744 0.4382 0.2082
vn 0.6653 0.3575 0.6554
vn -0.0975 -0.6777 0.7289
vn 0.1988 0.4394 0.8760
vn 0.9792 0.1992 0.0381
vn 0.5089 -0.8382 0.1959
vn 0.3406 -0.8673 0.3631
vn 0.1474 -0.8580 0.4921
vn 0.1558 -0.6768 -0.7195
vn -0.7305 0.4445 -0.5185
vn -0.5338 0.6173 0.5779
vn -0.6684 -0.7430 0.0339
usemtl None
s 1
f 1/1/1 139/2/2 189/3/3
f 3/4/4 239/5/5 295/6/6
f 5/7/7 186/8/8 128/9/9
f 7/10/10 236/11/11 288/12/12
f 5/7/7 125/13/13 171/14/14
f 7/10/10 115/15/15 236/11/11
f 1/1/1 163/16/16 139/2/2
f 2/17/17 269/18/18 114/19/19
f 7/10/10 288/12/12 156/20/20
f 13/21/21 118/22/22 161/23/23
f 16/24/24 110/25/25 112/26/26
f 13/27/21 161/28/23 264/29/27
f 17/30/28 302/31/29 133/32/30
f 20/33/31 130/34/32 170/35/33
f 17/30/28 124/36/34 178/37/35
f 20/33/31 227/38/36 130/34/32
f 13/21/21 185/39/37 215/40/38
f 16/24/24 99/41/39 120/42/40
f 20/43/31 170/44/33 291/45/41
f 25/46/42 122/47/43 97/48/44
f 25/46/42 97/48/44 141/49/45
f 27/50/46 188/51/47 240/52/48
f 30/53/49 252/54/50 96/55/51
f 27/50/46 238/56/52 301/57/53
f 30/53/49 144/58/54 252/54/50
f 25/46/42 226/59/55 203/60/56
f 34/61/57 201/62/58 196/63/59
f 30/53/49 96/55/51 281/64/60
f 35/65/61 173/66/62 233/67/63
f 35/65/61 233/67/63 166/68/64
f 37/69/65 119/70/66 278/71/67
f 39/72/68 225/73/69 162/74/70
f 37/69/65 160/75/71 267/76/72
f 39/77/68 266/78/73 225/79/69
f 35/65/61 290/80/74 111/81/75
f 42/82/76 109/83/77 229/84/78
f 39/72/68 162/74/70 274/85/79
f 43/86/80 273/87/81 285/88/82
f 44/89/83 231/90/84 254/91/85
f 45/92/86 283/93/87 95/94/88
f 45/95/86 192/96/89 107/97/90
f 46/98/91 248/99/92 137/100/93
f 44/101/83 134/102/94 200/103/95
f 31/104/96 255/105/97 169/106/98
f 47/107/99 176/108/100 172/109/101
f 48/110/102 230/111/103 265/112/104
f 49/113/105 293/114/106 182/115/107
f 50/116/108 113/117/109 217/118/110
f 49/119/105 289/120/111 148/121/112
f 48/122/102 104/123/113 214/124/114
f 3/4/4 303/125/115 242/126/116
f 2/17/17 114/19/19 143/127/117
f 1/1/1 189/3/3 297/128/118
f 1/1/1 297/128/118 175/129/119
f 5/7/7 128/9/9 125/13/13
f 1/1/1 175/129/119 163/16/16
f 13/21/21 215/40/38 118/22/22
f 16/24/24 120/42/40 110/25/25
f 17/30/28 276/130/120 302/31/29
f 13/27/21 264/29/27 183/131/121
f 17/30/28 133/32/30 124/36/34
f 13/21/21 183/132/121 185/39/37
f 16/24/24 92/133/122 99/41/39
f 24/134/123 275/135/124 305/136/125
f 25/46/42 203/60/56 122/47/43
f 34/61/57 196/63/59 94/137/126
f 27/50/46 247/138/127 188/51/47
f 25/46/42 141/49/45 299/139/128
f 27/50/46 240/52/48 238/56/52
f 25/46/42 299/139/128 226/59/55
f 35/65/61 111/81/75 173/66/62
f 42/82/76 229/84/78 140/140/129
f 37/69/65 286/141/130 119/70/66
f 35/65/61 166/68/64 277/142/131
f 37/69/65 278/71/67 160/75/71
f 35/65/61 277/142/131 290/80/74
f 44/89/83 200/143/95 123/144/132
f 43/145/80 256/146/133 147/147/134
f 43/86/80 147/148/134 273/87/81
f 44/89/83 123/144/132 231/90/84
f 45/92/86 294/149/135 283/93/87
f 44/101/83 254/150/85 187/151/136
f 45/95/86 95/152/88 192/96/89
f 46/98/91 257/153/137 248/99/92
f 44/101/83 187/151/136 134/102/94
f 43/145/80 298/154/138 256/146/133
f 46/98/91 137/100/93 241/155/139
f 48/110/102 214/156/114 223/157/140
f 47/107/99 145/158/141 176/108/100
f 48/110/102 223/157/140 230/111/103
f 48/122/102 265/159/104 159/160/142
f 49/119/105 182/161/107 289/120/111
f 50/116/108 300/162/143 113/117/109
f 48/122/102 159/160/142 104/123/113
f 47/163/99 152/164/144 145/165/141
f 50/116/108 217/118/110 195/166/145
f 339/167/146 91/168/147 53/169/148 136/170/149
f 338/171/150 245/172/151 56/173/152 304/174/153
f 337/175/154 261/176/155 60/177/156 101/178/157
f 336/179/158 158/180/159 62/181/160 234/182/161
f 335/183/162 177/184/163 63/185/164 272/186/165
f 334/187/166 146/188/167 64/189/168 149/190/169
f 333/191/170 102/192/171 61/193/172 165/194/173
f 332/195/174 150/196/175 66/197/176 287/198/177
f 331/199/178 132/200/179 54/201/180 126/202/181
f 330/203/182 181/204/183 55/205/184 296/206/185
f 329/207/186 218/208/187 68/209/188 151/210/189
f 328/211/190 142/212/191 69/213/192 108/214/193
f 327/215/194 263/216/195 71/217/196 210/218/197
f 326/219/198 213/220/199 67/221/200 216/222/201
f 325/223/202 150/196/175 51/224/203 271/225/204
f 324/226/205 262/227/206 73/228/207 98/229/208
f 323/230/209 244/231/210 75/232/211 135/233/212
f 322/234/213 250/235/214 77/236/215 100/237/216
f 321/238/217 243/239/218 79/240/219 202/241/220
f 320/242/221 199/243/222 80/244/223 184/245/224
f 319/246/225 168/247/226 74/248/227 131/249/228
f 318/250/229 260/251/230 82/252/231 259/253/232
f 317/254/233 253/255/234 81/256/235 117/257/236
f 316/258/237 164/259/238 83/260/239 224/261/240
f 315/262/241 174/263/242 57/264/243 93/265/244
f 314/266/245 270/267/246 84/268/247 157/269/248
f 313/270/249 212/271/250 72/272/251 228/273/252
f 312/274/253 190/275/254 78/276/255 106/277/256
f 311/278/257 221/279/258 85/280/259 103/281/260
f 310/282/261 284/283/262 86/284/263 198/285/264
f 309/286/265 249/287/266 88/288/267 258/289/268
f 308/290/269 194/291/270 89/292/271 129/293/272
f 307/294/273 220/295/274 87/296/275 204/297/276
f 194/291/270 307/294/273 204/297/276 89/292/271
f 85/280/259 106/277/256 307/294/273 194/291/270
f 106/277/256 78/276/255 220/295/274 307/294/273
f 249/298/266 308/290/269 129/293/272 88/299/267
f 84/300/247 103/281/260 308/290/269 249/298/266
f 103/281/260 85/280/259 194/291/270 308/290/269
f 284/283/262 309/286/265 258/289/268 86/284/263
f 77/236/215 157/269/248 309/286/265 284/283/262
f 157/269/248 84/268/247 249/287/266 309/286/265
f 220/295/274 310/282/261 198/285/264 87/296/275
f 78/276/255 100/237/216 310/282/261 220/295/274
f 100/237/216 77/236/215 284/283/262 310/282/261
f 270/301/246 311/278/257 103/281/260 84/300/247
f 68/302/188 216/303/201 311/278/257 270/301/246
f 216/303/201 67/304/200 221/279/258 311/278/257
f 221/279/258 312/274/253 106/277/256 85/280/259
f 67/304/200 193/305/277 312/274/253 221/279/258
f 193/305/277 76/306/278 190/275/254 312/274/253
f 243/307/218 313/270/249 228/273/252 79/308/219
f 76/309/278 193/310/277 313/270/249 243/307/218
f 193/310/277 67/221/200 212/271/250 313/270/249
f 250/235/214 314/266/245 157/269/248 77/236/215
f 69/311/192 151/312/189 314/266/245 250/235/214
f 151/312/189 68/313/188 270/267/246 314/266/245
f 177/184/163 315/262/241 93/265/244 63/185/164
f 54/201/180 136/170/149 315/262/241 177/184/163
f 136/170/149 53/169/148 174/263/242 315/262/241
f 260/251/230 316/258/237 224/261/240 82/252/231
f 75/314/211 184/315/224 316/258/237 260/251/230
f 184/315/224 80/316/223 164/259/238 316/258/237
f 164/259/238 317/254/233 117/257/236 83/260/239
f 80/316/223 202/317/220 317/254/233 164/259/238
f 202/317/220 79/318/219 253/255/234 317/254/233
f 262/227/206 318/250/229 259/253/232 73/228/207
f 71/319/196 135/320/212 318/250/229 262/227/206
f 135/320/212 75/314/211 260/251/230 318/250/229
f 253/321/234 319/246/225 131/249/228 81/322/235
f 79/323/219 228/324/252 319/246/225 253/321/234
f 228/324/252 72/325/251 168/247/226 319/246/225
f 244/231/210 320/242/221 184/245/224 75/232/211
f 70/326/279 108/214/193 320/242/221 244/231/210
f 108/214/193 69/213/192 199/243/222 320/242/221
f 199/243/222 321/238/217 202/241/220 80/244/223
f 69/213/192 197/327/280 321/238/217 199/243/222
f 197/327/280 76/328/278 243/239/218 321/238/217
f 190/275/254 322/234/213 100/237/216 78/276/255
f 76/306/278 197/329/280 322/234/213 190/275/254
f 197/329/280 69/311/192 250/235/214 322/234/213
f 263/216/195 323/230/209 135/233/212 71/217/196
f 66/197/176 207/330/281 323/230/209 263/216/195
f 207/330/281 70/326/279 244/231/210 323/230/209
f 168/247/226 324/226/205 98/229/208 74/248/227
f 72/325/251 210/331/197 324/226/205 168/247/226
f 210/331/197 71/319/196 262/227/206 324/226/205
f 180/332/282 325/223/202 271/225/204 59/333/283
f 70/326/279 207/330/281 325/223/202 180/332/282
f 207/330/281 66/197/176 150/196/175 325/223/202
f 218/334/187 326/219/198 216/222/201 68/335/188
f 65/336/284 279/337/285 326/219/198 218/334/187
f 279/337/285 52/338/286 213/220/199 326/219/198
f 212/271/250 327/215/194 210/218/197 72/272/251
f 67/221/200 287/198/177 327/215/194 212/271/250
f 287/198/177 66/197/176 263/216/195 327/215/194
f 180/332/282 328/211/190 108/214/193 70/326/279
f 59/333/283 206/339/287 328/211/190 180/332/282
f 206/339/287 58/340/288 142/212/191 328/211/190
f 142/212/191 329/207/186 151/210/189 69/213/192
f 58/340/288 90/341/289 329/207/186 142/212/191
f 90/341/289 65/342/284 218/208/187 329/207/186
f 91/168/147 330/203/182 296/206/185 53/169/148
f 52/338/286 279/337/285 330/203/182 91/168/147
f 279/337/285 65/336/284 181/204/183 330/203/182
f 261/176/155 331/199/178 126/202/181 60/177/156
f 59/333/283 271/225/204 331/199/178 261/176/155
f 271/225/204 51/224/203 132/200/179 331/199/178
f 213/220/199 332/195/174 287/198/177 67/221/200
f 52/338/286 251/343/290 332/195/174 213/220/199
f 251/343/290 51/224/203 150/196/175 332/195/174
f 181/344/183 333/191/170 165/194/173 55/345/184
f 65/342/284 90/341/289 333/191/170 181/344/183
f 90/341/289 58/340/288 102/192/171 333/191/170
f 158/180/159 334/187/166 149/190/169 62/181/160
f 61/193/172 101/178/157 334/187/166 158/180/159
f 101/178/157 60/177/156 146/188/167 334/187/166
f 146/188/167 335/183/162 272/186/165 64/189/168
f 60/177/156 126/202/181 335/183/162 146/188/167
f 126/202/181 54/201/180 177/184/163 335/183/162
f 245/346/151 336/179/158 234/182/161 56/347/152
f 55/345/184 165/194/173 336/179/158 245/346/151
f 165/194/173 61/193/172 158/180/159 336/179/158
f 102/192/171 337/175/154 101/178/157 61/193/172
f 58/340/288 206/339/287 337/175/154 102/192/171
f 206/339/287 59/333/283 261/176/155 337/175/154
f 174/263/242 338/171/150 304/174/153 57/264/243
f 53/169/148 296/206/185 338/171/150 174/263/242
f 296/206/185 55/205/184 245/172/151 338/171/150
f 132/200/179 339/167/146 136/170/149 54/201/180
f 51/224/203 251/343/290 339/167/146 132/200/179
f 251/343/290 52/338/286 91/168/147 339/167/146
f 195/166/145 242/126/116 38/348/291
f 195/166/145 217/118/110 242/126/116
f 217/118/110 3/4/4 242/126/116
f 145/165/141 219/349/292 36/350/293
f 145/165/141 152/164/144 219/349/292
f 152/164/144 38/348/291 219/349/292
f 104/123/113 195/166/145 38/348/291
f 104/123/113 159/160/142 195/166/145
f 159/160/142 50/116/108 195/166/145
f 113/117/109 208/351/294 4/352/295
f 113/117/109 300/162/143 208/351/294
f 300/162/143 14/353/296 208/351/294
f 289/120/111 268/354/297 14/353/296
f 289/120/111 182/161/107 268/354/297
f 182/161/107 15/355/298 268/354/297
f 159/160/142 148/121/112 50/116/108
f 159/160/142 265/159/104 148/121/112
f 265/159/104 49/119/105 148/121/112
f 230/111/103 153/356/299 18/357/300
f 230/111/103 223/157/140 153/356/299
f 223/157/140 26/358/301 153/356/299
f 176/108/100 232/359/302 28/360/303
f 176/108/100 145/158/141 232/359/302
f 145/158/141 36/361/293 232/359/302
f 223/157/140 172/109/101 26/358/301
f 223/157/140 214/156/114 172/109/101
f 214/156/114 47/107/99 172/109/101
f 241/155/139 205/362/304 31/104/96
f 241/155/139 137/100/93 205/362/304
f 137/100/93 32/363/305 205/362/304
f 256/146/133 169/106/98 41/364/306
f 256/146/133 298/154/138 169/106/98
f 298/154/138 31/104/96 169/106/98
f 134/102/94 241/155/139 31/104/96
f 134/102/94 187/151/136 241/155/139
f 187/151/136 46/98/91 241/155/139
f 248/99/92 121/365/307 23/366/308
f 248/99/92 257/153/137 121/365/307
f 257/153/137 21/367/309 121/365/307
f 192/96/89 282/368/310 21/367/309
f 192/96/89 95/152/88 282/368/310
f 95/152/88 22/369/311 282/368/310
f 187/151/136 107/97/90 46/98/91
f 187/151/136 254/150/85 107/97/90
f 254/150/85 45/95/86 107/97/90
f 283/93/87 211/370/312 10/371/313
f 283/93/87 294/149/135 211/370/312
f 294/149/135 8/372/314 211/370/312
f 231/90/84 179/373/315 8/372/314
f 231/90/84 123/144/132 179/373/315
f 123/144/132 9/374/316 179/373/315
f 273/87/81 116/375/317 11/376/318
f 273/87/81 147/148/134 116/375/317
f 147/148/134 40/377/319 116/375/317
f 147/147/134 280/378/320 40/379/319
f 147/147/134 256/146/133 280/378/320
f 256/146/133 41/364/306 280/378/320
f 123/144/132 285/88/82 9/374/316
f 123/144/132 200/143/95 285/88/82
f 200/143/95 43/86/80 285/88/82
f 290/80/74 274/85/79 33/380/321
f 290/80/74 277/142/131 274/85/79
f 277/142/131 39/72/68 274/85/79
f 160/75/71 209/381/322 11/376/318
f 160/75/71 278/71/67 209/381/322
f 278/71/67 12/382/323 209/381/322
f 277/142/131 267/383/72 39/72/68
f 277/142/131 166/68/64 267/383/72
f 166/68/64 37/384/65 267/383/72
f 119/70/66 219/349/292 38/348/291
f 119/70/66 286/141/130 219/349/292
f 286/141/130 36/350/293 219/349/292
f 140/140/129 138/385/324 28/360/303
f 140/140/129 229/84/78 138/385/324
f 229/84/78 29/386/325 138/385/324
f 173/66/62 140/140/129 28/360/303
f 173/66/62 111/81/75 140/140/129
f 111/81/75 42/82/76 140/140/129
f 226/59/55 281/64/60 23/366/308
f 226/59/55 299/139/128 281/64/60
f 299/139/128 30/53/49 281/64/60
f 238/56/52 246/387/326 33/380/321
f 238/56/52 240/52/48 246/387/326
f 240/52/48 29/386/325 246/387/326
f 299/139/128 301/57/53 30/53/49
f 299/139/128 141/49/45 301/57/53
f 141/49/45 27/50/46 301/57/53
f 188/51/47 306/388/327 28/360/303
f 188/51/47 247/138/127 306/388/327
f 247/138/127 26/358/301 306/388/327
f 94/137/126 237/389/328 18/357/300
f 94/137/126 196/63/59 237/389/328
f 196/63/59 19/390/329 237/389/328
f 122/47/43 94/137/126 18/357/300
f 122/47/43 203/60/56 94/137/126
f 203/60/56 34/61/57 94/137/126
f 305/136/125 191/391/330 10/371/313
f 305/136/125 275/135/124 191/391/330
f 275/135/124 22/392/311 191/391/330
f 99/41/39 305/136/125 10/371/313
f 99/41/39 92/133/122 305/136/125
f 92/133/122 24/134/123 305/136/125
f 185/39/37 291/45/41 24/134/123
f 185/39/37 183/132/121 291/45/41
f 183/132/121 20/43/31 291/45/41
f 124/36/34 127/393/331 23/366/308
f 124/36/34 133/32/30 127/393/331
f 133/32/30 19/390/329 127/393/331
f 183/131/121 178/37/35 20/33/31
f 183/131/121 264/29/27 178/37/35
f 264/29/27 17/30/28 178/37/35
f 302/31/29 292/394/332 18/357/300
f 302/31/29 276/130/120 292/394/332
f 276/130/120 15/395/298 292/394/332
f 110/25/25 235/396/333 4/352/295
f 110/25/25 120/42/40 235/396/333
f 120/42/40 6/397/334 235/396/333
f 118/22/22 112/26/26 14/353/296
f 118/22/22 215/40/38 112/26/26
f 215/40/38 16/24/24 112/26/26
f 163/16/16 156/20/20 11/376/318
f 163/16/16 175/129/119 156/20/20
f 175/129/119 7/10/10 156/20/20
f 125/13/13 222/398/335 10/371/313
f 125/13/13 128/9/9 222/398/335
f 128/9/9 6/397/334 222/398/335
f 175/129/119 171/14/14 7/10/10
f 175/129/119 297/128/118 171/14/14
f 297/128/118 5/7/7 171/14/14
f 297/128/118 295/6/6 5/7/7
f 297/128/118 189/3/3 295/6/6
f 189/3/3 3/4/4 295/6/6
f 143/127/117 105/399/336 38/348/291
f 143/127/117 114/19/19 105/399/336
f 114/19/19 12/382/323 105/399/336
f 242/126/116 143/127/117 38/348/291
f 242/126/116 303/125/115 143/127/117
f 303/125/115 2/17/17 143/127/117
f 214/124/114 152/164/144 47/163/99
f 214/124/114 104/123/113 152/164/144
f 104/123/113 38/348/291 152/164/144
f 148/121/112 300/162/143 50/116/108
f 148/121/112 289/120/111 300/162/143
f 289/120/111 14/353/296 300/162/143
f 217/118/110 239/5/5 3/4/4
f 217/118/110 113/117/109 239/5/5
f 113/117/109 4/352/295 239/5/5
f 182/115/107 292/394/332 15/395/298
f 182/115/107 293/114/106 292/394/332
f 293/114/106 18/357/300 292/394/332
f 265/112/104 293/114/106 49/113/105
f 265/112/104 230/111/103 293/114/106
f 230/111/103 18/357/300 293/114/106
f 172/109/101 306/388/327 26/358/301
f 172/109/101 176/108/100 306/388/327
f 176/108/100 28/360/303 306/388/327
f 169/106/98 155/400/337 41/364/306
f 169/106/98 255/105/97 155/400/337
f 255/105/97 33/380/321 155/400/337
f 200/103/95 298/154/138 43/145/80
f 200/103/95 134/102/94 298/154/138
f 134/102/94 31/104/96 298/154/138
f 137/100/93 167/401/338 32/363/305
f 137/100/93 248/99/92 167/401/338
f 248/99/92 23/366/308 167/401/338
f 107/97/90 257/153/137 46/98/91
f 107/97/90 192/96/89 257/153/137
f 192/96/89 21/367/309 257/153/137
f 95/94/88 191/391/330 22/392/311
f 95/94/88 283/93/87 191/391/330
f 283/93/87 10/371/313 191/391/330
f 254/91/85 294/149/135 45/92/86
f 254/91/85 231/90/84 294/149/135
f 231/90/84 8/372/314 294/149/135
f 285/88/82 154/402/339 9/374/316
f 285/88/82 273/87/81 154/402/339
f 273/87/81 11/376/318 154/402/339
f 274/85/79 155/400/337 33/380/321
f 274/85/79 162/74/70 155/400/337
f 162/74/70 41/364/306 155/400/337
f 229/84/78 246/387/326 29/386/325
f 229/84/78 109/83/77 246/387/326
f 109/83/77 33/380/321 246/387/326
f 111/81/75 109/83/77 42/82/76
f 111/81/75 290/80/74 109/83/77
f 290/80/74 33/380/321 109/83/77
f 225/79/69 116/375/317 40/377/319
f 225/79/69 266/78/73 116/375/317
f 266/78/73 11/376/318 116/375/317
f 267/76/72 266/78/73 39/77/68
f 267/76/72 160/75/71 266/78/73
f 160/75/71 11/376/318 266/78/73
f 162/74/70 280/378/320 41/364/306
f 162/74/70 225/73/69 280/378/320
f 225/73/69 40/379/319 280/378/320
f 278/71/67 105/399/336 12/382/323
f 278/71/67 119/70/66 105/399/336
f 119/70/66 38/348/291 105/399/336
f 166/68/64 286/403/130 37/384/65
f 166/68/64 233/67/63 286/403/130
f 233/67/63 36/361/293 286/403/130
f 233/67/63 232/359/302 36/361/293
f 233/67/63 173/66/62 232/359/302
f 173/66/62 28/360/303 232/359/302
f 281/64/60 167/401/338 23/366/308
f 281/64/60 96/55/51 167/401/338
f 96/55/51 32/363/305 167/401/338
f 196/63/59 127/393/331 19/390/329
f 196/63/59 201/62/58 127/393/331
f 201/62/58 23/366/308 127/393/331
f 203/60/56 201/62/58 34/61/57
f 203/60/56 226/59/55 201/62/58
f 226/59/55 23/366/308 201/62/58
f 252/54/50 255/105/97 31/104/96
f 252/54/50 144/58/54 255/105/97
f 144/58/54 33/380/321 255/105/97
f 301/57/53 144/58/54 30/53/49
f 301/57/53 238/56/52 144/58/54
f 238/56/52 33/380/321 144/58/54
f 96/55/51 205/362/304 32/363/305
f 96/55/51 252/54/50 205/362/304
f 252/54/50 31/104/96 205/362/304
f 240/52/48 138/385/324 29/386/325
f 240/52/48 188/51/47 138/385/324
f 188/51/47 28/360/303 138/385/324
f 141/49/45 247/138/127 27/50/46
f 141/49/45 97/48/44 247/138/127
f 97/48/44 26/358/301 247/138/127
f 97/48/44 153/356/299 26/358/301
f 97/48/44 122/47/43 153/356/299
f 122/47/43 18/357/300 153/356/299
f 291/45/41 275/135/124 24/134/123
f 291/45/41 170/44/33 275/135/124
f 170/44/33 22/392/311 275/135/124
f 120/42/40 222/398/335 6/397/334
f 120/42/40 99/41/39 222/398/335
f 99/41/39 10/371/313 222/398/335
f 215/40/38 92/133/122 16/24/24
f 215/40/38 185/39/37 92/133/122
f 185/39/37 24/134/123 92/133/122
f 130/34/32 121/365/307 21/367/309
f 130/34/32 227/38/36 121/365/307
f 227/38/36 23/366/308 121/365/307
f 178/37/35 227/38/36 20/33/31
f 178/37/35 124/36/34 227/38/36
f 124/36/34 23/366/308 227/38/36
f 170/35/33 282/368/310 22/369/311
f 170/35/33 130/34/32 282/368/310
f 130/34/32 21/367/309 282/368/310
f 133/32/30 237/389/328 19/390/329
f 133/32/30 302/31/29 237/389/328
f 302/31/29 18/357/300 237/389/328
f 264/29/27 276/130/120 17/30/28
f 264/29/27 161/28/23 276/130/120
f 161/28/23 15/395/298 276/130/120
f 112/26/26 208/351/294 14/353/296
f 112/26/26 110/25/25 208/351/294
f 110/25/25 4/352/295 208/351/294
f 161/23/23 268/354/297 15/355/298
f 161/23/23 118/22/22 268/354/297
f 118/22/22 14/353/296 268/354/297
f 156/20/20 154/402/339 11/376/318
f 156/20/20 288/12/12 154/402/339
f 288/12/12 9/374/316 154/402/339
f 114/19/19 209/381/322 12/382/323
f 114/19/19 269/18/18 209/381/322
f 269/18/18 11/376/318 209/381/322
f 139/2/2 269/18/18 2/17/17
f 139/2/2 163/16/16 269/18/18
f 163/16/16 11/376/318 269/18/18
f 236/11/11 211/370/312 8/372/314
f 236/11/11 115/15/15 211/370/312
f 115/15/15 10/371/313 211/370/312
f 171/14/14 115/15/15 7/10/10
f 171/14/14 125/13/13 115/15/15
f 125/13/13 10/371/313 115/15/15
f 288/12/12 179/373/315 9/374/316
f 288/12/12 236/11/11 179/373/315
f 236/11/11 8/372/314 179/373/315
f 128/9/9 235/396/333 6/397/334
f 128/9/9 186/8/8 235/396/333
f 186/8/8 4/352/295 235/396/333
f 295/6/6 186/8/8 5/7/7
f 295/6/6 239/5/5 186/8/8
f 239/5/5 4/352/295 186/8/8
f 189/3/3 303/125/115 3/4/4
f 189/3/3 139/2/2 303/125/115
f 139/2/2 2/17/17 303/125/115
