# Blender v2.78 (sub 0) OBJ File: ''
# www.blender.org
mtllib Birch_Tree_NoLeaves_l_01.mtl
o Birch_Tree_NoLeaves_l_01
v -0.162157 0.047598 0.157441
v 0.031425 0.679550 0.160445
v -0.042234 0.679550 -0.061477
v -0.256808 0.047598 -0.060137
v -0.009009 0.047598 -0.194607
v 0.150609 0.679550 -0.198633
v 0.343451 0.679550 -0.061477
v 0.238790 0.047598 -0.060137
v 0.144138 0.047598 0.157441
v 0.269792 0.679550 0.160445
v 0.443355 1.674463 -0.056679
v 0.380188 1.691446 0.138944
v 0.174539 1.691446 0.138944
v 0.110991 1.691446 -0.056640
v 0.277364 1.691446 -0.177517
v 0.382807 3.983751 -0.153529
v 0.539489 3.678542 -0.048949
v 0.468464 3.985620 0.114284
v 0.255030 3.916184 0.117689
v 0.199998 3.915694 -0.051833
v 0.165794 5.047132 -0.125252
v 0.272085 5.083529 -0.045149
v 0.485401 4.368173 -0.055516
v 0.233133 5.058969 0.085783
v 0.098455 5.035295 0.085783
v 0.056837 5.027980 -0.044644
v 0.123179 7.396519 -0.039075
v 0.090769 7.398211 0.061101
v -0.014111 7.403682 0.061101
v -0.046521 7.405373 -0.039075
v 0.038329 7.400947 -0.100987
v 0.103521 10.227212 -0.085114
v 0.171851 10.229495 -0.035417
v 0.145752 10.228623 0.044994
v 0.061291 10.225801 0.044994
v 0.035191 10.224930 -0.035417
v -0.103486 12.663447 -0.027116
v -0.114978 12.662964 0.008285
v -0.152167 12.661400 0.008285
v -0.163388 12.660821 -0.027316
v -0.133849 12.662066 -0.048796
v -0.122685 14.333986 -0.026334
v -0.105794 14.434885 -0.021453
v -0.109256 14.401930 -0.009733
v -0.120568 14.434263 -0.010709
v 1.215268 5.220777 0.125177
v 1.133500 5.322527 0.016901
v 1.305757 5.166948 0.025189
v 1.188603 5.189470 -0.052170
v 1.712690 6.910222 0.282707
v 1.642485 6.957128 0.202577
v 1.780301 6.905180 0.212215
v 1.707981 6.878878 0.153531
v 1.890185 8.557335 0.332359
v 1.931347 8.531347 0.319396
v 1.959950 8.552670 0.347421
v 1.922871 8.550258 0.373589
v 1.953822 10.195161 0.478646
v 1.942060 10.230037 0.460096
v 1.968952 10.229147 0.466262
v 1.959031 10.185600 0.449909
v 1.670902 6.918535 0.173816
v 0.131975 1.691446 0.044658
v -0.119917 13.614578 -0.001924
v 1.748209 6.889565 0.179194
v 1.465072 6.021127 0.048895
v 1.399240 6.123933 0.108325
v 0.800597 4.782143 -0.025069
v 0.319208 2.794977 -0.167372
v 0.259634 5.072684 0.022646
v 0.038368 1.139453 -0.059197
v -0.107360 12.663284 -0.008807
v -0.007478 7.403427 -0.074701
v 1.673519 6.936138 0.246320
v -0.111452 14.533357 -0.016522
v 0.153648 6.177849 0.072892
v 0.150609 0.679550 0.173425
v 0.223281 5.066218 -0.091300
v 0.128808 0.047598 -0.141374
v -0.159649 12.661031 -0.008907
v -0.113922 14.454398 -0.010458
v 0.318967 0.679550 0.053495
v 1.951415 10.243123 0.457254
v -0.062747 11.470461 -0.031315
v 0.337640 4.496759 0.101612
v 0.065828 0.332077 -0.199955
v -0.112465 14.453601 -0.023566
v 0.106974 5.036670 -0.091047
v 0.911406 4.430696 -0.017076
v -0.119985 14.453283 -0.018097
v 0.043705 10.225174 0.006264
v 0.140490 10.228472 -0.064127
v 1.963949 10.242706 0.460126
v 0.017107 11.473821 0.026754
v 0.291001 0.332076 -0.061790
v 0.259400 4.489928 -0.141309
v 0.218103 3.915938 0.035986
v 1.948721 10.248045 0.472159
v 0.471823 2.662470 -0.054634
v 1.169578 5.276710 0.076043
v 0.367028 1.682954 -0.126277
v 0.277364 1.691446 0.150289
v 0.844521 4.592448 0.112067
v 0.442677 4.254860 -0.111222
v 0.223236 2.803468 0.128608
v -0.159345 0.332076 -0.061790
v 1.969805 9.434735 0.410611
v 0.163338 10.229250 0.006264
v -0.002095 6.165348 -0.041730
v 1.154794 5.259045 -0.023136
v 0.046558 0.679550 -0.140556
v 0.789277 4.575750 -0.108080
v 0.522058 3.786640 0.038351
v -0.232002 0.047598 0.054000
v 1.479304 6.053861 0.201835
v 1.251986 5.173151 -0.018494
v -0.117511 12.662805 -0.039549
v 0.112446 7.396932 0.012797
v 1.779011 7.754338 0.269089
v 0.187509 1.691446 -0.126257
v -0.143432 13.613537 -0.002024
v -0.073337 0.332076 0.161768
v -0.133573 12.662180 0.010255
v 1.947981 8.541391 0.332366
v 0.026961 8.814176 0.053467
v 1.882675 7.728558 0.281763
v 0.365196 4.635526 -0.052462
v 1.560823 6.031788 0.117101
v -0.013395 11.472538 -0.067204
v 0.070621 5.030203 0.022899
v 1.750826 6.907169 0.251699
v 0.475158 3.785634 -0.109013
v -0.112745 13.614828 -0.024339
v -0.150947 12.746929 -0.038951
v 0.106431 1.139453 0.150281
v 0.394753 1.139453 -0.059197
v 0.254660 0.679550 -0.140556
v 0.122247 8.811881 0.053467
v 0.094159 6.173075 -0.112570
v 0.190414 6.180800 -0.041730
v -0.035788 7.404959 0.012797
v 0.488537 4.256263 0.033062
v -0.107071 14.454687 -0.015439
v -0.043896 11.471254 0.026754
v 0.165794 5.047132 0.093321
v 0.216560 1.139453 -0.188661
v 0.035958 11.474614 -0.031315
v 0.074604 8.813028 -0.093470
v -0.009010 0.047598 0.174748
v 0.103521 10.227212 0.049768
v 0.182494 4.474475 0.101864
v 1.956732 10.324873 0.470362
v 1.961256 10.247628 0.475031
v 0.266219 3.916335 -0.112224
v 0.213984 0.047598 0.054000
v 1.266770 5.190816 0.080684
v 0.422562 1.682954 0.044638
v 1.951318 9.418463 0.390243
v -0.137362 13.533989 -0.036657
v 0.163803 2.803468 -0.054305
v 0.344073 3.916977 0.127585
v 1.909012 8.543834 0.323868
v 0.066553 10.225953 -0.064127
v 1.904196 8.554415 0.354017
v -0.146827 0.047598 -0.141374
v 1.833202 7.703326 0.238533
v 0.326690 1.139453 0.150281
v 1.943999 9.432384 0.429612
v -0.002483 8.814886 -0.037345
v -0.017750 0.679550 0.053495
v -0.149685 13.533471 -0.027696
v 0.134140 4.470253 -0.048269
v 1.921957 9.436128 0.399410
v 0.151691 8.811171 -0.037345
v 0.415372 2.794977 0.128589
v 0.204993 0.332076 0.161768
v 0.084136 7.398465 -0.074701
v 0.038329 7.400946 0.066873
v 0.034670 6.168299 0.072892
v 1.943165 8.551971 0.362515
v 1.830587 7.728699 0.329605
v 1.962223 9.426138 0.399579
v 1.935417 9.426918 0.393304
v 1.958122 9.433937 0.421634
v 1.931317 9.434717 0.415359
v 1.859674 7.728617 0.308808
v 1.801599 7.743059 0.301708
v 1.861138 7.714402 0.257787
v 1.803064 7.728844 0.250687
v 1.517385 6.022697 0.078657
v 1.426862 6.074319 0.073740
v 1.525357 6.041035 0.164337
v 1.434835 6.092657 0.159421
v 0.852015 4.492137 -0.068966
v 0.789937 4.689026 -0.073444
v 0.882964 4.501492 0.054365
v 0.820886 4.698381 0.049887
v 0.358970 4.571171 0.027142
v -0.147199 13.612938 -0.013710
v -0.115020 13.614784 -0.012777
v -0.131743 13.614080 -0.000616
v -0.122691 13.613970 -0.031532
v -0.040051 11.471416 -0.051987
v -0.013395 11.472537 0.030125
v 0.013262 11.473660 -0.051987
v -0.056525 11.470722 -0.001239
v 0.029736 11.474353 -0.001239
v 0.007235 8.814651 0.009690
v 0.141973 8.811405 0.009690
v 0.032968 8.814032 -0.069673
v 0.074604 8.813028 0.058740
v 0.116241 8.812025 -0.069673
v 0.042170 6.168901 -0.082534
v 0.094159 6.173074 0.079548
v 0.146148 6.177248 -0.082534
v 0.010039 6.166323 0.017638
v 0.178280 6.179826 0.017638
v 0.150099 4.471646 0.029491
v 0.192358 4.475336 -0.101715
v 0.260733 4.481306 0.110581
v 0.316711 4.567481 -0.104064
v 0.183419 2.803468 0.040433
v 0.453602 2.724478 0.040249
v 0.235359 2.803468 -0.119421
v 0.319399 2.803468 0.139229
v 0.401663 2.724478 -0.119605
v 0.120315 1.139453 -0.133769
v 0.216561 1.139453 0.162444
v 0.312806 1.139453 -0.133769
v 0.060832 1.139453 0.049300
v 0.372289 1.139453 0.049300
v 0.262614 0.332076 0.054000
v -0.055792 0.332077 -0.141374
v 0.065828 0.332076 0.174748
v 0.187449 0.332077 -0.141374
v -0.130958 0.332076 0.054000
vt 0.1291 0.0633
vt 0.1291 0.1011
vt 0.1152 0.1002
vt 0.1155 0.0619
vt 0.0720 0.0727
vt 0.0747 0.1082
vt 0.0615 0.1109
vt 0.0574 0.0762
vt 0.1578 0.0689
vt 0.1564 0.1053
vt 0.1430 0.1021
vt 0.1427 0.0648
vt 0.1011 0.0656
vt 0.1016 0.1028
vt 0.0880 0.1055
vt 0.0866 0.0693
vt 0.1865 0.0752
vt 0.1831 0.1102
vt 0.1697 0.1085
vt 0.1729 0.0731
vt 0.1797 0.1612
vt 0.1764 0.2122
vt 0.1644 0.2112
vt 0.1671 0.1599
vt 0.1286 0.1546
vt 0.1281 0.2081
vt 0.1160 0.2077
vt 0.1156 0.1540
vt 0.0773 0.1596
vt 0.0798 0.2109
vt 0.0677 0.2121
vt 0.0646 0.1615
vt 0.1543 0.1576
vt 0.1523 0.2098
vt 0.1402 0.2085
vt 0.1416 0.1553
vt 0.1028 0.1558
vt 0.1039 0.2087
vt 0.0919 0.2097
vt 0.0899 0.1576
vt 0.0814 0.3329
vt 0.0830 0.4549
vt 0.0721 0.4380
vt 0.0699 0.3250
vt 0.1499 0.3413
vt 0.1476 0.4728
vt 0.1370 0.4731
vt 0.1386 0.3408
vt 0.1043 0.3406
vt 0.1046 0.4725
vt 0.0940 0.4718
vt 0.0930 0.3408
vt 0.1729 0.3338
vt 0.1695 0.4554
vt 0.1582 0.4725
vt 0.1613 0.3418
vt 0.1271 0.3406
vt 0.1261 0.4732
vt 0.1153 0.4732
vt 0.1156 0.3404
vt 0.0869 0.5348
vt 0.0897 0.5812
vt 0.0818 0.5818
vt 0.0780 0.5434
vt 0.1422 0.5274
vt 0.1368 0.5820
vt 0.1290 0.5808
vt 0.1330 0.5270
vt 0.1051 0.5264
vt 0.1055 0.5802
vt 0.0977 0.5806
vt 0.0958 0.5262
vt 0.1237 0.5267
vt 0.1212 0.5803
vt 0.1134 0.5798
vt 0.1143 0.5265
vt 0.0954 0.7646
vt 0.0937 0.8984
vt 0.0890 0.8985
vt 0.0899 0.7644
vt 0.0739 0.7645
vt 0.0751 0.9004
vt 0.0704 0.9008
vt 0.0685 0.7646
vt 0.0525 0.7653
vt 0.0565 0.8993
vt 0.0518 0.8989
vt 0.0472 0.7656
vt 0.0846 0.7644
vt 0.0844 0.8993
vt 0.0799 0.9001
vt 0.0793 0.7643
vt 0.0632 0.7648
vt 0.0658 0.9003
vt 0.0611 0.8998
vt 0.0579 0.7650
vt 0.1562 0.7810
vt 0.1581 0.9330
vt 0.1532 0.9331
vt 0.1508 0.7810
vt 0.1886 0.7810
vt 0.1877 0.9327
vt 0.1829 0.9326
vt 0.1832 0.7810
vt 0.1671 0.7811
vt 0.1680 0.9327
vt 0.1630 0.9328
vt 0.1617 0.7810
vt 0.1995 0.7810
vt 0.1975 0.9329
vt 0.1926 0.9328
vt 0.1939 0.7809
vt 0.1779 0.7811
vt 0.1779 0.9326
vt 0.1729 0.9326
vt 0.1725 0.7811
vt 0.1831 0.8927
vt 0.1789 0.9958
vt 0.1771 0.9957
vt 0.1803 0.8927
vt 0.1718 0.8926
vt 0.1718 0.9957
vt 0.1700 0.9957
vt 0.1689 0.8926
vt 0.1603 0.8927
vt 0.1647 0.9958
vt 0.1629 0.9958
vt 0.1575 0.8928
vt 0.1775 0.8926
vt 0.1753 0.9957
vt 0.1735 0.9957
vt 0.1746 0.8926
vt 0.1660 0.8926
vt 0.1682 0.9957
vt 0.1665 0.9957
vt 0.1632 0.8927
vt 0.0176 0.8275
vt 0.0194 0.9128
vt 0.0180 0.9131
vt 0.0160 0.8277
vt 0.0259 0.8276
vt 0.0255 0.9129
vt 0.0240 0.9128
vt 0.0243 0.8275
vt 0.0211 0.7422
vt 0.0210 0.8273
vt 0.0193 0.7422
vt 0.0292 0.8277
vt 0.0284 0.9130
vt 0.0269 0.9130
vt 0.0276 0.8276
vt 0.0226 0.8274
vt 0.0225 0.9126
vt 0.0209 0.9124
vt 0.0313 0.4848
vt 0.0322 0.4855
vt 0.0313 0.4857
vt 0.0326 0.4849
vt 0.0328 0.4855
vt 0.0320 0.4848
vt 0.1597 0.5376
vt 0.1680 0.5473
vt 0.1607 0.5853
vt 0.1527 0.5842
vt 0.1081 0.2566
vt 0.1201 0.2481
vt 0.1170 0.3243
vt 0.1067 0.3274
vt 0.1321 0.2424
vt 0.1441 0.2366
vt 0.1343 0.3248
vt 0.1256 0.3246
vt 0.0887 0.2529
vt 0.0961 0.2650
vt 0.0964 0.3306
vt 0.0882 0.3245
vt 0.0685 0.2383
vt 0.0812 0.2407
vt 0.0801 0.3184
vt 0.0723 0.3224
vt 0.1126 0.4270
vt 0.1211 0.4243
vt 0.1252 0.5242
vt 0.1185 0.5265
vt 0.1284 0.4245
vt 0.1357 0.4248
vt 0.1371 0.5248
vt 0.1312 0.5245
vt 0.0970 0.4247
vt 0.1040 0.4297
vt 0.1117 0.5287
vt 0.1057 0.5249
vt 0.0837 0.4237
vt 0.0899 0.4197
vt 0.0997 0.5211
vt 0.0951 0.5250
vt 0.1229 0.7480
vt 0.1263 0.7503
vt 0.1274 0.8224
vt 0.1252 0.8214
vt 0.1166 0.7479
vt 0.1195 0.7457
vt 0.1230 0.8204
vt 0.1214 0.8218
vt 0.1304 0.7496
vt 0.1346 0.7489
vt 0.1324 0.8222
vt 0.1299 0.8223
vt 0.1381 0.7494
vt 0.1416 0.7499
vt 0.1367 0.8227
vt 0.1346 0.8225
vt 0.1338 0.8999
vt 0.1357 0.8997
vt 0.1390 0.9773
vt 0.1377 0.9775
vt 0.1375 0.8999
vt 0.1392 0.9001
vt 0.1417 0.9775
vt 0.1403 0.9774
vt 0.1302 0.8992
vt 0.1319 0.9000
vt 0.1364 0.9777
vt 0.1351 0.9769
vt 0.1269 0.8996
vt 0.1284 0.8982
vt 0.1338 0.9761
vt 0.1325 0.9773
vt 0.0318 0.3119
vt 0.0331 0.3117
vt 0.0331 0.3131
vt 0.0313 0.3144
vt 0.0316 0.3131
vt 0.0328 0.3144
vt 0.0343 0.3144
vt 0.0343 0.3130
vt 0.0343 0.3115
vt 0.1255 0.9008
vt 0.1312 0.9785
vt 0.1198 0.8232
vt 0.1367 0.6756
vt 0.1416 0.6763
vt 0.1465 0.6771
vt 0.1252 0.6782
vt 0.1310 0.6769
vt 0.1137 0.7500
vt 0.1077 0.6768
vt 0.1118 0.6739
vt 0.1159 0.6710
vt 0.1206 0.6746
vt 0.0775 0.4277
vt 0.0905 0.5290
vt 0.0646 0.3265
vt 0.0558 0.2359
vt 0.0470 0.1452
vt 0.0646 0.1542
vt 0.0823 0.1631
vt 0.0891 0.1813
vt 0.0959 0.1994
vt 0.1232 0.1720
vt 0.1385 0.1602
vt 0.1539 0.1483
vt 0.1095 0.1857
vt 0.1515 0.5278
vt 0.1447 0.5832
vt 0.1668 0.4909
vt 0.1754 0.5093
vt 0.0330 0.4862
vt 0.0322 0.4863
vt 0.0313 0.4865
vt 0.0228 0.7422
vt 0.0246 0.7422
vt 0.0300 0.7423
vt 0.0282 0.7423
vt 0.0318 0.7424
vt 0.0309 0.8277
vt 0.0299 0.9131
vt 0.0192 0.8274
vt 0.0176 0.7423
vt 0.0264 0.7422
vt 0.0158 0.7423
vt 0.0140 0.7424
vt 0.1638 0.7896
vt 0.1599 0.7896
vt 0.1678 0.7895
vt 0.1796 0.7896
vt 0.1757 0.7895
vt 0.1835 0.7896
vt 0.1560 0.7897
vt 0.1521 0.7898
vt 0.1717 0.7895
vt 0.1874 0.7897
vt 0.1913 0.7898
vt 0.1860 0.8928
vt 0.1807 0.9958
vt 0.1778 0.6296
vt 0.1720 0.6297
vt 0.1836 0.6295
vt 0.2014 0.6290
vt 0.1953 0.6290
vt 0.2074 0.6290
vt 0.2050 0.7810
vt 0.2025 0.9330
vt 0.1662 0.6295
vt 0.1603 0.6293
vt 0.1894 0.6292
vt 0.1543 0.6292
vt 0.1484 0.6290
vt 0.0607 0.6293
vt 0.0547 0.6301
vt 0.0667 0.6285
vt 0.0848 0.6294
vt 0.0788 0.6286
vt 0.0909 0.6302
vt 0.0486 0.6313
vt 0.0425 0.6324
vt 0.0728 0.6285
vt 0.0971 0.6308
vt 0.1033 0.6314
vt 0.1009 0.7648
vt 0.0984 0.8982
vt 0.0840 0.4884
vt 0.0741 0.5050
vt 0.1884 0.2131
vt 0.1846 0.3257
vt 0.1808 0.4384
vt 0.1964 0.1120
vt 0.1924 0.1626
vt 0.1899 0.0401
vt 0.1762 0.0378
vt 0.2036 0.0424
vt 0.2000 0.0772
vt 0.1005 0.0283
vt 0.0852 0.0330
vt 0.1159 0.0237
vt 0.1592 0.0326
vt 0.1423 0.0274
vt 0.0692 0.0372
vt 0.0532 0.0415
vt 0.1291 0.0256
vn -0.8915 0.2957 0.3433
vn -0.9202 0.2282 0.3180
vn -0.9180 0.2329 -0.3209
vn -0.8957 0.2991 -0.3289
vn 0.5247 -0.1070 -0.8445
vn 0.5667 -0.0821 -0.8198
vn 0.9412 -0.1273 -0.3130
vn 0.9309 -0.1608 -0.3281
vn 0.0008 0.0005 1.0000
vn 0.0027 0.0142 0.9999
vn -0.5519 0.1379 0.8224
vn -0.5355 0.1680 0.8277
vn -0.5179 0.1561 -0.8411
vn -0.5591 0.1322 -0.8185
vn 0.0133 0.0141 -0.9998
vn -0.0021 0.0093 -1.0000
vn 0.9225 -0.1614 0.3506
vn 0.9381 -0.1296 0.3212
vn 0.5785 -0.0766 0.8121
vn 0.5467 -0.1043 0.8308
vn 0.9459 -0.0958 0.3101
vn 0.9492 -0.0559 0.3098
vn 0.5940 -0.0260 0.8040
vn 0.5876 -0.0478 0.8077
vn -0.9405 0.1437 0.3078
vn -0.9474 0.0849 0.3086
vn -0.9462 0.0866 -0.3119
vn -0.9396 0.1458 -0.3098
vn 0.5848 -0.0546 -0.8093
vn 0.5881 -0.0309 -0.8082
vn 0.9506 -0.0565 -0.3053
vn 0.9468 -0.0943 -0.3078
vn 0.0011 0.0227 0.9997
vn 0.0026 0.0156 0.9999
vn -0.5786 0.0604 0.8134
vn -0.5780 0.1001 0.8099
vn -0.5822 0.0935 -0.8077
vn -0.5851 0.0561 -0.8090
vn 0.0113 0.0133 -0.9998
vn 0.0053 0.0202 -0.9998
vn 0.5724 -0.0223 -0.8197
vn 0.4651 -0.0968 -0.8799
vn 0.9429 -0.1467 -0.2990
vn 0.9507 -0.0373 -0.3077
vn -0.0004 0.0101 0.9999
vn 0.0006 0.0177 0.9998
vn -0.5698 -0.0123 0.8217
vn -0.5858 0.0289 0.8099
vn -0.5676 0.0274 -0.8229
vn -0.5388 -0.0132 -0.8423
vn -0.0351 -0.0305 -0.9989
vn 0.0010 0.0061 -1.0000
vn 0.9373 -0.0416 0.3460
vn 0.7816 -0.1921 0.5935
vn 0.2814 -0.0399 0.9588
vn 0.5434 -0.0167 0.8393
vn -0.9503 0.0380 0.3089
vn -0.9497 -0.0408 0.3106
vn -0.9477 -0.0398 -0.3167
vn -0.9501 0.0387 -0.3096
vn 0.4799 0.1547 -0.8636
vn 0.5688 0.0861 -0.8180
vn 0.9401 0.1278 -0.3161
vn 0.9139 0.2525 -0.3177
vn -0.0065 0.0299 0.9995
vn -0.0064 0.0208 0.9998
vn -0.5984 -0.0453 0.7999
vn -0.5837 -0.0585 0.8099
vn -0.5596 -0.0687 -0.8259
vn -0.5911 -0.0510 -0.8050
vn -0.0285 0.0196 -0.9994
vn -0.0603 0.0293 -0.9977
vn -0.9437 -0.1213 0.3077
vn -0.9477 -0.0903 0.3061
vn -0.9486 -0.0895 -0.3036
vn -0.9435 -0.1194 -0.3092
vn 0.9506 0.0619 0.3041
vn 0.9511 0.0169 0.3083
vn 0.5813 0.0161 0.8136
vn 0.5871 0.0445 0.8083
vn -0.9510 -0.0417 0.3062
vn -0.9517 -0.0020 0.3069
vn -0.9523 -0.0013 -0.3051
vn -0.9509 -0.0410 -0.3068
vn 0.5898 0.0412 -0.8065
vn 0.5881 0.0123 -0.8087
vn 0.9500 0.0179 -0.3116
vn 0.9489 0.0625 -0.3093
vn -0.0016 0.0127 0.9999
vn -0.0054 0.0070 1.0000
vn -0.5960 0.0009 0.8030
vn -0.5900 -0.0197 0.8072
vn -0.5914 -0.0232 -0.8061
vn -0.5913 0.0005 -0.8064
vn -0.0113 0.0065 -0.9999
vn -0.0035 0.0102 -0.9999
vn 0.5887 -0.0087 -0.8083
vn 0.5898 0.0305 -0.8070
vn 0.9517 0.0454 -0.3037
vn 0.9511 -0.0160 -0.3085
vn 0.0002 0.0046 1.0000
vn 0.0037 0.0112 0.9999
vn -0.5757 -0.0087 0.8176
vn -0.5874 0.0203 0.8091
vn -0.5882 0.0185 -0.8085
vn -0.5851 -0.0125 -0.8109
vn 0.0176 0.0108 -0.9998
vn 0.0009 0.0056 -1.0000
vn 0.9511 -0.0164 0.3084
vn 0.9504 0.0449 0.3078
vn 0.5984 0.0339 0.8005
vn 0.5874 -0.0068 0.8093
vn -0.9508 0.0275 0.3085
vn -0.9504 -0.0245 0.3102
vn -0.9490 -0.0237 -0.3142
vn -0.9507 0.0279 -0.3089
vn 0.9453 0.1071 0.3082
vn 0.9491 0.0601 0.3091
vn 0.5755 0.0442 0.8166
vn 0.5848 0.0749 0.8077
vn -0.9485 -0.0774 0.3073
vn -0.9588 -0.0332 0.2821
vn -0.9362 -0.0455 -0.3485
vn -0.9415 -0.0751 -0.3285
vn 0.5836 0.0700 -0.8090
vn 0.5484 0.0416 -0.8351
vn 0.9428 0.0619 -0.3276
vn 0.9449 0.1080 -0.3090
vn -0.0005 0.0162 0.9999
vn -0.0051 0.0138 0.9999
vn -0.6097 -0.0140 0.7925
vn -0.5864 -0.0391 0.8091
vn -0.5857 -0.0434 -0.8094
vn -0.5994 0.0071 -0.8004
vn -0.0760 -0.0014 -0.9971
vn -0.0171 0.0138 -0.9998
vn 0.4184 0.0063 -0.9082
vn -0.0540 0.0798 -0.9953
vn 0.9069 0.0027 -0.4214
vn 0.9267 0.0029 -0.3757
vn -0.0113 0.0116 0.9999
vn 0.1642 0.0708 0.9839
vn -0.6812 0.0353 0.7313
vn -0.6446 0.0212 0.7642
vn -0.9216 0.0189 -0.3876
vn 0.9544 0.0002 0.2987
vn 0.8845 0.0557 0.4633
vn 0.5879 0.0027 0.8089
vn 0.5854 0.0064 0.8107
vn -0.9927 0.0273 0.1178
vn -0.9291 0.0973 -0.3569
vn -0.5870 0.0320 -0.8090
vn 0.0231 0.9997 0.0041
vn 0.8648 0.2562 0.4320
vn 0.9406 0.1292 0.3139
vn -0.5908 0.3644 0.7198
vn -0.0058 0.0070 1.0000
vn 0.0070 -0.0448 0.9990
vn -0.6591 0.2467 0.7104
vn 0.5733 -0.3322 0.7490
vn 0.8820 -0.4441 -0.1575
vn 0.9243 -0.3649 -0.1118
vn 0.6234 -0.3117 0.7171
vn -0.4124 0.3681 -0.8333
vn -0.8245 0.5608 -0.0756
vn -0.9053 0.4081 -0.1178
vn -0.4177 0.2965 -0.8588
vn 0.4257 -0.1839 -0.8860
vn 0.0758 0.0436 -0.9962
vn 0.1011 0.0609 -0.9930
vn 0.5169 -0.1496 -0.8429
vn -0.7036 0.1423 0.6962
vn -0.0338 -0.0805 0.9962
vn -0.0128 -0.0714 0.9974
vn -0.7198 0.0989 0.6871
vn 0.6643 -0.2570 0.7019
vn 0.9640 -0.2545 -0.0768
vn 0.9841 -0.1719 -0.0448
vn 0.6880 -0.1937 0.6994
vn -0.4337 0.2390 -0.8688
vn -0.9428 0.3058 -0.1325
vn -0.9629 0.2223 -0.1527
vn -0.4230 0.1931 -0.8853
vn 0.5870 -0.0770 -0.8059
vn 0.1024 0.0901 -0.9906
vn 0.1375 0.0839 -0.9869
vn 0.6334 -0.0474 -0.7724
vn -0.3840 0.1420 -0.9124
vn -0.9621 0.1650 -0.2172
vn -0.9507 0.1013 -0.2932
vn -0.2928 0.1070 -0.9502
vn 0.6641 -0.0115 -0.7475
vn 0.1575 0.0776 -0.9845
vn 0.2285 0.0695 -0.9711
vn 0.6935 0.0161 -0.7203
vn -0.7490 0.0625 0.6597
vn -0.0635 -0.0475 0.9968
vn -0.1104 -0.0519 0.9925
vn -0.7788 0.0180 0.6270
vn 0.6657 -0.1278 0.7352
vn 0.9944 -0.1054 -0.0025
vn 0.9972 -0.0484 0.0564
vn 0.6136 -0.0890 0.7846
vn -0.8139 -0.0198 0.5806
vn -0.1512 -0.0587 0.9868
vn -0.1470 -0.0505 0.9879
vn -0.6574 0.0820 0.7491
vn 0.6135 -0.0589 0.7875
vn 0.9959 -0.0104 0.0903
vn 0.9955 0.0165 0.0932
vn 0.3732 0.0741 0.9248
vn -0.2778 0.0818 -0.9571
vn -0.9470 0.0524 -0.3169
vn -0.9456 0.0732 -0.3170
vn -0.1450 0.1566 -0.9770
vn 0.7321 0.0439 -0.6798
vn 0.2572 0.0722 -0.9637
vn 0.2704 0.0766 -0.9597
vn 0.6177 0.1411 -0.7737
vn 0.0117 0.9985 0.0525
vn 0.0653 0.2136 -0.9747
vn 0.0761 0.9321 -0.3542
vn 0.1188 0.3955 0.9108
vn 0.4498 0.1418 0.8818
vn 0.5686 0.0923 0.8174
vn -0.1189 0.0165 -0.9928
vn 0.9108 -0.1699 0.3762
vn 0.4892 -0.1036 0.8660
vn 0.9185 -0.1703 -0.3569
vn -0.5128 0.1585 -0.8437
vn -0.0652 0.0200 -0.9977
vn -0.9047 0.3091 -0.2933
vn -0.0169 -0.0006 0.9999
vn -0.5834 0.1864 0.7905
vn 0.4876 -0.1096 -0.8661
vn -0.8877 0.3025 0.3472
usemtl None
s 1
f 236/1/1 170/2/2 3/3/3 106/4/4
f 235/5/5 137/6/6 7/7/7 95/8/8
f 234/9/9 77/10/10 2/11/11 122/12/12
f 233/13/13 111/14/14 6/15/15 86/16/16
f 232/17/17 82/18/18 10/19/19 176/20/20
f 231/21/21 157/22/22 12/23/23 167/24/24
f 230/25/25 63/26/26 14/27/27 71/28/28
f 229/29/29 101/30/30 11/31/31 136/32/32
f 228/33/33 102/34/34 13/35/35 135/36/36
f 227/37/37 120/38/38 15/39/39 146/40/40
f 226/41/41 132/42/42 17/43/43 99/44/44
f 225/45/45 161/46/46 19/47/47 105/48/48
f 224/49/49 154/50/50 16/51/51 69/52/52
f 223/53/53 113/54/54 18/55/55 175/56/56
f 222/57/57 97/58/58 20/59/59 160/60/60
f 221/61/61 78/62/62 22/63/63 127/64/64
f 220/65/65 145/66/66 25/67/67 151/68/68
f 219/69/69 88/70/70 21/71/71 96/72/72
f 218/73/73 130/74/74 26/75/75 172/76/76
f 217/77/77 118/78/78 28/79/79 76/80/80
f 216/81/81 141/82/82 30/83/83 109/84/84
f 215/85/85 177/86/86 27/87/87 140/88/88
f 214/89/89 178/90/90 29/91/91 179/92/92
f 213/93/93 73/94/94 31/95/95 139/96/96
f 212/97/97 92/98/98 33/99/99 174/100/100
f 211/101/101 150/102/102 35/103/103 125/104/104
f 210/105/105 163/106/106 32/107/107 148/108/108
f 209/109/109 108/110/110 34/111/111 138/112/112
f 208/113/113 91/114/114 36/115/115 169/116/116
f 207/117/117 72/118/118 38/119/119 94/120/120
f 206/121/121 80/122/122 40/123/123 84/124/124
f 205/125/125 117/126/126 37/127/127 147/128/128
f 204/129/129 123/130/130 39/131/131 144/132/132
f 203/133/133 134/134/134 41/135/135 129/136/136
f 202/137/137 87/138/138 43/139/139 133/140/140
f 201/141/141 81/142/142 45/143/143 121/144/144
f 40/145/123 171/146/145 134/147/134
f 200/148/146 143/149/147 44/150/148 64/151/149
f 199/152/150 90/153/151 42/154/152 171/146/145
f 45/155/143 75/156/153 90/157/151
f 44/158/148 143/159/147 81/160/142
f 198/161/154 127/162/64 22/163/63 70/164/155
f 197/165/156 103/166/157 46/167/158 100/168/159
f 196/169/160 89/170/161 48/171/162 156/172/163
f 195/173/164 68/174/165 47/175/166 110/176/167
f 194/177/168 112/178/169 49/179/170 116/180/171
f 193/181/172 115/182/173 50/183/174 74/184/175
f 192/185/176 128/186/177 52/187/178 131/188/179
f 191/189/180 67/190/181 51/191/182 62/192/183
f 190/193/184 66/194/185 53/195/186 65/196/187
f 189/197/188 119/198/189 54/199/190 162/200/191
f 188/201/192 166/202/193 55/203/194 124/204/195
f 187/205/196 181/206/197 57/207/198 164/208/199
f 186/209/200 126/210/201 56/211/202 180/212/203
f 185/213/204 168/214/205 58/215/206 98/216/207
f 184/217/208 107/218/209 60/219/210 153/220/211
f 183/221/212 173/222/213 59/223/214 83/224/215
f 182/225/216 158/226/217 61/227/218 93/228/219
f 60/229/210 93/230/219 152/231/220
f 58/232/206 153/233/211 98/234/207
f 98/234/207 152/231/220 59/235/214
f 98/234/207 153/233/211 152/231/220
f 153/233/211 60/229/210 152/231/220
f 152/231/220 83/236/215 59/235/214
f 152/231/220 93/230/219 83/236/215
f 93/230/219 61/237/218 83/236/215
f 107/238/209 182/225/216 93/228/219 60/239/210
f 56/240/202 124/204/195 182/225/216 107/238/209
f 124/204/195 55/203/194 158/226/217 182/225/216
f 158/226/217 183/221/212 83/224/215 61/227/218
f 55/203/194 162/200/191 183/221/212 158/226/217
f 162/200/191 54/199/190 173/222/213 183/221/212
f 168/214/205 184/217/208 153/220/211 58/215/206
f 57/207/198 180/212/203 184/217/208 168/214/205
f 180/212/203 56/211/202 107/218/209 184/217/208
f 173/222/213 185/213/204 98/216/207 59/223/214
f 54/199/190 164/208/199 185/213/204 173/222/213
f 164/208/199 57/207/198 168/214/205 185/213/204
f 181/206/197 186/209/200 180/212/203 57/207/198
f 50/241/174 131/242/179 186/209/200 181/206/197
f 131/242/179 52/243/178 126/210/201 186/209/200
f 119/198/189 187/205/196 164/208/199 54/199/190
f 51/244/182 74/245/175 187/205/196 119/198/189
f 74/245/175 50/241/174 181/206/197 187/205/196
f 126/246/201 188/201/192 124/204/195 56/240/202
f 52/247/178 65/248/187 188/201/192 126/246/201
f 65/248/187 53/249/186 166/202/193 188/201/192
f 166/202/193 189/197/188 162/200/191 55/203/194
f 53/249/186 62/250/183 189/197/188 166/202/193
f 62/250/183 51/244/182 119/198/189 189/197/188
f 128/251/177 190/193/184 65/196/187 52/252/178
f 48/253/162 116/180/171 190/193/184 128/251/177
f 116/180/171 49/179/170 66/194/185 190/193/184
f 66/194/185 191/189/180 62/192/183 53/195/186
f 49/179/170 110/176/167 191/189/180 66/194/185
f 110/176/167 47/175/166 67/190/181 191/189/180
f 115/182/173 192/185/176 131/188/179 50/183/174
f 46/167/158 156/172/163 192/185/176 115/182/173
f 156/172/163 48/171/162 128/186/177 192/185/176
f 67/190/181 193/181/172 74/184/175 51/191/182
f 47/175/166 100/168/159 193/181/172 67/190/181
f 100/168/159 46/167/158 115/182/173 193/181/172
f 89/254/161 194/177/168 116/180/171 48/253/162
f 17/255/43 132/256/42 194/177/168 89/254/161
f 132/256/42 16/257/51 112/178/169 194/177/168
f 112/178/169 195/173/164 110/176/167 49/179/170
f 16/257/51 104/258/221 195/173/164 112/178/169
f 104/258/221 23/259/222 68/174/165 195/173/164
f 103/166/157 196/169/160 156/172/163 46/167/158
f 18/260/55 113/261/54 196/169/160 103/166/157
f 113/261/54 17/262/43 89/170/161 196/169/160
f 68/174/165 197/165/156 100/168/159 47/175/166
f 23/259/222 142/263/223 197/165/156 68/174/165
f 142/263/223 18/260/55 103/166/157 197/165/156
f 85/264/224 198/161/154 70/164/155 24/265/225
f 18/55/55 142/266/223 198/161/154 85/264/224
f 142/266/223 23/267/222 127/162/64 198/161/154
f 81/160/142 75/156/153 45/155/143
f 81/160/142 143/159/147 75/156/153
f 143/159/147 43/268/139 75/156/153
f 90/157/151 87/269/138 42/270/152
f 90/157/151 75/156/153 87/269/138
f 75/156/153 43/268/139 87/269/138
f 80/271/122 199/152/150 171/146/145 40/145/123
f 39/272/131 121/144/144 199/152/150 80/271/122
f 121/144/144 45/143/143 90/153/151 199/152/150
f 72/273/118 200/148/146 64/151/149 38/274/119
f 37/275/127 133/276/140 200/148/146 72/273/118
f 133/276/140 43/277/139 143/149/147 200/148/146
f 134/147/134 159/278/226 41/279/135
f 134/147/134 171/146/145 159/278/226
f 171/146/145 42/154/152 159/278/226
f 123/280/130 201/141/141 121/144/144 39/272/131
f 38/274/119 64/151/149 201/141/141 123/280/130
f 64/151/149 44/150/148 81/142/142 201/141/141
f 117/281/126 202/137/137 133/140/140 37/282/127
f 41/279/135 159/278/226 202/137/137 117/281/126
f 159/278/226 42/154/152 87/138/138 202/137/137
f 163/283/106 203/133/133 129/136/136 32/284/107
f 36/285/115 84/124/124 203/133/133 163/283/106
f 84/124/124 40/123/123 134/134/134 203/133/133
f 150/286/102 204/129/129 144/132/132 35/287/103
f 34/288/111 94/120/120 204/129/129 150/286/102
f 94/120/120 38/119/119 123/130/130 204/129/129
f 92/289/98 205/125/125 147/128/128 33/290/99
f 32/284/107 129/136/136 205/125/125 92/289/98
f 129/136/136 41/135/135 117/126/126 205/125/125
f 91/291/114 206/121/121 84/124/124 36/285/115
f 35/287/103 144/132/132 206/121/121 91/291/114
f 144/132/132 39/131/131 80/122/122 206/121/121
f 108/292/110 207/117/117 94/120/120 34/288/111
f 33/293/99 147/294/128 207/117/117 108/292/110
f 147/294/128 37/295/127 72/118/118 207/117/117
f 141/296/82 208/113/113 169/116/116 30/297/83
f 29/298/91 125/104/104 208/113/113 141/296/82
f 125/104/104 35/103/103 91/114/114 208/113/113
f 118/299/78 209/109/109 138/112/112 28/300/79
f 27/301/87 174/302/100 209/109/109 118/299/78
f 174/302/100 33/303/99 108/110/110 209/109/109
f 73/304/94 210/105/105 148/108/108 31/305/95
f 30/297/83 169/116/116 210/105/105 73/304/94
f 169/116/116 36/115/115 163/106/106 210/105/105
f 178/306/90 211/101/101 125/104/104 29/298/91
f 28/300/79 138/112/112 211/101/101 178/306/90
f 138/112/112 34/111/111 150/102/102 211/101/101
f 177/307/86 212/97/97 174/100/100 27/308/87
f 31/305/95 148/108/108 212/97/97 177/307/86
f 148/108/108 32/107/107 92/98/98 212/97/97
f 88/309/70 213/93/93 139/96/96 21/310/71
f 26/311/75 109/84/84 213/93/93 88/309/70
f 109/84/84 30/83/83 73/94/94 213/93/93
f 145/312/66 214/89/89 179/92/92 25/313/67
f 24/314/225 76/80/80 214/89/89 145/312/66
f 76/80/80 28/79/79 178/90/90 214/89/89
f 78/315/62 215/85/85 140/88/88 22/316/63
f 21/310/71 139/96/96 215/85/85 78/315/62
f 139/96/96 31/95/95 177/86/86 215/85/85
f 130/317/74 216/81/81 109/84/84 26/311/75
f 25/313/67 179/92/92 216/81/81 130/317/74
f 179/92/92 29/91/91 141/82/82 216/81/81
f 70/318/155 217/77/77 76/80/80 24/314/225
f 22/319/63 140/320/88 217/77/77 70/318/155
f 140/320/88 27/321/87 118/78/78 217/77/77
f 97/58/58 218/73/73 172/76/76 20/59/59
f 19/47/47 151/68/68 218/73/73 97/58/58
f 151/68/68 25/67/67 130/74/74 218/73/73
f 154/50/50 219/69/69 96/72/72 16/51/51
f 20/59/59 172/76/76 219/69/69 154/50/50
f 172/76/76 26/75/75 88/70/70 219/69/69
f 161/46/46 220/65/65 151/68/68 19/47/47
f 18/55/55 85/264/224 220/65/65 161/46/46
f 85/264/224 24/265/225 145/66/66 220/65/65
f 104/322/221 221/61/61 127/64/64 23/323/222
f 16/51/51 96/72/72 221/61/61 104/322/221
f 96/72/72 21/71/71 78/62/62 221/61/61
f 63/26/26 222/57/57 160/60/60 14/27/27
f 13/35/35 105/48/48 222/57/57 63/26/26
f 105/48/48 19/47/47 97/58/58 222/57/57
f 157/22/22 223/53/53 175/56/56 12/23/23
f 11/324/31 99/325/44 223/53/53 157/22/22
f 99/325/44 17/326/43 113/54/54 223/53/53
f 120/38/38 224/49/49 69/52/52 15/39/39
f 14/27/27 160/60/60 224/49/49 120/38/38
f 160/60/60 20/59/59 154/50/50 224/49/49
f 102/34/34 225/45/45 105/48/48 13/35/35
f 12/23/23 175/56/56 225/45/45 102/34/34
f 175/56/56 18/55/55 161/46/46 225/45/45
f 101/30/30 226/41/41 99/44/44 11/31/31
f 15/39/39 69/52/52 226/41/41 101/30/30
f 69/52/52 16/51/51 132/42/42 226/41/41
f 111/14/14 227/37/37 146/40/40 6/15/15
f 3/3/3 71/28/28 227/37/37 111/14/14
f 71/28/28 14/27/27 120/38/38 227/37/37
f 77/10/10 228/33/33 135/36/36 2/11/11
f 10/19/19 167/24/24 228/33/33 77/10/10
f 167/24/24 12/23/23 102/34/34 228/33/33
f 137/6/6 229/29/29 136/32/32 7/7/7
f 6/15/15 146/40/40 229/29/29 137/6/6
f 146/40/40 15/39/39 101/30/30 229/29/29
f 170/2/2 230/25/25 71/28/28 3/3/3
f 2/11/11 135/36/36 230/25/25 170/2/2
f 135/36/36 13/35/35 63/26/26 230/25/25
f 82/18/18 231/21/21 167/24/24 10/19/19
f 7/327/7 136/328/32 231/21/21 82/18/18
f 136/328/32 11/324/31 157/22/22 231/21/21
f 155/329/227 232/17/17 176/20/20 9/330/228
f 8/331/229 95/332/8 232/17/17 155/329/227
f 95/332/8 7/327/7 82/18/18 232/17/17
f 165/333/230 233/13/13 86/16/16 5/334/231
f 4/335/232 106/4/4 233/13/13 165/333/230
f 106/4/4 3/3/3 111/14/14 233/13/13
f 149/336/233 234/9/9 122/12/12 1/337/234
f 9/330/228 176/20/20 234/9/9 149/336/233
f 176/20/20 10/19/19 77/10/10 234/9/9
f 79/338/235 235/5/5 95/8/8 8/339/229
f 5/334/231 86/16/16 235/5/5 79/338/235
f 86/16/16 6/15/15 137/6/6 235/5/5
f 114/340/236 236/1/1 106/4/4 4/335/232
f 1/337/234 122/12/12 236/1/1 114/340/236
f 122/12/12 2/11/11 170/2/2 236/1/1
