# Blender v2.77 (sub 0) OBJ File: 'Fir_Tree_crk_m_01.obj'
# www.blender.org
mtllib Fir_Tree_s_01.mtl
o Fir_Tree_s_01
v 0.012187 0.525930 -0.019174
v -0.372406 0.350601 -0.056521
v 0.000876 0.344469 -0.496261
v 0.367509 0.327319 -0.339013
v 0.349701 0.308701 0.298578
v -0.200866 0.327035 0.435448
v 0.284785 0.748620 0.237832
v -0.148699 0.732758 0.337405
v -0.267978 0.772324 -0.008842
v 0.001174 0.773547 -0.338192
v 0.277502 0.787323 -0.230254
v 0.337386 0.897487 -0.243626
v 0.321537 0.856173 0.239062
v -0.147739 0.840720 0.353975
v -0.288913 0.876037 -0.042217
v 0.030338 0.903668 -0.375687
v 0.202340 1.271818 0.183098
v -0.090178 1.265009 0.244587
v -0.193866 1.279554 -0.005482
v 0.017409 1.276897 -0.229568
v 0.215906 1.278631 -0.140414
v 0.213524 1.375311 -0.148024
v 0.204203 1.385067 0.232701
v -0.090325 1.383871 0.250068
v -0.207507 1.378162 -0.011562
v 0.010212 1.372175 -0.242244
v 0.080483 1.964875 -0.014367
v 0.078296 1.967663 0.143263
v -0.037236 1.966468 0.146235
v -0.089651 1.963982 0.033562
v -0.007114 1.963460 -0.052725
v -0.005595 2.320879 0.076072
v 0.002035 0.258166 -0.085852
v 0.001169 0.597967 -0.082516
v 0.054987 0.597882 -0.039861
v 0.086885 0.258153 -0.023348
v -0.065079 0.258188 0.008856
v -0.039231 0.598336 -0.014911
v 0.097940 0.022811 -0.031645
v 0.027868 0.258169 0.068270
v 0.035175 0.022809 0.072688
v -0.074839 0.022810 0.002173
v 0.001792 0.022812 -0.100434
v 0.010321 0.598216 0.016108
v 0.061662 1.385233 0.267775
v -0.334190 0.548913 -0.032768
v 0.037973 0.598036 -0.008052
v 0.192578 0.343268 -0.445842
v 0.036364 2.170520 0.035831
v 0.329623 0.514110 0.280945
v 0.036486 1.992578 -0.034520
v 0.001402 0.441020 -0.084826
v -0.170066 1.381215 0.128569
v 0.092167 0.845367 0.331796
v -0.183298 0.516078 0.403387
v 0.013963 1.316734 -0.237149
v 0.381646 0.323929 -0.019541
v -0.018974 0.598320 0.007141
v -0.023699 0.258177 0.046092
v 0.147817 0.781760 -0.313181
v -0.106307 0.413354 0.243167
v -0.048341 0.022811 -0.057104
v 0.145504 1.661624 0.193327
v 0.078171 0.324303 0.398157
v -0.008666 2.169707 0.013612
v -0.241970 1.078267 -0.025204
v -0.147945 0.786818 0.344582
v 0.096100 0.124424 -0.027525
v 0.033580 2.171557 0.108330
v 0.071252 0.440967 -0.031454
v 0.228826 1.380336 0.045679
v 0.078375 0.022810 0.028495
v -0.065273 1.660642 0.201316
v 0.059481 1.267578 0.234140
v 0.196499 0.401904 0.159732
v -0.038734 0.258178 -0.043440
v 0.001418 1.652327 -0.154106
v 0.001745 0.124427 -0.095945
v -0.146459 0.891591 -0.229997
v -0.111216 1.374763 -0.140625
v 0.025340 1.092254 -0.303763
v -0.199293 0.355831 -0.292487
v 0.064588 0.258160 0.027402
v 0.032597 0.597880 -0.067732
v 0.196885 0.903543 -0.341804
v 0.072877 0.737307 0.316829
v -0.052216 0.441233 -0.002435
v 0.279342 1.088774 -0.191992
v 0.221403 0.410376 -0.198287
v 0.203027 1.323091 0.209380
v -0.098765 1.278717 -0.129433
v 0.304410 0.804497 0.237217
v 0.333868 0.543433 -0.297235
v -0.050782 1.992079 -0.008935
v -0.146816 0.773755 -0.189163
v 0.080702 1.994698 0.066785
v 0.150989 1.654606 -0.086282
v -0.089804 1.319396 0.246508
v -0.234008 0.752037 0.179406
v -0.074097 0.124419 0.006769
v 0.033208 0.124415 0.075366
v -0.020804 2.170934 0.112628
v 0.263250 1.063974 0.208659
v 0.124578 1.277657 -0.204458
v 0.001116 0.422657 -0.296958
v 0.018451 0.441157 0.042172
v -0.119044 1.052776 0.300348
v -0.024350 0.598164 -0.052538
v 0.120901 1.373039 -0.220460
v 0.214638 1.319737 -0.145205
v -0.250428 0.856511 0.173388
v 0.020569 1.995466 0.150201
v 0.306913 0.769714 0.004058
v 0.057819 0.022811 -0.077853
v -0.153041 1.655518 0.008584
v -0.276687 0.825874 -0.024971
v 0.307442 0.846887 -0.235571
v 0.049553 0.258161 -0.062129
v -0.201347 1.322863 -0.008366
v -0.210679 0.425656 -0.039962
v 0.226499 1.275682 0.022220
v 0.016209 0.841847 -0.354801
v -0.027785 0.022810 0.049244
v -0.046849 2.169789 0.056202
v -0.313382 0.347163 0.203969
v 0.360444 0.877071 -0.001874
v -0.160182 1.272276 0.129754
v -0.000361 0.544625 -0.434600
v -0.066610 1.993521 0.092037
v -0.025974 0.124416 0.049262
v 0.050452 0.441057 0.009264
v 0.054452 0.124426 -0.069929
v -0.021124 0.441211 0.026086
v -0.044214 0.124423 -0.050048
v 0.072691 0.124419 0.029381
v -0.031008 0.441132 -0.047535
v 0.040568 0.440978 -0.064358
v 0.082195 1.653071 -0.137247
v -0.123276 1.658152 0.111064
v 0.122777 1.317830 -0.213574
v -0.165230 1.321226 0.128829
v -0.084623 1.653653 -0.082273
v 0.043435 1.661601 0.215477
v 0.161866 1.658239 0.055820
v 0.162813 1.091944 -0.273685
v -0.105245 1.319841 -0.135573
v -0.205638 1.064585 0.151426
v 0.060673 1.321207 0.251288
v 0.227502 1.321716 0.034197
v 0.295476 1.076724 0.008976
v 0.172576 0.846512 -0.325739
v -0.122169 1.086376 -0.180961
v -0.241202 0.805161 0.176122
v 0.076437 1.056417 0.282290
v -0.291550 0.532844 0.204818
v -0.145532 0.835140 -0.208232
v 0.083284 0.792427 0.323143
v 0.334302 0.826684 0.001161
v 0.179063 0.544926 -0.403306
v 0.364058 0.528774 -0.007665
v -0.184976 0.548026 -0.255116
v 0.079046 0.512588 0.381000
vt 0.3108 0.3080
vt 0.3182 0.2940
vt 0.3284 0.3141
vt 0.3177 0.3259
vt 0.2939 0.3170
vt 0.2972 0.2940
vt 0.2884 0.2951
vt 0.3003 0.2786
vt 0.3073 0.2971
vt 0.3011 0.3038
vt 0.3237 0.3327
vt 0.3027 0.3399
vt 0.3074 0.3209
vt 0.3160 0.3195
vt 0.3226 0.2854
vt 0.3450 0.2921
vt 0.3253 0.3022
vt 0.3163 0.2997
vt 0.3448 0.3088
vt 0.3446 0.3255
vt 0.3246 0.3181
vt 0.3250 0.3101
vt 0.3155 0.3009
vt 0.3227 0.3036
vt 0.3200 0.3051
vt 0.3148 0.3022
vt 0.3022 0.3042
vt 0.3084 0.2983
vt 0.3095 0.2994
vt 0.3034 0.3046
vt 0.3163 0.3180
vt 0.3088 0.3199
vt 0.3103 0.3190
vt 0.3166 0.3164
vt 0.2897 0.3257
vt 0.2765 0.3116
vt 0.2948 0.3106
vt 0.3011 0.3158
vt 0.3102 0.2856
vt 0.3256 0.2860
vt 0.3165 0.2992
vt 0.3115 0.2983
vt 0.3025 0.3151
vt 0.2961 0.3102
vt 0.2974 0.3098
vt 0.3038 0.3144
vt 0.3054 0.3233
vt 0.2886 0.3152
vt 0.3049 0.3073
vt 0.3106 0.3121
vt 0.3232 0.3098
vt 0.3238 0.3160
vt 0.3229 0.3139
vt 0.3214 0.3095
vt 0.3313 0.2997
vt 0.3371 0.3133
vt 0.3220 0.3081
vt 0.3192 0.3036
vt 0.3185 0.3041
vt 0.3217 0.3084
vt 0.3215 0.3087
vt 0.3177 0.3046
vt 0.3112 0.2990
vt 0.3152 0.2998
vt 0.3139 0.3005
vt 0.3108 0.2997
vt 0.2918 0.3001
vt 0.2949 0.2851
vt 0.3065 0.2974
vt 0.3057 0.3023
vt 0.3110 0.3110
vt 0.3058 0.3071
vt 0.3067 0.3069
vt 0.3114 0.3098
vt 0.3296 0.3223
vt 0.3223 0.3314
vt 0.3163 0.3169
vt 0.3192 0.3125
vt 0.2931 0.4327
vt 0.3002 0.4096
vt 0.3091 0.4353
vt 0.3092 0.4382
vt 0.3032 0.4606
vt 0.2861 0.4559
vt 0.3093 0.4411
vt 0.3109 0.4412
vt 0.3311 0.4250
vt 0.3405 0.4408
vt 0.3151 0.4390
vt 0.3142 0.4368
vt 0.3065 0.3026
vt 0.3071 0.2982
vt 0.3077 0.2989
vt 0.3072 0.3029
vt 0.3190 0.3116
vt 0.3162 0.3149
vt 0.3161 0.3128
vt 0.3188 0.3108
vt 0.3113 0.4349
vt 0.3104 0.4373
vt 0.3138 0.4402
vt 0.3134 0.4391
vt 0.3304 0.4531
vt 0.3203 0.4654
vt 0.3124 0.4414
vt 0.3105 0.4402
vt 0.3110 0.4094
vt 0.3218 0.4092
vt 0.3134 0.4346
vt 0.8472 0.9520
vt 0.8470 0.9879
vt 0.8397 0.9880
vt 0.8398 0.9519
vt 0.7879 0.9518
vt 0.7875 0.9875
vt 0.7801 0.9876
vt 0.7804 0.9518
vt 0.8326 0.9025
vt 0.8324 0.9160
vt 0.8248 0.9161
vt 0.8251 0.9027
vt 0.7879 0.9027
vt 0.7882 0.9161
vt 0.7808 0.9159
vt 0.7804 0.9024
vt 0.8101 0.9518
vt 0.8100 0.9875
vt 0.7950 0.9873
vt 0.7953 0.9518
vt 0.8475 0.9025
vt 0.8474 0.9160
vt 0.8399 0.9159
vt 0.8400 0.9023
vt 0.8324 0.9519
vt 0.8324 0.9878
vt 0.8250 0.9876
vt 0.8249 0.9519
vt 0.8102 0.9029
vt 0.7953 0.9031
vt 0.7951 0.8898
vt 0.8102 0.8895
vt 0.8254 0.8893
vt 0.8102 0.9162
vt 0.7956 0.9163
vt 0.8476 0.8890
vt 0.8402 0.8887
vt 0.8551 0.8893
vt 0.8550 0.9027
vt 0.8549 0.9161
vt 0.7876 0.8893
vt 0.7801 0.8889
vt 0.8328 0.8890
vt 0.8547 0.9520
vt 0.8544 0.9879
vt 0.2912 0.3838
vt 0.3107 0.3838
vt 0.3302 0.3838
vt 0.3126 0.4369
vt 0.3117 0.4392
vt 0.3120 0.4403
vt 0.3659 0.4426
vt 0.3471 0.4660
vt 0.3282 0.4895
vt 0.3480 0.4132
vt 0.2955 0.4800
vt 0.2629 0.4706
vt 0.2771 0.4272
vt 0.3521 0.3184
vt 0.3401 0.3322
vt 0.3282 0.3460
vt 0.2723 0.3230
vt 0.2778 0.2979
vt 0.2833 0.2729
vt 0.3346 0.2729
vt 0.3433 0.2957
vt 0.3002 0.3345
vt 0.3090 0.2729
vt 0.2981 0.3589
vt 0.2782 0.3357
vt 0.2583 0.3126
vt 0.3646 0.2820
vt 0.3646 0.3074
vt 0.3646 0.3329
vt 0.3353 0.3320
vt 0.3247 0.3437
vt 0.3460 0.3202
vt 0.3047 0.2801
vt 0.3256 0.2801
vt 0.2837 0.2801
vt 0.2933 0.2601
vt 0.3289 0.2711
vt 0.3313 0.3459
vt 0.2758 0.2864
vt 0.2804 0.3030
vt 0.2771 0.3260
vt 0.3009 0.3349
vt 0.3358 0.3001
vn -0.0164 -0.9997 -0.0181
vn 0.3903 -0.9184 0.0640
vn 0.0820 -0.9398 0.3318
vn -0.3560 -0.9238 0.1410
vn -0.3246 -0.9137 -0.2444
vn 0.1220 -0.9388 -0.3222
vn 0.2263 0.1878 0.9558
vn 0.7742 0.1857 0.6051
vn 0.7721 -0.0056 0.6355
vn 0.2218 0.0675 0.9728
vn -0.7422 0.2478 -0.6226
vn -0.9531 0.2388 -0.1858
vn -0.9832 0.0603 -0.1721
vn -0.7690 0.0623 -0.6362
vn 0.9853 0.1702 0.0177
vn 0.8323 0.2586 -0.4904
vn 0.8414 -0.0733 -0.5355
vn 0.9948 -0.1008 -0.0109
vn 0.3598 0.3044 -0.8820
vn -0.2779 0.3105 -0.9091
vn -0.3477 0.1075 -0.9314
vn 0.3549 0.0363 -0.9342
vn 0.9027 -0.4294 -0.0264
vn 0.7437 -0.4632 -0.4820
vn 0.8636 -0.0546 -0.5011
vn 0.9970 -0.0758 0.0166
vn 0.2330 -0.1602 0.9592
vn 0.7524 -0.3235 0.5737
vn 0.8025 -0.0283 0.5960
vn 0.2393 0.0264 0.9706
vn -0.7245 -0.2123 -0.6558
vn -0.9496 -0.2232 -0.2201
vn -0.9650 -0.0113 -0.2621
vn -0.7186 0.0059 -0.6954
vn -0.9173 0.2044 0.3418
vn -0.4529 0.2310 0.8611
vn -0.4741 0.1234 0.8718
vn -0.9352 0.0942 0.3414
vn 0.2150 0.2342 0.9481
vn 0.7332 0.3006 0.6100
vn 0.7979 0.0381 0.6015
vn 0.1916 -0.0228 0.9812
vn -0.9391 -0.1177 0.3228
vn -0.4682 -0.1436 0.8719
vn -0.4492 0.0445 0.8923
vn -0.9397 0.0409 0.3395
vn -0.7039 0.2556 -0.6628
vn -0.9464 0.2509 -0.2036
vn -0.9808 0.0414 -0.1905
vn -0.7301 0.0304 -0.6827
vn 0.3548 -0.3518 -0.8662
vn -0.2655 -0.2576 -0.9291
vn -0.1974 0.0179 -0.9802
vn 0.4089 -0.0095 -0.9125
vn 0.9489 0.3109 0.0545
vn 0.8119 0.3801 -0.4431
vn 0.8724 0.1829 -0.4533
vn 0.9879 0.1500 0.0400
vn 0.9989 -0.0316 0.0357
vn 0.8724 -0.0445 -0.4867
vn 0.8622 0.1294 -0.4897
vn 0.9946 0.0998 0.0294
vn 0.1250 -0.2518 0.9597
vn 0.7401 -0.2411 0.6277
vn 0.7236 0.0098 0.6901
vn 0.0761 -0.0192 0.9969
vn -0.9029 0.2304 0.3629
vn -0.4361 0.2748 0.8569
vn -0.4669 0.0888 0.8798
vn -0.9182 0.0775 0.3884
vn -0.7189 -0.1642 -0.6755
vn -0.9710 -0.1454 -0.1897
vn -0.9794 0.0414 -0.1979
vn -0.7236 0.0395 -0.6891
vn 0.3748 0.3790 -0.8461
vn -0.2327 0.3499 -0.9075
vn -0.2553 0.0799 -0.9636
vn 0.4121 0.1268 -0.9023
vn 0.9723 0.2332 0.0156
vn 0.8358 0.2947 -0.4632
vn 0.8312 0.2964 -0.4704
vn 0.9722 0.2339 0.0143
vn 0.0442 0.1918 0.9804
vn 0.7161 0.2559 0.6494
vn 0.7143 0.2640 0.6481
vn 0.0360 0.1970 0.9797
vn -0.7062 0.2132 -0.6752
vn -0.9613 0.2084 -0.1803
vn -0.9615 0.2142 -0.1724
vn -0.7042 0.2299 -0.6717
vn -0.9147 -0.0762 0.3968
vn -0.4914 -0.1196 0.8627
vn -0.5163 0.0380 0.8556
vn -0.9133 0.0526 0.4039
vn 0.4097 -0.1153 -0.9049
vn -0.2394 -0.1685 -0.9562
vn -0.2395 0.0782 -0.9677
vn 0.4048 0.1143 -0.9072
vn 0.3785 0.3130 -0.8711
vn 0.8097 0.3416 -0.4771
vn -0.8968 0.1669 0.4098
vn -0.9541 0.2632 -0.1429
vn -0.8980 0.1740 0.4041
vn -0.5262 0.1939 0.8280
vn -0.5342 0.1893 0.8239
vn 0.6848 0.3108 0.6592
vn 0.3851 0.3112 -0.8688
vn -0.2389 0.2892 -0.9270
vn -0.2362 0.2945 -0.9260
vn 0.6055 0.0205 -0.7956
vn 0.6061 0.0210 -0.7951
vn 0.9859 0.0902 -0.1410
vn 0.9866 0.0863 -0.1387
vn -0.8365 0.0217 -0.5475
vn -0.8441 0.0224 -0.5357
vn -0.2006 0.0118 -0.9796
vn -0.1871 0.0114 -0.9823
vn 0.8491 0.0401 0.5267
vn 0.8328 0.0882 0.5464
vn 0.2109 0.0987 0.9725
vn 0.2192 0.0287 0.9753
vn -0.8064 0.0566 -0.5887
vn -0.8192 0.0414 -0.5721
vn -0.1727 0.0454 -0.9839
vn -0.1638 0.0741 -0.9837
vn -0.5316 0.1098 0.8399
vn -0.5364 0.1181 0.8357
vn -0.9826 0.0832 0.1660
vn -0.9786 0.0810 0.1892
vn 0.5858 0.0655 -0.8078
vn 0.5954 0.0446 -0.8022
vn 0.9843 0.0784 -0.1584
vn 0.9805 0.0620 -0.1863
vn 0.8079 0.1251 0.5759
vn 0.7950 0.1324 0.5920
vn 0.1963 0.1587 0.9676
vn 0.2040 0.1510 0.9672
vn -0.5388 0.0104 0.8424
vn -0.9818 0.0411 0.1852
vn -0.9862 0.0248 0.1638
vn -0.5413 -0.0104 0.8408
vn 0.2287 0.0022 0.9735
vn -0.5349 0.0661 0.8423
vn -0.9776 0.0684 0.1990
vn 0.5804 0.0620 -0.8120
vn 0.9771 0.0503 -0.2068
vn -0.1603 0.0705 -0.9845
vn -0.8005 0.0518 -0.5971
vn 0.8562 0.0216 0.5162
vn -0.1905 0.3617 -0.9126
vn -0.0316 0.9978 0.0577
vn -0.4956 0.2423 0.8341
vn -0.7036 -0.6866 -0.1830
vn -0.6284 -0.7573 0.1779
vn -0.3753 -0.6559 0.6549
vn 0.6217 -0.6698 -0.4060
vn 0.2389 -0.6987 -0.6743
vn -0.2251 -0.6281 -0.7449
vn 0.5679 -0.6966 0.4384
vn 0.6015 -0.7985 -0.0242
vn -0.4959 -0.7636 -0.4135
vn 0.1170 -0.7760 0.6198
usemtl None
s 1
f 1/1/1 120/2/2 105/3/3
f 1/1/1 89/4/4 75/5/5
f 1/1/1 75/5/5 61/6/6
f 162/7/7 50/8/8 7/9/9 86/10/10
f 161/11/11 46/12/12 9/13/13 95/14/14
f 160/15/15 93/16/16 11/17/17 113/18/18
f 1/1/1 61/6/6 120/2/2
f 1/1/1 105/3/3 89/4/4
f 159/19/19 128/20/20 10/21/21 60/22/22
f 158/23/23 117/24/24 12/25/25 126/26/26
f 157/27/27 92/28/28 13/29/29 54/30/30
f 156/31/31 116/32/32 15/33/33 79/34/34
f 155/35/35 55/36/36 8/37/37 99/38/38
f 154/39/39 103/40/40 17/41/41 74/42/42
f 153/43/43 67/44/44 14/45/45 111/46/46
f 152/47/47 66/48/48 19/49/49 91/50/50
f 151/51/51 122/52/52 16/53/53 85/54/54
f 150/55/55 88/56/56 21/57/57 121/58/58
f 149/59/59 110/60/60 22/61/61 71/62/62
f 148/63/63 90/64/64 23/65/65 45/66/66
f 147/67/67 107/68/68 18/69/69 127/70/70
f 146/71/71 119/72/72 25/73/73 80/74/74
f 145/75/75 81/76/76 20/77/77 104/78/78
f 144/79/79 97/80/80 27/81/81 96/82/82
f 143/83/83 63/84/84 28/85/85 112/86/86
f 142/87/87 115/88/88 30/89/89 94/90/90
f 141/91/91 98/92/92 24/93/93 53/94/94
f 140/95/95 56/96/96 26/97/97 109/98/98
f 27/81/81 51/99/99 49/100/100
f 30/89/89 129/101/101 124/102/102
f 139/103/103 73/104/104 29/105/105 129/101/101
f 28/85/85 69/106/106 112/86/86
f 27/81/81 49/100/100 96/82/82
f 30/89/89 124/102/102 94/90/90
f 138/107/107 77/108/108 31/109/109 51/99/99
f 137/110/110 84/111/111 35/112/112 70/113/113
f 136/114/114 108/115/115 34/116/116 52/117/117
f 135/118/118 83/119/119 40/120/120 101/121/121
f 134/122/122 76/123/123 33/124/124 78/125/125
f 133/126/126 58/127/127 38/128/128 87/129/129
f 132/130/130 118/131/131 36/132/132 68/133/133
f 131/134/134 47/135/135 44/136/136 106/137/137
f 130/138/138 100/139/139 42/140/140 123/141/141
f 101/121/121 130/138/138 123/141/141 41/142/142
f 40/120/120 59/143/143 130/138/138 101/121/121
f 59/143/143 37/144/144 100/139/139 130/138/138
f 83/119/119 131/134/134 106/137/137 40/120/120
f 36/132/132 70/113/113 131/134/134 83/119/119
f 70/113/113 35/112/112 47/135/135 131/134/134
f 114/145/145 132/130/130 68/133/133 39/146/146
f 43/147/147 78/148/125 132/130/130 114/145/145
f 78/148/125 33/149/124 118/131/131 132/130/130
f 59/143/143 133/126/126 87/129/129 37/144/144
f 40/120/120 106/137/137 133/126/126 59/143/143
f 106/137/137 44/136/136 58/127/127 133/126/126
f 62/150/148 134/122/122 78/125/125 43/151/147
f 42/140/140 100/139/139 134/122/122 62/150/148
f 100/139/139 37/144/144 76/123/123 134/122/122
f 72/152/149 135/118/118 101/121/121 41/142/142
f 39/146/146 68/133/133 135/118/118 72/152/149
f 68/133/133 36/132/132 83/119/119 135/118/118
f 76/123/123 136/114/114 52/117/117 33/124/124
f 37/144/144 87/129/129 136/114/114 76/123/123
f 87/129/129 38/128/128 108/115/115 136/114/114
f 118/131/131 137/110/110 70/113/113 36/132/132
f 33/149/124 52/153/117 137/110/110 118/131/131
f 52/153/117 34/154/116 84/111/111 137/110/110
f 97/80/80 138/107/107 51/99/99 27/81/81
f 22/155/61 109/156/98 138/107/107 97/80/80
f 109/156/98 26/157/97 77/108/108 138/107/107
f 94/90/90 65/158/150 31/109/109
f 94/90/90 124/102/102 65/158/150
f 124/102/102 32/159/151 65/158/150
f 96/82/82 69/106/106 28/85/85
f 96/82/82 49/100/100 69/106/106
f 49/100/100 32/159/151 69/106/106
f 112/86/86 102/160/152 29/105/105
f 112/86/86 69/106/106 102/160/152
f 69/106/106 32/159/151 102/160/152
f 115/88/88 139/103/103 129/101/101 30/89/89
f 25/161/73 53/162/94 139/103/103 115/88/88
f 53/162/94 24/163/93 73/104/104 139/103/103
f 124/102/102 102/160/152 32/159/151
f 124/102/102 129/101/101 102/160/152
f 129/101/101 29/105/105 102/160/152
f 49/100/100 65/158/150 32/159/151
f 49/100/100 51/99/99 65/158/150
f 51/99/99 31/109/109 65/158/150
f 110/60/60 140/95/95 109/98/98 22/61/61
f 21/57/57 104/78/78 140/95/95 110/60/60
f 104/78/78 20/77/77 56/96/96 140/95/95
f 119/72/72 141/91/91 53/94/94 25/73/73
f 19/49/49 127/70/70 141/91/91 119/72/72
f 127/70/70 18/69/69 98/92/92 141/91/91
f 77/108/108 142/87/87 94/90/90 31/109/109
f 26/157/97 80/164/74 142/87/87 77/108/108
f 80/164/74 25/161/73 115/88/88 142/87/87
f 73/104/104 143/83/83 112/86/86 29/105/105
f 24/163/93 45/165/66 143/83/83 73/104/104
f 45/165/66 23/166/65 63/84/84 143/83/83
f 63/84/84 144/79/79 96/82/82 28/85/85
f 23/166/65 71/167/62 144/79/79 63/84/84
f 71/167/62 22/155/61 97/80/80 144/79/79
f 88/56/56 145/75/75 104/78/78 21/57/57
f 12/168/25 85/169/54 145/75/75 88/56/56
f 85/169/54 16/170/53 81/76/76 145/75/75
f 56/96/96 146/71/71 80/74/74 26/97/97
f 20/77/77 91/50/50 146/71/71 56/96/96
f 91/50/50 19/49/49 119/72/72 146/71/71
f 66/48/48 147/67/67 127/70/70 19/49/49
f 15/171/33 111/172/46 147/67/67 66/48/48
f 111/172/46 14/173/45 107/68/68 147/67/67
f 98/92/92 148/63/63 45/66/66 24/93/93
f 18/69/69 74/42/42 148/63/63 98/92/92
f 74/42/42 17/41/41 90/64/64 148/63/63
f 90/64/64 149/59/59 71/62/62 23/65/65
f 17/41/41 121/58/58 149/59/59 90/64/64
f 121/58/58 21/57/57 110/60/60 149/59/59
f 103/40/40 150/55/55 121/58/58 17/41/41
f 13/174/29 126/175/26 150/55/55 103/40/40
f 126/175/26 12/168/25 88/56/56 150/55/55
f 117/24/24 151/51/51 85/54/54 12/25/25
f 11/17/17 60/22/22 151/51/51 117/24/24
f 60/22/22 10/21/21 122/52/52 151/51/51
f 81/76/76 152/47/47 91/50/50 20/77/77
f 16/170/53 79/176/34 152/47/47 81/76/76
f 79/176/34 15/171/33 66/48/48 152/47/47
f 116/32/32 153/43/43 111/46/46 15/33/33
f 9/13/13 99/38/38 153/43/43 116/32/32
f 99/38/38 8/37/37 67/44/44 153/43/43
f 107/68/68 154/39/39 74/42/42 18/69/69
f 14/173/45 54/177/30 154/39/39 107/68/68
f 54/177/30 13/174/29 103/40/40 154/39/39
f 46/12/12 155/35/35 99/38/38 9/13/13
f 2/178/153 125/179/154 155/35/35 46/12/12
f 125/179/154 6/180/155 55/36/36 155/35/35
f 122/52/52 156/31/31 79/34/34 16/53/53
f 10/21/21 95/14/14 156/31/31 122/52/52
f 95/14/14 9/13/13 116/32/32 156/31/31
f 67/44/44 157/27/27 54/30/30 14/45/45
f 8/37/37 86/10/10 157/27/27 67/44/44
f 86/10/10 7/9/9 92/28/28 157/27/27
f 92/28/28 158/23/23 126/26/26 13/29/29
f 7/9/9 113/18/18 158/23/23 92/28/28
f 113/18/18 11/17/17 117/24/24 158/23/23
f 93/16/16 159/19/19 60/22/22 11/17/17
f 4/181/156 48/182/157 159/19/19 93/16/16
f 48/182/157 3/183/158 128/20/20 159/19/19
f 89/4/4 48/184/157 4/185/156
f 89/4/4 105/3/3 48/184/157
f 105/3/3 3/186/158 48/184/157
f 120/2/2 125/187/154 2/188/153
f 120/2/2 61/6/6 125/187/154
f 61/6/6 6/189/155 125/187/154
f 50/8/8 160/15/15 113/18/18 7/9/9
f 5/190/159 57/191/160 160/15/15 50/8/8
f 57/191/160 4/181/156 93/16/16 160/15/15
f 128/20/20 161/11/11 95/14/14 10/21/21
f 3/183/158 82/192/161 161/11/11 128/20/20
f 82/192/161 2/178/153 46/12/12 161/11/11
f 55/36/36 162/7/7 86/10/10 8/37/37
f 6/180/155 64/193/162 162/7/7 55/36/36
f 64/193/162 5/190/159 50/8/8 162/7/7
f 61/6/6 64/194/162 6/189/155
f 61/6/6 75/5/5 64/194/162
f 75/5/5 5/195/159 64/194/162
f 75/5/5 57/196/160 5/195/159
f 75/5/5 89/4/4 57/196/160
f 89/4/4 4/185/156 57/196/160
f 105/3/3 82/197/161 3/186/158
f 105/3/3 120/2/2 82/197/161
f 120/2/2 2/188/153 82/197/161
