# Blender v2.78 (sub 0) OBJ File: ''
# www.blender.org
mtllib Dead_Pine_Tree_crk_l_09.mtl
o Dead_Pine_Tree_crk_l_09
v 4.208809 0.049711 2.701111
v 4.107164 0.144976 2.528716
v 4.057408 0.184957 2.739444
v 4.193775 0.059406 3.163359
v 4.047117 0.188926 2.188332
v 3.837535 0.315543 2.225237
v 4.204892 0.012387 2.134012
v 4.168281 0.037963 1.472589
v 3.910559 0.293104 1.557607
v 4.079318 -0.000841 1.009390
v 3.921869 0.228005 1.012897
v 3.595548 0.480194 1.600567
v 3.610946 0.353120 1.061213
v 3.415497 0.499304 1.137514
v 3.842522 0.333280 1.229020
v 3.708301 0.310613 0.645829
v 4.316389 -0.082931 1.744639
v 3.499959 0.461569 1.906212
v 5.725116 0.299656 4.682797
v 5.512838 0.307698 4.698052
v 5.636496 0.244978 4.849079
v 6.069864 0.164059 4.927875
v 5.211796 0.389203 4.576786
v 5.095514 0.335341 4.751391
v 5.304765 0.368930 4.366229
v 4.769540 0.452988 4.039824
v 4.637021 0.468509 4.357337
v 4.356174 0.451599 3.811791
v 4.223268 0.492678 4.046747
v 4.463414 0.393733 4.622331
v 4.082753 0.407058 4.311045
v 4.051312 0.254307 4.449787
v 4.333113 0.495021 4.254633
v 3.831371 0.429140 4.021079
v 5.086645 0.308628 3.994281
v 4.644703 0.239408 4.794940
v 7.450913 0.011689 5.564592
v 7.478919 0.004873 5.452724
v 7.372274 0.009154 5.492778
v 7.255791 0.030854 5.705007
v 7.607597 0.003600 5.324915
v 7.521846 -0.015824 5.233760
v 7.707587 -0.008365 5.402554
v 8.014045 0.039062 5.205450
v 7.860281 0.044605 5.098429
v 8.215137 0.064313 5.030452
v 8.117165 0.099591 4.944750
v 7.724919 0.019272 4.961535
v 7.997093 0.044451 4.831365
v 7.877298 0.032068 4.763144
v 7.983261 0.080476 4.973475
v 8.178787 0.130070 4.729045
v 7.960791 -0.025055 5.351446
v 7.572252 -0.043195 5.000740
v 4.193536 0.059147 3.163355
v 4.057182 0.184688 2.739439
v 4.106931 0.144712 2.528719
v 4.208566 0.049458 2.701110
v 3.837356 0.315243 2.225216
v 4.046888 0.188659 2.188330
v 3.910353 0.292821 1.557619
v 4.168011 0.037742 1.472609
v 4.204620 0.012163 2.134017
v 3.921675 0.227718 1.012940
v 4.079042 -0.001044 1.009457
v 3.415308 0.499016 1.137577
v 3.610808 0.352801 1.061260
v 3.595397 0.479878 1.600571
v 3.842348 0.332977 1.229056
v 3.708190 0.310283 0.645867
v 4.316079 -0.083090 1.744640
v 3.499862 0.461238 1.906150
v 6.069828 0.163739 4.927732
v 5.636468 0.244661 4.848927
v 5.512810 0.307366 4.697913
v 5.725079 0.299327 4.682665
v 5.095503 0.335026 4.751200
v 5.211764 0.388858 4.576644
v 4.637010 0.468156 4.357193
v 4.769482 0.452628 4.039750
v 5.304703 0.368583 4.366137
v 4.223284 0.492319 4.046609
v 4.356149 0.451247 3.811759
v 4.051352 0.254009 4.449652
v 4.082809 0.406784 4.310858
v 4.463437 0.393431 4.622135
v 4.333138 0.494670 4.254472
v 3.831434 0.428866 4.020866
v 5.086532 0.308294 3.994255
v 4.644711 0.239165 4.794680
v 7.255779 0.030503 5.705032
v 7.372272 0.008804 5.492806
v 7.478916 0.004523 5.452744
v 7.450900 0.011339 5.564609
v 7.521907 -0.016168 5.233789
v 7.607616 0.003250 5.324911
v 7.860329 0.044258 5.098413
v 8.014044 0.038723 5.205363
v 7.707578 -0.008711 5.402502
v 8.117229 0.099248 4.944729
v 8.215107 0.063975 5.030368
v 7.877331 0.031721 4.763146
v 7.997187 0.044114 4.831397
v 7.725001 0.018933 4.961564
v 7.983332 0.080131 4.973475
v 8.178920 0.129746 4.729085
v 7.960746 -0.025366 5.351296
v 7.572395 -0.043508 5.000801
v 8.498132 0.049968 6.991288
v 8.433941 0.032263 7.037281
v 8.510614 0.014710 7.057216
v 8.667274 0.035318 6.995235
v 8.308023 0.031055 7.054118
v 8.317603 -0.022529 7.125805
v 8.289757 0.060266 6.970855
v 8.044555 0.083666 6.950607
v 8.072212 0.035610 7.072733
v 7.869946 0.069638 6.929598
v 7.870710 0.054926 7.022851
v 8.082333 -0.042805 7.185177
v 7.883657 -0.030102 7.112364
v 7.909416 -0.076866 7.198029
v 7.949902 0.036608 7.076726
v 7.733076 0.009797 7.075593
v 8.139988 0.077236 6.886717
v 8.191938 -0.095532 7.211116
v 8.667261 0.035150 6.995150
v 8.510602 0.014546 7.057124
v 8.433932 0.032095 7.037193
v 8.498123 0.049797 6.991206
v 8.317588 -0.022678 7.125691
v 8.308015 0.030887 7.054029
v 8.072213 0.035446 7.072640
v 8.044550 0.083483 6.950560
v 8.289746 0.060086 6.970798
v 7.870723 0.054762 7.022758
v 7.869967 0.069453 6.929564
v 7.909443 -0.077027 7.197931
v 7.883678 -0.030242 7.112238
v 8.082332 -0.042950 7.185056
v 7.949916 0.036452 7.076620
v 7.733092 0.009667 7.075457
v 8.139970 0.077049 6.886709
v 8.191911 -0.095652 7.210972
v 10.571310 0.049822 8.501177
v 10.479015 0.053428 8.476930
v 10.509634 0.025306 8.558920
v 10.682147 -0.010978 8.655079
v 10.368807 0.089974 8.381897
v 10.294188 0.065823 8.439168
v 10.438736 0.080884 8.305993
v 10.258831 0.118574 8.090010
v 10.156641 0.125534 8.205580
v 10.116407 0.117951 7.933412
v 10.025999 0.136370 8.013888
v 10.044612 0.092005 8.292913
v 9.928118 0.097980 8.105717
v 9.894694 0.029488 8.160046
v 10.042528 0.137421 8.118011
v 9.863400 0.107881 7.946278
v 10.399998 0.053846 8.116576
v 10.096568 0.022808 8.392404
v 10.682154 -0.011121 8.655014
v 10.509646 0.025163 8.558851
v 10.479022 0.053279 8.476866
v 10.571312 0.049675 8.501115
v 10.294212 0.065681 8.439084
v 10.368814 0.089819 8.381833
v 10.156656 0.125375 8.205518
v 10.258818 0.118413 8.089972
v 10.438721 0.080728 8.305944
v 10.026027 0.136209 8.013832
v 10.116402 0.117793 7.933394
v 9.894730 0.029354 8.159995
v 9.928168 0.097856 8.105645
v 10.044649 0.091870 8.292834
v 10.042563 0.137263 8.117946
v 9.863457 0.107757 7.946197
v 10.399954 0.053695 8.116549
v 10.096607 0.022699 8.392294
v 0.282561 -0.001504 -0.179063
v 0.278095 1.593856 -0.181278
v 0.288199 1.551379 0.136770
v 0.290967 -0.002864 0.186262
v -0.083695 -0.002780 0.289046
v -0.038798 1.580675 0.213144
v -0.225154 1.556228 -0.061660
v -0.292869 -0.002203 -0.025295
v -0.058980 -0.005104 -0.315009
v -0.012172 1.523305 -0.327077
v 5.003023 -0.022425 3.856467
v 5.713183 0.008383 3.492404
v 5.708356 0.031655 3.481200
v 4.984494 0.031315 3.833606
v 4.973900 -0.020512 3.802704
v 5.707515 0.009518 3.467111
v 7.308601 -0.108297 6.579106
v 7.145168 -0.120930 7.069574
v 7.128654 -0.091886 7.069882
v 7.280823 -0.058054 6.576723
v 7.161391 -0.092316 7.075528
v 7.336179 -0.059551 6.591959
v 3.402957 0.194493 2.858868
v 3.306727 0.666189 3.504165
v 3.302025 0.689544 3.493133
v 3.391225 0.244522 2.825513
v 3.326474 0.681171 3.495444
v 3.448091 0.233631 2.845262
v 6.062973 0.122376 4.685190
v 8.828800 0.036550 6.946958
v 8.818659 -0.083785 6.948814
v 6.001524 -0.112230 4.680428
v 5.895876 -0.156538 4.809632
v 8.746161 -0.114259 7.036614
v 8.702831 -0.013672 7.086857
v 5.783225 0.039142 4.870138
v 5.947387 0.215923 4.808811
v 8.758739 0.080139 7.031834
v 12.899208 -0.060094 10.387586
v 12.944910 0.006073 10.429306
v 14.737103 -0.119662 12.041201
v 14.691557 -0.147944 11.997070
v 12.814441 -0.028266 10.469488
v 12.881364 -0.070174 10.432674
v 14.711325 -0.155115 12.051707
v 14.686195 -0.132826 12.063218
v 12.930604 0.025396 10.493388
v 14.756735 -0.115629 12.105029
v 1.607503 0.137219 1.560952
v 3.018546 0.139927 2.658465
v 3.092039 0.380051 2.472326
v 1.722185 0.391970 1.408272
v 1.927949 -0.066253 1.198752
v 3.284044 -0.045458 2.316726
v 3.090998 -0.127065 2.552380
v 1.713363 -0.157708 1.458881
v 3.323143 0.259599 2.327793
v 1.911826 0.261678 1.207760
v 10.793776 -0.051589 8.850813
v 10.869972 0.015264 8.812032
v 10.888704 -0.084903 8.735285
v 10.825622 -0.109042 8.802116
v 10.926237 -0.009625 8.757009
v 4.252202 0.398140 4.465485
v 4.259461 -0.035217 1.652903
v 7.791985 0.030691 7.054953
v 10.262806 0.108223 8.293503
v 8.199665 0.070547 6.923329
v 10.348538 0.082469 8.112700
v 7.464723 0.007897 5.509151
v 8.154948 -0.071379 7.200659
v 5.169807 0.339875 4.149476
v 10.032398 0.137923 8.068895
v 7.939719 0.076886 6.940090
v 7.789926 0.032965 5.032411
v 5.163407 0.365625 4.667359
v 0.111407 -0.002822 0.261370
v 8.595316 0.042476 6.992674
v 9.890338 0.104793 8.014360
v 10.428961 0.070754 8.433588
v 8.079538 -0.002205 7.129832
v 10.209724 0.124345 8.149945
v 7.876078 0.064679 6.969174
v 8.169838 0.073214 6.956168
v 9.805287 -0.111538 7.934209
v 3.707189 0.405051 1.925264
v 7.554584 -0.030903 5.096129
v 7.303467 0.021671 5.613568
v 13.904583 -0.057123 11.288492
v 5.925300 0.225530 4.821082
v 8.103802 0.091308 4.773507
v 7.147968 -0.107037 7.086629
v 3.311063 0.697972 3.513573
v 5.950236 -0.145416 4.743485
v 4.554262 0.438876 4.495614
v 4.080287 0.164159 2.373463
v 4.134160 0.115814 2.984128
v 3.302068 0.691227 3.517649
v 7.927681 0.064084 5.030899
v 4.520118 0.457788 3.907641
v 5.731497 0.020289 3.476074
v 4.988786 -0.025813 3.829252
v 3.961808 0.244410 2.493352
v 0.137421 1.597197 0.171658
v 3.755812 0.390367 1.585039
v 14.715899 -0.153018 12.036353
v 9.873910 -0.084113 7.857386
v 5.052702 0.406907 4.193316
v 4.659820 0.192996 3.479345
v 3.643023 0.402458 2.031264
v 7.911093 0.045935 7.052650
v 10.137560 0.130011 8.043795
v 4.158956 0.096979 2.615624
v 4.210597 0.456286 4.279868
v 10.806149 -0.082637 8.829285
v 11.896841 -0.070231 9.562509
v 7.856925 -0.017260 5.369130
v 8.079538 -0.002359 7.129724
v 4.075605 0.323292 4.400319
v 7.792000 0.030546 7.054834
v 8.241529 -0.063908 7.175548
v 5.266286 0.382037 4.477581
v 7.424881 0.006622 5.472771
v 9.953736 0.060071 8.213834
v 8.108711 0.081302 6.913833
v 10.525652 0.051768 8.489045
v 7.569076 0.000535 5.484540
v -0.037242 0.758288 -0.328157
v 8.795107 0.063604 6.987882
v 8.376578 0.031527 7.045331
v 9.931196 0.122394 7.976693
v 7.569065 0.000186 5.484526
v 0.292066 0.782409 -0.193083
v 10.348506 0.082314 8.112667
v 10.636250 0.016585 8.588835
v 10.101505 0.112247 8.252285
v 8.168181 0.078627 5.000933
v 8.418585 -0.001259 7.088657
v 10.356788 0.097912 8.196131
v 8.060433 0.061587 7.011935
v 8.376570 0.031359 7.045243
v 7.652773 -0.001328 5.366983
v 12.891200 -0.067927 10.408216
v 6.037398 0.003730 4.676375
v 7.865939 0.031530 4.886913
v 3.428349 0.211574 2.854285
v 1.690108 0.208508 1.332899
v 3.388711 0.457741 3.170350
v 7.261196 0.011118 5.990661
v 4.590276 0.310950 4.732329
v 4.082070 0.165330 2.635015
v 7.992786 0.063121 4.905310
v 1.916691 0.092034 1.186680
v 7.203444 -0.074176 6.823078
v 3.879064 0.288365 1.123023
v 0.119576 -0.003304 -0.269883
v 5.729179 0.020817 3.464487
v 10.506271 0.067394 8.410505
v 9.895933 0.010712 7.866624
v 4.259756 -0.035031 1.652895
v 4.017599 0.097593 1.026254
v 2.559602 0.267715 1.700133
v 4.480307 0.478857 4.029669
v 4.214695 0.322215 4.520658
v 4.995432 0.006501 3.848511
v 14.754542 -0.127219 12.113443
v 8.103919 0.090979 4.773545
v 10.409369 0.047404 8.500276
v 12.844335 -0.050840 10.451487
v 4.080518 0.164424 2.373462
v 2.237593 0.137654 2.066102
v 4.043462 0.166640 1.519767
v 13.813838 -0.080655 11.318138
v 8.005544 0.036553 7.075314
v 10.412830 0.067856 8.194475
v 10.356771 0.097754 8.196089
v 5.925264 0.225206 4.820943
v 7.561341 -0.005269 5.283800
v 7.445157 -0.003875 5.371174
v 4.708993 0.465499 4.201578
v 4.975230 0.372466 4.023143
v 9.986884 0.120052 8.110988
v 4.203602 0.053289 2.966609
v 3.643155 0.402776 2.031307
v -0.143513 1.583076 0.077607
v 8.302537 0.046327 7.013195
v 8.077766 0.070657 5.070327
v 8.466309 0.041318 7.014130
v 10.494387 0.039071 8.518396
v 10.082912 0.126959 7.972492
v 10.177165 0.044002 8.409654
v 7.904263 -0.057881 7.160954
v 3.048294 -0.001854 2.616660
v 3.313189 0.687279 3.518465
v 4.781333 0.364190 4.700150
v 8.595304 0.042307 6.992589
v 8.418571 -0.001417 7.088556
v 7.464733 0.008247 5.509133
v 8.827295 -0.023912 6.943535
v 7.140283 -0.093543 7.086820
v 3.491532 0.493528 1.321869
v 0.128364 1.672165 0.019656
v 4.043224 0.166386 1.519782
v 3.800254 0.283133 0.802857
v 5.163428 0.365958 4.667525
v 3.188010 -0.100895 2.431344
v 4.977199 0.007691 3.815014
v 4.458041 -0.142005 3.653886
v 3.755990 0.390668 1.585031
v 10.101535 0.112099 8.252214
v 9.771341 -0.034648 7.983963
v 4.075558 0.323578 4.400477
v 4.203843 0.053546 2.966612
v 7.445183 -0.004223 5.371202
v 4.590263 0.311221 4.732561
v 3.937182 0.422526 4.145604
v 4.199190 0.016166 1.810604
v 10.428967 0.070602 8.433523
v 4.313593 0.471331 3.918316
v 0.311808 -0.002184 0.004735
v 7.973794 0.001337 5.299339
v 5.575110 0.275353 4.774371
v 10.607857 0.003686 8.615438
v -0.266171 0.777447 -0.043927
v 10.412799 0.067703 8.194437
v 7.949883 0.070889 6.984469
v 3.499105 0.434503 1.120983
v 10.335147 0.079551 8.413404
v 11.805036 -0.038114 9.661057
v 7.992871 0.062780 4.905326
v 7.325762 -0.086028 6.586267
v 8.077737 0.070999 5.070382
v 8.190017 0.033247 7.063707
v 7.949888 0.070714 6.984399
v 9.912121 0.060548 8.142630
v 4.554269 0.438547 4.495442
v 1.645595 -0.020806 1.507173
v 13.857935 -0.104196 11.244364
v 7.862850 0.010761 5.312446
v 7.734112 0.023172 5.211585
v 8.783276 -0.104463 6.991539
v 8.060433 0.061413 7.011864
v 11.904349 0.022465 9.654302
v 3.392894 0.218325 2.841904
v 4.127319 0.100194 2.170308
v 4.827247 0.286677 4.773333
v 7.463342 0.077093 5.831006
v 5.375979 0.346339 4.642598
v 7.373756 0.145404 5.935907
v 10.177130 0.044126 8.409752
v 5.522611 0.339182 4.538340
v 4.471686 0.484666 4.300969
v 7.250074 -0.075196 6.834132
v 14.763467 -0.118143 12.087289
v 4.266807 -0.042710 1.898506
v 8.151256 0.119786 4.820702
v 5.266332 0.382384 4.477698
v 1.799413 -0.118011 1.309789
v 7.626833 -0.016242 4.993995
v 5.346308 0.032961 3.657510
v 14.824074 -0.141392 12.159629
v 4.210555 0.456598 4.280043
v 4.709027 0.465858 4.201689
v 4.607331 -0.079041 3.471158
v 7.339643 0.022454 5.646625
v 4.017841 0.097833 1.026198
v 5.375949 0.346001 4.642457
v 2.325075 0.393752 1.874589
v 4.082300 0.165596 2.635015
v 10.829622 -0.016119 8.833977
v 8.241550 -0.063776 7.175678
v 8.151361 0.119454 4.820717
v 10.082920 0.126799 7.972456
v 7.978279 -0.061411 7.192581
v 7.911107 0.045776 7.052548
v 3.666154 0.324009 0.821927
v 3.548745 0.470973 1.801749
v 10.506276 0.067545 8.410563
v 3.491361 0.493226 1.321908
v 10.094632 0.132778 8.157730
v 10.494396 0.038925 8.518330
v 5.884510 0.196762 4.897675
v -0.195132 -0.003654 -0.185911
v 10.406293 0.086916 8.347737
v 4.975140 0.372120 4.023097
v 10.082531 0.054886 8.357956
v 8.133663 0.056412 5.100309
v 8.601091 0.026243 7.023027
v 7.866022 0.031190 4.886943
v 9.986841 0.120193 8.111056
v 9.977633 0.094111 8.195855
v 11.856638 -0.087219 9.618533
v 4.471694 0.484313 4.300816
v 8.399298 0.054203 6.984953
v 7.939729 0.076703 6.940048
v 7.614672 -0.002034 5.095938
v 7.796842 -0.007795 7.089344
v 7.789860 0.033309 5.032403
v 8.601078 0.026076 7.022940
v 7.339656 0.022804 5.646602
v 7.862857 0.011102 5.312521
v 8.472632 0.023284 7.047452
v 8.190012 0.033080 7.063617
v 8.046654 0.091528 4.957748
v 5.859272 0.134929 4.844115
v 3.948027 0.252377 2.216185
v 3.314871 0.106105 2.312655
v 5.884542 0.197080 4.897820
v 4.214661 0.322515 4.520821
v 12.942315 0.018899 10.463227
v 7.973820 0.001662 5.299461
v 13.844263 -0.112500 11.279196
v 10.172111 0.120726 7.997816
v 10.910580 -0.047268 8.743139
v 3.800109 0.282819 0.802897
v 3.499271 0.434805 1.120928
v 9.953773 0.059937 8.213769
v 3.948232 0.252661 2.216195
v 8.005536 0.036713 7.075413
v 10.636257 0.016440 8.588772
v -0.121592 1.567343 -0.198409
v 10.209727 0.124184 8.149895
v 5.522562 0.338844 4.538225
v 3.707029 0.404740 1.925251
v 5.382632 0.294263 4.797467
v 5.052638 0.406553 4.193237
v 4.480286 0.478494 4.029567
v 7.308493 -0.054783 6.584765
v 8.046724 0.091184 4.957739
v 8.204273 -0.035747 7.160275
v -0.071901 0.774383 0.266406
v 8.133648 0.056074 5.100225
v 9.890283 0.104915 8.014438
v 4.924435 0.430252 4.466646
v 11.939308 0.000479 9.594831
v 10.607847 0.003829 8.615503
v 7.734146 0.022824 5.211575
v 7.975863 -0.038595 7.151564
v 8.302547 0.046502 7.013268
v 7.916817 0.005010 7.092318
v 7.652777 -0.001678 5.366958
v 5.832461 -0.064302 4.844419
v 7.975851 -0.038452 7.151685
v 7.537146 0.003112 5.394073
v 7.935321 0.043498 5.155121
v 8.316452 0.005557 7.089461
v 12.922467 -0.027303 10.405517
v 7.427765 -0.099748 5.830588
v 10.406289 0.086761 8.347681
v 7.291347 -0.085092 6.576757
v 3.354369 0.429095 3.182168
v 4.114814 0.020554 1.193748
v 3.978761 0.240735 1.872659
v 3.874038 0.316998 1.378484
v 5.340256 -0.006190 3.633695
v 2.531008 -0.056385 1.688393
v 5.575138 0.275678 4.774516
v 10.094658 0.132620 8.157665
v 4.203236 0.034974 2.431423
v 4.313602 0.471689 3.918394
v 5.731255 0.010225 3.469635
v 7.626950 -0.016567 4.994042
v 3.733252 0.340082 1.144963
v 3.590300 0.423417 1.312060
v 3.878882 0.288068 1.123062
v 14.734077 -0.145186 12.089184
v 9.832485 0.043732 7.935062
v 10.137554 0.130173 8.043840
v 4.127569 0.100441 2.170307
v 4.266512 -0.042898 1.898510
v 3.937244 0.422254 4.145401
v 10.856918 -0.100245 8.766828
v 10.901043 0.006373 8.784025
v 7.537153 0.002762 5.394082
v 9.912162 0.060420 8.142569
v 7.303458 0.021320 5.613596
v 3.548867 0.471298 1.801783
v 5.620005 0.303995 4.690057
v 4.520079 0.457431 3.907589
v 0.283102 1.604588 -0.009586
v 10.262795 0.108380 8.293566
v 8.204283 -0.035601 7.160395
v 7.818117 0.027836 4.843892
v 8.108699 0.081117 6.913808
v 3.590151 0.423101 1.312089
v 9.931240 0.122252 7.976623
v 7.614594 -0.001694 5.095907
v 6.011621 0.179732 4.745806
v 8.399289 0.054028 6.984882
v 7.916834 0.004864 7.092201
v 7.935346 0.043154 5.155071
v 3.210124 0.333752 2.395460
v 8.316464 0.005716 7.089562
v 8.169829 0.073032 6.956119
v 7.904238 -0.057730 7.161064
v 8.721465 -0.067034 7.065361
v 4.115086 0.020768 1.193702
v 7.561303 -0.004921 5.283787
v 4.046200 0.129442 1.221640
v 4.485150 0.301107 3.612745
v 5.382652 0.294582 4.797635
v 7.923193 0.034119 4.797723
v 4.158718 0.096720 2.615626
v 5.620039 0.304326 4.690193
v 10.168303 0.078621 8.371867
v 10.168270 0.078758 8.371951
v 5.169717 0.339534 4.149422
v 7.132737 -0.106849 7.084095
v 7.856953 -0.016933 5.369238
v 3.666275 0.324336 0.821885
v 0.132650 1.572074 -0.266321
v 4.276396 0.495785 4.158100
v 3.047471 0.269946 2.571572
v 12.870211 0.000106 10.483995
v 4.134393 0.116077 2.984132
v 3.996376 0.461507 4.036478
v 10.335163 0.079402 8.413332
v 10.409352 0.047547 8.500350
v 8.199678 0.070732 6.923358
v 7.927741 0.063738 5.030890
v 4.924413 0.429902 4.466503
v 3.733097 0.339770 1.145003
v -0.209676 -0.002492 0.145630
v 8.728045 0.036779 7.062762
v 9.977677 0.093981 8.195783
v 3.961602 0.244127 2.493340
v 7.796862 -0.007928 7.089211
v 0.295958 0.774077 0.165868
v 8.472644 0.023449 7.047542
v 8.154933 -0.071509 7.200526
v 4.827246 0.286953 4.773563
v 7.923254 0.033776 4.797740
v 7.978295 -0.061564 7.192473
v 10.525646 0.051916 8.489109
v 7.876061 0.064855 6.969234
v 4.781340 0.363883 4.699951
v 1.785477 0.332832 1.298597
v 3.421030 0.242747 2.833453
v 10.082492 0.055007 8.358053
v 4.046434 0.129694 1.221605
v 8.168172 0.078967 5.000991
v 8.466301 0.041149 7.014045
v 4.202980 0.034733 2.431425
v 7.424883 0.006972 5.472746
v 7.818062 0.028181 4.843876
v 14.744724 -0.135725 12.045899
v 7.341125 -0.136214 5.936613
v 3.345670 0.467939 3.158673
v 4.198915 0.015948 1.810614
v 7.554475 -0.030577 5.096082
v 4.276374 0.496141 4.158252
v 5.358671 -0.007804 3.675541
v 2.321566 -0.145332 1.943035
v 3.873849 0.316704 1.378509
v 7.226889 -0.116145 6.824177
v 3.978978 0.241009 1.872655
v 3.996420 0.461193 4.036295
v 4.252161 0.398430 4.465672
v 1.645707 0.275762 1.460573
v 13.894184 -0.043556 11.340636
v 10.032431 0.137763 8.068833
v 10.172102 0.120566 7.997788
v 4.364113 0.091140 3.736551
v 1.714664 0.034519 1.294144
v 14.830267 -0.141491 12.143049
v 11.919832 -0.035024 9.575702
v 9.888259 -0.036850 7.858325
v 11.827278 -0.064637 9.641409
v 9.785024 -0.075788 7.962309
v 11.925577 0.014831 9.625258
v 9.866348 0.031628 7.899838
v 11.877073 -0.081758 9.588629
v 9.839909 -0.102183 7.894273
v 11.852411 -0.006032 9.660235
v 9.799417 0.007336 7.962498
v 4.641788 0.055823 3.467232
v 2.556740 0.104728 1.683428
v 4.404294 -0.032377 3.703104
v 2.272148 -0.012632 2.016074
v 4.576971 0.259306 3.543148
v 2.445211 0.345462 1.782821
v 4.533699 -0.123356 3.560145
v 2.427530 -0.116280 1.812141
v 4.417703 0.204800 3.680057
v 2.273215 0.276125 1.977788
v 13.852888 -0.060967 11.331669
v 13.850775 -0.110352 11.259703
v 13.902750 -0.048183 11.316313
v 13.826660 -0.097724 11.298981
v 13.881731 -0.080806 11.264162
v 7.313089 0.083732 5.967312
v 7.385646 -0.126217 5.882240
v 7.422438 0.119170 5.882102
v 7.296100 -0.066884 5.967716
v 7.449911 -0.012146 5.825404
v 3.372973 0.442060 3.177233
v 3.367900 0.464709 3.163533
v 3.347876 0.448006 3.170425
v 7.240422 -0.096861 6.829491
v 7.226752 -0.072390 6.828850
v 7.213233 -0.096266 6.823046
v 5.342429 0.014559 3.643944
v 5.349638 -0.009210 3.654458
v 5.353168 0.013618 3.668344
v -0.003315 1.662005 -0.096079
v -0.164945 0.767301 -0.197388
v 0.117098 0.773867 0.233141
v 0.133081 0.770059 -0.276949
v -0.184269 0.776475 0.121040
v 0.311744 0.778902 -0.012736
v 10.468714 0.069584 8.420086
v 10.217297 0.096578 8.333637
v 10.039755 0.116823 8.181087
v 9.955980 0.121333 8.039347
v 10.119858 0.132794 8.105800
v 10.309448 0.105922 8.247302
v 10.416986 0.058914 8.468006
v 10.570210 0.026508 8.556591
v 10.468714 0.069736 8.420147
v 10.217275 0.096726 8.333709
v 10.039719 0.116967 8.181157
v 9.955936 0.121474 8.039416
v 10.119841 0.132956 8.105855
v 10.309450 0.106080 8.247355
v 10.416975 0.059061 8.468075
v 10.570203 0.026653 8.556657
v 8.386995 0.043726 7.013471
v 8.198164 0.001005 7.111556
v 7.995490 0.000381 7.112965
v 7.849574 0.018095 7.072212
v 7.982664 0.055420 7.031194
v 8.181133 0.054321 7.011500
v 8.397287 0.014129 7.068812
v 8.538628 0.033386 7.018577
v 8.387003 0.043898 7.013550
v 8.198170 0.001162 7.111661
v 7.995481 0.000532 7.113078
v 7.849557 0.018240 7.072330
v 7.982658 0.055587 7.031279
v 8.181139 0.054496 7.011571
v 8.397299 0.014292 7.068908
v 8.538638 0.033554 7.018663
v 7.555768 0.001638 5.440583
v 7.673987 0.012852 5.156602
v 7.893002 0.047381 4.964760
v 8.078266 0.092263 4.859422
v 7.996696 0.068367 5.055935
v 7.795934 0.019241 5.262353
v 7.489639 -0.000715 5.380090
v 7.378382 0.015015 5.565569
v 5.450179 0.343730 4.585481
v 4.857239 0.403931 4.583981
v 4.372662 0.449083 4.389778
v 4.093793 0.459143 4.150889
v 4.487550 0.484702 4.173193
v 4.989611 0.424770 4.335406
v 5.375483 0.319932 4.723866
v 5.762684 0.247661 4.800561
v 4.145676 0.096371 2.399724
v 3.849255 0.324757 1.901155
v 3.737782 0.370108 1.358097
v 3.766771 0.309373 0.960804
v 3.964564 0.228005 1.312929
v 4.088437 0.130257 1.843861
v 4.016827 0.208147 2.432775
v 4.146964 0.106402 2.813330
v 7.555771 0.001988 5.440587
v 7.673934 0.013198 5.156592
v 7.892926 0.047723 4.964747
v 8.078171 0.092600 4.859406
v 7.996651 0.068712 5.055966
v 7.795919 0.019587 5.262393
v 7.489622 -0.000366 5.380072
v 7.378390 0.015366 5.565545
v 5.450219 0.344069 4.585608
v 4.857246 0.404263 4.584150
v 4.372637 0.449404 4.389951
v 4.093749 0.459456 4.151069
v 4.487557 0.485062 4.173323
v 4.989652 0.425124 4.335518
v 5.375508 0.320261 4.724022
v 5.762717 0.247985 4.800702
v 4.145920 0.096624 2.399723
v 3.849446 0.325050 1.901157
v 3.737948 0.370415 1.358072
v 3.766921 0.309686 0.960763
v 3.964775 0.228280 1.312901
v 4.088682 0.130506 1.843853
v 4.017044 0.208422 2.432781
v 4.147200 0.106664 2.813332
vt 0.9351 0.3490
vt 0.9372 0.3418
vt 0.9393 0.3459
vt 0.9372 0.3562
vt 0.9384 0.3336
vt 0.9418 0.3356
vt 0.9291 0.3121
vt 0.9232 0.3121
vt 0.9203 0.2989
vt 0.9277 0.2989
vt 0.9190 0.2888
vt 0.9248 0.2888
vt 0.9500 0.2989
vt 0.9455 0.2888
vt 0.9513 0.2888
vt 0.9299 0.2909
vt 0.9293 0.2787
vt 0.9322 0.2828
vt 0.9351 0.2763
vt 0.9322 0.2696
vt 0.9171 0.3043
vt 0.9443 0.3253
vt 0.9471 0.3121
vt 0.9503 0.3172
vt 0.9403 0.2909
vt 0.9351 0.2930
vt 0.9351 0.2870
vt 0.9381 0.2828
vt 0.9411 0.3121
vt 0.9351 0.3121
vt 0.9351 0.2989
vt 0.9426 0.2989
vt 0.9318 0.3336
vt 0.9351 0.3315
vt 0.9351 0.3377
vt 0.9331 0.3418
vt 0.9351 0.3490
vt 0.9372 0.3418
vt 0.9393 0.3459
vt 0.9372 0.3562
vt 0.9384 0.3336
vt 0.9418 0.3356
vt 0.9291 0.3121
vt 0.9232 0.3121
vt 0.9203 0.2989
vt 0.9277 0.2989
vt 0.9190 0.2888
vt 0.9248 0.2888
vt 0.9500 0.2989
vt 0.9455 0.2888
vt 0.9513 0.2888
vt 0.9299 0.2909
vt 0.9293 0.2787
vt 0.9322 0.2828
vt 0.9351 0.2763
vt 0.9322 0.2696
vt 0.9171 0.3043
vt 0.9443 0.3253
vt 0.9471 0.3121
vt 0.9503 0.3172
vt 0.9403 0.2909
vt 0.9351 0.2930
vt 0.9351 0.2870
vt 0.9381 0.2828
vt 0.9411 0.3121
vt 0.9351 0.3121
vt 0.9351 0.2989
vt 0.9426 0.2989
vt 0.9318 0.3336
vt 0.9351 0.3315
vt 0.9351 0.3377
vt 0.9331 0.3418
vt 0.9351 0.3490
vt 0.9372 0.3418
vt 0.9393 0.3459
vt 0.9372 0.3562
vt 0.9384 0.3336
vt 0.9418 0.3356
vt 0.9291 0.3121
vt 0.9232 0.3121
vt 0.9203 0.2989
vt 0.9277 0.2989
vt 0.9190 0.2888
vt 0.9248 0.2888
vt 0.9500 0.2989
vt 0.9455 0.2888
vt 0.9513 0.2888
vt 0.9299 0.2909
vt 0.9293 0.2787
vt 0.9322 0.2828
vt 0.9351 0.2763
vt 0.9322 0.2696
vt 0.9171 0.3043
vt 0.9443 0.3253
vt 0.9471 0.3121
vt 0.9503 0.3172
vt 0.9403 0.2909
vt 0.9351 0.2930
vt 0.9351 0.2870
vt 0.9381 0.2828
vt 0.9411 0.3121
vt 0.9351 0.3121
vt 0.9351 0.2989
vt 0.9426 0.2989
vt 0.9318 0.3336
vt 0.9351 0.3315
vt 0.9351 0.3377
vt 0.9331 0.3418
vt 0.9351 0.3490
vt 0.9372 0.3418
vt 0.9351 0.3377
vt 0.9331 0.3418
vt 0.9384 0.3336
vt 0.9418 0.3356
vt 0.9443 0.3253
vt 0.9397 0.3253
vt 0.9291 0.3121
vt 0.9232 0.3121
vt 0.9260 0.3253
vt 0.9305 0.3253
vt 0.9293 0.2787
vt 0.9235 0.2787
vt 0.9248 0.2888
vt 0.9526 0.2787
vt 0.9468 0.2787
vt 0.9513 0.2888
vt 0.9299 0.2909
vt 0.9203 0.2989
vt 0.9277 0.2989
vt 0.9351 0.2763
vt 0.9322 0.2828
vt 0.9351 0.2870
vt 0.9381 0.2828
vt 0.9139 0.3096
vt 0.9200 0.3174
vt 0.9171 0.3043
vt 0.9564 0.3091
vt 0.9532 0.3040
vt 0.9503 0.3172
vt 0.9403 0.2909
vt 0.9351 0.2930
vt 0.9351 0.2989
vt 0.9426 0.2989
vt 0.9411 0.3121
vt 0.9351 0.3121
vt 0.9351 0.3253
vt 0.9318 0.3336
vt 0.9351 0.3315
vt 0.9351 0.3490
vt 0.9372 0.3418
vt 0.9351 0.3377
vt 0.9331 0.3418
vt 0.9384 0.3336
vt 0.9418 0.3356
vt 0.9443 0.3253
vt 0.9397 0.3253
vt 0.9291 0.3121
vt 0.9232 0.3121
vt 0.9260 0.3253
vt 0.9305 0.3253
vt 0.9293 0.2787
vt 0.9235 0.2787
vt 0.9248 0.2888
vt 0.9526 0.2787
vt 0.9468 0.2787
vt 0.9513 0.2888
vt 0.9299 0.2909
vt 0.9203 0.2989
vt 0.9277 0.2989
vt 0.9351 0.2763
vt 0.9322 0.2828
vt 0.9351 0.2870
vt 0.9381 0.2828
vt 0.9139 0.3096
vt 0.9200 0.3174
vt 0.9171 0.3043
vt 0.9564 0.3091
vt 0.9532 0.3040
vt 0.9503 0.3172
vt 0.9403 0.2909
vt 0.9351 0.2930
vt 0.9351 0.2989
vt 0.9426 0.2989
vt 0.9411 0.3121
vt 0.9351 0.3121
vt 0.9351 0.3253
vt 0.9318 0.3336
vt 0.9351 0.3315
vt 0.9351 0.3490
vt 0.9372 0.3418
vt 0.9351 0.3377
vt 0.9331 0.3418
vt 0.9384 0.3336
vt 0.9418 0.3356
vt 0.9443 0.3253
vt 0.9397 0.3253
vt 0.9291 0.3121
vt 0.9232 0.3121
vt 0.9260 0.3253
vt 0.9305 0.3253
vt 0.9293 0.2787
vt 0.9235 0.2787
vt 0.9248 0.2888
vt 0.9526 0.2787
vt 0.9468 0.2787
vt 0.9513 0.2888
vt 0.9299 0.2909
vt 0.9203 0.2989
vt 0.9277 0.2989
vt 0.9351 0.2763
vt 0.9322 0.2828
vt 0.9351 0.2870
vt 0.9381 0.2828
vt 0.9139 0.3096
vt 0.9200 0.3174
vt 0.9171 0.3043
vt 0.9564 0.3091
vt 0.9532 0.3040
vt 0.9503 0.3172
vt 0.9403 0.2909
vt 0.9351 0.2930
vt 0.9351 0.2989
vt 0.9426 0.2989
vt 0.9411 0.3121
vt 0.9351 0.3121
vt 0.9351 0.3253
vt 0.9318 0.3336
vt 0.9351 0.3315
vt 0.9351 0.3490
vt 0.9372 0.3418
vt 0.9393 0.3459
vt 0.9372 0.3562
vt 0.9384 0.3336
vt 0.9418 0.3356
vt 0.9291 0.3121
vt 0.9232 0.3121
vt 0.9203 0.2989
vt 0.9277 0.2989
vt 0.9190 0.2888
vt 0.9248 0.2888
vt 0.9500 0.2989
vt 0.9455 0.2888
vt 0.9513 0.2888
vt 0.9299 0.2909
vt 0.9293 0.2787
vt 0.9322 0.2828
vt 0.9351 0.2763
vt 0.9322 0.2696
vt 0.9171 0.3043
vt 0.9443 0.3253
vt 0.9471 0.3121
vt 0.9503 0.3172
vt 0.9403 0.2909
vt 0.9351 0.2930
vt 0.9351 0.2870
vt 0.9381 0.2828
vt 0.9411 0.3121
vt 0.9351 0.3121
vt 0.9351 0.2989
vt 0.9426 0.2989
vt 0.9318 0.3336
vt 0.9351 0.3315
vt 0.9351 0.3377
vt 0.9331 0.3418
vt 0.9351 0.3490
vt 0.9372 0.3418
vt 0.9351 0.3377
vt 0.9331 0.3418
vt 0.9384 0.3336
vt 0.9418 0.3356
vt 0.9443 0.3253
vt 0.9397 0.3253
vt 0.9291 0.3121
vt 0.9232 0.3121
vt 0.9260 0.3253
vt 0.9305 0.3253
vt 0.9293 0.2787
vt 0.9235 0.2787
vt 0.9248 0.2888
vt 0.9526 0.2787
vt 0.9468 0.2787
vt 0.9513 0.2888
vt 0.9299 0.2909
vt 0.9203 0.2989
vt 0.9277 0.2989
vt 0.9351 0.2763
vt 0.9322 0.2828
vt 0.9351 0.2870
vt 0.9381 0.2828
vt 0.9139 0.3096
vt 0.9200 0.3174
vt 0.9171 0.3043
vt 0.9564 0.3091
vt 0.9532 0.3040
vt 0.9503 0.3172
vt 0.9403 0.2909
vt 0.9351 0.2930
vt 0.9351 0.2989
vt 0.9426 0.2989
vt 0.9411 0.3121
vt 0.9351 0.3121
vt 0.9351 0.3253
vt 0.9318 0.3336
vt 0.9351 0.3315
vt 0.9351 0.3490
vt 0.9372 0.3418
vt 0.9393 0.3459
vt 0.9372 0.3562
vt 0.9384 0.3336
vt 0.9418 0.3356
vt 0.9291 0.3121
vt 0.9232 0.3121
vt 0.9203 0.2989
vt 0.9277 0.2989
vt 0.9190 0.2888
vt 0.9248 0.2888
vt 0.9500 0.2989
vt 0.9455 0.2888
vt 0.9513 0.2888
vt 0.9299 0.2909
vt 0.9293 0.2787
vt 0.9322 0.2828
vt 0.9351 0.2763
vt 0.9322 0.2696
vt 0.9171 0.3043
vt 0.9443 0.3253
vt 0.9471 0.3121
vt 0.9503 0.3172
vt 0.9403 0.2909
vt 0.9351 0.2930
vt 0.9351 0.2870
vt 0.9381 0.2828
vt 0.9411 0.3121
vt 0.9351 0.3121
vt 0.9351 0.2989
vt 0.9426 0.2989
vt 0.9318 0.3336
vt 0.9351 0.3315
vt 0.9351 0.3377
vt 0.9331 0.3418
vt 0.9351 0.3490
vt 0.9372 0.3418
vt 0.9351 0.3377
vt 0.9331 0.3418
vt 0.9384 0.3336
vt 0.9418 0.3356
vt 0.9443 0.3253
vt 0.9397 0.3253
vt 0.9291 0.3121
vt 0.9232 0.3121
vt 0.9260 0.3253
vt 0.9305 0.3253
vt 0.9293 0.2787
vt 0.9235 0.2787
vt 0.9248 0.2888
vt 0.9526 0.2787
vt 0.9468 0.2787
vt 0.9513 0.2888
vt 0.9299 0.2909
vt 0.9203 0.2989
vt 0.9277 0.2989
vt 0.9351 0.2763
vt 0.9322 0.2828
vt 0.9351 0.2870
vt 0.9381 0.2828
vt 0.9139 0.3096
vt 0.9200 0.3174
vt 0.9171 0.3043
vt 0.9564 0.3091
vt 0.9532 0.3040
vt 0.9503 0.3172
vt 0.9403 0.2909
vt 0.9351 0.2930
vt 0.9351 0.2989
vt 0.9426 0.2989
vt 0.9411 0.3121
vt 0.9351 0.3121
vt 0.9351 0.3253
vt 0.9318 0.3336
vt 0.9351 0.3315
vt 0.9018 0.9562
vt 0.9019 0.9695
vt 0.8992 0.9693
vt 0.8989 0.9561
vt 0.9189 0.9564
vt 0.9181 0.9697
vt 0.9154 0.9696
vt 0.9161 0.9563
vt 0.9074 0.9561
vt 0.9073 0.9693
vt 0.9046 0.9697
vt 0.9046 0.9563
vt 0.8959 0.9561
vt 0.8963 0.9693
vt 0.8934 0.9694
vt 0.8928 0.9562
vt 0.9132 0.9561
vt 0.9126 0.9693
vt 0.9099 0.9689
vt 0.9103 0.9560
vt 0.7930 0.8100
vt 0.7876 0.8184
vt 0.7790 0.8119
vt 0.7817 0.8017
vt 0.8067 0.7914
vt 0.8095 0.8016
vt 0.7955 0.7914
vt 0.9623 0.9159
vt 0.9565 0.9159
vt 0.9565 0.9157
vt 0.9623 0.9155
vt 0.9622 0.9166
vt 0.9564 0.9162
vt 0.9565 0.9160
vt 0.9622 0.9162
vt 0.9564 0.9322
vt 0.9565 0.9320
vt 0.9566 0.9322
vt 0.9622 0.9152
vt 0.9564 0.9155
vt 0.9564 0.9153
vt 0.9622 0.9148
vt 0.9605 0.9197
vt 0.9646 0.9194
vt 0.9646 0.9197
vt 0.9606 0.9201
vt 0.9605 0.9181
vt 0.9645 0.9183
vt 0.9644 0.9186
vt 0.9604 0.9185
vt 0.9604 0.9189
vt 0.9645 0.9189
vt 0.9645 0.9191
vt 0.9604 0.9193
vt 0.9564 0.9300
vt 0.9566 0.9297
vt 0.9567 0.9300
vt 0.9622 0.9105
vt 0.9681 0.9102
vt 0.9681 0.9103
vt 0.9623 0.9108
vt 0.9623 0.9091
vt 0.9681 0.9095
vt 0.9680 0.9096
vt 0.9622 0.9095
vt 0.9622 0.9098
vt 0.9680 0.9098
vt 0.9680 0.9100
vt 0.9622 0.9102
vt 0.9564 0.9318
vt 0.9565 0.9317
vt 0.9566 0.9318
vt 0.9599 0.9302
vt 0.9329 0.9297
vt 0.9329 0.9288
vt 0.9602 0.9287
vt 0.9599 0.9382
vt 0.9326 0.9353
vt 0.9326 0.9343
vt 0.9603 0.9369
vt 0.9596 0.9328
vt 0.9329 0.9316
vt 0.9329 0.9306
vt 0.9597 0.9316
vt 0.9601 0.9276
vt 0.9329 0.9279
vt 0.9329 0.9269
vt 0.9601 0.9265
vt 0.9599 0.9354
vt 0.9327 0.9334
vt 0.9328 0.9325
vt 0.9596 0.9340
vt 0.9117 0.9726
vt 0.9111 0.9730
vt 0.8925 0.9733
vt 0.8932 0.9730
vt 0.9121 0.9753
vt 0.9121 0.9758
vt 0.8939 0.9753
vt 0.8935 0.9750
vt 0.9109 0.9734
vt 0.9107 0.9738
vt 0.8922 0.9740
vt 0.8923 0.9736
vt 0.9122 0.9718
vt 0.9123 0.9721
vt 0.8939 0.9727
vt 0.8938 0.9724
vt 0.9114 0.9743
vt 0.9121 0.9748
vt 0.8932 0.9746
vt 0.8927 0.9743
vt 0.9610 0.9168
vt 0.9478 0.9158
vt 0.9487 0.9134
vt 0.9616 0.9143
vt 0.9204 0.9139
vt 0.8929 0.9119
vt 0.8923 0.9100
vt 0.9205 0.9117
vt 0.9612 0.9014
vt 0.9480 0.9014
vt 0.9480 0.8988
vt 0.9613 0.8987
vt 0.9205 0.9015
vt 0.8931 0.9017
vt 0.8930 0.9004
vt 0.9205 0.8996
vt 0.9611 0.9118
vt 0.9480 0.9111
vt 0.9472 0.9088
vt 0.9605 0.9093
vt 0.9201 0.9098
vt 0.8923 0.9085
vt 0.8923 0.9069
vt 0.9197 0.9079
vt 0.9602 0.9219
vt 0.9470 0.9205
vt 0.9470 0.9182
vt 0.9603 0.9194
vt 0.9199 0.9181
vt 0.8929 0.9157
vt 0.8936 0.9139
vt 0.9203 0.9161
vt 0.9609 0.9067
vt 0.9476 0.9064
vt 0.9480 0.9040
vt 0.9612 0.9042
vt 0.9202 0.9057
vt 0.8928 0.9050
vt 0.8932 0.9030
vt 0.9206 0.9035
vt 0.9126 0.9321
vt 0.9126 0.9330
vt 0.8927 0.9317
vt 0.8925 0.9309
vt 0.9493 0.9744
vt 0.9499 0.9751
vt 0.9310 0.9749
vt 0.9301 0.9742
vt 0.9130 0.9274
vt 0.9130 0.9282
vt 0.8930 0.9276
vt 0.8931 0.9269
vt 0.9497 0.9709
vt 0.9498 0.9714
vt 0.9307 0.9716
vt 0.9305 0.9712
vt 0.9125 0.9305
vt 0.9125 0.9312
vt 0.8923 0.9300
vt 0.8923 0.9294
vt 0.9488 0.9731
vt 0.9488 0.9736
vt 0.9292 0.9736
vt 0.9295 0.9732
vt 0.9126 0.9338
vt 0.9126 0.9346
vt 0.8927 0.9330
vt 0.8927 0.9324
vt 0.9498 0.9758
vt 0.9496 0.9764
vt 0.9303 0.9763
vt 0.9306 0.9756
vt 0.9128 0.9289
vt 0.9125 0.9296
vt 0.8922 0.9287
vt 0.8926 0.9281
vt 0.9493 0.9720
vt 0.9489 0.9726
vt 0.9298 0.9727
vt 0.9302 0.9721
vt 0.9405 0.9438
vt 0.9403 0.9440
vt 0.9401 0.9434
vt 0.9403 0.9432
vt 0.9410 0.9434
vt 0.9410 0.9438
vt 0.9408 0.9432
vt 0.8291 0.8016
vt 0.8291 0.7914
vt 0.8404 0.7914
vt 0.8431 0.8017
vt 0.8285 0.8248
vt 0.8204 0.8183
vt 0.8371 0.8184
vt 0.8291 0.8119
vt 0.8457 0.8119
vt 0.8124 0.8118
vt 0.8152 0.8016
vt 0.8179 0.7914
vt 0.9408 0.9435
vt 0.9405 0.9429
vt 0.9410 0.9442
vt 0.9408 0.9444
vt 0.9406 0.9445
vt 0.9688 0.9713
vt 0.9684 0.9719
vt 0.9680 0.9724
vt 0.9688 0.9753
vt 0.9689 0.9760
vt 0.9689 0.9766
vt 0.9325 0.9362
vt 0.9682 0.9730
vt 0.9683 0.9737
vt 0.9496 0.9703
vt 0.9303 0.9709
vt 0.9689 0.9697
vt 0.9689 0.9705
vt 0.9130 0.9265
vt 0.8931 0.9261
vt 0.9685 0.9745
vt 0.9741 0.9070
vt 0.9744 0.9043
vt 0.9738 0.9097
vt 0.9469 0.9229
vt 0.9196 0.9202
vt 0.8922 0.9175
vt 0.9734 0.9233
vt 0.9736 0.9206
vt 0.9732 0.9260
vt 0.9600 0.9245
vt 0.9742 0.9124
vt 0.9745 0.9151
vt 0.9744 0.9014
vt 0.9745 0.8985
vt 0.9740 0.9179
vt 0.9120 0.9714
vt 0.8937 0.9720
vt 0.9872 0.9375
vt 0.9864 0.9355
vt 0.9879 0.9394
vt 0.9873 0.9274
vt 0.9873 0.9261
vt 0.9874 0.9287
vt 0.9864 0.9340
vt 0.9864 0.9325
vt 0.9872 0.9412
vt 0.9864 0.9429
vt 0.9595 0.9396
vt 0.9869 0.9306
vt 0.9567 0.9317
vt 0.9568 0.9318
vt 0.9566 0.9315
vt 0.9564 0.9098
vt 0.9564 0.9103
vt 0.9565 0.9093
vt 0.9565 0.9088
vt 0.9565 0.9083
vt 0.9623 0.9088
vt 0.9681 0.9093
vt 0.9564 0.9108
vt 0.9565 0.9113
vt 0.9568 0.9297
vt 0.9569 0.9300
vt 0.9567 0.9295
vt 0.9564 0.9189
vt 0.9564 0.9194
vt 0.9564 0.9184
vt 0.9564 0.9179
vt 0.9565 0.9174
vt 0.9606 0.9178
vt 0.9646 0.9181
vt 0.9564 0.9199
vt 0.9565 0.9204
vt 0.9681 0.9149
vt 0.9680 0.9144
vt 0.9681 0.9154
vt 0.9567 0.9320
vt 0.9568 0.9322
vt 0.9566 0.9319
vt 0.9680 0.9169
vt 0.9680 0.9164
vt 0.9680 0.9174
vt 0.9622 0.9169
vt 0.9564 0.9164
vt 0.9681 0.9159
vt 0.7983 0.8016
vt 0.7843 0.7914
vt 0.8123 0.8118
vt 0.8043 0.8183
vt 0.7962 0.8248
vt 0.9137 0.9430
vt 0.9106 0.9430
vt 0.9167 0.9430
vt 0.8954 0.9430
vt 0.8922 0.9430
vt 0.8986 0.9429
vt 0.9076 0.9430
vt 0.9046 0.9430
vt 0.9198 0.9432
vt 0.9229 0.9433
vt 0.9218 0.9565
vt 0.9208 0.9697
vt 0.9016 0.9430
vt 0.9285 0.3356
vt 0.9310 0.3459
vt 0.9471 0.3121
vt 0.9500 0.2989
vt 0.9455 0.2888
vt 0.9410 0.2787
vt 0.9381 0.2696
vt 0.9351 0.2606
vt 0.9322 0.2696
vt 0.9190 0.2888
vt 0.9177 0.2787
vt 0.9393 0.3459
vt 0.9331 0.3562
vt 0.9351 0.3666
vt 0.9372 0.3562
vt 0.9285 0.3356
vt 0.9310 0.3459
vt 0.9260 0.3253
vt 0.9305 0.3253
vt 0.9351 0.3253
vt 0.9397 0.3253
vt 0.9410 0.2787
vt 0.9532 0.3040
vt 0.9564 0.3091
vt 0.9200 0.3174
vt 0.9139 0.3096
vt 0.9381 0.2696
vt 0.9351 0.2606
vt 0.9468 0.2787
vt 0.9526 0.2787
vt 0.9235 0.2787
vt 0.9177 0.2787
vt 0.9331 0.3562
vt 0.9351 0.3666
vt 0.9285 0.3356
vt 0.9310 0.3459
vt 0.9471 0.3121
vt 0.9500 0.2989
vt 0.9455 0.2888
vt 0.9410 0.2787
vt 0.9381 0.2696
vt 0.9351 0.2606
vt 0.9322 0.2696
vt 0.9190 0.2888
vt 0.9177 0.2787
vt 0.9393 0.3459
vt 0.9331 0.3562
vt 0.9351 0.3666
vt 0.9372 0.3562
vt 0.9285 0.3356
vt 0.9310 0.3459
vt 0.9260 0.3253
vt 0.9305 0.3253
vt 0.9351 0.3253
vt 0.9397 0.3253
vt 0.9410 0.2787
vt 0.9532 0.3040
vt 0.9564 0.3091
vt 0.9200 0.3174
vt 0.9139 0.3096
vt 0.9381 0.2696
vt 0.9351 0.2606
vt 0.9468 0.2787
vt 0.9526 0.2787
vt 0.9235 0.2787
vt 0.9177 0.2787
vt 0.9331 0.3562
vt 0.9351 0.3666
vt 0.9285 0.3356
vt 0.9310 0.3459
vt 0.9471 0.3121
vt 0.9500 0.2989
vt 0.9455 0.2888
vt 0.9410 0.2787
vt 0.9381 0.2696
vt 0.9351 0.2606
vt 0.9322 0.2696
vt 0.9190 0.2888
vt 0.9177 0.2787
vt 0.9393 0.3459
vt 0.9331 0.3562
vt 0.9351 0.3666
vt 0.9372 0.3562
vt 0.9285 0.3356
vt 0.9310 0.3459
vt 0.9471 0.3121
vt 0.9500 0.2989
vt 0.9455 0.2888
vt 0.9410 0.2787
vt 0.9381 0.2696
vt 0.9351 0.2606
vt 0.9322 0.2696
vt 0.9190 0.2888
vt 0.9177 0.2787
vt 0.9393 0.3459
vt 0.9331 0.3562
vt 0.9351 0.3666
vt 0.9372 0.3562
vt 0.9285 0.3356
vt 0.9310 0.3459
vt 0.9471 0.3121
vt 0.9500 0.2989
vt 0.9455 0.2888
vt 0.9410 0.2787
vt 0.9381 0.2696
vt 0.9351 0.2606
vt 0.9322 0.2696
vt 0.9190 0.2888
vt 0.9177 0.2787
vt 0.9393 0.3459
vt 0.9331 0.3562
vt 0.9351 0.3666
vt 0.9372 0.3562
vt 0.9285 0.3356
vt 0.9310 0.3459
vt 0.9260 0.3253
vt 0.9305 0.3253
vt 0.9351 0.3253
vt 0.9397 0.3253
vt 0.9410 0.2787
vt 0.9532 0.3040
vt 0.9564 0.3091
vt 0.9200 0.3174
vt 0.9139 0.3096
vt 0.9381 0.2696
vt 0.9351 0.2606
vt 0.9468 0.2787
vt 0.9526 0.2787
vt 0.9235 0.2787
vt 0.9177 0.2787
vt 0.9331 0.3562
vt 0.9351 0.3666
vt 0.9285 0.3356
vt 0.9310 0.3459
vt 0.9260 0.3253
vt 0.9305 0.3253
vt 0.9351 0.3253
vt 0.9397 0.3253
vt 0.9410 0.2787
vt 0.9532 0.3040
vt 0.9564 0.3091
vt 0.9200 0.3174
vt 0.9139 0.3096
vt 0.9381 0.2696
vt 0.9351 0.2606
vt 0.9468 0.2787
vt 0.9526 0.2787
vt 0.9235 0.2787
vt 0.9177 0.2787
vt 0.9331 0.3562
vt 0.9351 0.3666
vt 0.9285 0.3356
vt 0.9310 0.3459
vt 0.9260 0.3253
vt 0.9305 0.3253
vt 0.9351 0.3253
vt 0.9397 0.3253
vt 0.9410 0.2787
vt 0.9532 0.3040
vt 0.9564 0.3091
vt 0.9200 0.3174
vt 0.9139 0.3096
vt 0.9381 0.2696
vt 0.9351 0.2606
vt 0.9468 0.2787
vt 0.9526 0.2787
vt 0.9235 0.2787
vt 0.9177 0.2787
vt 0.9331 0.3562
vt 0.9351 0.3666
vn 0.6677 0.7444 0.0070
vn 0.6137 0.7895 -0.0009
vn 0.6311 0.7757 0.0057
vn 0.6678 0.7443 0.0108
vn 0.5494 0.8356 -0.0036
vn 0.5376 0.8432 -0.0053
vn 0.7150 0.6987 -0.0226
vn 0.6863 0.7273 -0.0084
vn 0.7186 0.6927 -0.0614
vn 0.7031 0.7099 -0.0426
vn 0.8066 0.5555 -0.2020
vn 0.7642 0.6276 -0.1486
vn 0.4497 0.8919 -0.0487
vn 0.4633 0.8669 -0.1840
vn 0.5578 0.8067 -0.1950
vn 0.6977 0.7127 -0.0730
vn 0.6356 0.7584 -0.1441
vn 0.5460 0.8279 -0.1285
vn 0.3422 0.9328 -0.1135
vn 0.3438 0.9362 -0.0734
vn 0.6378 0.7702 -0.0033
vn 0.4781 0.8773 0.0431
vn 0.3801 0.9191 0.1040
vn 0.2512 0.9515 0.1774
vn 0.3698 0.9219 -0.1154
vn 0.5417 0.8386 -0.0564
vn 0.4471 0.8899 -0.0901
vn 0.2875 0.9464 -0.1469
vn 0.5188 0.8544 0.0293
vn 0.6289 0.7775 -0.0041
vn 0.5995 0.8000 -0.0246
vn 0.4802 0.8763 -0.0383
vn 0.7333 0.6783 -0.0455
vn 0.6502 0.7594 -0.0229
vn 0.6571 0.7535 -0.0200
vn 0.7040 0.7098 -0.0211
vn 0.0890 0.9289 0.3595
vn 0.1073 0.9396 0.3250
vn 0.1104 0.9389 0.3260
vn 0.0924 0.9206 0.3795
vn 0.1180 0.9403 0.3194
vn 0.1115 0.9387 0.3262
vn 0.1530 0.9882 -0.0079
vn 0.2729 0.9414 -0.1983
vn 0.1597 0.9823 -0.0982
vn 0.1188 0.9929 -0.0099
vn 0.0736 0.9862 -0.1483
vn 0.0706 0.9928 -0.0970
vn -0.1230 0.9065 0.4039
vn -0.3449 0.8119 0.4711
vn -0.4741 0.6518 0.5919
vn 0.0742 0.9970 -0.0208
vn -0.0588 0.9982 0.0097
vn -0.0790 0.9947 0.0660
vn -0.2149 0.9562 0.1988
vn -0.2058 0.9598 0.1907
vn 0.3472 0.8730 -0.3425
vn 0.0363 0.9162 0.3990
vn -0.0270 0.8318 0.5544
vn -0.0612 0.6626 0.7465
vn -0.1374 0.9418 0.3068
vn 0.0030 0.9892 0.1468
vn -0.0746 0.9805 0.1821
vn -0.2175 0.9345 0.2817
vn 0.0306 0.9552 0.2943
vn 0.0879 0.9867 0.1370
vn 0.0557 0.9897 0.1321
vn -0.0361 0.9591 0.2808
vn 0.1434 0.9820 0.1231
vn 0.1459 0.9638 0.2233
vn 0.1215 0.9513 0.2832
vn 0.0910 0.9583 0.2711
vn 0.0347 0.9967 -0.0732
vn 0.0010 0.9961 -0.0880
vn 0.0101 0.9957 -0.0920
vn 0.0358 0.9963 -0.0782
vn -0.0516 0.9937 -0.0997
vn -0.0492 0.9920 -0.1160
vn -0.0376 0.9865 0.1591
vn 0.0566 0.9446 0.3233
vn -0.0089 0.9710 0.2389
vn -0.0712 0.9823 0.1731
vn 0.1122 0.9577 0.2650
vn 0.0233 0.9719 0.2341
vn -0.2061 0.9761 -0.0694
vn -0.1331 0.9882 -0.0758
vn -0.0687 0.9976 0.0036
vn -0.0957 0.9785 0.1827
vn -0.1061 0.9861 0.1279
vn -0.1943 0.9802 0.0391
vn -0.3562 0.9294 -0.0966
vn -0.3933 0.9175 -0.0598
vn 0.1319 0.8906 0.4351
vn -0.1926 0.9773 -0.0884
vn -0.3184 0.9415 -0.1107
vn -0.4300 0.8824 -0.1908
vn -0.2283 0.9660 -0.1217
vn -0.1941 0.9802 0.0389
vn -0.2453 0.9688 -0.0344
vn -0.3102 0.9331 -0.1820
vn -0.1853 0.9825 -0.0175
vn -0.1079 0.9920 0.0651
vn -0.1411 0.9877 0.0674
vn -0.1862 0.9818 -0.0385
vn 0.0568 0.9983 0.0087
vn -0.0071 0.9993 -0.0357
vn 0.0108 0.9986 -0.0521
vn 0.0478 0.9979 -0.0429
vn -0.6677 -0.7444 -0.0070
vn -0.6137 -0.7895 0.0009
vn -0.6571 -0.7535 0.0200
vn -0.7040 -0.7098 0.0211
vn -0.5494 -0.8356 0.0036
vn -0.5376 -0.8432 0.0053
vn -0.4781 -0.8773 -0.0431
vn -0.5279 -0.8492 -0.0150
vn -0.7150 -0.6987 0.0226
vn -0.6862 -0.7274 0.0084
vn -0.7275 -0.6857 0.0249
vn -0.7313 -0.6812 0.0353
vn -0.6356 -0.7584 0.1441
vn -0.8027 -0.5571 0.2129
vn -0.7642 -0.6276 0.1486
vn -0.5699 -0.7944 0.2102
vn -0.5390 -0.8175 0.2030
vn -0.5578 -0.8068 0.1950
vn -0.6977 -0.7127 0.0730
vn -0.7186 -0.6927 0.0614
vn -0.7031 -0.7099 0.0426
vn -0.3422 -0.9328 0.1135
vn -0.5460 -0.8279 0.1285
vn -0.4471 -0.8899 0.0901
vn -0.2875 -0.9464 0.1469
vn -0.6403 -0.7681 -0.0056
vn -0.6548 -0.7558 -0.0002
vn -0.6377 -0.7703 0.0033
vn -0.2231 -0.9554 -0.1936
vn -0.2793 -0.9495 -0.1430
vn -0.2511 -0.9516 -0.1774
vn -0.3698 -0.9219 0.1155
vn -0.5417 -0.8387 0.0564
vn -0.5995 -0.8000 0.0246
vn -0.4802 -0.8763 0.0383
vn -0.5188 -0.8544 -0.0294
vn -0.6289 -0.7775 0.0041
vn -0.6432 -0.7656 0.0137
vn -0.7333 -0.6783 0.0455
vn -0.6502 -0.7594 0.0229
vn -0.0890 -0.9289 -0.3595
vn -0.1073 -0.9396 -0.3250
vn -0.1215 -0.9514 -0.2831
vn -0.0910 -0.9583 -0.2710
vn -0.1180 -0.9403 -0.3193
vn -0.1115 -0.9387 -0.3261
vn -0.0363 -0.9163 -0.3989
vn -0.0714 -0.9454 -0.3180
vn -0.1530 -0.9882 0.0080
vn -0.2729 -0.9414 0.1983
vn -0.2018 -0.9768 0.0721
vn -0.1665 -0.9859 -0.0169
vn 0.0587 -0.9982 -0.0096
vn -0.0518 -0.9880 0.1453
vn -0.0706 -0.9928 0.0970
vn 0.5161 -0.6093 -0.6020
vn 0.5009 -0.6377 -0.5852
vn 0.4741 -0.6519 -0.5918
vn -0.0743 -0.9970 0.0209
vn -0.1597 -0.9823 0.0983
vn -0.1189 -0.9929 0.0099
vn 0.2147 -0.9562 -0.1987
vn 0.0789 -0.9947 -0.0659
vn 0.0745 -0.9805 -0.1819
vn 0.2174 -0.9346 -0.2816
vn -0.3854 -0.8426 0.3762
vn -0.3700 -0.8608 0.3494
vn -0.3472 -0.8730 0.3426
vn 0.0710 -0.6229 -0.7791
vn 0.0829 -0.7031 -0.7063
vn 0.0612 -0.6625 -0.7465
vn 0.1373 -0.9419 -0.3067
vn -0.0030 -0.9892 -0.1467
vn -0.0558 -0.9897 -0.1321
vn 0.0360 -0.9591 -0.2807
vn -0.0306 -0.9553 -0.2942
vn -0.0879 -0.9867 -0.1369
vn -0.1235 -0.9781 -0.1676
vn -0.1434 -0.9820 -0.1231
vn -0.1459 -0.9638 -0.2232
vn -0.0347 -0.9967 0.0733
vn -0.0010 -0.9961 0.0880
vn -0.0108 -0.9986 0.0521
vn -0.0477 -0.9979 0.0429
vn 0.0516 -0.9937 0.0996
vn 0.0492 -0.9920 0.1160
vn 0.1926 -0.9773 0.0884
vn 0.1297 -0.9892 0.0685
vn 0.0376 -0.9865 -0.1591
vn -0.0567 -0.9446 -0.3234
vn -0.0351 -0.9849 -0.1698
vn -0.0216 -0.9953 -0.0949
vn 0.1061 -0.9861 -0.1279
vn -0.1192 -0.9588 -0.2578
vn -0.0233 -0.9719 -0.2342
vn 0.0521 -0.9986 -0.0098
vn 0.0871 -0.9959 0.0225
vn 0.0687 -0.9976 -0.0036
vn 0.0957 -0.9785 -0.1827
vn 0.0089 -0.9710 -0.2389
vn 0.0712 -0.9823 -0.1731
vn 0.3562 -0.9294 0.0966
vn 0.1943 -0.9802 -0.0391
vn 0.2453 -0.9688 0.0344
vn 0.3102 -0.9331 0.1821
vn -0.1501 -0.8635 -0.4815
vn -0.1443 -0.8789 -0.4547
vn -0.1320 -0.8906 -0.4352
vn 0.4536 -0.8685 0.1996
vn 0.4104 -0.8935 0.1823
vn 0.4301 -0.8824 0.1909
vn 0.2283 -0.9660 0.1217
vn 0.1941 -0.9802 -0.0389
vn 0.1411 -0.9877 -0.0674
vn 0.1862 -0.9818 0.0385
vn 0.1853 -0.9825 0.0175
vn 0.1079 -0.9920 -0.0651
vn 0.0596 -0.9981 -0.0177
vn -0.0568 -0.9983 -0.0087
vn 0.0071 -0.9993 0.0357
vn 0.0693 0.8851 0.4603
vn 0.0637 0.8552 0.5144
vn 0.0689 0.8635 0.4996
vn 0.0718 0.8835 0.4630
vn 0.0587 0.8196 0.5699
vn 0.0572 0.8125 0.5802
vn 0.0566 0.9392 0.3386
vn 0.0844 0.9818 0.1701
vn 0.0227 0.9637 0.2659
vn 0.0350 0.9364 0.3492
vn -0.1013 0.9832 0.1518
vn -0.0597 0.9687 0.2408
vn -0.0166 0.7849 0.6194
vn -0.1565 0.7978 0.5822
vn -0.1429 0.8613 0.4876
vn -0.0014 0.9346 0.3558
vn -0.0830 0.9067 0.4134
vn -0.0812 0.8494 0.5215
vn -0.0900 0.7059 0.7025
vn -0.0450 0.7089 0.7039
vn 0.0937 0.9945 0.0461
vn 0.0865 0.7782 0.6221
vn 0.1169 0.7210 0.6831
vn 0.1634 0.6232 0.7648
vn -0.1140 0.7295 0.6745
vn -0.0219 0.8411 0.5404
vn -0.0689 0.7883 0.6114
vn -0.1439 0.6634 0.7343
vn 0.0709 0.8155 0.5744
vn 0.0574 0.8848 0.4625
vn 0.0248 0.8735 0.4863
vn -0.0134 0.8016 0.5977
vn 0.0265 0.9342 0.3559
vn 0.0470 0.8835 0.4660
vn 0.0499 0.8833 0.4661
vn 0.0469 0.9101 0.4118
vn -0.0693 -0.8851 -0.4603
vn -0.0637 -0.8552 -0.5144
vn -0.0499 -0.8833 -0.4661
vn -0.0469 -0.9101 -0.4117
vn -0.0587 -0.8196 -0.5699
vn -0.0572 -0.8125 -0.5802
vn -0.0865 -0.7782 -0.6221
vn -0.0679 -0.8110 -0.5811
vn -0.0566 -0.9392 -0.3386
vn -0.0844 -0.9818 -0.1700
vn -0.0525 -0.9587 -0.2797
vn -0.0397 -0.9409 -0.3365
vn 0.0830 -0.9068 -0.4134
vn 0.1176 -0.9808 -0.1554
vn 0.0597 -0.9688 -0.2407
vn 0.1575 -0.8678 -0.4714
vn 0.1571 -0.8473 -0.5073
vn 0.1429 -0.8612 -0.4877
vn 0.0014 -0.9346 -0.3558
vn -0.0227 -0.9637 -0.2659
vn -0.0351 -0.9364 -0.3492
vn 0.0900 -0.7059 -0.7026
vn 0.0812 -0.8494 -0.5215
vn 0.0689 -0.7883 -0.6114
vn 0.1439 -0.6634 -0.7343
vn -0.1169 -0.9930 0.0142
vn -0.1088 -0.9939 -0.0174
vn -0.0937 -0.9945 -0.0460
vn -0.1722 -0.6014 -0.7802
vn -0.1345 -0.6482 -0.7495
vn -0.1635 -0.6231 -0.7648
vn 0.1140 -0.7294 -0.6745
vn 0.0219 -0.8411 -0.5404
vn -0.0248 -0.8735 -0.4863
vn 0.0134 -0.8016 -0.5977
vn -0.0709 -0.8155 -0.5744
vn -0.0574 -0.8848 -0.4624
vn -0.0536 -0.8839 -0.4645
vn -0.0265 -0.9342 -0.3559
vn -0.0470 -0.8835 -0.4660
vn -0.0318 0.9289 0.3690
vn -0.0034 0.9396 0.3423
vn -0.0008 0.9389 0.3442
vn -0.0350 0.9206 0.3890
vn 0.0086 0.9403 0.3404
vn 0.0003 0.9387 0.3448
vn 0.1474 0.9882 0.0419
vn 0.3223 0.9414 -0.0996
vn 0.1828 0.9823 -0.0414
vn 0.1157 0.9929 0.0290
vn 0.1176 0.9862 -0.1166
vn 0.0981 0.9928 -0.0690
vn -0.2468 0.9065 0.3426
vn -0.4785 0.8119 0.3346
vn -0.6398 0.6518 0.4071
vn 0.0770 0.9970 0.0043
vn -0.0588 0.9982 -0.0098
vn -0.0961 0.9947 0.0370
vn -0.2676 0.9562 0.1188
vn -0.2563 0.9598 0.1140
vn 0.4392 0.8730 -0.2121
vn -0.0945 0.9162 0.3894
vn -0.2045 0.8318 0.5160
vn -0.2988 0.6626 0.6868
vn -0.2291 0.9418 0.2460
vn -0.0446 0.9892 0.1399
vn -0.1293 0.9805 0.1482
vn -0.2968 0.9345 0.1964
vn -0.0660 0.9552 0.2884
vn 0.0390 0.9867 0.1580
vn 0.0101 0.9897 0.1431
vn -0.1248 0.9591 0.2541
vn 0.0960 0.9820 0.1628
vn 0.0660 0.9638 0.2584
vn 0.0236 0.9513 0.3072
vn -0.0014 0.9583 0.2859
vn 0.0318 -0.9289 -0.3690
vn 0.0034 -0.9396 -0.3422
vn -0.0236 -0.9514 -0.3072
vn 0.0014 -0.9583 -0.2859
vn -0.0086 -0.9403 -0.3403
vn -0.0003 -0.9387 -0.3447
vn 0.0944 -0.9163 -0.3893
vn 0.0350 -0.9454 -0.3240
vn -0.1474 -0.9882 -0.0418
vn -0.3223 -0.9414 0.0996
vn -0.2142 -0.9768 0.0031
vn -0.1522 -0.9859 -0.0697
vn 0.0587 -0.9982 0.0098
vn -0.0959 -0.9880 0.1209
vn -0.0981 -0.9928 0.0690
vn 0.6828 -0.6093 -0.4032
vn 0.6630 -0.6377 -0.3922
vn 0.6397 -0.6519 -0.4071
vn -0.0770 -0.9970 -0.0042
vn -0.1828 -0.9823 0.0415
vn -0.1157 -0.9929 -0.0290
vn 0.2674 -0.9562 -0.1188
vn 0.0960 -0.9947 -0.0369
vn 0.1292 -0.9805 -0.1482
vn 0.2967 -0.9346 -0.1963
vn -0.4862 -0.8426 0.2317
vn -0.4630 -0.8608 0.2113
vn -0.4392 -0.8730 0.2122
vn 0.3187 -0.6229 -0.7145
vn 0.3064 -0.7031 -0.6417
vn 0.2988 -0.6625 -0.6868
vn 0.2290 -0.9419 -0.2459
vn 0.0445 -0.9892 -0.1398
vn -0.0101 -0.9897 -0.1430
vn 0.1247 -0.9591 -0.2540
vn 0.0660 -0.9553 -0.2883
vn -0.0390 -0.9867 -0.1579
vn -0.0628 -0.9781 -0.1985
vn -0.0960 -0.9820 -0.1628
vn -0.0660 -0.9638 -0.2584
vn 0.9998 0.0101 -0.0178
vn 0.7975 0.5990 0.0727
vn 0.7342 0.3819 0.5613
vn 0.7964 0.0299 0.6040
vn -0.8387 0.0544 0.5419
vn -0.6999 0.6069 0.3766
vn -0.8891 0.4513 -0.0760
vn -0.9971 0.0474 -0.0588
vn 0.3936 -0.0051 -0.9193
vn 0.2484 0.5608 -0.7898
vn 0.7004 0.5285 -0.4797
vn 0.8325 0.0049 -0.5540
vn 0.2572 0.0429 0.9654
vn 0.2545 0.5896 0.7666
vn -0.3133 0.5170 0.7966
vn -0.3523 0.0588 0.9340
vn -0.7777 0.0255 -0.6281
vn -0.6139 0.5750 -0.5408
vn -0.2214 0.3635 -0.9049
vn -0.2462 0.0076 -0.9692
vn -0.1833 0.9668 -0.1780
vn 0.3903 0.4676 0.7931
vn 0.8515 0.3772 0.3643
vn 0.0672 0.9977 0.0010
vn 0.0167 0.9995 0.0277
vn 0.0225 -0.9985 -0.0493
vn 0.7039 -0.6533 -0.2788
vn 0.4547 -0.5257 0.7190
vn 0.4083 -0.5274 0.7450
vn -0.3697 0.5215 -0.7690
vn 0.4637 0.4082 -0.7863
vn -0.2808 -0.4713 -0.8361
vn -0.3480 -0.4716 -0.8102
vn -0.8347 -0.4714 -0.2847
vn -0.7378 -0.3949 0.5474
vn -0.8658 0.4997 -0.0264
vn -0.8257 0.5223 -0.2130
vn 0.0021 0.9972 0.0742
vn -0.1609 0.6112 0.7750
vn 0.7572 0.4595 0.4643
vn 0.8162 0.4725 0.3325
vn 0.8111 -0.5226 0.2627
vn 0.3880 -0.4034 0.8287
vn -0.0649 -0.9907 0.1199
vn -0.0197 -0.9995 -0.0265
vn -0.9780 -0.2083 0.0119
vn -0.7044 0.2438 0.6666
vn -0.6521 0.6324 -0.4181
vn -0.6491 0.5920 -0.4777
vn 0.3240 0.8086 -0.4912
vn 0.1991 0.9373 0.2861
vn 0.9606 0.2710 0.0623
vn 0.9705 0.2405 0.0198
vn 0.6480 -0.5629 0.5131
vn 0.4390 -0.0977 0.8932
vn -0.3397 -0.7474 0.5710
vn -0.3318 -0.7826 0.5268
vn 0.6256 -0.1194 -0.7710
vn 0.6390 -0.0857 -0.7644
vn 0.4956 -0.6361 -0.5914
vn 0.4851 -0.6423 -0.5934
vn -0.5178 -0.5280 0.6731
vn -0.5215 -0.5588 0.6448
vn -0.6209 0.0620 0.7814
vn -0.6024 0.0667 0.7954
vn 0.2969 0.8988 -0.3225
vn 0.2629 0.9236 -0.2791
vn 0.5600 0.5130 -0.6505
vn 0.5692 0.4648 -0.6782
vn 0.1679 -0.9664 -0.1945
vn 0.1696 -0.9659 -0.1959
vn -0.2149 -0.9375 0.2738
vn -0.2259 -0.9247 0.3064
vn -0.4575 0.6375 0.6199
vn -0.4633 0.6528 0.5993
vn -0.1246 0.9721 0.1987
vn -0.1088 0.9746 0.1960
vn 0.6697 0.0350 -0.7418
vn 0.5650 0.5854 -0.5814
vn 0.5606 0.6422 -0.5228
vn 0.7397 -0.1432 -0.6576
vn -0.3855 -0.8333 0.3962
vn -0.1660 -0.9765 0.1371
vn -0.1439 -0.9734 0.1786
vn -0.4227 -0.6909 0.5865
vn 0.2356 0.9544 -0.1834
vn -0.1533 0.9534 0.2600
vn -0.0911 0.9311 0.3532
vn 0.4699 0.8354 -0.2850
vn 0.1146 -0.9770 -0.1798
vn 0.5193 -0.5970 -0.6114
vn 0.5287 -0.5933 -0.6070
vn 0.3208 -0.8995 -0.2966
vn -0.4672 0.6577 0.5909
vn -0.6477 -0.1381 0.7493
vn -0.6419 -0.1472 0.7525
vn -0.5512 0.1835 0.8140
vn -0.4810 0.6210 0.6189
vn -0.4685 0.6341 0.6152
vn -0.1261 0.9728 0.1945
vn -0.1486 0.9708 0.1882
vn -0.4650 0.6337 0.6182
vn -0.4609 0.6374 0.6175
vn -0.1018 0.9759 0.1932
vn -0.1075 0.9738 0.2003
vn 0.1725 -0.9655 -0.1950
vn 0.1664 -0.9659 -0.1986
vn -0.2504 -0.9132 0.3216
vn -0.2389 -0.9164 0.3213
vn 0.1562 -0.9664 -0.2043
vn 0.1607 -0.9669 -0.1982
vn -0.2442 -0.9184 0.3113
vn -0.2604 -0.9144 0.3098
vn 0.2529 0.9110 -0.3257
vn 0.2840 0.9081 -0.3077
vn 0.5649 0.5094 -0.6491
vn 0.5248 0.5365 -0.6609
vn 0.3132 0.8962 -0.3142
vn 0.3191 0.8863 -0.3355
vn 0.5867 0.4414 -0.6789
vn 0.5897 0.4691 -0.6575
vn -0.5487 -0.4532 0.7025
vn -0.5538 -0.4500 0.7006
vn -0.6126 0.1159 0.7818
vn -0.6128 0.1086 0.7827
vn -0.5578 -0.4711 0.6833
vn -0.5359 -0.5055 0.6762
vn -0.6117 0.0795 0.7871
vn -0.6181 0.0980 0.7800
vn 0.6269 -0.0148 -0.7790
vn 0.6454 -0.0588 -0.7616
vn 0.5030 -0.6260 -0.5959
vn 0.5015 -0.6161 -0.6074
vn 0.6496 -0.1019 -0.7534
vn 0.6354 -0.1322 -0.7608
vn 0.4860 -0.6486 -0.5857
vn 0.4945 -0.6400 -0.5881
vn -0.4509 0.6986 0.5555
vn -0.6413 0.0609 0.7649
vn -0.6339 0.0311 0.7728
vn -0.4253 0.7406 0.5202
vn -0.4257 0.7409 0.5194
vn -0.6242 -0.0254 0.7809
vn -0.6339 -0.0924 0.7679
vn -0.4437 0.7070 0.5507
vn 0.1683 -0.9663 -0.1947
vn 0.4980 -0.6467 -0.5778
vn 0.4908 -0.6559 -0.5736
vn 0.1670 -0.9677 -0.1889
vn 0.1620 -0.9701 -0.1810
vn 0.4964 -0.6333 -0.5937
vn 0.5150 -0.5953 -0.6168
vn 0.1414 -0.9729 -0.1828
vn 0.2331 0.9415 -0.2434
vn -0.1317 0.9730 0.1896
vn -0.1344 0.9757 0.1733
vn 0.2052 0.9497 -0.2365
vn 0.1933 0.9509 -0.2417
vn -0.1429 0.9751 0.1699
vn -0.1313 0.9702 0.2036
vn 0.2290 0.9465 -0.2276
vn -0.5100 -0.6186 0.5977
vn -0.1978 -0.9519 0.2342
vn -0.1554 -0.9673 0.2004
vn -0.4480 -0.7057 0.5489
vn -0.3726 -0.7923 0.4832
vn -0.1170 -0.9787 0.1688
vn -0.1337 -0.9818 0.1348
vn -0.3514 -0.8424 0.4085
vn 0.6512 -0.0813 -0.7545
vn 0.5555 0.5437 -0.6291
vn 0.5355 0.5577 -0.6342
vn 0.6435 -0.0766 -0.7616
vn 0.6367 -0.0247 -0.7707
vn 0.5179 0.5774 -0.6312
vn 0.5404 0.5807 -0.6089
vn 0.6519 0.0161 -0.7582
vn 0.9834 -0.1028 -0.1494
vn -0.7325 -0.1464 -0.6649
vn -0.3345 -0.7664 -0.5484
vn -0.5520 -0.8338 0.0132
vn -0.8944 -0.4103 0.1781
vn -0.4962 0.8583 -0.1307
vn -0.2863 0.6843 -0.6706
vn -0.8780 0.4740 0.0668
vn -0.7797 0.1507 -0.6078
vn -0.9236 0.0710 0.3767
vn 0.0999 0.4720 -0.8760
vn 0.0621 -0.0165 -0.9979
vn 0.1230 -0.5481 -0.8273
vn 0.6877 -0.0898 0.7204
vn 0.6412 -0.5695 0.5144
vn -0.3536 -0.7800 0.5164
vn 0.9748 0.2211 0.0287
vn 0.3221 0.8080 -0.4933
vn -0.6843 0.5603 -0.4666
vn -0.9759 -0.2178 0.0167
vn 0.8104 -0.5259 0.2585
vn 0.0071 -0.9997 -0.0254
vn 0.8356 0.4397 0.3294
vn 0.0100 0.9973 0.0729
vn -0.8273 0.5158 -0.2224
vn -0.8301 -0.4779 -0.2873
vn -0.3691 0.5305 -0.7631
vn -0.3626 -0.4286 -0.8276
vn 0.0025 1.0000 0.0079
vn 0.0198 -0.9985 -0.0505
vn 0.4089 -0.5094 0.7572
vn 0.3866 0.4759 0.7900
vn 0.1306 0.9833 0.1271
vn -0.7792 0.0166 -0.6266
vn -0.2613 -0.0034 -0.9653
vn -0.9982 0.0361 -0.0474
vn 0.2633 0.0287 0.9643
vn -0.3544 0.0393 0.9343
vn 0.7924 0.0154 0.6098
vn 0.3730 -0.0190 -0.9276
vn 0.8241 -0.0155 -0.5662
vn -0.8389 0.0402 0.5428
vn 0.9999 -0.0046 -0.0142
vn -0.0887 -0.9869 -0.1344
vn 0.0304 -0.9395 -0.3411
vn 0.2045 -0.8318 -0.5160
vn 0.2467 -0.9065 -0.3426
vn 0.4784 -0.8119 -0.3346
vn 0.4217 -0.8689 -0.2591
vn 0.2937 -0.9438 -0.1517
vn 0.2784 -0.9505 -0.1380
vn 0.2561 -0.9599 -0.1139
vn -0.1176 -0.9862 0.1167
vn -0.1072 -0.9850 0.1352
vn 0.0007 -0.9389 -0.3441
vn 0.0419 -0.9181 -0.3942
vn 0.0400 -0.9173 -0.3962
vn 0.0350 -0.9206 -0.3890
vn 0.0887 0.9869 0.1345
vn -0.0303 0.9395 0.3411
vn 0.2143 0.9768 -0.0030
vn 0.1522 0.9859 0.0697
vn 0.0628 0.9781 0.1986
vn -0.0351 0.9454 0.3241
vn -0.4219 0.8688 0.2592
vn -0.3064 0.7031 0.6417
vn -0.3187 0.6229 0.7145
vn 0.4630 0.8608 -0.2112
vn 0.4861 0.8426 -0.2316
vn -0.2939 0.9437 0.1518
vn -0.2786 0.9504 0.1381
vn -0.6631 0.6376 0.3922
vn -0.6829 0.6092 0.4032
vn 0.0959 0.9880 -0.1208
vn 0.1072 0.9850 -0.1352
vn -0.0418 0.9181 0.3942
vn -0.0400 0.9173 0.3962
vn -0.0203 -0.9384 -0.3450
vn -0.0552 -0.9046 -0.4227
vn -0.1169 -0.7209 -0.6831
vn 0.0166 -0.7849 -0.6194
vn 0.1565 -0.7978 -0.5822
vn 0.1329 -0.6827 -0.7185
vn 0.0431 -0.6468 -0.7614
vn 0.0272 -0.6641 -0.7471
vn 0.0450 -0.7088 -0.7040
vn 0.1013 -0.9832 -0.1517
vn 0.1228 -0.9829 -0.1374
vn -0.0689 -0.8635 -0.4996
vn -0.0706 -0.8868 -0.4567
vn -0.0716 -0.8852 -0.4597
vn -0.0718 -0.8835 -0.4630
vn 0.0203 0.9384 0.3450
vn 0.0552 0.9046 0.4227
vn 0.0525 0.9587 0.2797
vn 0.0397 0.9409 0.3365
vn 0.0536 0.8839 0.4646
vn 0.0679 0.8110 0.5811
vn -0.1329 0.6827 0.7185
vn 0.1345 0.6482 0.7495
vn 0.1722 0.6015 0.7801
vn 0.1088 0.9939 0.0175
vn 0.1169 0.9930 -0.0141
vn -0.0431 0.6468 0.7614
vn -0.0272 0.6642 0.7471
vn -0.1571 0.8473 0.5073
vn -0.1575 0.8678 0.4713
vn -0.1176 0.9808 0.1555
vn -0.1228 0.9829 0.1375
vn 0.0706 0.8868 0.4567
vn 0.0716 0.8852 0.4598
vn -0.0728 -0.9973 -0.0051
vn -0.0542 -0.9972 0.0510
vn 0.3185 -0.9414 0.1107
vn 0.2061 -0.9761 0.0694
vn 0.1332 -0.9882 0.0758
vn 0.3155 -0.9347 0.1636
vn 0.4480 -0.8863 0.1172
vn 0.4464 -0.8905 0.0886
vn 0.3934 -0.9174 0.0598
vn -0.1123 -0.9577 -0.2651
vn -0.1331 -0.9555 -0.2633
vn -0.0101 -0.9957 0.0920
vn -0.0404 -0.9964 0.0741
vn -0.0387 -0.9963 0.0766
vn -0.0358 -0.9963 0.0782
vn -0.1273 -0.9869 -0.0986
vn -0.0814 -0.9395 -0.3327
vn 0.0270 -0.8318 -0.5544
vn 0.1230 -0.9065 -0.4039
vn 0.3448 -0.8119 -0.4711
vn 0.3155 -0.8689 -0.3814
vn 0.2291 -0.9438 -0.2383
vn 0.2190 -0.9505 -0.2205
vn 0.2056 -0.9599 -0.1905
vn -0.0736 -0.9862 0.1484
vn -0.0579 -0.9850 0.1625
vn -0.1104 -0.9389 -0.3260
vn -0.0876 -0.9181 -0.3866
vn -0.0900 -0.9173 -0.3879
vn -0.0924 -0.9206 -0.3795
vn -0.7395 -0.6714 0.0485
vn -0.6950 -0.7189 0.0084
vn -0.3801 -0.9191 -0.1041
vn -0.4497 -0.8919 0.0487
vn -0.4633 -0.8669 0.1840
vn -0.3156 -0.9378 0.1444
vn -0.2663 -0.9619 0.0620
vn -0.2870 -0.9566 0.0506
vn -0.3438 -0.9362 0.0734
vn -0.8066 -0.5554 0.2020
vn -0.8105 -0.5425 0.2209
vn -0.6311 -0.7757 -0.0057
vn -0.6724 -0.7401 -0.0097
vn -0.6706 -0.7417 -0.0109
vn -0.6678 -0.7443 -0.0108
vn 0.0728 0.9973 0.0051
vn 0.0542 0.9972 -0.0510
vn 0.0351 0.9849 0.1698
vn 0.0216 0.9953 0.0949
vn -0.0596 0.9981 0.0177
vn -0.1297 0.9892 -0.0685
vn -0.3155 0.9347 -0.1635
vn -0.4104 0.8935 -0.1823
vn -0.4536 0.8686 -0.1995
vn 0.1442 0.8789 0.4546
vn 0.1500 0.8636 0.4814
vn -0.4480 0.8863 -0.1171
vn -0.4463 0.8905 -0.0885
vn -0.0871 0.9960 -0.0225
vn -0.0521 0.9986 0.0099
vn 0.1191 0.9589 0.2577
vn 0.1330 0.9555 0.2632
vn 0.0404 0.9964 -0.0741
vn 0.0387 0.9963 -0.0766
vn 0.1274 0.9869 0.0986
vn 0.0814 0.9395 0.3327
vn 0.2018 0.9768 -0.0720
vn 0.1665 0.9859 0.0169
vn 0.1235 0.9781 0.1677
vn 0.0714 0.9454 0.3180
vn -0.3157 0.8688 0.3815
vn -0.0829 0.7031 0.7063
vn -0.0710 0.6229 0.7791
vn 0.3700 0.8608 -0.3494
vn 0.3854 0.8426 -0.3762
vn -0.2292 0.9437 0.2385
vn -0.2191 0.9504 0.2206
vn -0.5010 0.6376 0.5852
vn -0.5162 0.6092 0.6020
vn 0.0517 0.9880 -0.1453
vn 0.0578 0.9850 -0.1625
vn 0.0876 0.9180 0.3867
vn 0.0900 0.9173 0.3879
vn 0.7395 0.6714 -0.0485
vn 0.6950 0.7189 -0.0084
vn 0.7275 0.6857 -0.0249
vn 0.7313 0.6812 -0.0353
vn 0.6432 0.7656 -0.0137
vn 0.5279 0.8492 0.0150
vn 0.3156 0.9378 -0.1444
vn 0.2794 0.9495 0.1430
vn 0.2232 0.9554 0.1935
vn 0.6549 0.7557 0.0002
vn 0.6404 0.7680 0.0056
vn 0.2663 0.9619 -0.0620
vn 0.2870 0.9566 -0.0506
vn 0.5390 0.8175 -0.2030
vn 0.5700 0.7943 -0.2102
vn 0.8027 0.5572 -0.2129
vn 0.8105 0.5426 -0.2209
vn 0.6724 0.7401 0.0097
vn 0.6706 0.7417 0.0109
usemtl None
s 1
f 770/1/1 449/2/2 3/3/3 595/4/4
f 769/5/5 283/6/6 3/3/3 449/2/2
f 768/7/7 397/8/8 8/9/9 352/10/10
f 8/9/9 577/11/11 620/12/12
f 12/13/13 544/14/14 381/15/15
f 767/16/16 620/12/12 11/17/17 335/18/18
f 766/19/19 335/18/18 11/17/17 384/20/20
f 8/9/9 397/8/8 340/21/21
f 6/22/22 266/23/23 364/24/24
f 765/25/25 534/26/26 15/27/27 543/28/28
f 764/29/29 636/30/30 9/31/31 389/32/32
f 763/33/33 350/34/34 2/35/35 293/36/36
f 762/37/37 537/38/38 21/39/39 488/40/40
f 761/41/41 581/42/42 21/39/39 537/38/38
f 760/43/43 288/44/44 26/45/45 443/46/46
f 26/45/45 280/47/47 343/48/48
f 30/49/49 638/50/50 489/51/51
f 759/52/52 343/48/48 29/53/53 631/54/54
f 758/55/55 631/54/54 29/53/53 596/56/56
f 26/45/45 288/44/44 361/57/57
f 24/58/58 375/59/59 611/60/60
f 757/61/61 432/62/62 33/63/63 442/64/64
f 756/65/65 514/66/66 27/67/67 275/68/68
f 755/69/69 428/70/70 20/71/71 584/72/72
f 754/73/73 624/74/74 39/75/75 268/76/76
f 753/77/77 359/78/78 39/75/75 624/74/74
f 752/79/79 481/80/80 44/81/81 525/82/82
f 44/81/81 467/83/83 412/84/84
f 48/85/85 325/86/86 625/87/87
f 751/88/88 412/84/84 47/89/89 484/90/90
f 750/91/91 484/90/90 47/89/89 436/92/92
f 44/81/81 481/80/80 491/93/93
f 42/94/94 567/95/95 630/96/96
f 749/97/97 279/98/98 51/99/99 332/100/100
f 748/101/101 420/102/102 45/103/103 478/104/104
f 747/105/105 524/106/106 38/107/107 378/108/108
f 746/109/109 331/110/110 57/111/111 583/112/112
f 745/113/113 606/114/114 59/115/115 486/116/116
f 744/117/117 629/118/118 63/119/119 425/120/120
f 64/121/121 341/122/122 579/123/123
f 66/124/124 407/125/125 459/126/126
f 743/127/127 579/123/123 62/128/128 383/129/129
f 742/130/130 545/131/131 69/132/132 602/133/133
f 71/134/134 550/135/135 245/136/136
f 72/137/137 457/138/138 290/139/139
f 741/140/140 634/141/141 61/142/142 285/143/143
f 740/144/144 533/145/145 60/146/146 486/116/116
f 739/147/147 276/148/148 60/146/146 425/120/120
f 738/149/149 402/150/150 75/151/151 558/152/152
f 737/153/153 505/154/154 77/155/155 256/156/156
f 736/157/157 506/158/158 81/159/159 302/160/160
f 82/161/161 399/162/162 507/163/163
f 84/164/164 299/165/165 344/166/166
f 735/167/167 507/163/163 80/168/168 360/169/169
f 734/170/170 592/171/171 87/172/172 294/173/173
f 89/174/174 587/175/175 465/176/176
f 90/177/177 330/178/178 426/179/179
f 733/180/180 473/181/181 79/182/182 416/183/183
f 732/184/184 601/185/185 78/186/186 256/156/156
f 731/187/187 447/188/188 78/186/186 302/160/160
f 730/189/189 303/190/190 93/191/191 250/192/192
f 729/193/193 394/194/194 95/195/195 358/196/196
f 728/197/197 419/198/198 99/199/199 521/200/200
f 100/201/201 317/202/202 367/203/203
f 102/204/204 612/205/205 563/206/206
f 727/207/207 367/203/203 98/208/208 571/209/209
f 726/210/210 509/211/211 105/212/212 410/213/213
f 107/214/214 297/215/215 401/216/216
f 108/217/217 542/218/218 267/219/219
f 725/220/220 600/221/221 97/222/222 255/223/223
f 724/224/224 517/225/225 96/226/226 358/196/196
f 723/227/227 554/228/228 96/226/226 521/200/200
f 722/229/229 609/230/230 111/231/231 468/232/232
f 721/233/233 318/234/234 111/231/231 609/230/230
f 720/235/235 264/236/236 116/237/237 320/238/238
f 116/237/237 254/239/239 406/240/240
f 120/241/241 523/242/242 454/243/243
f 719/244/244 406/240/240 119/245/245 291/246/246
f 718/247/247 291/246/246 119/245/245 246/248/248
f 116/237/237 264/236/236 305/249/249
f 114/250/250 562/251/251 451/252/252
f 717/253/253 499/254/254 123/255/255 520/256/256
f 716/257/257 413/258/258 117/259/259 261/260/260
f 715/261/261 310/262/262 110/263/263 368/264/264
f 714/265/265 482/266/266 129/267/267 622/268/268
f 713/269/269 377/270/270 131/271/271 526/272/272
f 712/273/273 574/274/274 135/275/275 366/276/276
f 136/277/277 263/278/278 414/279/279
f 138/280/280 372/281/281 613/282/282
f 711/283/283 414/279/279 134/284/284 422/285/285
f 710/286/286 455/287/287 141/288/288 570/289/289
f 143/290/290 248/291/291 564/292/292
f 144/293/293 610/294/294 301/295/295
f 709/296/296 354/297/297 133/298/298 298/299/299
f 708/300/300 483/301/301 132/302/302 526/272/272
f 707/303/303 321/304/304 132/302/302 366/276/276
f 706/305/305 369/306/306 147/307/307 516/308/308
f 705/309/309 598/310/310 147/307/307 369/306/306
f 704/311/311 319/312/312 152/313/313 262/314/314
f 152/313/313 493/315/315 548/316/316
f 156/317/317 471/318/318 304/319/319
f 703/320/320 548/316/316 155/321/321 253/322/322
f 702/323/323 253/322/322 155/321/321 311/324/324
f 152/313/313 319/312/312 249/325/325
f 150/326/326 586/327/327 430/328/328
f 701/329/329 460/330/330 159/331/331 470/332/332
f 700/333/333 561/334/334 153/335/335 316/336/336
f 699/337/337 260/338/338 146/339/339 614/340/340
f 698/341/341 461/342/342 165/343/343 306/344/344
f 697/345/345 348/346/346 167/347/347 597/348/348
f 696/349/349 356/350/350 171/351/351 529/352/352
f 172/353/353 453/354/354 292/355/355
f 174/356/356 555/357/357 497/358/358
f 695/359/359 292/355/355 170/360/360 502/361/361
f 694/362/362 641/363/363 177/364/364 362/365/365
f 179/366/366 405/367/367 314/368/368
f 180/369/369 466/370/370 371/371/371
f 693/372/372 538/373/373 169/374/374 390/375/375
f 692/376/376 247/377/377 168/378/378 597/348/348
f 691/379/379 398/380/380 168/378/378 529/352/352
f 690/381/381 560/382/382 183/383/383 608/384/384
f 689/385/385 365/386/386 187/387/387 404/388/388
f 688/389/389 591/390/390 182/391/391 313/392/392
f 687/393/393 284/394/394 186/395/395 511/396/396
f 686/397/397 501/398/398 190/399/399 308/400/400
f 685/401/401 501/402/398 187/403/387 365/404/386
f 183/405/383 560/406/382 284/407/394
f 684/408/402 281/409/403 193/410/404 440/411/405
f 683/412/406 541/413/407 192/414/408 632/415/409
f 192/416/408 541/417/407 281/418/403
f 682/419/410 337/420/411 196/421/412 535/422/413
f 681/423/414 588/424/415 199/425/416 334/426/417
f 680/427/418 380/428/419 201/429/420 433/430/421
f 679/431/422 272/432/423 198/433/424 635/434/425
f 201/435/420 380/436/419 272/437/423
f 678/438/426 278/439/427 205/440/428 628/441/429
f 677/442/430 273/443/431 207/444/432 328/445/433
f 676/446/434 374/447/435 204/448/436 531/449/437
f 207/450/432 273/451/431 374/452/435
f 675/453/438 379/454/439 211/455/440 528/456/441
f 674/457/442 576/458/443 215/459/444 329/460/445
f 673/461/446 309/462/447 210/463/448 427/464/449
f 672/465/450 421/466/451 214/467/452 627/468/453
f 671/469/454 604/470/455 218/471/456 429/472/457
f 670/473/458 269/474/459 221/475/460 626/476/461
f 669/477/462 492/478/463 225/479/464 546/480/465
f 668/481/466 640/482/467 228/483/468 434/484/469
f 667/485/470 418/486/471 222/487/472 286/488/473
f 666/489/474 353/490/475 226/491/476 346/492/477
f 665/493/478 593/494/479 231/495/480 448/496/481
f 664/497/482 485/498/483 217/499/484 580/500/485
f 663/501/486 386/502/487 235/503/488 633/504/489
f 662/505/490 274/506/491 213/507/492 388/508/493
f 661/509/494 572/510/495 237/511/496 342/512/497
f 660/513/498 568/514/499 209/515/500 289/516/501
f 659/517/502 373/518/503 230/519/504 351/520/505
f 658/521/506 522/522/507 216/523/508 643/524/509
f 657/525/510 487/526/511 234/527/512 536/528/513
f 656/529/514 324/530/515 212/531/516 444/532/517
f 655/533/518 391/534/519 239/535/520 450/536/521
f 654/537/522 409/538/523 223/539/524 594/540/525
f 653/541/526 287/542/527 241/543/528 552/544/529
f 652/545/530 296/546/531 219/547/532 323/548/533
f 651/549/534 547/550/535 240/551/536 553/552/537
f 650/553/538 423/554/539 227/555/540 490/556/541
f 649/557/542 265/558/543 242/559/544 295/560/545
f 648/561/546 472/562/547 224/563/548 349/564/549
f 647/565/550 339/566/551 243/567/552 494/568/553
f 646/569/554 515/570/555 220/571/556 527/572/557
f 645/573/558 626/574/461 221/575/460 434/576/469
f 226/577/476 546/578/465 346/579/477
f 644/580/559 438/581/560 236/582/561 417/583/562
f 232/584/563 617/585/564 639/586/565
f 639/586/565 327/587/566 229/588/567
f 639/586/565 617/585/564 327/587/566
f 617/585/564 238/589/568 327/587/566
f 327/587/566 644/580/559 417/583/562 229/588/567
f 238/589/568 333/590/569 644/580/559 327/587/566
f 333/590/569 233/591/570 438/581/560 644/580/559
f 346/579/477 441/592/571 228/593/468
f 346/579/477 546/578/465 441/592/571
f 546/578/465 225/594/464 441/592/571
f 441/592/571 645/573/558 434/576/469 228/593/468
f 225/594/464 286/595/473 645/573/558 441/592/571
f 286/595/473 222/596/472 626/574/461 645/573/558
f 296/546/531 646/569/554 527/572/557 219/547/532
f 241/597/528 494/598/553 646/569/554 296/546/531
f 494/598/553 243/599/552 515/570/555 646/569/554
f 287/542/527 647/565/550 494/568/553 241/543/528
f 211/455/440 379/454/439 647/565/550 287/542/527
f 379/454/439 210/463/448 339/566/551 647/565/550
f 409/538/523 648/561/546 349/564/549 223/539/524
f 239/600/520 295/601/545 648/561/546 409/538/523
f 295/601/545 242/602/544 472/562/547 648/561/546
f 391/534/519 649/557/542 295/560/545 239/535/520
f 215/459/444 576/458/443 649/557/542 391/534/519
f 576/458/443 214/603/452 265/558/543 649/557/542
f 515/570/555 650/553/538 490/556/541 220/571/556
f 243/599/552 553/604/537 650/553/538 515/570/555
f 553/604/537 240/605/536 423/554/539 650/553/538
f 339/566/551 651/549/534 553/552/537 243/567/552
f 210/463/448 309/462/447 651/549/534 339/566/551
f 309/462/447 218/471/456 547/550/535 651/549/534
f 472/606/547 652/545/530 323/548/533 224/607/548
f 242/608/544 552/609/529 652/545/530 472/606/547
f 552/609/529 241/597/528 296/546/531 652/545/530
f 265/610/543 653/541/526 552/544/529 242/611/544
f 214/467/452 421/466/451 653/541/526 265/610/543
f 421/466/451 211/455/440 287/542/527 653/541/526
f 423/554/539 654/537/522 594/540/525 227/555/540
f 240/605/536 450/612/521 654/537/522 423/554/539
f 450/612/521 239/600/520 409/538/523 654/537/522
f 547/550/535 655/533/518 450/536/521 240/551/536
f 218/471/456 604/470/455 655/533/518 547/550/535
f 604/470/455 215/459/444 391/534/519 655/533/518
f 487/526/511 656/529/514 444/532/517 234/527/512
f 237/511/496 289/516/501 656/529/514 487/526/511
f 289/516/501 209/515/500 324/530/515 656/529/514
f 333/613/569 657/525/510 536/528/513 233/614/570
f 238/615/568 342/512/497 657/525/510 333/613/569
f 342/512/497 237/511/496 487/526/511 657/525/510
f 373/518/503 658/521/506 643/524/509 230/519/504
f 235/616/488 388/617/493 658/521/506 373/518/503
f 388/617/493 213/618/492 522/522/507 658/521/506
f 417/619/562 659/517/502 351/520/505 229/620/567
f 236/621/561 633/622/489 659/517/502 417/619/562
f 633/622/489 235/616/488 373/518/503 659/517/502
f 572/510/495 660/513/498 289/516/501 237/511/496
f 231/495/480 580/500/485 660/513/498 572/510/495
f 580/500/485 217/499/484 568/514/499 660/513/498
f 617/623/564 661/509/494 342/512/497 238/615/568
f 232/624/563 448/496/481 661/509/494 617/623/564
f 448/496/481 231/495/480 572/510/495 661/509/494
f 386/502/487 662/505/490 388/508/493 235/503/488
f 234/527/512 444/532/517 662/505/490 386/502/487
f 444/532/517 212/531/516 274/506/491 662/505/490
f 438/625/560 663/501/486 633/504/489 236/626/561
f 233/614/570 536/528/513 663/501/486 438/625/560
f 536/528/513 234/527/512 386/502/487 663/501/486
f 593/494/479 664/497/482 580/500/485 231/495/480
f 230/519/504 643/524/509 664/497/482 593/494/479
f 643/524/509 216/523/508 485/498/483 664/497/482
f 639/627/565 665/493/478 448/496/481 232/624/563
f 229/620/567 351/520/505 665/493/478 639/627/565
f 351/520/505 230/519/504 593/494/479 665/493/478
f 640/482/467 666/489/474 346/492/477 228/483/468
f 227/555/540 594/540/525 666/489/474 640/482/467
f 594/540/525 223/539/524 353/490/475 666/489/474
f 492/628/463 667/485/470 286/488/473 225/629/464
f 224/607/548 323/548/533 667/485/470 492/628/463
f 323/548/533 219/547/532 418/486/471 667/485/470
f 269/474/459 668/481/466 434/484/469 221/475/460
f 220/571/556 490/556/541 668/481/466 269/474/459
f 490/556/541 227/555/540 640/482/467 668/481/466
f 353/490/475 669/477/462 546/480/465 226/491/476
f 223/539/524 349/564/549 669/477/462 353/490/475
f 349/564/549 224/563/548 492/478/463 669/477/462
f 418/486/471 670/473/458 626/476/461 222/487/472
f 219/547/532 527/572/557 670/473/458 418/486/471
f 527/572/557 220/571/556 269/474/459 670/473/458
f 485/630/483 671/469/454 429/472/457 217/631/484
f 216/632/508 329/460/445 671/469/454 485/630/483
f 329/460/445 215/459/444 604/470/455 671/469/454
f 274/633/491 672/465/450 627/468/453 213/634/492
f 212/635/516 528/456/441 672/465/450 274/633/491
f 528/456/441 211/455/440 421/466/451 672/465/450
f 568/636/499 673/461/446 427/464/449 209/637/500
f 217/631/484 429/472/457 673/461/446 568/636/499
f 429/472/457 218/471/456 309/462/447 673/461/446
f 522/638/507 674/457/442 329/460/445 216/632/508
f 213/639/492 627/640/453 674/457/442 522/638/507
f 627/640/453 214/603/452 576/458/443 674/457/442
f 324/641/515 675/453/438 528/456/441 212/635/516
f 209/637/500 427/464/449 675/453/438 324/641/515
f 427/464/449 210/463/448 379/454/439 675/453/438
f 374/452/435 278/642/427 204/643/436
f 374/452/435 273/451/431 278/642/427
f 273/451/431 205/644/428 278/642/427
f 326/645/572 676/446/434 531/449/437 203/646/573
f 208/647/574 328/445/433 676/446/434 326/645/572
f 328/445/433 207/444/432 374/447/435 676/446/434
f 618/648/575 677/442/430 328/445/433 208/647/574
f 206/649/576 628/650/429 677/442/430 618/648/575
f 628/650/429 205/651/428 273/443/431 677/442/430
f 424/652/577 678/438/426 628/441/429 206/653/576
f 203/646/573 531/449/437 678/438/426 424/652/577
f 531/449/437 204/448/436 278/439/427 678/438/426
f 272/437/423 588/654/415 198/655/424
f 272/437/423 380/436/419 588/654/415
f 380/436/419 199/656/416 588/654/415
f 411/657/578 679/431/422 635/434/425 197/658/579
f 202/659/580 433/430/421 679/431/422 411/657/578
f 433/430/421 201/429/420 272/432/423 679/431/422
f 508/660/581 680/427/418 433/430/421 202/659/580
f 200/661/582 334/662/417 680/427/418 508/660/581
f 334/662/417 199/663/416 380/428/419 680/427/418
f 530/664/583 681/423/414 334/426/417 200/665/582
f 197/658/579 635/434/425 681/423/414 530/664/583
f 635/434/425 198/433/424 588/424/415 681/423/414
f 387/666/584 682/419/410 535/422/413 195/667/585
f 194/668/586 440/411/405 682/419/410 387/666/584
f 440/411/405 193/410/404 337/420/411 682/419/410
f 281/418/403 337/669/411 193/670/404
f 281/418/403 541/417/407 337/669/411
f 541/417/407 196/671/412 337/669/411
f 282/672/587 683/412/406 632/415/409 191/673/588
f 195/674/585 535/675/413 683/412/406 282/672/587
f 535/675/413 196/676/412 541/413/407 683/412/406
f 345/677/589 684/408/402 440/411/405 194/668/586
f 191/673/588 632/415/409 684/408/402 345/677/589
f 632/415/409 192/414/408 281/409/403 684/408/402
f 284/407/394 382/678/590 186/679/395
f 284/407/394 560/406/382 382/678/590
f 560/406/382 182/680/391 382/678/590
f 382/678/590 685/401/401 365/404/386 186/679/395
f 182/680/391 591/681/390 685/401/401 382/678/590
f 591/681/390 190/682/399 501/402/398 685/401/401
f 463/683/591 686/397/397 308/400/400 189/684/592
f 188/685/593 404/388/388 686/397/397 463/683/591
f 404/388/388 187/387/387 501/398/398 686/397/397
f 257/686/594 687/393/393 511/396/396 185/687/595
f 184/688/596 608/384/384 687/393/393 257/686/594
f 608/384/384 183/383/383 284/394/394 687/393/393
f 336/689/597 688/389/389 313/392/392 181/690/598
f 189/684/592 308/400/400 688/389/389 336/689/597
f 308/400/400 190/399/399 591/390/390 688/389/389
f 603/691/599 689/385/385 404/388/388 188/685/593
f 185/692/595 511/693/396 689/385/385 603/691/599
f 511/693/396 186/694/395 365/386/386 689/385/385
f 400/695/600 690/381/381 608/384/384 184/688/596
f 181/690/598 313/392/392 690/381/381 400/695/600
f 313/392/392 182/391/391 560/382/382 690/381/381
f 338/696/601 691/379/379 529/352/352 171/351/351
f 166/697/602 306/344/344 691/379/379 338/696/601
f 306/344/344 165/343/343 398/380/380 691/379/379
f 585/698/603 692/376/376 597/348/348 167/347/347
f 176/699/604 390/375/375 692/376/376 585/698/603
f 390/375/375 169/374/374 247/377/377 692/376/376
f 605/700/605 693/372/372 390/375/375 176/699/604
f 175/701/606 362/365/365 693/372/372 605/700/605
f 362/365/365 177/364/364 538/373/373 693/372/372
f 371/371/371 585/698/603 167/347/347
f 371/371/371 466/370/370 585/698/603
f 466/370/370 176/699/604 585/698/603
f 314/368/368 356/350/350 170/360/360
f 314/368/368 405/367/367 356/350/350
f 405/367/367 171/351/351 356/350/350
f 259/702/607 694/362/362 362/365/365 175/701/606
f 178/703/608 566/704/609 694/362/362 259/702/607
f 566/704/609 172/353/353 641/363/363 694/362/362
f 538/373/373 695/359/359 502/361/361 169/374/374
f 177/364/364 641/363/363 695/359/359 538/373/373
f 641/363/363 172/353/353 292/355/355 695/359/359
f 497/358/358 605/700/605 176/699/604
f 497/358/358 555/357/357 605/700/605
f 555/357/357 175/701/606 605/700/605
f 292/355/355 642/705/610 170/360/360
f 292/355/355 453/354/354 642/705/610
f 453/354/354 173/706/611 642/705/610
f 247/377/377 696/349/349 529/352/352 168/378/378
f 169/374/374 502/361/361 696/349/349 247/377/377
f 502/361/361 170/360/360 356/350/350 696/349/349
f 398/380/380 697/345/345 597/348/348 168/378/378
f 165/343/343 461/342/342 697/345/345 398/380/380
f 461/342/342 164/707/612 348/346/346 697/345/345
f 500/708/613 698/341/341 306/344/344 166/697/602
f 163/709/614 403/710/615 698/341/341 500/708/613
f 403/710/615 164/707/612 461/342/342 698/341/341
f 458/711/616 699/337/337 614/340/340 145/712/617
f 151/713/618 464/714/619 699/337/337 458/711/616
f 464/714/619 149/715/620 260/338/338 699/337/337
f 586/327/327 700/333/333 316/336/336 156/317/317
f 150/326/326 408/716/621 700/333/333 586/327/327
f 408/716/621 149/715/620 561/334/334 700/333/333
f 471/318/318 701/329/329 470/332/332 157/717/622
f 156/317/317 316/336/336 701/329/329 471/318/318
f 316/336/336 153/335/335 460/330/330 701/329/329
f 430/328/328 619/718/623 162/719/624
f 430/328/328 586/327/327 619/718/623
f 586/327/327 156/317/317 619/718/623
f 249/325/325 355/720/625 161/721/626
f 249/325/325 319/312/312 355/720/625
f 319/312/312 151/713/618 355/720/625
f 513/722/627 702/323/323 311/324/324 160/723/628
f 157/717/622 470/332/332 702/323/323 513/722/627
f 470/332/332 159/331/331 253/322/322 702/323/323
f 460/330/330 703/320/320 253/322/322 159/331/331
f 153/335/335 262/314/314 703/320/320 460/330/330
f 262/314/314 152/313/313 548/316/316 703/320/320
f 304/319/319 415/724/629 158/725/630
f 304/319/319 471/318/318 415/724/629
f 471/318/318 157/717/622 415/724/629
f 548/316/316 370/726/631 155/321/321
f 548/316/316 493/315/315 370/726/631
f 493/315/315 154/727/632 370/726/631
f 561/334/334 704/311/311 262/314/314 153/335/335
f 149/715/620 464/714/619 704/311/311 561/334/334
f 464/714/619 151/713/618 319/312/312 704/311/311
f 260/338/338 705/309/309 369/306/306 146/339/339
f 149/715/620 408/716/621 705/309/309 260/338/338
f 408/716/621 150/326/326 598/310/310 705/309/309
f 315/728/633 706/305/305 516/308/308 148/729/634
f 145/712/617 614/340/340 706/305/305 315/728/633
f 614/340/340 146/339/339 369/306/306 706/305/305
f 569/730/635 707/303/303 366/276/276 135/275/275
f 130/731/636 622/268/268 707/303/303 569/730/635
f 622/268/268 129/267/267 321/304/304 707/303/303
f 510/732/637 708/300/300 526/272/272 131/271/271
f 140/733/638 298/299/299 708/300/300 510/732/637
f 298/299/299 133/298/298 483/301/301 708/300/300
f 518/734/639 709/296/296 298/299/299 140/733/638
f 139/735/640 570/289/289 709/296/296 518/734/639
f 570/289/289 141/288/288 354/297/297 709/296/296
f 301/295/295 510/732/637 131/271/271
f 301/295/295 610/294/294 510/732/637
f 610/294/294 140/733/638 510/732/637
f 564/292/292 574/274/274 134/284/284
f 564/292/292 248/291/291 574/274/274
f 248/291/291 135/275/275 574/274/274
f 607/736/641 710/286/286 570/289/289 139/735/640
f 142/737/642 300/738/643 710/286/286 607/736/641
f 300/738/643 136/277/277 455/287/287 710/286/286
f 354/297/297 711/283/283 422/285/285 133/298/298
f 141/288/288 455/287/287 711/283/283 354/297/297
f 455/287/287 136/277/277 414/279/279 711/283/283
f 613/282/282 518/734/639 140/733/638
f 613/282/282 372/281/281 518/734/639
f 372/281/281 139/735/640 518/734/639
f 414/279/279 475/739/644 134/284/284
f 414/279/279 263/278/278 475/739/644
f 263/278/278 137/740/645 475/739/644
f 483/301/301 712/273/273 366/276/276 132/302/302
f 133/298/298 422/285/285 712/273/273 483/301/301
f 422/285/285 134/284/284 574/274/274 712/273/273
f 321/304/304 713/269/269 526/272/272 132/302/302
f 129/267/267 482/266/266 713/269/269 321/304/304
f 482/266/266 128/741/646 377/270/270 713/269/269
f 376/742/647 714/265/265 622/268/268 130/731/636
f 127/743/648 479/744/649 714/265/265 376/742/647
f 479/744/649 128/741/646 482/266/266 714/265/265
f 474/745/650 715/261/261 368/264/264 109/746/651
f 115/747/652 519/748/653 715/261/261 474/745/650
f 519/748/653 113/749/654 310/262/262 715/261/261
f 562/251/251 716/257/257 261/260/260 120/241/241
f 114/250/250 573/750/655 716/257/257 562/251/251
f 573/750/655 113/749/654 413/258/258 716/257/257
f 523/242/242 717/253/253 520/256/256 121/751/656
f 120/241/241 261/260/260 717/253/253 523/242/242
f 261/260/260 117/259/259 499/254/254 717/253/253
f 451/252/252 251/752/657 126/753/658
f 451/252/252 562/251/251 251/752/657
f 562/251/251 120/241/241 251/752/657
f 305/249/249 599/754/659 125/755/660
f 305/249/249 264/236/236 599/754/659
f 264/236/236 115/747/652 599/754/659
f 477/756/661 718/247/247 246/248/248 124/757/662
f 121/751/656 520/256/256 718/247/247 477/756/661
f 520/256/256 123/255/255 291/246/246 718/247/247
f 499/254/254 719/244/244 291/246/246 123/255/255
f 117/259/259 320/238/238 719/244/244 499/254/254
f 320/238/238 116/237/237 406/240/240 719/244/244
f 454/243/243 575/758/663 122/759/664
f 454/243/243 523/242/242 575/758/663
f 523/242/242 121/751/656 575/758/663
f 406/240/240 615/760/665 119/245/245
f 406/240/240 254/239/239 615/760/665
f 254/239/239 118/761/666 615/760/665
f 413/258/258 720/235/235 320/238/238 117/259/259
f 113/749/654 519/748/653 720/235/235 413/258/258
f 519/748/653 115/747/652 264/236/236 720/235/235
f 310/262/262 721/233/233 609/230/230 110/263/263
f 113/749/654 573/750/655 721/233/233 310/262/262
f 573/750/655 114/250/250 318/234/234 721/233/233
f 258/762/667 722/229/229 468/232/232 112/763/668
f 109/746/651 368/264/264 722/229/229 258/762/667
f 368/264/264 110/263/263 609/230/230 722/229/229
f 312/764/669 723/227/227 521/200/200 99/199/199
f 94/765/670 250/192/192 723/227/227 312/764/669
f 250/192/192 93/191/191 554/228/228 723/227/227
f 476/766/671 724/224/224 358/196/196 95/195/195
f 104/767/672 255/223/223 724/224/224 476/766/671
f 255/223/223 97/222/222 517/225/225 724/224/224
f 469/768/673 725/220/220 255/223/223 104/767/672
f 103/769/674 410/213/213 725/220/220 469/768/673
f 410/213/213 105/212/212 600/221/221 725/220/220
f 267/219/219 476/766/671 95/195/195
f 267/219/219 542/218/218 476/766/671
f 542/218/218 104/767/672 476/766/671
f 401/216/216 419/198/198 98/208/208
f 401/216/216 297/215/215 419/198/198
f 297/215/215 99/199/199 419/198/198
f 347/770/675 726/210/210 410/213/213 103/769/674
f 106/771/676 452/772/677 726/210/210 347/770/675
f 452/772/677 100/201/201 509/211/211 726/210/210
f 600/221/221 727/207/207 571/209/209 97/222/222
f 105/212/212 509/211/211 727/207/207 600/221/221
f 509/211/211 100/201/201 367/203/203 727/207/207
f 563/206/206 469/768/673 104/767/672
f 563/206/206 612/205/205 469/768/673
f 612/205/205 103/769/674 469/768/673
f 367/203/203 512/773/678 98/208/208
f 367/203/203 317/202/202 512/773/678
f 317/202/202 101/774/679 512/773/678
f 517/225/225 728/197/197 521/200/200 96/226/226
f 97/222/222 571/209/209 728/197/197 517/225/225
f 571/209/209 98/208/208 419/198/198 728/197/197
f 554/228/228 729/193/193 358/196/196 96/226/226
f 93/191/191 303/190/190 729/193/193 554/228/228
f 303/190/190 92/775/680 394/194/194 729/193/193
f 445/776/681 730/189/189 250/192/192 94/765/670
f 91/777/682 556/778/683 730/189/189 445/776/681
f 556/778/683 92/775/680 303/190/190 730/189/189
f 503/779/684 731/187/187 302/160/160 81/159/159
f 76/780/685 558/152/152 731/187/187 503/779/684
f 558/152/152 75/151/151 447/188/188 731/187/187
f 616/781/686 732/184/184 256/156/156 77/155/155
f 86/782/687 416/183/183 732/184/184 616/781/686
f 416/183/183 79/182/182 601/185/185 732/184/184
f 244/783/688 733/180/180 416/183/183 86/782/687
f 85/784/689 294/173/173 733/180/180 244/783/688
f 294/173/173 87/172/172 473/181/181 733/180/180
f 426/179/179 616/781/686 77/155/155
f 426/179/179 330/178/178 616/781/686
f 330/178/178 86/782/687 616/781/686
f 465/176/176 506/158/158 80/168/168
f 465/176/176 587/175/175 506/158/158
f 587/175/175 81/159/159 506/158/158
f 551/785/690 734/170/170 294/173/173 85/784/689
f 88/786/691 637/787/692 734/170/170 551/785/690
f 637/787/692 82/161/161 592/171/171 734/170/170
f 473/181/181 735/167/167 360/169/169 79/182/182
f 87/172/172 592/171/171 735/167/167 473/181/181
f 592/171/171 82/161/161 507/163/163 735/167/167
f 344/166/166 244/783/688 86/782/687
f 344/166/166 299/165/165 244/783/688
f 299/165/165 85/784/689 244/783/688
f 507/163/163 559/788/693 80/168/168
f 507/163/163 399/162/162 559/788/693
f 399/162/162 83/789/694 559/788/693
f 601/185/185 736/157/157 302/160/160 78/186/186
f 79/182/182 360/169/169 736/157/157 601/185/185
f 360/169/169 80/168/168 506/158/158 736/157/157
f 447/188/188 737/153/153 256/156/156 78/186/186
f 75/151/151 402/150/150 737/153/153 447/188/188
f 402/150/150 74/790/695 505/154/154 737/153/153
f 357/791/696 738/149/149 558/152/152 76/780/685
f 73/792/697 462/793/698 738/149/149 357/791/696
f 462/793/698 74/790/695 402/150/150 738/149/149
f 623/794/699 739/147/147 425/120/120 63/119/119
f 58/795/700 583/112/112 739/147/147 623/794/699
f 583/112/112 57/111/111 276/148/148 739/147/147
f 504/796/701 740/144/144 486/116/116 59/115/115
f 68/797/702 285/143/143 740/144/144 504/796/701
f 285/143/143 61/142/142 533/145/145 740/144/144
f 565/798/703 741/140/140 285/143/143 68/797/702
f 67/799/704 602/133/133 741/140/140 565/798/703
f 602/133/133 69/132/132 634/141/141 741/140/140
f 290/139/139 504/796/701 59/115/115
f 290/139/139 457/138/138 504/796/701
f 457/138/138 68/797/702 504/796/701
f 245/136/136 629/118/118 62/128/128
f 245/136/136 550/135/135 629/118/118
f 550/135/135 63/119/119 629/118/118
f 456/800/705 742/130/130 602/133/133 67/799/704
f 70/801/706 495/802/707 742/130/130 456/800/705
f 495/802/707 64/121/121 545/131/131 742/130/130
f 634/141/141 743/127/127 383/129/129 61/142/142
f 69/132/132 545/131/131 743/127/127 634/141/141
f 545/131/131 64/121/121 579/123/123 743/127/127
f 459/126/126 565/798/703 68/797/702
f 459/126/126 407/125/125 565/798/703
f 407/125/125 67/799/704 565/798/703
f 579/123/123 532/803/708 62/128/128
f 579/123/123 341/122/122 532/803/708
f 341/122/122 65/804/709 532/803/708
f 533/145/145 744/117/117 425/120/120 60/146/146
f 61/142/142 383/129/129 744/117/117 533/145/145
f 383/129/129 62/128/128 629/118/118 744/117/117
f 276/148/148 745/113/113 486/116/116 60/146/146
f 57/111/111 331/110/110 745/113/113 276/148/148
f 331/110/110 56/805/710 606/114/114 745/113/113
f 363/806/711 746/109/109 583/112/112 58/795/700
f 55/807/712 277/808/713 746/109/109 363/806/711
f 277/808/713 56/805/710 331/110/110 746/109/109
f 307/809/714 747/105/105 378/108/108 37/810/715
f 43/811/716 322/812/717 747/105/105 307/809/714
f 322/812/717 41/813/718 524/106/106 747/105/105
f 567/95/95 748/101/101 478/104/104 48/85/85
f 42/94/94 578/814/719 748/101/101 567/95/95
f 578/814/719 41/813/718 420/102/102 748/101/101
f 325/86/86 749/97/97 332/100/100 49/815/720
f 48/85/85 478/104/104 749/97/97 325/86/86
f 478/104/104 45/103/103 279/98/98 749/97/97
f 630/96/96 439/816/721 54/817/722
f 630/96/96 567/95/95 439/816/721
f 567/95/95 48/85/85 439/816/721
f 491/93/93 589/818/723 53/819/724
f 491/93/93 481/80/80 589/818/723
f 481/80/80 43/811/716 589/818/723
f 271/820/725 750/91/91 436/92/92 52/821/726
f 49/815/720 332/100/100 750/91/91 271/820/725
f 332/100/100 51/99/99 484/90/90 750/91/91
f 279/98/98 751/88/88 484/90/90 51/99/99
f 45/103/103 525/82/82 751/88/88 279/98/98
f 525/82/82 44/81/81 412/84/84 751/88/88
f 625/87/87 582/822/727 50/823/728
f 625/87/87 325/86/86 582/822/727
f 325/86/86 49/815/720 582/822/727
f 412/84/84 621/824/729 47/89/89
f 412/84/84 467/83/83 621/824/729
f 467/83/83 46/825/730 621/824/729
f 420/102/102 752/79/79 525/82/82 45/103/103
f 41/813/718 322/812/717 752/79/79 420/102/102
f 322/812/717 43/811/716 481/80/80 752/79/79
f 524/106/106 753/77/77 624/74/74 38/107/107
f 41/813/718 578/814/719 753/77/77 524/106/106
f 578/814/719 42/94/94 359/78/78 753/77/77
f 480/826/731 754/73/73 268/76/76 40/827/732
f 37/810/715 378/108/108 754/73/73 480/826/731
f 378/108/108 38/107/107 624/74/74 754/73/73
f 431/828/733 755/69/69 584/72/72 19/829/734
f 25/830/735 437/831/736 755/69/69 431/828/733
f 437/831/736 23/832/737 428/70/70 755/69/69
f 375/59/59 756/65/65 275/68/68 30/49/49
f 24/58/58 385/833/738 756/65/65 375/59/59
f 385/833/738 23/832/737 514/66/66 756/65/65
f 638/50/50 757/61/61 442/64/64 31/834/739
f 30/49/49 275/68/68 757/61/61 638/50/50
f 275/68/68 27/67/67 432/62/62 757/61/61
f 611/60/60 395/835/740 36/836/741
f 611/60/60 375/59/59 395/835/740
f 375/59/59 30/49/49 395/835/740
f 361/57/57 252/837/742 35/838/743
f 361/57/57 288/44/44 252/837/742
f 288/44/44 25/830/735 252/837/742
f 396/839/744 758/55/55 596/56/56 34/840/745
f 31/834/739 442/64/64 758/55/55 396/839/744
f 442/64/64 33/63/63 631/54/54 758/55/55
f 432/62/62 759/52/52 631/54/54 33/63/63
f 27/67/67 443/46/46 759/52/52 432/62/62
f 443/46/46 26/45/45 343/48/48 759/52/52
f 489/51/51 392/841/746 32/842/747
f 489/51/51 638/50/50 392/841/746
f 638/50/50 31/834/739 392/841/746
f 343/48/48 540/843/748 29/53/53
f 343/48/48 280/47/47 540/843/748
f 280/47/47 28/844/749 540/843/748
f 514/66/66 760/43/43 443/46/46 27/67/67
f 23/832/737 437/831/736 760/43/43 514/66/66
f 437/831/736 25/830/735 288/44/44 760/43/43
f 428/70/70 761/41/41 537/38/38 20/71/71
f 23/832/737 385/833/738 761/41/41 428/70/70
f 385/833/738 24/58/58 581/42/42 761/41/41
f 270/845/750 762/37/37 488/40/40 22/846/751
f 19/829/734 584/72/72 762/37/37 270/845/750
f 584/72/72 20/71/71 537/38/38 762/37/37
f 539/847/752 763/33/33 293/36/36 1/848/753
f 7/849/754 549/850/755 763/33/33 539/847/752
f 549/850/755 5/851/756 350/34/34 763/33/33
f 266/23/23 764/29/29 389/32/32 12/13/13
f 6/22/22 498/852/757 764/29/29 266/23/23
f 498/852/757 5/851/756 636/30/30 764/29/29
f 544/14/14 765/25/25 543/28/28 13/853/758
f 12/13/13 389/32/32 765/25/25 544/14/14
f 389/32/32 9/31/31 534/26/26 765/25/25
f 364/24/24 557/854/759 18/855/760
f 364/24/24 266/23/23 557/854/759
f 266/23/23 12/13/13 557/854/759
f 340/21/21 435/856/761 17/857/762
f 340/21/21 397/8/8 435/856/761
f 397/8/8 7/849/754 435/856/761
f 590/858/763 766/19/19 384/20/20 16/859/764
f 13/853/758 543/28/28 766/19/19 590/858/763
f 543/28/28 15/27/27 335/18/18 766/19/19
f 534/26/26 767/16/16 335/18/18 15/27/27
f 9/31/31 352/10/10 767/16/16 534/26/26
f 352/10/10 8/9/9 620/12/12 767/16/16
f 381/15/15 496/860/765 14/861/766
f 381/15/15 544/14/14 496/860/765
f 544/14/14 13/853/758 496/860/765
f 620/12/12 446/862/767 11/17/17
f 620/12/12 577/11/11 446/862/767
f 577/11/11 10/863/768 446/862/767
f 636/30/30 768/7/7 352/10/10 9/31/31
f 5/851/756 549/850/755 768/7/7 636/30/30
f 549/850/755 7/849/754 397/8/8 768/7/7
f 350/34/34 769/5/5 449/2/2 2/35/35
f 5/851/756 498/852/757 769/5/5 350/34/34
f 498/852/757 6/22/22 283/6/6 769/5/5
f 393/864/769 770/1/1 595/4/4 4/865/770
f 1/848/753 293/36/36 770/1/1 393/864/769
f 293/36/36 2/35/35 449/2/2 770/1/1
