# Blender v2.78 (sub 0) OBJ File: ''
# www.blender.org
mtllib Dead_Pine_Tree_l_04.mtl
o Dead_Pine_Tree_l_04
v 0.392008 9.329372 0.000601
v 0.556561 9.227607 -0.110108
v 0.390500 9.339187 -0.208416
v 0.017809 9.586178 -0.089387
v 0.850987 9.026624 -0.121668
v 0.837268 9.000707 -0.371130
v 0.840215 8.977862 0.124464
v 1.397777 8.594253 0.226948
v 1.399846 8.661325 -0.142778
v 1.749254 8.258833 0.260934
v 1.827801 8.316860 0.005251
v 1.390282 8.624906 -0.517279
v 1.775186 8.257282 -0.331744
v 1.736559 8.288807 -0.587825
v 1.681965 8.462400 -0.154153
v 2.120905 8.053504 -0.176516
v 1.102796 8.685371 0.374041
v 1.105014 8.727082 -0.651110
v -0.424152 8.516360 -0.436267
v -0.620795 8.438496 -0.454160
v -0.543870 8.527264 -0.277372
v -0.173732 8.720354 -0.136669
v -0.865699 8.279710 -0.627782
v -1.003022 8.255853 -0.433430
v -0.718658 8.230330 -0.809789
v -1.110277 7.925732 -1.232448
v -1.321148 7.992563 -0.951230
v -1.383330 7.645415 -1.481276
v -1.585802 7.710842 -1.330810
v -1.535334 7.960276 -0.665707
v -1.748010 7.651749 -1.049942
v -1.865431 7.679656 -0.832820
v -1.556556 7.834414 -1.117741
v -1.934403 7.494348 -1.379090
v -0.795834 7.979353 -1.167001
v -1.390765 8.027785 -0.393630
v 0.569593 6.269603 1.321025
v 0.222888 6.201806 1.460543
v 0.594829 5.921417 1.778051
v 0.688172 6.068530 1.580622
v 0.105455 6.589555 0.899683
v -0.027587 6.293908 1.240837
v 0.916315 6.232790 1.168797
v 0.889990 5.861195 1.599895
v 1.114799 5.893062 1.465781
v 0.339855 6.638845 0.815593
v 0.325563 5.862764 1.802385
v 0.049860 6.944863 0.432955
v 0.216396 6.841998 0.544553
v 0.244839 6.954780 0.351576
v -0.009111 7.204439 0.048428
v 0.568000 6.612648 0.707316
v 0.877028 5.655218 1.982735
v 0.932386 6.336069 0.850700
v -0.098549 13.468892 -0.190745
v -0.188815 13.400268 -0.271330
v -0.225376 13.475898 -0.160450
v -0.101032 13.642136 0.040221
v -0.236912 13.264960 -0.441384
v -0.386436 13.250286 -0.396702
v -0.085636 13.233955 -0.468166
v -0.101133 12.975347 -0.807783
v -0.326341 13.018555 -0.758780
v -0.129139 12.754122 -1.014297
v -0.295891 12.788607 -1.027593
v -0.552391 12.997696 -0.698478
v -0.492940 12.754649 -0.945710
v -0.643171 12.776653 -0.886954
v -0.372584 12.884950 -0.921466
v -0.446976 12.615162 -1.170500
v 0.029826 13.041674 -0.652880
v -0.593551 13.071712 -0.509908
v 0.008536 5.540732 -0.478146
v -0.144718 5.435856 -0.648748
v -0.224973 5.562903 -0.446240
v -0.024577 5.826091 -0.040622
v -0.210920 5.216931 -0.981145
v -0.490018 5.200579 -0.930392
v 0.063756 5.148469 -1.005327
v 0.077622 4.723876 -1.652723
v -0.333315 4.819378 -1.600678
v 0.046802 4.352107 -2.058168
v -0.247724 4.433270 -2.108480
v -0.753741 4.797921 -1.536818
v -0.621272 4.382557 -2.002139
v -0.901020 4.430815 -1.921424
v -0.397438 4.602452 -1.919258
v -0.508005 4.152907 -2.416099
v 0.289658 4.811459 -1.341215
v -0.857337 4.913193 -1.195640
v 0.017616 9.585889 -0.089399
v 0.390305 9.338897 -0.208417
v 0.556363 9.227321 -0.110120
v 0.391813 9.329085 0.000577
v 0.837081 9.000418 -0.371082
v 0.850792 9.026336 -0.121679
v 1.399639 8.661048 -0.142779
v 1.397584 8.593979 0.226861
v 0.840028 8.977577 0.124392
v 1.827574 8.316599 0.005253
v 1.749033 8.258593 0.260823
v 1.736316 8.288561 -0.587818
v 1.774952 8.257033 -0.331678
v 1.390076 8.624634 -0.517216
v 1.681739 8.462138 -0.154124
v 2.120681 8.053257 -0.176422
v 1.102642 8.685101 0.373893
v 1.104860 8.726799 -0.650984
v -0.173614 8.720045 -0.136559
v -0.543744 8.526955 -0.277271
v -0.620673 8.438190 -0.454047
v -0.424041 8.516053 -0.436147
v -1.002874 8.255545 -0.433371
v -0.865579 8.279403 -0.627672
v -1.321012 7.992264 -0.951120
v -1.110204 7.925438 -1.232278
v -0.718582 8.230028 -0.809636
v -1.585648 7.710557 -1.330689
v -1.383246 7.645152 -1.481069
v -1.865259 7.679384 -0.832693
v -1.747809 7.651477 -1.049867
v -1.535159 7.959982 -0.665647
v -1.556385 7.834127 -1.117642
v -1.934193 7.494077 -1.379043
v -0.795829 7.979068 -1.166806
v -1.390594 8.027486 -0.393653
v 0.688060 6.068266 1.580424
v 0.594741 5.921157 1.777842
v 0.222896 6.201531 1.460331
v 0.569516 6.269323 1.320833
v -0.027509 6.293636 1.240637
v 0.105451 6.589272 0.899483
v 0.889840 5.860947 1.599703
v 0.916179 6.232517 1.168630
v 1.114701 5.892815 1.465558
v 0.339792 6.638556 0.815408
v 0.325582 5.862523 1.802138
v -0.009174 7.204149 0.048244
v 0.244766 6.954491 0.351396
v 0.216332 6.841712 0.544365
v 0.049809 6.944574 0.432765
v 0.567886 6.612358 0.707162
v 0.876856 5.654971 1.982564
v 0.932212 6.335785 0.850605
v -0.100998 13.641858 0.040428
v -0.225330 13.475620 -0.160245
v -0.188779 13.399992 -0.271118
v -0.098526 13.468616 -0.190535
v -0.386345 13.250007 -0.396515
v -0.236877 13.264684 -0.441176
v -0.326294 13.018287 -0.758562
v -0.101172 12.975084 -0.807561
v -0.085661 13.233681 -0.467952
v -0.295836 12.788359 -1.027358
v -0.129195 12.753895 -1.014042
v -0.643108 12.776422 -0.886705
v -0.492821 12.754416 -0.945484
v -0.552282 12.997434 -0.698278
v -0.372502 12.884699 -0.921238
v -0.446831 12.614928 -1.170289
v 0.029718 13.041410 -0.652681
v -0.593392 13.071438 -0.509772
v -0.024579 5.825799 -0.040433
v -0.224963 5.562610 -0.446053
v -0.144719 5.435565 -0.648554
v 0.008523 5.540442 -0.477954
v -0.489962 5.200284 -0.930218
v -0.210920 5.216641 -0.980954
v -0.333303 4.819095 -1.600477
v 0.077547 4.723602 -1.652525
v 0.063694 5.148186 -1.005137
v -0.247707 4.433005 -2.108260
v 0.046708 4.351866 -2.057938
v -0.900995 4.430562 -1.921187
v -0.621189 4.382301 -2.001919
v -0.753666 4.797641 -1.536626
v -0.397394 4.602183 -1.919042
v -0.507895 4.152651 -2.415892
v 0.289517 4.811192 -1.341047
v -0.857208 4.912901 -1.195508
v -0.058414 5.496816 -0.174252
v -0.402144 5.798589 -0.778628
v -0.424201 5.787898 -0.773350
v -0.105411 5.469169 -0.156652
v -0.069140 5.443883 -0.193081
v -0.409683 5.778986 -0.791719
v -0.048036 7.461385 0.050180
v -0.275922 7.643932 0.444529
v -0.304789 7.632151 0.438903
v -0.096050 7.440083 0.038437
v -0.296099 7.659324 0.425539
v -0.083008 7.488853 0.019853
v -0.209333 6.786314 -0.126082
v -0.181580 10.220329 -0.142397
v -0.075144 10.215111 -0.187759
v 0.005954 6.741731 -0.197953
v 0.116435 6.741955 -0.074208
v 0.000123 10.215209 -0.103803
v -0.057020 10.212028 -0.003459
v 0.001097 6.694295 0.110208
v -0.215692 6.773916 0.058360
v -0.171252 10.219367 -0.029589
v -0.130235 15.376362 0.136292
v -0.168145 15.391835 0.156002
v -0.049720 17.698156 0.386571
v -0.038892 17.673170 0.378594
v -0.114323 15.374120 0.211640
v -0.096216 15.378122 0.175475
v -0.028513 17.719362 0.394025
v -0.034017 17.688873 0.403744
v -0.162456 15.397469 0.194941
v -0.043058 17.746727 0.405781
v 0.099196 0.006994 0.255690
v -0.018654 3.205185 0.173512
v -0.306777 3.147675 0.113889
v -0.244967 0.000901 0.182665
v 0.029312 0.005607 -0.325359
v -0.048695 3.198112 -0.279357
v 0.153383 3.199323 -0.054165
v 0.275916 0.005783 -0.053524
v -0.317481 3.227851 -0.159990
v -0.275946 0.008462 -0.163031
v -0.042997 12.849486 0.106842
v -0.132627 12.876624 0.069986
v -0.078528 12.849319 -0.032679
v -0.017823 12.842529 0.035324
v -0.145254 12.886282 -0.006429
v -0.073836 5.192935 -0.985068
v -0.006065 5.707839 -0.223653
v 1.728460 8.361195 -0.234794
v -0.368503 4.701959 -1.776816
v 0.635032 6.160659 1.464600
v -1.576362 7.777147 -1.218952
v 0.221500 6.623696 0.850731
v -1.736949 7.792109 -0.771905
v -0.896740 8.079443 -1.026911
v -0.281672 13.141631 -0.600244
v -0.067048 5.489120 -0.562881
v -0.578539 12.772853 -0.902132
v -0.772796 8.080347 -1.024568
v -0.331304 4.523768 -2.014498
v -0.296947 13.369859 -0.274196
v 1.104350 8.818545 -0.459769
v -0.071038 7.447252 0.046519
v -0.346122 5.219079 -0.948052
v -0.427247 5.794241 -0.801982
v -1.281764 7.760050 -1.384339
v -0.500198 4.493894 -1.961961
v 0.781542 5.966489 1.593466
v -0.224859 6.784390 -0.033498
v -0.702286 4.575272 -1.787809
v 0.032554 6.412288 1.109187
v -0.067055 5.488829 -0.562688
v -0.427758 12.820522 -0.934638
v -0.368531 4.702234 -1.777025
v -0.464028 12.671155 -1.075660
v -1.093655 8.135990 -0.789671
v -1.456740 7.683936 -1.412017
v -0.195882 12.873053 -0.930073
v 0.025818 5.357857 -0.728251
v 0.393992 6.243820 1.389585
v -0.573333 13.054850 -0.577348
v 1.004226 8.836334 -0.534574
v -0.606212 12.864504 -0.816015
v -0.045706 12.844525 -0.001451
v -0.082070 13.106462 -0.633631
v 1.108052 8.788625 0.191807
v 0.763515 5.772510 1.900064
v -0.782135 4.419278 -1.937432
v -0.386276 12.691236 -1.113159
v -0.093307 7.464749 0.027229
v -0.201495 7.534927 0.238829
v -0.196075 12.777307 -1.013436
v -0.097493 13.570560 -0.056828
v 0.454841 6.454035 1.068567
v -0.088108 12.862899 0.092572
v 0.132079 6.893933 0.488320
v 0.011646 7.097316 0.210534
v 1.104542 8.818827 -0.459830
v 1.737327 8.283813 -0.481455
v 0.090450 4.937974 -1.319036
v -0.341618 5.392744 -0.678047
v -0.125281 4.780876 -1.624829
v 0.394029 6.244098 1.389787
v -0.026118 12.845039 0.074126
v -0.239057 5.610271 -0.493346
v 0.055023 4.503395 -1.905092
v -0.029642 17.752161 0.403596
v 0.084068 6.778749 0.652311
v -0.229326 5.648912 -0.476341
v 2.002470 8.169289 -0.103470
v 0.837084 9.023081 -0.243887
v -0.302822 1.495791 -0.164377
v -0.036071 17.764446 0.408958
v -0.706240 5.027882 -1.097297
v 0.011588 7.097027 0.210347
v -0.138771 15.385788 0.205314
v -0.582227 8.483631 -0.364815
v -0.059329 14.113394 0.103205
v -0.134151 0.007035 -0.268194
v -0.402767 4.276835 -2.291595
v 0.878657 5.737227 1.821878
v -1.093528 8.135687 -0.789561
v 0.603500 9.180760 -0.277496
v -0.010331 1.480191 -0.309701
v -0.085287 16.611349 0.263912
v 0.472728 9.283963 -0.159998
v -0.809519 4.888749 -1.315387
v -0.080455 14.114429 0.157022
v -0.115377 10.215697 -0.010737
v -0.195878 12.872799 -0.929841
v 1.015452 5.887766 1.506988
v -0.521367 8.477792 -0.445321
v 0.025852 5.358146 -0.728443
v -0.174632 5.336745 -0.798815
v -0.275645 8.636011 -0.264664
v -0.020113 13.118440 -0.582599
v 0.042267 1.486347 0.220784
v -0.059928 5.470456 -0.186164
v -0.149589 11.572779 0.014426
v -0.130759 10.217720 -0.170489
v 0.605682 9.165030 0.051417
v -1.456853 7.684209 -1.412187
v -1.358445 7.807745 -1.300046
v 0.473689 9.279272 -0.053938
v -0.423734 5.802918 -0.795885
v 0.390961 6.794644 0.524428
v -0.023329 10.213618 -0.050663
v 1.599930 8.426710 -0.434716
v -0.840140 4.577103 -1.775542
v 1.035517 6.028430 1.354312
v 0.134445 4.968224 -0.063120
v -0.042287 17.728283 0.386878
v -0.551839 4.244392 -2.241386
v 1.392517 8.650936 -0.330849
v -0.543651 4.817500 -1.565653
v -0.097463 13.570284 -0.056620
v 0.781409 5.966233 1.593272
v -0.073806 5.193223 -0.985260
v 1.556038 8.553815 -0.148952
v -0.264233 4.957623 0.086603
v -0.191867 8.523863 0.010144
v -0.637668 5.006359 -1.220711
v -0.606127 12.864261 -0.815787
v 0.231068 6.899254 0.447218
v 1.756525 8.394454 -0.082266
v -0.463892 12.670920 -1.075442
v 0.448795 6.634974 0.755654
v 0.407981 6.047992 1.640308
v -1.358333 7.807457 -1.299897
v -0.120781 12.843556 -0.936527
v -0.508791 13.142678 -0.469033
v -0.143075 13.434809 -0.230608
v 0.067502 6.274868 1.313711
v -0.402840 4.277096 -2.291808
v 1.600153 8.426970 -0.434776
v -0.543697 4.817781 -1.565850
v -0.155365 13.573758 -0.043004
v 0.290251 6.000369 1.672564
v -0.212512 13.001911 -0.782525
v 0.431821 5.900612 1.781678
v -0.500132 4.493631 -1.961744
v 0.408019 6.048259 1.640522
v -0.293436 7.656931 0.447945
v -0.082031 13.106730 -0.633847
v 1.728690 8.361449 -0.234844
v 0.231000 6.898965 0.447033
v -1.736774 7.791827 -0.771807
v -1.270834 8.112914 -0.532097
v -0.757565 8.400581 -0.358002
v 0.173142 9.484386 -0.143079
v -0.439583 13.013253 -0.727367
v -0.189144 3.215751 -0.233771
v -0.210535 13.339029 -0.348093
v -0.078747 4.563674 -1.903552
v -0.097410 13.359111 -0.322073
v -0.064427 16.613724 0.287882
v -0.346095 5.218786 -0.947868
v -1.433855 8.017462 -0.494762
v -0.032657 17.716846 0.388120
v -0.174633 5.336454 -0.798623
v 0.689287 9.136339 -0.115350
v -0.926789 8.275920 -0.527867
v 0.838843 9.011638 -0.000131
v -0.417254 5.798996 -0.804257
v 0.193110 4.946544 -1.213879
v -0.049560 11.558310 0.045667
v -0.706339 5.028174 -1.097449
v 0.605874 9.165317 0.051461
v 1.205304 8.666807 0.314376
v -0.033106 10.215159 -0.149733
v -0.193317 8.527475 -0.136927
v -0.281632 13.141359 -0.600031
v -0.521484 8.478098 -0.445437
v 1.004395 8.836619 -0.534666
v 0.753115 6.428523 0.923285
v 1.397070 8.636093 0.043737
v -0.569055 8.383116 -0.607939
v 0.836892 9.022793 -0.243870
v -0.189918 7.575385 0.221810
v -0.908915 7.973186 -1.182541
v -0.120827 12.843313 -0.936286
v -1.212601 7.966508 -1.091452
v -0.757429 8.400272 -0.357918
v 0.210604 0.006389 0.114589
v -0.020185 13.118172 -0.582393
v 0.742748 6.259103 1.242216
v -1.853371 7.556040 -1.242855
v 1.756298 8.394191 -0.082247
v -0.112612 5.718247 -0.209284
v 0.689483 9.136626 -0.115338
v -0.006060 5.708131 -0.223843
v -0.508921 13.142954 -0.469193
v 0.649337 5.999587 1.677680
v 1.004593 8.802210 0.269555
v 0.084099 6.779035 0.652505
v 0.753244 6.428804 0.923440
v -0.339167 12.839508 -0.974349
v -0.731268 8.366273 -0.532438
v 0.057618 8.503904 -0.093567
v -0.083113 5.486635 -0.162931
v 1.204180 8.705859 -0.594768
v -0.108735 16.631374 0.277563
v 0.100618 7.101841 0.173399
v 1.770080 8.296275 0.155877
v 0.067453 6.275143 1.313915
v -0.149966 14.140737 0.129303
v -0.021199 4.967228 -0.237013
v 1.616942 8.394711 0.244559
v -0.161279 13.255550 -0.450781
v 0.919420 6.032715 1.396716
v -0.078522 0.003948 0.244657
v -0.110680 6.732190 0.094733
v 0.090525 4.938253 -1.319228
v 1.604797 8.422729 -0.556966
v -0.207415 13.438362 -0.215239
v -1.804507 7.674107 -0.913683
v -1.793121 7.590961 -1.358806
v -0.112610 5.717955 -0.209095
v 0.144920 6.398279 1.176035
v -1.853579 7.556312 -1.242912
v 2.002696 8.169542 -0.103528
v -0.009864 11.554206 -0.038677
v -0.045571 17.744516 0.398292
v -0.071814 4.400559 -2.065774
v -1.451019 7.907193 -1.043252
v 1.392724 8.651212 -0.330881
v -0.212518 13.002178 -0.782746
v -0.196085 12.777069 -1.013190
v 1.125495 8.843505 -0.132241
v 1.617152 8.394966 0.244657
v 0.032597 6.412011 1.108986
v -0.908882 7.972897 -1.182356
v 1.204005 8.705579 -0.594669
v -1.434027 8.017761 -0.494774
v 1.974442 8.134881 -0.238327
v -0.160539 7.552551 0.248082
v 0.838651 9.011352 -0.000172
v -0.578628 12.773087 -0.902371
v 0.635127 6.160930 1.464795
v -0.010652 4.945988 0.142697
v -0.331270 4.523500 -2.014281
v -0.896672 8.079145 -1.026747
v -0.787076 8.262899 -0.713039
v -0.285556 0.004682 0.013379
v -0.702212 4.575006 -1.787600
v 0.054940 4.503139 -1.904875
v 0.193218 4.946818 -1.214058
v 0.220984 1.480716 -0.053587
v -0.062749 7.478321 0.034722
v -0.272175 5.017665 -1.291031
v 0.603309 9.180470 -0.277476
v -0.071767 4.400813 -2.065999
v 0.649440 5.999849 1.677883
v -0.787175 8.263204 -0.713170
v -0.030016 17.861174 0.412274
v -0.731388 8.366579 -0.532549
v 1.974213 8.134635 -0.238242
v -0.569151 8.383422 -0.608074
v -0.102971 15.375511 0.195142
v -0.266114 5.628488 -0.464154
v -0.210500 13.338755 -0.347883
v -0.351878 12.946218 -0.848957
v -0.477514 13.127851 -0.539786
v 0.100551 7.101552 0.173216
v 1.108238 8.788904 0.191892
v -0.104193 16.638298 0.303811
v 0.171138 0.005695 -0.207988
v -0.309121 13.263444 -0.415252
v 0.290262 6.000112 1.672332
v 1.035401 6.028172 1.354113
v 0.784945 6.446789 0.801112
v -1.451173 7.907485 -1.043357
v 0.173336 9.484675 -0.143071
v -0.281090 1.450157 0.153104
v 0.174024 9.480198 -0.047693
v -1.647318 7.744267 -1.089834
v -0.330269 8.640986 -0.192165
v 1.604569 8.422471 -0.556933
v -1.804322 7.673834 -0.913579
v 0.878823 5.737473 1.822058
v -0.150281 15.383779 0.143991
v -0.439503 13.012989 -0.727157
v -0.386167 12.690998 -1.112938
v -0.272180 5.017951 -1.291227
v -0.020929 13.026822 -0.705945
v -0.143105 13.435085 -0.230819
v 0.070494 6.742223 -0.143351
v -1.792933 7.590683 -1.358730
v -1.237915 8.119745 -0.416654
v -1.576527 7.777433 -1.219059
v -1.212707 7.966805 -1.091590
v -1.237752 8.119442 -0.416641
v -1.661939 7.794586 -0.861010
v -0.111656 15.377096 0.154310
v 1.015574 5.888014 1.507196
v -0.182302 10.219848 -0.085385
v -0.185529 5.500369 -0.546693
v -1.647505 7.744547 -1.089919
v -0.159169 14.143071 0.071977
v -0.167388 3.174049 0.157537
v -0.161830 11.578537 -0.079244
v -0.027742 8.476038 0.048608
v -0.185524 5.500077 -0.546502
v -0.309183 13.263721 -0.415451
v 0.272144 6.750036 0.666913
v 0.067850 6.715473 0.022816
v -0.155327 13.573481 -0.042798
v -0.297012 13.370138 -0.274394
v -1.270671 8.112612 -0.532045
v -0.782187 4.419533 -1.937661
v -0.077782 11.558029 -0.114519
v -0.167697 15.395733 0.175593
v 0.272080 6.749748 0.666726
v -1.426108 7.983541 -0.805915
v -0.327613 3.186549 -0.021277
v -0.531213 12.866567 -0.830498
v 1.631699 8.442080 0.124770
v 1.396869 8.635816 0.043695
v -0.637739 5.006647 -1.220889
v 0.742857 6.259380 1.242396
v 1.770303 8.296525 0.155941
v -0.265230 5.006871 -0.142178
v -0.840092 4.576840 -1.775324
v 0.173830 9.479910 -0.047710
v -0.427860 12.820765 -0.934865
v 0.132137 6.894221 0.488509
v 1.631911 8.442347 0.124817
v -0.113935 12.868320 -0.023577
v -0.297473 7.644452 0.454181
v -0.339238 12.839758 -0.974580
v 0.431846 5.900863 1.781909
v 0.144912 6.398559 1.176241
v -0.573195 13.054580 -0.577184
v 0.763376 5.772256 1.899877
v 0.081176 3.204605 0.067738
v -0.078780 4.563405 -1.903341
v -0.125311 4.780596 -1.624629
v -0.477619 13.128124 -0.539974
v -0.143362 12.883457 0.031375
v -0.809413 4.888462 -1.315230
v 1.125696 8.843788 -0.132234
v -0.306762 7.651524 0.445392
v -0.551738 4.244137 -2.241173
v 0.448883 6.635263 0.755826
v -0.330390 8.641295 -0.192272
v 0.207012 4.796005 -1.447814
v 0.784796 6.446502 0.800990
v 0.390870 6.794354 0.524259
v 0.207126 4.796277 -1.447994
v 1.004762 8.802487 0.269671
v 0.064746 3.197192 -0.176338
v -0.089924 5.452778 -0.174890
v -0.531323 12.866813 -0.830716
v -0.275761 8.636320 -0.264777
v -0.104344 6.763934 -0.170375
v -0.161273 13.255275 -0.450569
v -0.926654 8.275613 -0.527782
v 0.917613 6.314617 0.965035
v -0.097408 13.358835 -0.321861
v 0.917455 6.314337 0.964910
v -0.341648 5.393038 -0.678230
v -0.582103 8.483323 -0.364707
v -0.075607 16.618410 0.312066
v 0.221465 6.623410 0.850537
v 0.473493 9.278986 -0.053956
v -0.772832 8.080639 -1.024745
v -0.032742 8.503433 -0.194619
v 0.454772 6.453752 1.068378
v -1.426265 7.983838 -0.805998
v -0.351813 12.945959 -0.848734
v 0.919280 6.032456 1.396532
v -1.661752 7.794303 -0.860937
v 0.472924 9.284251 -0.159992
v -0.107060 14.116061 0.049137
v 1.555820 8.553544 -0.148938
v -0.207456 13.438640 -0.215448
v 1.737088 8.283566 -0.481421
v -1.281845 7.760326 -1.384528
v -0.021008 13.026558 -0.705737
v 1.205134 8.666533 0.314253
v -0.033119 17.858799 0.405982
v -0.134682 14.129666 0.057468
v -0.122026 11.568543 -0.101599
v -0.066596 14.113122 0.132428
v -0.025006 11.555773 0.006501
v -0.157977 14.143446 0.100499
v -0.160863 11.576659 -0.032307
v -0.081175 14.113956 0.073998
v -0.040386 11.555418 -0.079961
v -0.115549 14.127501 0.146253
v -0.100343 11.565466 0.035018
v -0.147570 4.988390 -0.200823
v -0.163668 1.489376 -0.253088
v 0.073345 4.956956 0.046229
v 0.147174 1.484707 0.092695
v -0.278647 4.983778 -0.026719
v -0.309110 1.472367 -0.003414
v 0.067474 4.967153 -0.158490
v 0.118474 1.479691 -0.193387
v -0.141470 4.949657 0.126792
v -0.123861 1.467061 0.203417
v -0.090088 16.628653 0.309336
v -0.073894 16.611866 0.274830
v -0.107918 16.635992 0.290843
v -0.068631 16.615582 0.300887
v -0.097718 16.621065 0.269337
v -0.112116 8.498992 0.037494
v 0.019291 8.503859 -0.149704
v -0.201708 8.527807 -0.062906
v 0.022040 8.488645 -0.018587
v -0.115555 8.515410 -0.172657
v -0.173615 7.565752 0.234707
v -0.197867 7.555316 0.229228
v -0.180470 7.541796 0.244786
v -0.254014 5.617565 -0.478898
v -0.232230 5.629659 -0.486115
v -0.248252 5.640447 -0.468828
v -0.067932 5.345695 -0.766366
v -0.450325 5.019363 -1.256926
v -0.530247 4.650756 -1.771268
v -0.449100 4.374855 -2.139684
v -0.223269 4.648789 -1.830663
v -0.094245 4.985553 -1.305582
v -0.265301 5.364435 -0.739399
v -0.090077 5.613050 -0.371970
v -0.150526 13.348053 -0.336800
v -0.377347 13.138731 -0.571022
v -0.438483 12.913583 -0.834377
v -0.406080 12.749607 -1.030669
v -0.273618 12.918613 -0.884746
v -0.183978 13.128044 -0.617216
v -0.257709 13.353976 -0.311197
v -0.148855 13.509996 -0.129422
v 0.173098 6.763188 0.663537
v 0.337898 6.771571 0.594754
v 0.772882 5.859897 1.758323
v 0.600566 6.447885 0.997823
v 0.113768 7.006555 0.318721
v 0.303248 6.432758 1.121920
v 0.770802 6.107897 1.422336
v 0.519766 6.118853 1.544457
v -0.648084 8.373844 -0.575868
v -1.179687 8.130492 -0.663628
v -1.546373 7.860285 -0.947757
v -1.726834 7.659854 -1.234137
v -1.398243 7.870088 -1.165061
v -0.997138 8.113863 -0.905924
v -0.749270 8.383060 -0.441569
v -0.417343 8.566382 -0.309648
v 0.649301 9.149636 -0.025906
v 1.115481 8.837701 -0.292167
v 1.567960 8.501345 -0.289090
v 1.876406 8.255994 -0.165181
v 1.585785 8.512183 -0.013484
v 1.117785 8.822735 0.026560
v 0.648026 9.157930 -0.202571
v 0.311331 9.390404 -0.100696
v -0.067913 5.345984 -0.766558
v -0.450361 5.019651 -1.257115
v -0.530303 4.651028 -1.771476
v -0.449170 4.375116 -2.139899
v -0.223269 4.649063 -1.830873
v -0.094213 4.985837 -1.305777
v -0.265317 5.364727 -0.739586
v -0.090075 5.613342 -0.372160
v -0.150543 13.348330 -0.337011
v -0.377418 13.139002 -0.571225
v -0.438574 12.913836 -0.834595
v -0.406187 12.749846 -1.030893
v -0.273655 12.918873 -0.884972
v -0.183981 13.128317 -0.617432
v -0.257760 13.354254 -0.311400
v -0.148890 13.510273 -0.129631
v 0.173145 6.763475 0.663728
v 0.337976 6.771860 0.594932
v 0.773019 5.860151 1.758513
v 0.600665 6.448168 0.997998
v 0.113831 7.006844 0.318906
v 0.303281 6.433041 1.122118
v 0.770923 6.108162 1.422524
v 0.519834 6.119123 1.544661
v -0.648192 8.374150 -0.575992
v -1.179832 8.130795 -0.663712
v -1.546546 7.860573 -0.947842
v -1.727022 7.660132 -1.234218
v -1.398378 7.870379 -1.165186
v -0.997239 8.114164 -0.906060
v -0.749399 8.383368 -0.441665
v -0.417462 8.566690 -0.309759
v 0.649495 9.149923 -0.025876
v 1.115680 8.837983 -0.292192
v 1.568179 8.501610 -0.289131
v 1.876635 8.256248 -0.165236
v 1.585999 8.512454 -0.013470
v 1.117980 8.823018 0.026604
v 0.648221 9.158218 -0.202576
v 0.311527 9.390692 -0.100684
vt 0.8144 0.3490
vt 0.8165 0.3418
vt 0.8186 0.3459
vt 0.8165 0.3562
vt 0.8177 0.3336
vt 0.8210 0.3356
vt 0.8084 0.3121
vt 0.8023 0.3121
vt 0.7995 0.2989
vt 0.8069 0.2989
vt 0.7982 0.2888
vt 0.8040 0.2888
vt 0.8293 0.2989
vt 0.8248 0.2888
vt 0.8305 0.2888
vt 0.8092 0.2909
vt 0.8086 0.2787
vt 0.8115 0.2828
vt 0.8144 0.2763
vt 0.8115 0.2696
vt 0.7964 0.3043
vt 0.8235 0.3253
vt 0.8264 0.3121
vt 0.8296 0.3172
vt 0.8196 0.2909
vt 0.8144 0.2930
vt 0.8144 0.2870
vt 0.8173 0.2828
vt 0.8204 0.3121
vt 0.8144 0.3121
vt 0.8144 0.2989
vt 0.8219 0.2989
vt 0.8110 0.3336
vt 0.8144 0.3315
vt 0.8144 0.3377
vt 0.8123 0.3418
vt 0.6872 0.3490
vt 0.6893 0.3418
vt 0.6914 0.3459
vt 0.6893 0.3562
vt 0.6905 0.3336
vt 0.6939 0.3356
vt 0.6812 0.3121
vt 0.6751 0.3121
vt 0.6723 0.2989
vt 0.6797 0.2989
vt 0.6710 0.2888
vt 0.6768 0.2888
vt 0.7021 0.2989
vt 0.6975 0.2888
vt 0.7033 0.2888
vt 0.6820 0.2909
vt 0.6814 0.2787
vt 0.6843 0.2828
vt 0.6872 0.2763
vt 0.6843 0.2696
vt 0.6691 0.3043
vt 0.6963 0.3253
vt 0.6992 0.3121
vt 0.7024 0.3172
vt 0.6924 0.2909
vt 0.6872 0.2930
vt 0.6872 0.2870
vt 0.6901 0.2828
vt 0.6932 0.3121
vt 0.6872 0.3121
vt 0.6872 0.2989
vt 0.6946 0.2989
vt 0.6839 0.3336
vt 0.6872 0.3315
vt 0.6872 0.3377
vt 0.6851 0.3418
vt 0.8092 0.2909
vt 0.8040 0.2888
vt 0.8086 0.2787
vt 0.8115 0.2828
vt 0.7995 0.2989
vt 0.8023 0.3121
vt 0.7964 0.3043
vt 0.8196 0.2909
vt 0.8144 0.2930
vt 0.8144 0.2870
vt 0.8173 0.2828
vt 0.8293 0.2989
vt 0.8248 0.2888
vt 0.8305 0.2888
vt 0.8084 0.3121
vt 0.8069 0.2989
vt 0.7982 0.2888
vt 0.8144 0.3490
vt 0.8165 0.3418
vt 0.8186 0.3459
vt 0.8165 0.3562
vt 0.8204 0.3121
vt 0.8144 0.3121
vt 0.8144 0.2989
vt 0.8219 0.2989
vt 0.8144 0.2763
vt 0.8115 0.2696
vt 0.8177 0.3336
vt 0.8210 0.3356
vt 0.8235 0.3253
vt 0.8264 0.3121
vt 0.8296 0.3172
vt 0.8110 0.3336
vt 0.8144 0.3315
vt 0.8144 0.3377
vt 0.8123 0.3418
vt 0.9351 0.3490
vt 0.9372 0.3418
vt 0.9393 0.3459
vt 0.9372 0.3562
vt 0.9384 0.3336
vt 0.9418 0.3356
vt 0.9291 0.3121
vt 0.9232 0.3121
vt 0.9203 0.2989
vt 0.9277 0.2989
vt 0.9190 0.2888
vt 0.9248 0.2888
vt 0.9500 0.2989
vt 0.9455 0.2888
vt 0.9513 0.2888
vt 0.9299 0.2909
vt 0.9293 0.2787
vt 0.9322 0.2828
vt 0.9351 0.2763
vt 0.9322 0.2696
vt 0.9171 0.3043
vt 0.9443 0.3253
vt 0.9471 0.3121
vt 0.9503 0.3172
vt 0.9403 0.2909
vt 0.9351 0.2930
vt 0.9351 0.2870
vt 0.9381 0.2828
vt 0.9411 0.3121
vt 0.9351 0.3121
vt 0.9351 0.2989
vt 0.9426 0.2989
vt 0.9318 0.3336
vt 0.9351 0.3315
vt 0.9351 0.3377
vt 0.9331 0.3418
vt 0.9351 0.3490
vt 0.9372 0.3418
vt 0.9393 0.3459
vt 0.9372 0.3562
vt 0.9384 0.3336
vt 0.9418 0.3356
vt 0.9291 0.3121
vt 0.9232 0.3121
vt 0.9203 0.2989
vt 0.9277 0.2989
vt 0.9190 0.2888
vt 0.9248 0.2888
vt 0.9500 0.2989
vt 0.9455 0.2888
vt 0.9513 0.2888
vt 0.9299 0.2909
vt 0.9293 0.2787
vt 0.9322 0.2828
vt 0.9351 0.2763
vt 0.9322 0.2696
vt 0.9171 0.3043
vt 0.9443 0.3253
vt 0.9471 0.3121
vt 0.9503 0.3172
vt 0.9403 0.2909
vt 0.9351 0.2930
vt 0.9351 0.2870
vt 0.9381 0.2828
vt 0.9411 0.3121
vt 0.9351 0.3121
vt 0.9351 0.2989
vt 0.9426 0.2989
vt 0.9318 0.3336
vt 0.9351 0.3315
vt 0.9351 0.3377
vt 0.9331 0.3418
vt 0.8144 0.3490
vt 0.8165 0.3418
vt 0.8144 0.3377
vt 0.8123 0.3418
vt 0.8177 0.3336
vt 0.8210 0.3356
vt 0.8235 0.3253
vt 0.8189 0.3253
vt 0.8084 0.3121
vt 0.8023 0.3121
vt 0.8052 0.3253
vt 0.8098 0.3253
vt 0.8086 0.2787
vt 0.8027 0.2787
vt 0.8040 0.2888
vt 0.8318 0.2787
vt 0.8260 0.2787
vt 0.8305 0.2888
vt 0.8092 0.2909
vt 0.7995 0.2989
vt 0.8069 0.2989
vt 0.8144 0.2763
vt 0.8115 0.2828
vt 0.8144 0.2870
vt 0.8173 0.2828
vt 0.7932 0.3096
vt 0.7992 0.3174
vt 0.7964 0.3043
vt 0.8356 0.3091
vt 0.8325 0.3040
vt 0.8296 0.3172
vt 0.8196 0.2909
vt 0.8144 0.2930
vt 0.8144 0.2989
vt 0.8219 0.2989
vt 0.8204 0.3121
vt 0.8144 0.3121
vt 0.8144 0.3253
vt 0.8110 0.3336
vt 0.8144 0.3315
vt 0.6872 0.3490
vt 0.6893 0.3418
vt 0.6872 0.3377
vt 0.6851 0.3418
vt 0.6905 0.3336
vt 0.6939 0.3356
vt 0.6963 0.3253
vt 0.6918 0.3253
vt 0.6812 0.3121
vt 0.6751 0.3121
vt 0.6780 0.3253
vt 0.6826 0.3253
vt 0.6814 0.2787
vt 0.6755 0.2787
vt 0.6768 0.2888
vt 0.7046 0.2787
vt 0.6988 0.2787
vt 0.7033 0.2888
vt 0.6820 0.2909
vt 0.6723 0.2989
vt 0.6797 0.2989
vt 0.6872 0.2763
vt 0.6843 0.2828
vt 0.6872 0.2870
vt 0.6901 0.2828
vt 0.6660 0.3096
vt 0.6720 0.3174
vt 0.6691 0.3043
vt 0.7084 0.3091
vt 0.7053 0.3040
vt 0.7024 0.3172
vt 0.6924 0.2909
vt 0.6872 0.2930
vt 0.6872 0.2989
vt 0.6946 0.2989
vt 0.6932 0.3121
vt 0.6872 0.3121
vt 0.6872 0.3253
vt 0.6839 0.3336
vt 0.6872 0.3315
vt 0.8092 0.2909
vt 0.8040 0.2888
vt 0.7995 0.2989
vt 0.8069 0.2989
vt 0.7932 0.3096
vt 0.7992 0.3174
vt 0.7964 0.3043
vt 0.8196 0.2909
vt 0.8144 0.2930
vt 0.8144 0.2989
vt 0.8219 0.2989
vt 0.8318 0.2787
vt 0.8260 0.2787
vt 0.8305 0.2888
vt 0.8084 0.3121
vt 0.8023 0.3121
vt 0.8052 0.3253
vt 0.8098 0.3253
vt 0.8086 0.2787
vt 0.8027 0.2787
vt 0.8144 0.3490
vt 0.8165 0.3418
vt 0.8144 0.3377
vt 0.8123 0.3418
vt 0.8204 0.3121
vt 0.8144 0.3121
vt 0.8144 0.3253
vt 0.8189 0.3253
vt 0.8144 0.2763
vt 0.8115 0.2828
vt 0.8144 0.2870
vt 0.8173 0.2828
vt 0.8177 0.3336
vt 0.8210 0.3356
vt 0.8235 0.3253
vt 0.8356 0.3091
vt 0.8325 0.3040
vt 0.8296 0.3172
vt 0.8110 0.3336
vt 0.8144 0.3315
vt 0.9351 0.3490
vt 0.9372 0.3418
vt 0.9351 0.3377
vt 0.9331 0.3418
vt 0.9384 0.3336
vt 0.9418 0.3356
vt 0.9443 0.3253
vt 0.9397 0.3253
vt 0.9291 0.3121
vt 0.9232 0.3121
vt 0.9260 0.3253
vt 0.9305 0.3253
vt 0.9293 0.2787
vt 0.9235 0.2787
vt 0.9248 0.2888
vt 0.9526 0.2787
vt 0.9468 0.2787
vt 0.9513 0.2888
vt 0.9299 0.2909
vt 0.9203 0.2989
vt 0.9277 0.2989
vt 0.9351 0.2763
vt 0.9322 0.2828
vt 0.9351 0.2870
vt 0.9381 0.2828
vt 0.9139 0.3096
vt 0.9200 0.3174
vt 0.9171 0.3043
vt 0.9564 0.3091
vt 0.9532 0.3040
vt 0.9503 0.3172
vt 0.9403 0.2909
vt 0.9351 0.2930
vt 0.9351 0.2989
vt 0.9426 0.2989
vt 0.9411 0.3121
vt 0.9351 0.3121
vt 0.9351 0.3253
vt 0.9318 0.3336
vt 0.9351 0.3315
vt 0.9351 0.3490
vt 0.9372 0.3418
vt 0.9351 0.3377
vt 0.9331 0.3418
vt 0.9384 0.3336
vt 0.9418 0.3356
vt 0.9443 0.3253
vt 0.9397 0.3253
vt 0.9291 0.3121
vt 0.9232 0.3121
vt 0.9260 0.3253
vt 0.9305 0.3253
vt 0.9293 0.2787
vt 0.9235 0.2787
vt 0.9248 0.2888
vt 0.9526 0.2787
vt 0.9468 0.2787
vt 0.9513 0.2888
vt 0.9299 0.2909
vt 0.9203 0.2989
vt 0.9277 0.2989
vt 0.9351 0.2763
vt 0.9322 0.2828
vt 0.9351 0.2870
vt 0.9381 0.2828
vt 0.9139 0.3096
vt 0.9200 0.3174
vt 0.9171 0.3043
vt 0.9564 0.3091
vt 0.9532 0.3040
vt 0.9503 0.3172
vt 0.9403 0.2909
vt 0.9351 0.2930
vt 0.9351 0.2989
vt 0.9426 0.2989
vt 0.9411 0.3121
vt 0.9351 0.3121
vt 0.9351 0.3253
vt 0.9318 0.3336
vt 0.9351 0.3315
vt 0.9677 0.9081
vt 0.9611 0.9081
vt 0.9611 0.9079
vt 0.9677 0.9077
vt 0.9676 0.9088
vt 0.9611 0.9085
vt 0.9612 0.9083
vt 0.9676 0.9085
vt 0.9610 0.9265
vt 0.9611 0.9263
vt 0.9612 0.9265
vt 0.9676 0.9073
vt 0.9611 0.9077
vt 0.9610 0.9075
vt 0.9676 0.9069
vt 0.9656 0.9124
vt 0.9701 0.9121
vt 0.9702 0.9124
vt 0.9657 0.9128
vt 0.9656 0.9106
vt 0.9701 0.9109
vt 0.9701 0.9112
vt 0.9656 0.9110
vt 0.9656 0.9115
vt 0.9701 0.9115
vt 0.9701 0.9118
vt 0.9656 0.9119
vt 0.9610 0.9240
vt 0.9612 0.9238
vt 0.9613 0.9240
vt 0.9420 0.9137
vt 0.9416 0.9400
vt 0.9404 0.9400
vt 0.9405 0.9135
vt 0.9506 0.9137
vt 0.9488 0.9403
vt 0.9476 0.9402
vt 0.9492 0.9133
vt 0.9448 0.9140
vt 0.9440 0.9401
vt 0.9428 0.9400
vt 0.9435 0.9139
vt 0.9392 0.9135
vt 0.9392 0.9400
vt 0.9380 0.9400
vt 0.9380 0.9135
vt 0.9477 0.9137
vt 0.9464 0.9402
vt 0.9452 0.9401
vt 0.9462 0.9140
vt 0.9575 0.9422
vt 0.9579 0.9428
vt 0.9582 0.9610
vt 0.9579 0.9603
vt 0.9602 0.9421
vt 0.9607 0.9424
vt 0.9603 0.9596
vt 0.9599 0.9600
vt 0.9583 0.9431
vt 0.9586 0.9433
vt 0.9590 0.9614
vt 0.9586 0.9612
vt 0.9563 0.9420
vt 0.9570 0.9416
vt 0.9576 0.9596
vt 0.9573 0.9597
vt 0.9592 0.9426
vt 0.9597 0.9418
vt 0.9596 0.9604
vt 0.9593 0.9609
vt 0.9276 0.9121
vt 0.9259 0.9375
vt 0.9236 0.9367
vt 0.9250 0.9116
vt 0.9242 0.9636
vt 0.9225 0.9898
vt 0.9207 0.9905
vt 0.9222 0.9636
vt 0.9118 0.9120
vt 0.9120 0.9376
vt 0.9095 0.9376
vt 0.9090 0.9120
vt 0.9125 0.9636
vt 0.9130 0.9895
vt 0.9117 0.9896
vt 0.9106 0.9636
vt 0.9224 0.9119
vt 0.9214 0.9374
vt 0.9191 0.9382
vt 0.9198 0.9123
vt 0.9203 0.9640
vt 0.9193 0.9905
vt 0.9178 0.9904
vt 0.9184 0.9643
vt 0.9327 0.9128
vt 0.9304 0.9383
vt 0.9282 0.9383
vt 0.9302 0.9126
vt 0.9283 0.9640
vt 0.9261 0.9896
vt 0.9244 0.9890
vt 0.9263 0.9636
vt 0.9172 0.9121
vt 0.9168 0.9378
vt 0.9145 0.9375
vt 0.9146 0.9119
vt 0.9164 0.9639
vt 0.9160 0.9900
vt 0.9142 0.9895
vt 0.9144 0.9635
vt 0.9452 0.9590
vt 0.9462 0.9589
vt 0.9448 0.9776
vt 0.9439 0.9778
vt 0.9590 0.9055
vt 0.9598 0.9049
vt 0.9598 0.9232
vt 0.9590 0.9243
vt 0.9396 0.9587
vt 0.9405 0.9587
vt 0.9407 0.9774
vt 0.9400 0.9774
vt 0.9552 0.9054
vt 0.9561 0.9051
vt 0.9564 0.9236
vt 0.9553 0.9244
vt 0.9433 0.9590
vt 0.9441 0.9590
vt 0.9431 0.9780
vt 0.9425 0.9780
vt 0.9578 0.9060
vt 0.9582 0.9061
vt 0.9583 0.9253
vt 0.9579 0.9250
vt 0.9471 0.9589
vt 0.9480 0.9590
vt 0.9460 0.9776
vt 0.9454 0.9776
vt 0.9604 0.9053
vt 0.9610 0.9058
vt 0.9610 0.9252
vt 0.9604 0.9242
vt 0.9414 0.9589
vt 0.9424 0.9590
vt 0.9419 0.9781
vt 0.9413 0.9778
vt 0.9567 0.9055
vt 0.9573 0.9060
vt 0.9576 0.9247
vt 0.9570 0.9241
vt 0.9616 0.9223
vt 0.9618 0.9220
vt 0.9622 0.9228
vt 0.9620 0.9232
vt 0.9610 0.9228
vt 0.9610 0.9223
vt 0.9614 0.9232
vt 0.9614 0.9226
vt 0.9617 0.9235
vt 0.9610 0.9217
vt 0.9613 0.9215
vt 0.9615 0.9213
vt 0.9558 0.8865
vt 0.9564 0.8868
vt 0.9570 0.8872
vt 0.9598 0.8865
vt 0.9604 0.8864
vt 0.9610 0.8864
vt 0.9499 0.9404
vt 0.9576 0.8871
vt 0.9582 0.8870
vt 0.9542 0.9058
vt 0.9542 0.9252
vt 0.9543 0.8864
vt 0.9550 0.8864
vt 0.9387 0.9587
vt 0.9393 0.9774
vt 0.9590 0.8867
vt 0.9177 0.8864
vt 0.9148 0.8864
vt 0.9206 0.8864
vt 0.9327 0.9384
vt 0.9302 0.9643
vt 0.9278 0.9902
vt 0.9351 0.8872
vt 0.9321 0.8869
vt 0.9380 0.8875
vt 0.9354 0.9129
vt 0.9234 0.8864
vt 0.9263 0.8865
vt 0.9117 0.8864
vt 0.9086 0.8864
vt 0.9292 0.8867
vt 0.9556 0.9425
vt 0.9570 0.9598
vt 0.9489 0.8871
vt 0.9471 0.8879
vt 0.9508 0.8864
vt 0.9392 0.8870
vt 0.9380 0.8870
vt 0.9405 0.8870
vt 0.9456 0.8879
vt 0.9442 0.8879
vt 0.9525 0.8870
vt 0.9542 0.8876
vt 0.9520 0.9140
vt 0.9424 0.8874
vt 0.9614 0.9238
vt 0.9616 0.9240
vt 0.9613 0.9235
vt 0.9610 0.9115
vt 0.9610 0.9121
vt 0.9610 0.9109
vt 0.9611 0.9103
vt 0.9612 0.9098
vt 0.9657 0.9102
vt 0.9702 0.9106
vt 0.9611 0.9126
vt 0.9612 0.9132
vt 0.9742 0.9069
vt 0.9741 0.9064
vt 0.9743 0.9075
vt 0.9613 0.9263
vt 0.9614 0.9265
vt 0.9612 0.9262
vt 0.9741 0.9092
vt 0.9741 0.9086
vt 0.9741 0.9098
vt 0.9676 0.9092
vt 0.9610 0.9086
vt 0.9742 0.9081
vt 0.9285 0.3356
vt 0.9310 0.3459
vt 0.9471 0.3121
vt 0.9500 0.2989
vt 0.9455 0.2888
vt 0.9410 0.2787
vt 0.9381 0.2696
vt 0.9351 0.2606
vt 0.9322 0.2696
vt 0.9190 0.2888
vt 0.9177 0.2787
vt 0.9393 0.3459
vt 0.9331 0.3562
vt 0.9351 0.3666
vt 0.9372 0.3562
vt 0.9285 0.3356
vt 0.9310 0.3459
vt 0.9471 0.3121
vt 0.9500 0.2989
vt 0.9455 0.2888
vt 0.9410 0.2787
vt 0.9381 0.2696
vt 0.9351 0.2606
vt 0.9322 0.2696
vt 0.9190 0.2888
vt 0.9177 0.2787
vt 0.9393 0.3459
vt 0.9331 0.3562
vt 0.9351 0.3666
vt 0.9372 0.3562
vt 0.8077 0.3356
vt 0.8102 0.3459
vt 0.8264 0.3121
vt 0.8293 0.2989
vt 0.8186 0.3459
vt 0.8173 0.2696
vt 0.8202 0.2787
vt 0.8144 0.2606
vt 0.8115 0.2696
vt 0.8123 0.3562
vt 0.8144 0.3666
vt 0.8165 0.3562
vt 0.7982 0.2888
vt 0.7969 0.2787
vt 0.8248 0.2888
vt 0.6805 0.3356
vt 0.6830 0.3459
vt 0.6992 0.3121
vt 0.7021 0.2989
vt 0.6975 0.2888
vt 0.6930 0.2787
vt 0.6901 0.2696
vt 0.6872 0.2606
vt 0.6843 0.2696
vt 0.6710 0.2888
vt 0.6697 0.2787
vt 0.6914 0.3459
vt 0.6851 0.3562
vt 0.6872 0.3666
vt 0.6893 0.3562
vt 0.8077 0.3356
vt 0.8102 0.3459
vt 0.8264 0.3121
vt 0.8293 0.2989
vt 0.8248 0.2888
vt 0.8202 0.2787
vt 0.8173 0.2696
vt 0.8144 0.2606
vt 0.8115 0.2696
vt 0.7982 0.2888
vt 0.7969 0.2787
vt 0.8186 0.3459
vt 0.8123 0.3562
vt 0.8144 0.3666
vt 0.8165 0.3562
vt 0.9285 0.3356
vt 0.9310 0.3459
vt 0.9260 0.3253
vt 0.9305 0.3253
vt 0.9351 0.3253
vt 0.9397 0.3253
vt 0.9410 0.2787
vt 0.9532 0.3040
vt 0.9564 0.3091
vt 0.9200 0.3174
vt 0.9139 0.3096
vt 0.9381 0.2696
vt 0.9351 0.2606
vt 0.9468 0.2787
vt 0.9526 0.2787
vt 0.9235 0.2787
vt 0.9177 0.2787
vt 0.9331 0.3562
vt 0.9351 0.3666
vt 0.9285 0.3356
vt 0.9310 0.3459
vt 0.9260 0.3253
vt 0.9305 0.3253
vt 0.9351 0.3253
vt 0.9397 0.3253
vt 0.9410 0.2787
vt 0.9532 0.3040
vt 0.9564 0.3091
vt 0.9200 0.3174
vt 0.9139 0.3096
vt 0.9381 0.2696
vt 0.9351 0.2606
vt 0.9468 0.2787
vt 0.9526 0.2787
vt 0.9235 0.2787
vt 0.9177 0.2787
vt 0.9331 0.3562
vt 0.9351 0.3666
vt 0.8077 0.3356
vt 0.8102 0.3459
vt 0.8052 0.3253
vt 0.8098 0.3253
vt 0.8144 0.3253
vt 0.8325 0.3040
vt 0.8356 0.3091
vt 0.8189 0.3253
vt 0.8173 0.2696
vt 0.8144 0.2606
vt 0.8202 0.2787
vt 0.8123 0.3562
vt 0.8144 0.3666
vt 0.8027 0.2787
vt 0.7969 0.2787
vt 0.8260 0.2787
vt 0.8318 0.2787
vt 0.7992 0.3174
vt 0.7932 0.3096
vt 0.6805 0.3356
vt 0.6830 0.3459
vt 0.6780 0.3253
vt 0.6826 0.3253
vt 0.6872 0.3253
vt 0.6918 0.3253
vt 0.6930 0.2787
vt 0.7053 0.3040
vt 0.7084 0.3091
vt 0.6720 0.3174
vt 0.6660 0.3096
vt 0.6901 0.2696
vt 0.6872 0.2606
vt 0.6988 0.2787
vt 0.7046 0.2787
vt 0.6755 0.2787
vt 0.6697 0.2787
vt 0.6851 0.3562
vt 0.6872 0.3666
vt 0.8077 0.3356
vt 0.8102 0.3459
vt 0.8052 0.3253
vt 0.8098 0.3253
vt 0.8144 0.3253
vt 0.8189 0.3253
vt 0.8202 0.2787
vt 0.8325 0.3040
vt 0.8356 0.3091
vt 0.7992 0.3174
vt 0.7932 0.3096
vt 0.8173 0.2696
vt 0.8144 0.2606
vt 0.8260 0.2787
vt 0.8318 0.2787
vt 0.8027 0.2787
vt 0.7969 0.2787
vt 0.8123 0.3562
vt 0.8144 0.3666
vn 0.5564 0.8302 0.0350
vn 0.5649 0.8248 -0.0224
vn 0.5608 0.8279 -0.0097
vn 0.5550 0.8313 0.0312
vn 0.5690 0.8180 -0.0849
vn 0.5715 0.8148 -0.0979
vn 0.5411 0.8239 0.1683
vn 0.4908 0.8090 0.3234
vn 0.5566 0.7943 0.2435
vn 0.5594 0.8131 0.1609
vn 0.6300 0.6906 0.3553
vn 0.6174 0.7377 0.2733
vn 0.6094 0.7778 -0.1538
vn 0.7091 0.6974 -0.1040
vn 0.7057 0.7085 0.0064
vn 0.5886 0.7933 0.1558
vn 0.6566 0.7482 0.0955
vn 0.6596 0.7513 -0.0220
vn 0.6529 0.7167 -0.2450
vn 0.6204 0.7426 -0.2522
vn 0.4557 0.7813 0.4264
vn 0.5329 0.8308 -0.1603
vn 0.4898 0.8337 -0.2550
vn 0.4259 0.8193 -0.3839
vn 0.6654 0.7147 -0.2153
vn 0.6097 0.7913 -0.0467
vn 0.6430 0.7535 -0.1369
vn 0.6797 0.6730 -0.2917
vn 0.5419 0.8343 -0.1015
vn 0.5520 0.8332 0.0330
vn 0.5749 0.8181 0.0115
vn 0.6015 0.7893 -0.1229
vn 0.5707 0.8068 0.1530
vn 0.5701 0.8209 0.0344
vn 0.5696 0.8212 0.0344
vn 0.5658 0.8195 0.0914
vn -0.3379 0.8867 -0.3155
vn -0.3802 0.8829 -0.2756
vn -0.3690 0.8853 -0.2829
vn -0.3390 0.8877 -0.3115
vn -0.4222 0.8771 -0.2290
vn -0.4325 0.8743 -0.2204
vn -0.2449 0.8776 -0.4120
vn -0.1120 0.8558 -0.5050
vn -0.2139 0.8492 -0.4828
vn -0.2648 0.8690 -0.4180
vn -0.2129 0.7534 -0.6222
vn -0.2487 0.7995 -0.5468
vn -0.4999 0.8423 -0.2016
vn -0.5553 0.7730 -0.3066
vn -0.4840 0.7828 -0.3912
vn -0.2928 0.8526 -0.4329
vn -0.3873 0.8159 -0.4294
vn -0.4612 0.8204 -0.3380
vn -0.5956 0.7873 -0.1596
vn -0.5720 0.8095 -0.1326
vn -0.0240 0.8235 -0.5669
vn -0.4388 0.8865 -0.1467
vn -0.4626 0.8854 -0.0453
vn -0.4926 0.8651 0.0947
vn -0.5875 0.7864 -0.1909
vn -0.4334 0.8548 -0.2856
vn -0.5182 0.8218 -0.2369
vn -0.6493 0.7472 -0.1417
vn -0.4096 0.8904 -0.1984
vn -0.3353 0.8893 -0.3110
vn -0.3680 0.8770 -0.3089
vn -0.4737 0.8526 -0.2206
vn -0.2792 0.8640 -0.4189
vn -0.3499 0.8790 -0.3239
vn -0.3495 0.8793 -0.3236
vn -0.3117 0.8766 -0.3665
vn 0.0786 0.7933 0.6037
vn -0.0193 0.7377 0.6749
vn 0.1601 0.7482 0.6439
vn 0.2701 0.7513 0.6022
vn -0.0147 0.7943 0.6074
vn -0.1136 0.8090 0.5767
vn -0.2222 0.7813 0.5832
vn 0.4512 0.7147 0.5344
vn 0.2740 0.7913 0.5466
vn 0.3701 0.7535 0.5433
vn 0.5273 0.6730 0.5187
vn 0.3730 0.7778 0.5059
vn 0.3647 0.6974 0.6170
vn 0.2612 0.7085 0.6556
vn 0.0490 0.8239 0.5646
vn 0.0628 0.8131 0.5787
vn -0.0904 0.6906 0.7176
vn 0.1782 0.8302 0.5282
vn 0.2346 0.8248 0.5144
vn 0.2213 0.8279 0.5154
vn 0.1812 0.8313 0.5255
vn 0.2990 0.8343 0.4632
vn 0.1783 0.8332 0.5234
vn 0.2070 0.8181 0.5365
vn 0.3414 0.7893 0.5103
vn 0.4739 0.7167 0.5116
vn 0.4682 0.7426 0.4788
vn 0.2939 0.8180 0.4945
vn 0.3070 0.8148 0.4919
vn 0.3501 0.8308 0.4326
vn 0.4214 0.8337 0.3568
vn 0.5166 0.8193 0.2489
vn 0.0744 0.8068 0.5861
vn 0.1839 0.8209 0.5407
vn 0.1837 0.8212 0.5403
vn 0.1295 0.8195 0.5583
vn -0.0980 0.7980 -0.5946
vn -0.1557 0.7926 -0.5896
vn -0.1425 0.7957 -0.5886
vn -0.1013 0.7992 -0.5924
vn -0.2174 0.7859 -0.5789
vn -0.2307 0.7826 -0.5782
vn 0.0354 0.7917 -0.6098
vn 0.1980 0.7786 -0.5954
vn 0.1053 0.7608 -0.6404
vn 0.0241 0.7800 -0.6253
vn 0.1981 0.6525 -0.7314
vn 0.1208 0.7007 -0.7031
vn -0.2935 0.7440 -0.6003
vn -0.2672 0.6579 -0.7041
vn -0.1590 0.6685 -0.7265
vn 0.0126 0.7586 -0.6514
vn -0.0613 0.7102 -0.7013
vn -0.1765 0.7139 -0.6776
vn -0.3918 0.6812 -0.6184
vn -0.3916 0.7089 -0.5866
vn 0.3064 0.7523 -0.5833
vn -0.2827 0.8012 -0.5274
vn -0.3652 0.8071 -0.4640
vn -0.4760 0.7970 -0.3718
vn -0.3658 0.6783 -0.6372
vn -0.1894 0.7568 -0.6257
vn -0.2845 0.7178 -0.6354
vn -0.4431 0.6363 -0.6314
vn -0.2275 0.8038 -0.5497
vn -0.0988 0.8013 -0.5901
vn -0.1249 0.7851 -0.6067
vn -0.2617 0.7558 -0.6003
vn 0.0138 0.7731 -0.6341
vn -0.1015 0.7880 -0.6073
vn -0.1014 0.7883 -0.6069
vn -0.0450 0.7864 -0.6160
vn 0.0056 0.8400 -0.5426
vn -0.0526 0.8375 -0.5439
vn -0.0394 0.8399 -0.5414
vn 0.0021 0.8412 -0.5407
vn -0.1153 0.8337 -0.5401
vn -0.1287 0.8311 -0.5410
vn 0.1393 0.8271 -0.5445
vn 0.2986 0.8038 -0.5146
vn 0.2105 0.7943 -0.5699
vn 0.1292 0.8171 -0.5619
vn 0.3068 0.6871 -0.6586
vn 0.2295 0.7377 -0.6349
vn -0.1907 0.7977 -0.5721
vn -0.1579 0.7173 -0.6786
vn -0.0475 0.7232 -0.6890
vn 0.1194 0.7982 -0.5905
vn 0.0489 0.7575 -0.6510
vn -0.0678 0.7662 -0.6390
vn -0.2896 0.7420 -0.6046
vn -0.2913 0.7675 -0.5711
vn 0.4037 0.7705 -0.4933
vn -0.1848 0.8493 -0.4945
vn -0.2731 0.8556 -0.4397
vn -0.3935 0.8458 -0.3602
vn -0.2619 0.7389 -0.6209
vn -0.0840 0.8061 -0.5857
vn -0.1794 0.7734 -0.6079
vn -0.3414 0.7011 -0.6260
vn -0.1275 0.8502 -0.5108
vn 0.0044 0.8430 -0.5379
vn -0.0205 0.8294 -0.5583
vn -0.1585 0.8076 -0.5680
vn 0.1196 0.8114 -0.5722
vn 0.0029 0.8310 -0.5563
vn 0.0030 0.8313 -0.5558
vn 0.0599 0.8268 -0.5593
vn -0.5564 -0.8302 -0.0350
vn -0.5649 -0.8248 0.0224
vn -0.5696 -0.8212 -0.0344
vn -0.5658 -0.8195 -0.0914
vn -0.5690 -0.8180 0.0849
vn -0.5715 -0.8148 0.0979
vn -0.5329 -0.8308 0.1603
vn -0.5534 -0.8265 0.1032
vn -0.5411 -0.8239 -0.1683
vn -0.4908 -0.8090 -0.3234
vn -0.5357 -0.8125 -0.2300
vn -0.5553 -0.8136 -0.1722
vn -0.6566 -0.7482 -0.0955
vn -0.6443 -0.6792 -0.3514
vn -0.6174 -0.7377 -0.2734
vn -0.7157 -0.6978 -0.0276
vn -0.7156 -0.6983 0.0169
vn -0.7057 -0.7085 -0.0064
vn -0.5886 -0.7933 -0.1558
vn -0.5566 -0.7943 -0.2436
vn -0.5594 -0.8131 -0.1609
vn -0.6529 -0.7167 0.2450
vn -0.6596 -0.7513 0.0221
vn -0.6430 -0.7535 0.1369
vn -0.6797 -0.6730 0.2917
vn -0.4174 -0.7739 -0.4764
vn -0.4337 -0.7812 -0.4491
vn -0.4557 -0.7813 -0.4264
vn -0.4087 -0.8141 0.4127
vn -0.4583 -0.8158 0.3528
vn -0.4259 -0.8192 0.3840
vn -0.6654 -0.7147 0.2154
vn -0.6097 -0.7913 0.0467
vn -0.5749 -0.8181 -0.0115
vn -0.6015 -0.7893 0.1229
vn -0.5419 -0.8343 0.1015
vn -0.5520 -0.8332 -0.0330
vn -0.5596 -0.8280 -0.0348
vn -0.5707 -0.8068 -0.1530
vn -0.5701 -0.8209 -0.0344
vn 0.3379 -0.8867 0.3154
vn 0.3802 -0.8829 0.2756
vn 0.3495 -0.8793 0.3236
vn 0.3117 -0.8766 0.3665
vn 0.4222 -0.8771 0.2290
vn 0.4325 -0.8743 0.2204
vn 0.4388 -0.8865 0.1466
vn 0.4204 -0.8840 0.2045
vn 0.2449 -0.8776 0.4120
vn 0.1119 -0.8558 0.5051
vn 0.2040 -0.8651 0.4582
vn 0.2547 -0.8689 0.4244
vn 0.3873 -0.8159 0.4294
vn 0.2276 -0.7437 0.6286
vn 0.2487 -0.7995 0.5468
vn 0.4800 -0.7731 0.4147
vn 0.5070 -0.7739 0.3794
vn 0.4841 -0.7827 0.3911
vn 0.2928 -0.8526 0.4329
vn 0.2139 -0.8492 0.4828
vn 0.2648 -0.8690 0.4180
vn 0.5956 -0.7873 0.1596
vn 0.4612 -0.8204 0.3380
vn 0.5182 -0.8218 0.2369
vn 0.6493 -0.7472 0.1417
vn -0.0360 -0.8113 0.5835
vn -0.0072 -0.8206 0.5714
vn 0.0240 -0.8235 0.5669
vn 0.4971 -0.8582 -0.1276
vn 0.4994 -0.8649 -0.0501
vn 0.4927 -0.8651 -0.0947
vn 0.5875 -0.7864 0.1909
vn 0.4334 -0.8548 0.2856
vn 0.3680 -0.8770 0.3089
vn 0.4737 -0.8526 0.2206
vn 0.4096 -0.8904 0.1984
vn 0.3353 -0.8893 0.3110
vn 0.3407 -0.8850 0.3174
vn 0.2792 -0.8640 0.4189
vn 0.3499 -0.8790 0.3239
vn -0.0786 -0.7933 -0.6037
vn 0.0194 -0.7377 -0.6749
vn 0.0148 -0.7943 -0.6074
vn -0.0628 -0.8131 -0.5787
vn 0.2829 -0.7739 -0.5666
vn 0.2515 -0.7812 -0.5714
vn 0.2222 -0.7813 -0.5832
vn -0.4512 -0.7147 -0.5344
vn -0.2740 -0.7913 -0.5466
vn -0.2070 -0.8181 -0.5365
vn -0.3414 -0.7893 -0.5103
vn -0.2454 -0.6978 -0.6729
vn -0.2865 -0.6983 -0.6560
vn -0.2612 -0.7085 -0.6556
vn -0.0490 -0.8239 -0.5646
vn 0.1136 -0.8090 -0.5767
vn 0.0101 -0.8125 -0.5828
vn -0.0508 -0.8136 -0.5792
vn -0.1601 -0.7482 -0.6439
vn 0.0814 -0.6792 -0.7294
vn -0.1782 -0.8302 -0.5282
vn -0.2346 -0.8248 -0.5144
vn -0.1837 -0.8212 -0.5403
vn -0.1295 -0.8195 -0.5583
vn -0.2990 -0.8343 -0.4632
vn -0.1783 -0.8332 -0.5234
vn -0.1796 -0.8280 -0.5311
vn -0.3050 -0.8265 -0.4731
vn -0.4739 -0.7167 -0.5116
vn -0.2701 -0.7513 -0.6022
vn -0.3701 -0.7535 -0.5433
vn -0.5273 -0.6730 -0.5187
vn -0.2939 -0.8180 -0.4945
vn -0.3070 -0.8148 -0.4919
vn -0.3501 -0.8308 -0.4326
vn -0.5367 -0.8141 -0.2220
vn -0.5000 -0.8158 -0.2907
vn -0.5166 -0.8192 -0.2489
vn -0.0744 -0.8068 -0.5861
vn -0.1839 -0.8209 -0.5407
vn 0.0980 -0.7980 0.5946
vn 0.1557 -0.7926 0.5896
vn 0.1014 -0.7883 0.6069
vn 0.0450 -0.7864 0.6160
vn 0.2174 -0.7859 0.5789
vn 0.2307 -0.7826 0.5781
vn 0.2827 -0.8012 0.5274
vn 0.2318 -0.7954 0.5600
vn -0.0354 -0.7918 0.6098
vn -0.1980 -0.7786 0.5954
vn -0.0968 -0.7803 0.6179
vn -0.0361 -0.7806 0.6240
vn 0.0613 -0.7102 0.7013
vn -0.1912 -0.6404 0.7439
vn -0.1209 -0.7007 0.7031
vn 0.1406 -0.6571 0.7406
vn 0.1839 -0.6579 0.7303
vn 0.1590 -0.6685 0.7265
vn -0.0126 -0.7586 0.6514
vn -0.1053 -0.7608 0.6404
vn -0.0241 -0.7800 0.6253
vn 0.3919 -0.6812 0.6184
vn 0.1765 -0.7139 0.6776
vn 0.2845 -0.7178 0.6354
vn 0.4432 -0.6363 0.6314
vn -0.3639 -0.7466 0.5570
vn -0.3336 -0.7532 0.5670
vn -0.3065 -0.7522 0.5833
vn 0.5001 -0.7929 0.3481
vn 0.4530 -0.7915 0.4102
vn 0.4761 -0.7970 0.3717
vn 0.3658 -0.6783 0.6372
vn 0.1894 -0.7568 0.6257
vn 0.1249 -0.7851 0.6067
vn 0.2617 -0.7558 0.6003
vn 0.2275 -0.8038 0.5497
vn 0.0988 -0.8013 0.5901
vn 0.0988 -0.7957 0.5976
vn -0.0139 -0.7731 0.6341
vn 0.1015 -0.7880 0.6073
vn -0.0056 -0.8400 0.5426
vn 0.0526 -0.8375 0.5439
vn -0.0030 -0.8313 0.5558
vn -0.0599 -0.8268 0.5593
vn 0.1153 -0.8337 0.5401
vn 0.1287 -0.8311 0.5410
vn 0.1849 -0.8493 0.4945
vn 0.1311 -0.8427 0.5222
vn -0.1394 -0.8271 0.5445
vn -0.2987 -0.8038 0.5146
vn -0.2006 -0.8127 0.5471
vn -0.1409 -0.8169 0.5593
vn -0.0489 -0.7575 0.6510
vn -0.3006 -0.6763 0.6725
vn -0.2296 -0.7377 0.6349
vn 0.0284 -0.7117 0.7019
vn 0.0724 -0.7143 0.6961
vn 0.0475 -0.7232 0.6890
vn -0.1194 -0.7982 0.5905
vn -0.2105 -0.7943 0.5699
vn -0.1292 -0.8171 0.5619
vn 0.2896 -0.7420 0.6046
vn 0.0678 -0.7662 0.6390
vn 0.1794 -0.7734 0.6079
vn 0.3414 -0.7011 0.6260
vn -0.4577 -0.7598 0.4617
vn -0.4290 -0.7688 0.4743
vn -0.4037 -0.7705 0.4933
vn 0.4201 -0.8416 0.3395
vn 0.3669 -0.8416 0.3964
vn 0.3936 -0.8458 0.3602
vn 0.2619 -0.7389 0.6209
vn 0.0840 -0.8061 0.5857
vn 0.0205 -0.8294 0.5583
vn 0.1585 -0.8076 0.5680
vn 0.1275 -0.8502 0.5108
vn -0.0044 -0.8430 0.5379
vn -0.0050 -0.8379 0.5458
vn -0.1196 -0.8114 0.5722
vn -0.0029 -0.8310 0.5563
vn -0.2617 0.7983 0.5425
vn -0.4653 0.8838 -0.0490
vn -0.9063 0.0351 0.4212
vn -0.8866 0.0163 0.4623
vn 0.8669 0.0000 -0.4984
vn 0.2834 0.3685 -0.8854
vn 0.5832 0.8122 0.0117
vn 0.6038 0.7956 0.0495
vn -0.6180 -0.7810 -0.0901
vn -0.7690 -0.1558 -0.6200
vn 0.2232 -0.7469 -0.6264
vn 0.2470 -0.7767 -0.5795
vn 0.2328 -0.8207 0.5217
vn -0.1341 -0.2128 0.9679
vn -0.7007 -0.6906 0.1790
vn -0.6391 -0.7679 0.0428
vn -0.8787 0.0490 -0.4749
vn -0.8870 0.3730 0.2722
vn -0.3146 0.8739 -0.3707
vn -0.2590 0.8375 -0.4812
vn 0.6146 0.7888 -0.0024
vn 0.1459 0.8317 0.5357
vn 0.7846 0.0213 0.6197
vn 0.8557 -0.0317 0.5166
vn -0.3428 -0.0024 -0.9394
vn -0.3719 0.0240 -0.9280
vn 0.2182 0.0309 -0.9754
vn 0.2243 0.0086 -0.9745
vn 0.8541 0.0333 0.5191
vn 0.8738 0.0070 0.4863
vn 0.3965 0.0016 0.9180
vn 0.3908 0.0367 0.9197
vn -0.9998 0.0122 0.0166
vn -0.9971 0.0116 0.0754
vn -0.8431 0.0208 -0.5373
vn -0.8141 0.0040 -0.5807
vn 0.7456 0.0207 -0.6661
vn 0.7436 0.0304 -0.6679
vn 0.9929 0.0229 -0.1168
vn 0.9964 0.0325 -0.0778
vn -0.2211 0.0292 0.9748
vn -0.2419 -0.0015 0.9703
vn -0.7642 0.0061 0.6449
vn -0.7694 0.0254 0.6383
vn -0.4256 0.1126 -0.8979
vn -0.8781 0.0930 -0.4694
vn -0.8896 0.0982 -0.4460
vn -0.3769 0.1741 -0.9097
vn 0.9038 -0.0653 0.4229
vn 0.9880 -0.0142 -0.1539
vn 0.9904 0.0000 -0.1384
vn 0.8571 -0.0303 0.5143
vn -0.9838 0.0346 0.1761
vn -0.7453 -0.0215 0.6664
vn -0.7217 0.0008 0.6922
vn -0.9928 0.1020 -0.0628
vn 0.7560 0.0397 -0.6534
vn 0.2174 0.0933 -0.9716
vn 0.2182 0.0973 -0.9711
vn 0.5954 0.0917 -0.7981
vn -0.3222 -0.0673 0.9443
vn 0.3749 -0.0899 0.9227
vn 0.4029 -0.0918 0.9106
vn 0.0869 -0.0413 0.9954
vn -0.2074 0.0210 0.9780
vn -0.2133 0.0201 0.9768
vn -0.7623 0.0109 0.6472
vn -0.7528 0.0012 0.6583
vn -0.2160 0.0220 0.9761
vn -0.2202 0.0266 0.9751
vn -0.7729 0.0300 0.6339
vn -0.7665 0.0292 0.6416
vn 0.7417 0.0303 -0.6700
vn 0.7436 0.0181 -0.6683
vn 0.9980 0.0255 -0.0574
vn 0.9957 0.0412 -0.0833
vn 0.7457 0.0056 -0.6663
vn 0.7471 0.0121 -0.6646
vn 0.9979 0.0215 -0.0604
vn 0.9986 0.0090 -0.0526
vn -0.9978 -0.0136 0.0653
vn -0.9991 0.0090 0.0414
vn -0.8464 0.0146 -0.5324
vn -0.8655 -0.0094 -0.5008
vn -0.9995 0.0303 0.0125
vn -0.9997 0.0214 -0.0098
vn -0.7991 0.0164 -0.6010
vn -0.8178 0.0307 -0.5747
vn 0.8370 0.0423 0.5455
vn 0.8128 0.0251 0.5821
vn 0.3520 0.0232 0.9357
vn 0.3786 0.0373 0.9248
vn 0.8198 0.0101 0.5726
vn 0.8401 0.0219 0.5420
vn 0.3791 0.0254 0.9250
vn 0.3607 0.0163 0.9326
vn -0.4420 0.0006 -0.8970
vn -0.4052 0.0147 -0.9141
vn 0.2017 0.0194 -0.9793
vn 0.1900 0.0190 -0.9816
vn -0.3603 0.0247 -0.9325
vn -0.3315 0.0104 -0.9434
vn 0.2316 0.0130 -0.9727
vn 0.2212 0.0180 -0.9751
vn -0.3028 -0.0343 0.9524
vn 0.3914 -0.0385 0.9194
vn 0.3850 -0.0334 0.9223
vn -0.3654 -0.0427 0.9299
vn -0.3788 -0.0490 0.9242
vn 0.3604 -0.0290 0.9324
vn 0.3417 -0.0578 0.9380
vn -0.3566 -0.0584 0.9324
vn 0.7451 0.0409 -0.6657
vn 0.2362 0.0569 -0.9700
vn 0.2581 0.0652 -0.9639
vn 0.7473 0.0516 -0.6625
vn 0.7492 0.0601 -0.6596
vn 0.2496 0.0696 -0.9659
vn 0.2166 0.0794 -0.9730
vn 0.7504 0.0509 -0.6590
vn -0.9920 0.0089 0.1257
vn -0.7651 -0.0145 0.6438
vn -0.7736 -0.0293 0.6330
vn -0.9887 -0.0072 0.1497
vn -0.9880 -0.0182 0.1532
vn -0.7739 -0.0405 0.6320
vn -0.7707 -0.0296 0.6365
vn -0.9891 0.0100 0.1470
vn 0.9042 -0.0188 0.4266
vn 0.9877 0.0143 -0.1558
vn 0.9807 0.0287 -0.1933
vn 0.9293 -0.0031 0.3693
vn 0.9264 0.0101 0.3764
vn 0.9802 0.0413 -0.1937
vn 0.9851 0.0134 -0.1712
vn 0.9067 -0.0275 0.4208
vn -0.3707 0.0541 -0.9272
vn -0.8620 0.0383 -0.5054
vn -0.8661 0.0296 -0.4989
vn -0.3568 0.0565 -0.9325
vn -0.3824 0.0558 -0.9223
vn -0.8752 0.0235 -0.4832
vn -0.8786 0.0581 -0.4740
vn -0.4173 0.0827 -0.9050
vn -0.3684 0.5383 -0.7580
vn -0.1961 0.8975 -0.3950
vn -0.4546 -0.0025 -0.8907
vn 0.1919 0.0177 -0.9813
vn -0.8738 -0.0136 -0.4861
vn 0.8542 0.0420 0.5183
vn 0.3986 0.0378 0.9163
vn 0.9943 0.0415 -0.0980
vn -0.9965 -0.0172 0.0816
vn -0.7437 -0.0014 0.6685
vn 0.7416 0.0307 -0.6702
vn -0.2063 0.0185 0.9783
vn 0.6190 0.7854 -0.0034
vn 0.8647 -0.0111 0.5021
vn -0.2233 0.8499 -0.4774
vn -0.8752 0.0547 -0.4806
vn -0.6301 -0.7755 0.0404
vn 0.2419 -0.8187 0.5207
vn -0.6245 -0.7768 -0.0818
vn 0.2079 -0.7993 -0.5638
vn -0.8893 -0.0069 0.4573
vn 0.8673 -0.0031 -0.4977
vn 0.5920 0.8032 0.0660
vn -0.2696 0.7929 0.5465
vn -0.1316 -0.8064 0.5765
vn -0.0485 -0.8315 0.5534
vn 0.2732 -0.8556 0.4396
vn 0.1907 -0.7977 0.5721
vn 0.1579 -0.7173 0.6786
vn 0.3194 -0.7111 0.6263
vn 0.3699 -0.7512 0.5466
vn 0.3508 -0.7647 0.5405
vn 0.2913 -0.7675 0.5711
vn -0.3068 -0.6871 0.6586
vn -0.3181 -0.6657 0.6750
vn 0.0394 -0.8399 0.5414
vn -0.0097 -0.8405 0.5417
vn -0.0060 -0.8411 0.5409
vn -0.0021 -0.8412 0.5407
vn -0.0256 -0.7685 0.6394
vn 0.0560 -0.7910 0.6093
vn 0.3652 -0.8071 0.4640
vn 0.2935 -0.7440 0.6003
vn 0.2672 -0.6579 0.7041
vn 0.4219 -0.6474 0.6347
vn 0.4663 -0.6905 0.5529
vn 0.4474 -0.7054 0.5498
vn 0.3916 -0.7089 0.5866
vn -0.1982 -0.6525 0.7314
vn -0.2089 -0.6305 0.7475
vn 0.1425 -0.7957 0.5886
vn 0.0938 -0.7988 0.5942
vn 0.0975 -0.7993 0.5930
vn 0.1013 -0.7992 0.5924
vn -0.0637 -0.8024 -0.5934
vn -0.1392 -0.8237 -0.5497
vn -0.4215 -0.8337 -0.3568
vn -0.3730 -0.7778 -0.5059
vn -0.2213 -0.8279 -0.5154
vn -0.5370 -0.7229 -0.4348
vn -0.5067 -0.6840 -0.5247
vn -0.5176 -0.7374 -0.4339
vn -0.4683 -0.7426 -0.4788
vn -0.1741 -0.8309 -0.5284
vn -0.1775 -0.8313 -0.5266
vn -0.1812 -0.8313 -0.5255
vn 0.0905 -0.6906 -0.7176
vn 0.0982 -0.6695 -0.7363
vn -0.3647 -0.6974 -0.6170
vn 0.2739 -0.8598 0.4309
vn 0.3155 -0.8805 0.3539
vn 0.4626 -0.8854 0.0452
vn 0.4999 -0.8423 0.2016
vn 0.5553 -0.7730 0.3066
vn 0.6335 -0.7578 0.1565
vn 0.6114 -0.7889 0.0614
vn 0.5929 -0.8023 0.0694
vn 0.5720 -0.8094 0.1326
vn 0.2128 -0.7533 0.6222
vn 0.2174 -0.7338 0.6436
vn 0.3690 -0.8853 0.2829
vn 0.3344 -0.8873 0.3177
vn 0.3364 -0.8877 0.3144
vn 0.3390 -0.8877 0.3115
vn -0.5734 -0.8024 -0.1657
vn -0.5615 -0.8237 -0.0792
vn -0.4898 -0.8337 0.2551
vn -0.6094 -0.7778 0.1538
vn -0.7091 -0.6974 0.1040
vn -0.6775 -0.6840 0.2704
vn -0.6057 -0.7229 0.3324
vn -0.5975 -0.7374 0.3149
vn -0.6204 -0.7426 0.2522
vn -0.6299 -0.6906 -0.3553
vn -0.6444 -0.6695 -0.3696
vn -0.5608 -0.8279 0.0097
vn -0.5550 -0.8309 -0.0389
vn -0.5547 -0.8313 -0.0350
vn -0.5550 -0.8313 -0.0311
vn 0.1316 0.8064 -0.5765
vn 0.0485 0.8315 -0.5534
vn 0.2006 0.8127 -0.5471
vn 0.1409 0.8169 -0.5593
vn 0.0050 0.8379 -0.5458
vn -0.1311 0.8427 -0.5222
vn -0.3194 0.7111 -0.6263
vn -0.3669 0.8416 -0.3964
vn -0.4201 0.8416 -0.3395
vn 0.4289 0.7688 -0.4743
vn 0.4576 0.7598 -0.4618
vn -0.3699 0.7512 -0.5466
vn -0.3508 0.7647 -0.5405
vn -0.0723 0.7143 -0.6961
vn -0.0283 0.7117 -0.7019
vn 0.3005 0.6763 -0.6725
vn 0.3181 0.6657 -0.6750
vn 0.0097 0.8405 -0.5417
vn 0.0060 0.8411 -0.5409
vn 0.0256 0.7685 -0.6394
vn -0.0560 0.7910 -0.6093
vn 0.0968 0.7803 -0.6179
vn 0.0360 0.7806 -0.6240
vn -0.0988 0.7957 -0.5976
vn -0.2318 0.7954 -0.5600
vn -0.4219 0.6474 -0.6347
vn -0.4530 0.7915 -0.4102
vn -0.5000 0.7929 -0.3482
vn 0.3335 0.7532 -0.5670
vn 0.3638 0.7466 -0.5570
vn -0.4662 0.6906 -0.5530
vn -0.4473 0.7054 -0.5498
vn -0.1838 0.6579 -0.7303
vn -0.1406 0.6571 -0.7405
vn 0.1910 0.6404 -0.7439
vn 0.2088 0.6305 -0.7476
vn -0.0938 0.7988 -0.5942
vn -0.0975 0.7993 -0.5930
vn 0.0637 0.8024 0.5934
vn 0.1392 0.8237 0.5497
vn -0.0101 0.8125 0.5828
vn 0.0508 0.8136 0.5792
vn 0.1796 0.8280 0.5311
vn 0.5000 0.8158 0.2907
vn 0.5366 0.8141 0.2221
vn 0.3050 0.8265 0.4732
vn 0.5370 0.7229 0.4348
vn 0.5176 0.7374 0.4339
vn 0.5067 0.6841 0.5247
vn 0.1741 0.8309 0.5284
vn 0.1775 0.8313 0.5266
vn -0.0813 0.6793 0.7294
vn -0.0981 0.6695 0.7363
vn 0.2865 0.6983 0.6560
vn 0.2454 0.6978 0.6729
vn -0.2515 0.7812 0.5714
vn -0.2829 0.7739 0.5666
vn -0.2739 0.8598 -0.4309
vn -0.3155 0.8805 -0.3539
vn -0.2040 0.8651 -0.4582
vn -0.2547 0.8689 -0.4244
vn -0.3407 0.8850 -0.3174
vn -0.4204 0.8840 -0.2045
vn -0.6335 0.7578 -0.1565
vn -0.4993 0.8650 0.0501
vn -0.4971 0.8582 0.1276
vn 0.0072 0.8207 -0.5714
vn 0.0359 0.8113 -0.5835
vn -0.6114 0.7889 -0.0614
vn -0.5929 0.8023 -0.0694
vn -0.5070 0.7739 -0.3794
vn -0.4800 0.7731 -0.4147
vn -0.2276 0.7437 -0.6285
vn -0.2175 0.7339 -0.6435
vn -0.3344 0.8873 -0.3177
vn -0.3364 0.8877 -0.3144
vn 0.5734 0.8024 0.1656
vn 0.5615 0.8237 0.0792
vn 0.5357 0.8125 0.2300
vn 0.5554 0.8136 0.1722
vn 0.5596 0.8280 0.0348
vn 0.5534 0.8265 -0.1032
vn 0.6775 0.6841 -0.2703
vn 0.4583 0.8158 -0.3527
vn 0.4087 0.8141 -0.4127
vn 0.4337 0.7812 0.4491
vn 0.4174 0.7739 0.4763
vn 0.6057 0.7229 -0.3324
vn 0.5975 0.7374 -0.3149
vn 0.7156 0.6983 -0.0169
vn 0.7157 0.6978 0.0276
vn 0.6443 0.6793 0.3513
vn 0.6444 0.6695 0.3695
vn 0.5550 0.8309 0.0389
vn 0.5547 0.8313 0.0350
usemtl None
s 1
f 718/1/1 594/2/2 3/3/3 494/4/4
f 717/5/5 304/6/6 3/3/3 594/2/2
f 716/7/7 486/8/8 8/9/9 397/10/10
f 8/9/9 451/11/11 548/12/12
f 12/13/13 356/14/14 435/15/15
f 715/16/16 548/12/12 11/17/17 346/18/18
f 714/19/19 346/18/18 11/17/17 442/20/20
f 8/9/9 486/8/8 390/21/21
f 6/22/22 279/23/23 395/24/24
f 713/25/25 340/26/26 15/27/27 366/28/28
f 712/29/29 562/30/30 9/31/31 447/32/32
f 711/33/33 411/34/34 2/35/35 325/36/36
f 710/37/37 298/38/38 21/39/39 566/40/40
f 709/41/41 370/42/42 21/39/39 298/38/38
f 708/43/43 236/44/44 26/45/45 512/46/46
f 26/45/45 599/47/47 324/48/48
f 30/49/49 514/50/50 235/51/51
f 707/52/52 324/48/48 29/53/53 511/54/54
f 706/55/55 511/54/54 29/53/53 438/56/56
f 26/45/45 236/44/44 401/57/57
f 24/58/58 369/59/59 510/60/60
f 705/61/61 493/62/62 33/63/63 519/64/64
f 704/65/65 257/66/66 27/67/67 590/68/68
f 703/69/69 477/70/70 20/71/71 394/72/72
f 702/73/73 363/74/74 39/75/75 474/76/76
f 38/77/77 553/78/78 426/79/79
f 701/80/80 460/81/81 40/82/82 249/83/83
f 43/84/84 431/85/85 331/86/86
f 700/87/87 553/78/78 38/77/77 284/88/88
f 38/77/77 359/89/89 363/74/74
f 699/90/90 345/91/91 50/92/92 424/93/93
f 698/94/94 275/95/95 37/96/96 541/97/97
f 697/98/98 474/76/76 39/75/75 268/99/99
f 696/100/100 327/101/101 50/92/92 345/91/91
f 52/102/102 417/103/103 492/104/104
f 695/105/105 526/106/106 49/107/107 547/108/108
f 694/109/109 597/110/110 57/111/111 358/112/112
f 693/113/113 529/114/114 57/111/111 597/110/110
f 692/115/115 365/116/116 62/117/117 448/118/118
f 62/117/117 351/119/119 259/120/120
f 66/121/121 574/122/122 264/123/123
f 691/124/124 259/120/120 65/125/125 551/126/126
f 690/127/127 551/126/126 65/125/125 270/128/128
f 62/117/117 365/116/116 506/129/129
f 60/130/130 559/131/131 413/132/132
f 689/133/133 483/134/134 69/135/135 546/136/136
f 688/137/137 237/138/138 63/139/139 372/140/140
f 687/141/141 374/142/142 56/143/143 507/144/144
f 686/145/145 518/146/146 75/147/147 410/148/148
f 685/149/149 582/150/150 75/147/147 518/146/146
f 684/151/151 434/152/152 80/153/153 283/154/154
f 80/153/153 287/155/155 375/156/156
f 84/157/157 251/158/158 330/159/159
f 683/160/160 375/156/156 83/161/161 241/162/162
f 682/163/163 241/162/162 83/161/161 355/164/164
f 80/153/153 434/152/152 570/165/165
f 78/166/166 540/167/167 388/168/168
f 681/169/169 255/170/170 87/171/171 248/172/172
f 680/173/173 505/174/174 81/175/175 357/176/176
f 679/177/177 315/178/178 74/179/179 238/180/180
f 678/181/181 307/182/182 93/183/183 586/184/184
f 677/185/185 472/186/186 95/187/187 399/188/188
f 676/189/189 267/190/190 99/191/191 458/192/192
f 100/193/193 425/194/194 538/195/195
f 102/196/196 598/197/197 499/198/198
f 675/199/199 538/195/195 98/200/200 539/201/201
f 674/202/202 409/203/203 105/204/204 230/205/205
f 107/206/206 415/207/207 601/208/208
f 108/209/209 454/210/210 263/211/211
f 673/212/212 596/213/213 97/214/214 335/215/215
f 672/216/216 450/217/217 96/218/218 399/188/188
f 671/219/219 382/220/220 96/218/218 458/192/192
f 670/221/221 583/222/222 111/223/223 313/224/224
f 669/225/225 404/226/226 113/227/227 578/228/228
f 668/229/229 463/230/230 117/231/231 464/232/232
f 118/233/233 258/234/234 350/235/235
f 120/236/236 500/237/237 368/238/238
f 667/239/239 350/235/235 116/240/240 403/241/241
f 666/242/242 233/243/243 123/244/244 497/245/245
f 125/246/246 240/247/247 453/248/248
f 126/249/249 379/250/250 513/251/251
f 665/252/252 446/253/253 115/254/254 535/255/255
f 664/256/256 303/257/257 114/258/258 578/228/228
f 663/259/259 419/260/260 114/258/258 464/232/232
f 662/261/261 349/262/262 129/263/263 261/264/264
f 131/265/265 452/266/266 354/267/267
f 661/268/268 232/269/269 130/270/270 407/271/271
f 135/272/272 312/273/273 491/274/274
f 660/275/275 440/276/276 132/277/277 585/278/278
f 128/279/279 361/280/280 349/262/262
f 659/281/281 367/282/282 140/283/283 277/284/284
f 658/285/285 589/286/286 136/287/287 348/288/288
f 657/289/289 414/290/290 127/291/291 338/292/292
f 656/293/293 569/294/294 142/295/295 348/288/288
f 144/296/296 581/297/297 568/298/298
f 655/299/299 534/300/300 136/287/287 585/278/278
f 654/301/301 436/302/302 147/303/303 353/304/304
f 653/305/305 242/306/306 149/307/307 489/308/308
f 652/309/309 266/310/310 153/311/311 577/312/312
f 154/313/313 449/314/314 311/315/315
f 156/316/316 239/317/317 344/318/318
f 651/319/319 311/315/315 152/320/320 360/321/321
f 650/322/322 418/323/323 159/324/324 254/325/325
f 161/326/326 406/327/327 600/328/328
f 162/329/329 554/330/330 352/331/331
f 649/332/332 591/333/333 151/334/334 503/335/335
f 648/336/336 393/337/337 150/338/338 489/308/308
f 647/339/339 482/340/340 150/338/338 577/312/312
f 646/341/341 524/342/342 165/343/343 253/344/344
f 645/345/345 282/346/346 167/347/347 378/348/348
f 644/349/349 281/350/350 171/351/351 228/352/352
f 172/353/353 445/354/354 557/355/355
f 174/356/356 269/357/357 544/358/358
f 643/359/359 557/355/355 170/360/360 558/361/361
f 642/362/362 462/363/363 177/364/364 362/365/365
f 179/366/366 386/367/367 567/368/368
f 180/369/369 561/370/370 295/371/371
f 641/372/372 231/373/373 169/374/374 336/375/375
f 640/376/376 471/377/377 168/378/378 378/348/348
f 639/379/379 381/380/380 168/378/378 228/352/352
f 638/381/381 326/382/382 183/383/383 481/384/384
f 637/385/385 385/386/386 182/387/387 290/388/388
f 182/389/387 385/390/386 326/391/382
f 636/392/389 246/393/390 186/394/391 286/395/392
f 635/396/393 550/397/394 189/398/395 272/399/396
f 634/400/397 563/401/398 191/402/399 400/403/400
f 633/404/401 364/405/402 188/406/403 457/407/404
f 191/408/399 563/409/398 364/410/402
f 632/411/405 321/412/406 195/413/407 588/414/408
f 631/415/409 328/416/410 199/417/411 523/418/412
f 630/419/413 517/420/414 194/421/415 392/422/416
f 629/423/417 391/424/418 198/425/419 420/426/420
f 628/427/421 310/428/422 202/429/423 342/430/424
f 627/431/425 423/432/426 205/433/427 333/434/428
f 626/435/429 377/436/430 209/437/431 288/438/432
f 625/439/433 487/440/434 212/441/435 444/442/436
f 624/443/437 306/444/438 206/445/439 380/446/440
f 623/447/441 584/448/442 210/449/443 294/450/444
f 622/451/445 521/452/446 215/453/447 495/454/448
f 621/455/449 433/456/450 201/457/451 341/458/452
f 620/459/453 572/460/454 219/461/455 469/462/456
f 619/463/457 508/464/458 197/465/459 332/466/460
f 618/467/461 536/468/462 221/469/463 293/470/464
f 617/471/465 250/472/466 193/473/467 543/474/468
f 616/475/469 556/476/470 214/477/471 318/478/472
f 615/479/473 527/480/474 200/481/475 461/482/476
f 614/483/477 373/484/478 218/485/479 305/486/480
f 613/487/481 576/488/482 196/489/483 428/490/484
f 612/491/485 387/492/486 223/493/487 276/494/488
f 611/495/489 309/496/490 207/497/491 297/498/492
f 610/499/493 532/500/494 225/501/495 265/502/496
f 609/503/497 595/504/498 203/505/499 515/506/500
f 608/507/501 320/508/502 224/509/503 560/510/504
f 607/511/505 427/512/506 211/513/507 533/514/508
f 606/515/509 443/516/510 226/517/511 285/518/512
f 605/519/513 299/520/514 208/521/515 480/522/516
f 604/523/517 522/524/518 227/525/519 549/526/520
f 603/527/521 520/528/522 204/529/523 502/530/524
f 602/531/525 333/532/428 205/533/427 444/534/436
f 210/535/443 288/536/432 294/537/444
f 294/537/444 476/538/526 212/539/435
f 294/537/444 288/536/432 476/538/526
f 288/536/432 209/540/431 476/538/526
f 476/538/526 602/531/525 444/534/436 212/539/435
f 209/540/431 380/541/440 602/531/525 476/538/526
f 380/541/440 206/542/439 333/532/428 602/531/525
f 595/504/498 603/527/521 502/530/524 203/505/499
f 225/543/495 549/544/520 603/527/521 595/504/498
f 549/544/520 227/545/519 520/528/522 603/527/521
f 532/500/494 604/523/517 549/526/520 225/501/495
f 195/413/407 321/412/406 604/523/517 532/500/494
f 321/412/406 194/421/415 522/524/518 604/523/517
f 309/496/490 605/519/513 480/522/516 207/497/491
f 223/546/487 285/547/512 605/519/513 309/496/490
f 285/547/512 226/548/511 299/520/514 605/519/513
f 387/492/486 606/515/509 285/518/512 223/493/487
f 199/417/411 328/416/410 606/515/509 387/492/486
f 328/416/410 198/549/419 443/516/510 606/515/509
f 520/528/522 607/511/505 533/514/508 204/529/523
f 227/545/519 560/550/504 607/511/505 520/528/522
f 560/550/504 224/551/503 427/512/506 607/511/505
f 522/524/518 608/507/501 560/510/504 227/525/519
f 194/421/415 517/420/414 608/507/501 522/524/518
f 517/420/414 202/429/423 320/508/502 608/507/501
f 299/552/514 609/503/497 515/506/500 208/553/515
f 226/554/511 265/555/496 609/503/497 299/552/514
f 265/555/496 225/543/495 595/504/498 609/503/497
f 443/556/510 610/499/493 265/502/496 226/557/511
f 198/425/419 391/424/418 610/499/493 443/556/510
f 391/424/418 195/413/407 532/500/494 610/499/493
f 427/512/506 611/495/489 297/498/492 211/513/507
f 224/551/503 276/558/488 611/495/489 427/512/506
f 276/558/488 223/546/487 309/496/490 611/495/489
f 320/508/502 612/491/485 276/494/488 224/509/503
f 202/429/423 310/428/422 612/491/485 320/508/502
f 310/428/422 199/417/411 387/492/486 612/491/485
f 373/484/478 613/487/481 428/490/484 218/485/479
f 221/469/463 543/474/468 613/487/481 373/484/478
f 543/474/468 193/473/467 576/488/482 613/487/481
f 300/559/527 614/483/477 305/486/480 217/560/528
f 222/561/529 293/470/464 614/483/477 300/559/527
f 293/470/464 221/469/463 373/484/478 614/483/477
f 556/476/470 615/479/473 461/482/476 214/477/471
f 219/562/455 332/563/460 615/479/473 556/476/470
f 332/563/460 197/564/459 527/480/474 615/479/473
f 405/565/530 616/475/469 318/478/472 213/566/531
f 220/567/532 469/568/456 616/475/469 405/565/530
f 469/568/456 219/562/455 556/476/470 616/475/469
f 536/468/462 617/471/465 543/474/468 221/469/463
f 215/453/447 341/458/452 617/471/465 536/468/462
f 341/458/452 201/457/451 250/472/466 617/471/465
f 465/569/533 618/467/461 293/470/464 222/561/529
f 216/570/534 495/454/448 618/467/461 465/569/533
f 495/454/448 215/453/447 536/468/462 618/467/461
f 572/460/454 619/463/457 332/466/460 219/461/455
f 218/485/479 428/490/484 619/463/457 572/460/454
f 428/490/484 196/489/483 508/464/458 619/463/457
f 488/571/535 620/459/453 469/462/456 220/572/532
f 217/560/528 305/486/480 620/459/453 488/571/535
f 305/486/480 218/485/479 572/460/454 620/459/453
f 521/452/446 621/455/449 341/458/452 215/453/447
f 214/477/471 461/482/476 621/455/449 521/452/446
f 461/482/476 200/481/475 433/456/450 621/455/449
f 432/573/536 622/451/445 495/454/448 216/570/534
f 213/566/531 318/478/472 622/451/445 432/573/536
f 318/478/472 214/477/471 521/452/446 622/451/445
f 487/440/434 623/447/441 294/450/444 212/441/435
f 211/513/507 297/498/492 623/447/441 487/440/434
f 297/498/492 207/497/491 584/448/442 623/447/441
f 377/574/430 624/443/437 380/446/440 209/575/431
f 208/553/515 515/506/500 624/443/437 377/574/430
f 515/506/500 203/505/499 306/444/438 624/443/437
f 423/432/426 625/439/433 444/442/436 205/433/427
f 204/529/523 533/514/508 625/439/433 423/432/426
f 533/514/508 211/513/507 487/440/434 625/439/433
f 584/448/442 626/435/429 288/438/432 210/449/443
f 207/497/491 480/522/516 626/435/429 584/448/442
f 480/522/516 208/521/515 377/436/430 626/435/429
f 306/444/438 627/431/425 333/434/428 206/445/439
f 203/505/499 502/530/524 627/431/425 306/444/438
f 502/530/524 204/529/523 423/432/426 627/431/425
f 433/576/450 628/427/421 342/430/424 201/577/451
f 200/578/475 523/418/412 628/427/421 433/576/450
f 523/418/412 199/417/411 310/428/422 628/427/421
f 508/579/458 629/423/417 420/426/420 197/580/459
f 196/581/483 588/414/408 629/423/417 508/579/458
f 588/414/408 195/413/407 391/424/418 629/423/417
f 250/582/466 630/419/413 392/422/416 193/583/467
f 201/577/451 342/430/424 630/419/413 250/582/466
f 342/430/424 202/429/423 517/420/414 630/419/413
f 527/584/474 631/415/409 523/418/412 200/578/475
f 197/585/459 420/586/420 631/415/409 527/584/474
f 420/586/420 198/549/419 328/416/410 631/415/409
f 576/587/482 632/411/405 588/414/408 196/581/483
f 193/583/467 392/422/416 632/411/405 576/587/482
f 392/422/416 194/421/415 321/412/406 632/411/405
f 364/410/402 550/588/394 188/589/403
f 364/410/402 563/409/398 550/588/394
f 563/409/398 189/590/395 550/588/394
f 470/591/537 633/404/401 457/407/404 187/592/538
f 192/593/539 400/403/400 633/404/401 470/591/537
f 400/403/400 191/402/399 364/405/402 633/404/401
f 271/594/540 634/400/397 400/403/400 192/593/539
f 190/595/541 272/596/396 634/400/397 271/594/540
f 272/596/396 189/597/395 563/401/398 634/400/397
f 244/598/542 635/396/393 272/399/396 190/599/541
f 187/592/538 457/407/404 635/396/393 244/598/542
f 457/407/404 188/406/403 550/397/394 635/396/393
f 573/600/543 636/392/389 286/395/392 185/601/544
f 184/602/545 481/384/384 636/392/389 573/600/543
f 481/384/384 183/383/383 246/393/390 636/392/389
f 326/391/382 246/603/390 183/604/383
f 326/391/382 385/390/386 246/603/390
f 385/390/386 186/605/391 246/603/390
f 319/606/546 637/385/385 290/388/388 181/607/547
f 185/608/544 286/609/392 637/385/385 319/606/546
f 286/609/392 186/610/391 385/386/386 637/385/385
f 421/611/548 638/381/381 481/384/384 184/602/545
f 181/607/547 290/388/388 638/381/381 421/611/548
f 290/388/388 182/387/387 326/382/382 638/381/381
f 260/612/549 639/379/379 228/352/352 171/351/351
f 166/613/550 253/344/344 639/379/379 260/612/549
f 253/344/344 165/343/343 381/380/380 639/379/379
f 343/614/551 640/376/376 378/348/348 167/347/347
f 176/615/552 336/375/375 640/376/376 343/614/551
f 336/375/375 169/374/374 471/377/377 640/376/376
f 466/616/553 641/372/372 336/375/375 176/615/552
f 175/617/554 362/365/365 641/372/372 466/616/553
f 362/365/365 177/364/364 231/373/373 641/372/372
f 295/371/371 343/614/551 167/347/347
f 295/371/371 561/370/370 343/614/551
f 561/370/370 176/615/552 343/614/551
f 567/368/368 281/350/350 170/360/360
f 567/368/368 386/367/367 281/350/350
f 386/367/367 171/351/351 281/350/350
f 564/618/555 642/362/362 362/365/365 175/617/554
f 178/619/556 301/620/557 642/362/362 564/618/555
f 301/620/557 172/353/353 462/363/363 642/362/362
f 231/373/373 643/359/359 558/361/361 169/374/374
f 177/364/364 462/363/363 643/359/359 231/373/373
f 462/363/363 172/353/353 557/355/355 643/359/359
f 544/358/358 466/616/553 176/615/552
f 544/358/358 269/357/357 466/616/553
f 269/357/357 175/617/554 466/616/553
f 557/355/355 467/621/558 170/360/360
f 557/355/355 445/354/354 467/621/558
f 445/354/354 173/622/559 467/621/558
f 471/377/377 644/349/349 228/352/352 168/378/378
f 169/374/374 558/361/361 644/349/349 471/377/377
f 558/361/361 170/360/360 281/350/350 644/349/349
f 381/380/380 645/345/345 378/348/348 168/378/378
f 165/343/343 524/342/342 645/345/345 381/380/380
f 524/342/342 164/623/560 282/346/346 645/345/345
f 229/624/561 646/341/341 253/344/344 166/613/550
f 163/625/562 439/626/563 646/341/341 229/624/561
f 439/626/563 164/623/560 524/342/342 646/341/341
f 580/627/564 647/339/339 577/312/312 153/311/311
f 148/628/565 353/304/304 647/339/339 580/627/564
f 353/304/304 147/303/303 482/340/340 647/339/339
f 484/629/566 648/336/336 489/308/308 149/307/307
f 158/630/567 503/335/335 648/336/336 484/629/566
f 503/335/335 151/334/334 393/337/337 648/336/336
f 537/631/568 649/332/332 503/335/335 158/630/567
f 157/632/569 254/325/325 649/332/332 537/631/568
f 254/325/325 159/324/324 591/333/333 649/332/332
f 352/331/331 484/629/566 149/307/307
f 352/331/331 554/330/330 484/629/566
f 554/330/330 158/630/567 484/629/566
f 600/328/328 266/310/310 152/320/320
f 600/328/328 406/327/327 266/310/310
f 406/327/327 153/311/311 266/310/310
f 347/633/570 650/322/322 254/325/325 157/632/569
f 160/634/571 504/635/572 650/322/322 347/633/570
f 504/635/572 154/313/313 418/323/323 650/322/322
f 591/333/333 651/319/319 360/321/321 151/334/334
f 159/324/324 418/323/323 651/319/319 591/333/333
f 418/323/323 154/313/313 311/315/315 651/319/319
f 344/318/318 537/631/568 158/630/567
f 344/318/318 239/317/317 537/631/568
f 239/317/317 157/632/569 537/631/568
f 311/315/315 402/636/573 152/320/320
f 311/315/315 449/314/314 402/636/573
f 449/314/314 155/637/574 402/636/573
f 393/337/337 652/309/309 577/312/312 150/338/338
f 151/334/334 360/321/321 652/309/309 393/337/337
f 360/321/321 152/320/320 266/310/310 652/309/309
f 482/340/340 653/305/305 489/308/308 150/338/338
f 147/303/303 436/302/302 653/305/305 482/340/340
f 436/302/302 146/638/575 242/306/306 653/305/305
f 337/639/576 654/301/301 353/304/304 148/628/565
f 145/640/577 528/641/578 654/301/301 337/639/576
f 528/641/578 146/638/575 436/302/302 654/301/301
f 289/642/579 655/299/299 585/278/278 132/277/277
f 141/643/580 277/284/284 655/299/299 289/642/579
f 277/284/284 140/283/283 534/300/300 655/299/299
f 568/298/298 396/644/581 142/295/295
f 568/298/298 581/297/297 396/644/581
f 581/297/297 134/645/582 396/644/581
f 534/300/300 656/293/293 348/288/288 136/287/287
f 140/283/283 367/282/282 656/293/293 534/300/300
f 367/282/282 139/646/583 569/294/294 656/293/293
f 302/647/584 657/289/289 338/292/292 133/648/585
f 143/649/586 555/650/587 657/289/289 302/647/584
f 555/650/587 128/279/279 414/290/290 657/289/289
f 396/644/581 658/285/285 348/288/288 142/295/295
f 134/645/582 407/271/271 658/285/285 396/644/581
f 407/271/271 130/270/270 589/286/286 658/285/285
f 296/651/588 659/281/281 277/284/284 141/643/580
f 138/652/589 485/653/590 659/281/281 296/651/588
f 485/653/590 139/646/583 367/282/282 659/281/281
f 349/262/262 490/654/591 129/263/263
f 349/262/262 361/280/280 490/654/591
f 361/280/280 137/655/592 490/654/591
f 589/286/286 660/275/275 585/278/278 136/287/287
f 130/270/270 261/264/264 660/275/275 589/286/286
f 261/264/264 129/263/263 440/276/276 660/275/275
f 491/274/274 592/656/593 134/645/582
f 491/274/274 312/273/273 592/656/593
f 312/273/273 133/648/585 592/656/593
f 592/656/593 661/268/268 407/271/271 134/645/582
f 133/648/585 338/292/292 661/268/268 592/656/593
f 338/292/292 127/291/291 232/269/269 661/268/268
f 354/267/267 440/276/276 129/263/263
f 354/267/267 452/266/266 440/276/276
f 452/266/266 132/277/277 440/276/276
f 232/269/269 662/261/261 261/264/264 130/270/270
f 127/291/291 414/290/290 662/261/261 232/269/269
f 414/290/290 128/279/279 349/262/262 662/261/261
f 398/657/594 663/259/259 464/232/232 117/231/231
f 112/658/595 313/224/224 663/259/259 398/657/594
f 313/224/224 111/223/223 419/260/260 663/259/259
f 530/659/596 664/256/256 578/228/228 113/227/227
f 122/660/597 535/255/255 664/256/256 530/659/596
f 535/255/255 115/254/254 303/257/257 664/256/256
f 593/661/598 665/252/252 535/255/255 122/660/597
f 121/662/599 497/245/245 665/252/252 593/661/598
f 497/245/245 123/244/244 446/253/253 665/252/252
f 513/251/251 530/659/596 113/227/227
f 513/251/251 379/250/250 530/659/596
f 379/250/250 122/660/597 530/659/596
f 453/248/248 463/230/230 116/240/240
f 453/248/248 240/247/247 463/230/230
f 240/247/247 117/231/231 463/230/230
f 408/663/600 666/242/242 497/245/245 121/662/599
f 124/664/601 509/665/602 666/242/242 408/663/600
f 509/665/602 118/233/233 233/243/243 666/242/242
f 446/253/253 667/239/239 403/241/241 115/254/254
f 123/244/244 233/243/243 667/239/239 446/253/253
f 233/243/243 118/233/233 350/235/235 667/239/239
f 368/238/238 593/661/598 122/660/597
f 368/238/238 500/237/237 593/661/598
f 500/237/237 121/662/599 593/661/598
f 350/235/235 247/666/603 116/240/240
f 350/235/235 258/234/234 247/666/603
f 258/234/234 119/667/604 247/666/603
f 303/257/257 668/229/229 464/232/232 114/258/258
f 115/254/254 403/241/241 668/229/229 303/257/257
f 403/241/241 116/240/240 463/230/230 668/229/229
f 419/260/260 669/225/225 578/228/228 114/258/258
f 111/223/223 583/222/222 669/225/225 419/260/260
f 583/222/222 110/668/605 404/226/226 669/225/225
f 316/669/606 670/221/221 313/224/224 112/658/595
f 109/670/607 498/671/608 670/221/221 316/669/606
f 498/671/608 110/668/605 583/222/222 670/221/221
f 322/672/609 671/219/219 458/192/192 99/191/191
f 94/673/610 586/184/184 671/219/219 322/672/609
f 586/184/184 93/183/183 382/220/220 671/219/219
f 243/674/611 672/216/216 399/188/188 95/187/187
f 104/675/612 335/215/215 672/216/216 243/674/611
f 335/215/215 97/214/214 450/217/217 672/216/216
f 329/676/613 673/212/212 335/215/215 104/675/612
f 103/677/614 230/205/205 673/212/212 329/676/613
f 230/205/205 105/204/204 596/213/213 673/212/212
f 263/211/211 243/674/611 95/187/187
f 263/211/211 454/210/210 243/674/611
f 454/210/210 104/675/612 243/674/611
f 601/208/208 267/190/190 98/200/200
f 601/208/208 415/207/207 267/190/190
f 415/207/207 99/191/191 267/190/190
f 478/678/615 674/202/202 230/205/205 103/677/614
f 106/679/616 291/680/617 674/202/202 478/678/615
f 291/680/617 100/193/193 409/203/203 674/202/202
f 596/213/213 675/199/199 539/201/201 97/214/214
f 105/204/204 409/203/203 675/199/199 596/213/213
f 409/203/203 100/193/193 538/195/195 675/199/199
f 499/198/198 329/676/613 104/675/612
f 499/198/198 598/197/197 329/676/613
f 598/197/197 103/677/614 329/676/613
f 538/195/195 429/681/618 98/200/200
f 538/195/195 425/194/194 429/681/618
f 425/194/194 101/682/619 429/681/618
f 450/217/217 676/189/189 458/192/192 96/218/218
f 97/214/214 539/201/201 676/189/189 450/217/217
f 539/201/201 98/200/200 267/190/190 676/189/189
f 382/220/220 677/185/185 399/188/188 96/218/218
f 93/183/183 307/182/182 677/185/185 382/220/220
f 307/182/182 92/683/620 472/186/186 677/185/185
f 545/684/621 678/181/181 586/184/184 94/673/610
f 91/685/622 371/686/623 678/181/181 545/684/621
f 371/686/623 92/683/620 307/182/182 678/181/181
f 314/687/624 679/177/177 238/180/180 73/688/625
f 79/689/626 339/690/627 679/177/177 314/687/624
f 339/690/627 77/691/628 315/178/178 679/177/177
f 540/167/167 680/173/173 357/176/176 84/157/157
f 78/166/166 245/692/629 680/173/173 540/167/167
f 245/692/629 77/691/628 505/174/174 680/173/173
f 251/158/158 681/169/169 248/172/172 85/693/630
f 84/157/157 357/176/176 681/169/169 251/158/158
f 357/176/176 81/175/175 255/170/170 681/169/169
f 388/168/168 308/694/631 90/695/632
f 388/168/168 540/167/167 308/694/631
f 540/167/167 84/157/157 308/694/631
f 570/165/165 468/696/633 89/697/634
f 570/165/165 434/152/152 468/696/633
f 434/152/152 79/689/626 468/696/633
f 334/698/635 682/163/163 355/164/164 88/699/636
f 85/693/630 248/172/172 682/163/163 334/698/635
f 248/172/172 87/171/171 241/162/162 682/163/163
f 255/170/170 683/160/160 241/162/162 87/171/171
f 81/175/175 283/154/154 683/160/160 255/170/170
f 283/154/154 80/153/153 375/156/156 683/160/160
f 330/159/159 531/700/637 86/701/638
f 330/159/159 251/158/158 531/700/637
f 251/158/158 85/693/630 531/700/637
f 375/156/156 473/702/639 83/161/161
f 375/156/156 287/155/155 473/702/639
f 287/155/155 82/703/640 473/702/639
f 505/174/174 684/151/151 283/154/154 81/175/175
f 77/691/628 339/690/627 684/151/151 505/174/174
f 339/690/627 79/689/626 434/152/152 684/151/151
f 315/178/178 685/149/149 518/146/146 74/179/179
f 77/691/628 245/692/629 685/149/149 315/178/178
f 245/692/629 78/166/166 582/150/150 685/149/149
f 412/704/641 686/145/145 410/148/148 76/705/642
f 73/688/625 238/180/180 686/145/145 412/704/641
f 238/180/180 74/179/179 518/146/146 686/145/145
f 376/706/643 687/141/141 507/144/144 55/707/644
f 61/708/645 430/709/646 687/141/141 376/706/643
f 430/709/646 59/710/647 374/142/142 687/141/141
f 559/131/131 688/137/137 372/140/140 66/121/121
f 60/130/130 525/711/648 688/137/137 559/131/131
f 525/711/648 59/710/647 237/138/138 688/137/137
f 574/122/122 689/133/133 546/136/136 67/712/649
f 66/121/121 372/140/140 689/133/133 574/122/122
f 372/140/140 63/139/139 483/134/134 689/133/133
f 413/132/132 262/713/650 72/714/651
f 413/132/132 559/131/131 262/713/650
f 559/131/131 66/121/121 262/713/650
f 506/129/129 317/715/652 71/716/653
f 506/129/129 365/116/116 317/715/652
f 365/116/116 61/708/645 317/715/652
f 256/717/654 690/127/127 270/128/128 70/718/655
f 67/712/649 546/136/136 690/127/127 256/717/654
f 546/136/136 69/135/135 551/126/126 690/127/127
f 483/134/134 691/124/124 551/126/126 69/135/135
f 63/139/139 448/118/118 691/124/124 483/134/134
f 448/118/118 62/117/117 259/120/120 691/124/124
f 264/123/123 459/719/656 68/720/657
f 264/123/123 574/122/122 459/719/656
f 574/122/122 67/712/649 459/719/656
f 259/120/120 273/721/658 65/125/125
f 259/120/120 351/119/119 273/721/658
f 351/119/119 64/722/659 273/721/658
f 237/138/138 692/115/115 448/118/118 63/139/139
f 59/710/647 430/709/646 692/115/115 237/138/138
f 430/709/646 61/708/645 365/116/116 692/115/115
f 374/142/142 693/113/113 597/110/110 56/143/143
f 59/710/647 525/711/648 693/113/113 374/142/142
f 525/711/648 60/130/130 529/114/114 693/113/113
f 274/723/660 694/109/109 358/112/112 58/724/661
f 55/707/644 507/144/144 694/109/109 274/723/660
f 507/144/144 56/143/143 597/110/110 694/109/109
f 416/725/662 695/105/105 547/108/108 48/726/663
f 41/727/664 234/728/665 695/105/105 416/725/662
f 234/728/665 46/729/666 526/106/106 695/105/105
f 492/104/104 579/730/667 54/731/668
f 492/104/104 417/103/103 579/730/667
f 417/103/103 43/84/84 579/730/667
f 526/106/106 696/100/100 345/91/91 49/107/107
f 46/729/666 565/732/669 696/100/100 526/106/106
f 565/732/669 52/102/102 327/101/101 696/100/100
f 501/733/670 697/98/98 268/99/99 53/734/671
f 44/735/672 249/83/83 697/98/98 501/733/670
f 249/83/83 40/82/82 474/76/76 697/98/98
f 417/103/103 698/94/94 541/97/97 43/84/84
f 52/102/102 565/732/669 698/94/94 417/103/103
f 565/732/669 46/729/666 275/95/95 698/94/94
f 278/736/673 699/90/90 424/93/93 51/737/674
f 48/726/663 547/108/108 699/90/90 278/736/673
f 547/108/108 49/107/107 345/91/91 699/90/90
f 363/74/74 552/738/675 39/75/75
f 363/74/74 359/89/89 552/738/675
f 359/89/89 47/739/676 552/738/675
f 275/95/95 700/87/87 284/88/88 37/96/96
f 46/729/666 234/728/665 700/87/87 275/95/95
f 234/728/665 41/727/664 553/78/78 700/87/87
f 331/86/86 516/740/677 45/741/678
f 331/86/86 431/85/85 516/740/677
f 431/85/85 44/735/672 516/740/677
f 431/85/85 701/80/80 249/83/83 44/735/672
f 43/84/84 541/97/97 701/80/80 431/85/85
f 541/97/97 37/96/96 460/81/81 701/80/80
f 426/79/79 252/742/679 42/743/680
f 426/79/79 553/78/78 252/742/679
f 553/78/78 41/727/664 252/742/679
f 460/81/81 702/73/73 474/76/76 40/82/82
f 37/96/96 284/88/88 702/73/73 460/81/81
f 284/88/88 38/77/77 363/74/74 702/73/73
f 479/744/681 703/69/69 394/72/72 19/745/682
f 25/746/683 475/747/684 703/69/69 479/744/681
f 475/747/684 23/748/685 477/70/70 703/69/69
f 369/59/59 704/65/65 590/68/68 30/49/49
f 24/58/58 383/749/686 704/65/65 369/59/59
f 383/749/686 23/748/685 257/66/66 704/65/65
f 514/50/50 705/61/61 519/64/64 31/750/687
f 30/49/49 590/68/68 705/61/61 514/50/50
f 590/68/68 27/67/67 493/62/62 705/61/61
f 510/60/60 455/751/688 36/752/689
f 510/60/60 369/59/59 455/751/688
f 369/59/59 30/49/49 455/751/688
f 401/57/57 587/753/690 35/754/691
f 401/57/57 236/44/44 587/753/690
f 236/44/44 25/746/683 587/753/690
f 441/755/692 706/55/55 438/56/56 34/756/693
f 31/750/687 519/64/64 706/55/55 441/755/692
f 519/64/64 33/63/63 511/54/54 706/55/55
f 493/62/62 707/52/52 511/54/54 33/63/63
f 27/67/67 512/46/46 707/52/52 493/62/62
f 512/46/46 26/45/45 324/48/48 707/52/52
f 235/51/51 437/757/694 32/758/695
f 235/51/51 514/50/50 437/757/694
f 514/50/50 31/750/687 437/757/694
f 324/48/48 323/759/696 29/53/53
f 324/48/48 599/47/47 323/759/696
f 599/47/47 28/760/697 323/759/696
f 257/66/66 708/43/43 512/46/46 27/67/67
f 23/748/685 475/747/684 708/43/43 257/66/66
f 475/747/684 25/746/683 236/44/44 708/43/43
f 477/70/70 709/41/41 298/38/38 20/71/71
f 23/748/685 383/749/686 709/41/41 477/70/70
f 383/749/686 24/58/58 370/42/42 709/41/41
f 575/761/698 710/37/37 566/40/40 22/762/699
f 19/745/682 394/72/72 710/37/37 575/761/698
f 394/72/72 20/71/71 298/38/38 710/37/37
f 389/763/700 711/33/33 325/36/36 1/764/701
f 7/765/702 384/766/703 711/33/33 389/763/700
f 384/766/703 5/767/704 411/34/34 711/33/33
f 279/23/23 712/29/29 447/32/32 12/13/13
f 6/22/22 292/768/705 712/29/29 279/23/23
f 292/768/705 5/767/704 562/30/30 712/29/29
f 356/14/14 713/25/25 366/28/28 13/769/706
f 12/13/13 447/32/32 713/25/25 356/14/14
f 447/32/32 9/31/31 340/26/26 713/25/25
f 395/24/24 422/770/707 18/771/708
f 395/24/24 279/23/23 422/770/707
f 279/23/23 12/13/13 422/770/707
f 390/21/21 571/772/709 17/773/710
f 390/21/21 486/8/8 571/772/709
f 486/8/8 7/765/702 571/772/709
f 456/774/711 714/19/19 442/20/20 16/775/712
f 13/769/706 366/28/28 714/19/19 456/774/711
f 366/28/28 15/27/27 346/18/18 714/19/19
f 340/26/26 715/16/16 346/18/18 15/27/27
f 9/31/31 397/10/10 715/16/16 340/26/26
f 397/10/10 8/9/9 548/12/12 715/16/16
f 435/15/15 280/776/713 14/777/714
f 435/15/15 356/14/14 280/776/713
f 356/14/14 13/769/706 280/776/713
f 548/12/12 542/778/715 11/17/17
f 548/12/12 451/11/11 542/778/715
f 451/11/11 10/779/716 542/778/715
f 562/30/30 716/7/7 397/10/10 9/31/31
f 5/767/704 384/766/703 716/7/7 562/30/30
f 384/766/703 7/765/702 486/8/8 716/7/7
f 411/34/34 717/5/5 594/2/2 2/35/35
f 5/767/704 292/768/705 717/5/5 411/34/34
f 292/768/705 6/22/22 304/6/6 717/5/5
f 496/780/717 718/1/1 494/4/4 4/781/718
f 1/764/701 325/36/36 718/1/1 496/780/717
f 325/36/36 2/35/35 594/2/2 718/1/1
