# Blender v2.78 (sub 0) OBJ File: ''
# www.blender.org
mtllib Pine_Tree_crk_m_01.mtl
o Pine_Tree_crk_m_01
v 1.851602 1.933313 -1.251840
v 3.299459 1.307011 -0.865660
v 3.179967 0.749431 -1.196323
v 1.217203 1.056808 -1.856481
v 3.077590 0.102562 -0.873015
v 1.554063 0.098477 -1.257148
v 1.033474 0.012337 -0.004405
v 3.045605 -0.174518 -0.077952
v 3.109042 0.087251 0.702036
v 1.602626 0.087871 1.239141
v 1.288870 1.040012 1.855969
v 3.223598 0.700288 1.023877
v 3.329757 1.244877 0.699962
v 1.899292 1.922556 1.245079
v 1.474919 2.250399 0.003927
v 3.358512 1.436572 -0.080778
v 2.946676 0.798579 1.894074
v 2.610503 1.975779 1.410316
v 3.030431 2.043606 0.010793
v 2.488701 1.996680 -1.468179
v 2.237905 0.074567 -1.628397
v 2.704997 -0.226984 0.038703
v 2.369678 0.094158 1.438147
v 2.771753 0.779749 -2.117075
v 5.361662 0.203358 -0.344834
v 5.323030 0.028337 -0.226860
v 5.314452 -0.048694 0.074393
v 5.332580 0.031706 0.359611
v 5.374030 0.208432 0.476579
v 5.407948 0.420844 0.357228
v 5.421968 0.481549 0.071062
v 5.399314 0.419381 -0.219806
v 4.281434 0.076873 1.245529
v 4.056550 0.581752 1.810349
v 4.651984 1.377442 1.232645
v 4.378478 1.682804 0.097130
v 4.714427 1.353992 -1.057579
v 4.146765 0.531767 -1.596774
v 4.339985 0.045782 -1.044411
v 3.824197 -0.190157 0.116521
v 6.603627 -0.104130 -0.206610
v 6.586078 -0.188225 0.065871
v 6.605791 -0.100529 0.337437
v 6.638230 0.066104 0.450571
v 6.676918 0.270636 0.335968
v 6.687615 0.338888 0.063743
v 6.675177 0.266347 -0.208098
v 6.635498 0.060412 -0.320960
v 5.837222 -0.321557 0.051396
v 5.514811 0.008651 0.998184
v 5.948599 0.240638 1.309154
v 5.736927 0.992574 0.993907
v 6.137430 1.087765 0.045646
v 5.796204 0.971264 -0.880317
v 5.571825 -0.002225 -0.876047
v 6.026669 0.226904 -1.212076
v 7.480476 0.087390 -0.460290
v 7.511428 0.416459 -0.300776
v 8.913401 -0.070278 0.146033
v 7.410691 -0.249550 -0.299138
v 7.418648 -0.246183 0.489039
v 7.413018 -0.396895 0.094682
v 7.518910 0.423622 0.487427
v 7.491613 0.094340 0.647376
v 7.553017 0.539369 0.092421
v 2.477244 0.750487 0.038018
v 0.282984 -0.008332 -0.093183
v 0.246141 0.564567 -0.061368
v 0.144155 0.692228 0.204934
v 0.174587 -0.000079 0.239074
v -0.282065 -0.000078 -0.092704
v -0.231786 0.687635 -0.054215
v 0.009705 0.692288 -0.208861
v 0.000162 -0.000075 -0.297753
v -0.142207 0.687598 0.221477
v -0.174264 -0.000080 0.239074
v 0.998978 1.191304 0.155176
v 3.232824 0.846383 0.183583
v 3.238385 0.915584 -0.028895
v 0.992614 1.269691 -0.051476
v 0.984155 1.085437 -0.173501
v 3.215597 0.735977 -0.159900
v 3.194989 0.550598 -0.028378
v 1.062742 0.801441 -0.046991
v 1.074400 0.885070 0.212832
v 3.205785 0.619824 0.187000
v 5.317905 -0.014336 -0.078562
v 1.007686 0.938211 -0.114457
v 0.153509 -0.004203 -0.211897
v 5.374115 0.300504 -0.968807
v 3.939439 1.202462 -0.838059
v 2.619560 0.090715 -1.274526
v 2.618808 1.591851 0.981284
v 0.270112 0.276054 -0.079150
v 7.563633 0.251783 0.563023
v 2.500543 0.404786 -1.926297
v 5.940089 1.060209 0.534058
v 2.397854 1.863058 -0.041457
v 2.128145 1.408489 -0.697989
v 6.244352 -0.252677 0.056434
v 3.857133 0.061909 0.895183
v 4.433877 0.946013 -1.366868
v 5.415785 0.455097 0.216473
v 0.886451 1.160974 -0.012167
v 5.729104 0.114782 1.182363
v 4.754310 0.365538 -0.959409
v 2.467007 -0.098606 -0.815935
v 3.058161 -0.055372 -0.484544
v 4.075930 -0.089149 -0.476895
v 4.046040 -0.073355 0.694432
v 3.237354 0.893085 0.081293
v 7.589502 0.467433 -0.099443
v 1.826084 0.904976 -1.037177
v 6.437609 0.692446 0.052844
v 6.658000 0.170375 0.399117
v 4.563159 -0.115389 0.096992
v 1.335007 0.044762 0.618975
v 2.116781 0.905446 -0.176453
v -0.002473 0.698410 0.221440
v 8.219738 -0.185162 0.327632
v 3.185194 1.756493 -0.038173
v -0.118496 0.698461 -0.135641
v 2.315603 0.087451 -1.074434
v 6.593870 0.723352 -0.617658
v 8.279814 0.248145 0.120664
v 6.595260 -0.148926 0.204089
v 3.782412 0.050304 -0.926091
v 1.958186 0.374888 -0.701163
v 8.272547 0.181378 0.326802
v 4.521279 1.556452 0.677847
v 2.011268 -0.094298 -0.045245
v 1.722138 0.300590 0.018421
v 2.762592 2.049339 -0.745923
v 6.566521 -0.369694 0.071382
v 6.098574 -0.050248 -0.533821
v 6.322327 0.143975 0.861082
v 0.083254 0.720962 -0.003024
v 8.266483 0.177862 -0.085135
v 6.682075 0.306896 -0.074613
v 0.135851 0.638457 -0.129262
v 6.664869 0.175662 1.010997
v 8.239965 0.004528 -0.170033
v 5.914102 0.601095 -1.074889
v 2.630031 1.403786 -1.837167
v 3.278406 0.981244 0.883828
v 1.403071 0.562700 -1.561657
v 2.176031 0.910862 -1.545536
v 1.986162 0.369042 0.734281
v 6.071095 -0.043502 0.657326
v 5.669363 0.830320 0.789820
v 5.380718 0.313150 -0.287964
v 3.076118 0.754613 1.472094
v 3.228016 0.833274 -0.104787
v 4.165825 0.316811 1.567621
v 1.463496 0.549132 1.556223
v 1.867033 0.896588 1.078908
v 1.035845 0.842743 0.084420
v 2.782198 1.402318 1.694173
v 1.551606 1.492735 -1.558997
v 6.425077 -0.126597 -0.614588
v 5.080753 0.874649 -0.629400
v 2.703535 0.093208 1.082938
v 5.322770 -0.012645 0.219346
v 7.593565 0.470999 0.289121
v 5.970712 1.048828 -0.431749
v 1.705181 2.083186 0.626200
v 0.198326 0.638429 0.063017
v 2.155672 1.403771 0.737792
v 5.049507 0.888091 0.790883
v 4.244938 1.247553 0.042541
v 2.581023 1.629467 -1.072078
v 3.219361 0.733089 0.198121
v 5.445132 -0.013962 0.797203
v 4.242259 0.274890 -1.360125
v 4.187017 0.496705 1.173449
v 1.681351 2.088213 -0.621731
v -0.161574 0.343758 0.234870
v 1.972228 1.595106 0.023328
v 5.798442 0.102439 -1.072689
v 5.473310 -0.031789 -0.629871
v 4.852300 0.039755 -0.621966
v 2.534990 -0.088376 0.767238
v 5.699736 0.816416 -0.637412
v 5.341917 0.114295 -0.291484
v 5.843519 0.619171 1.180159
v 6.619133 -0.023594 -0.269632
v 2.863944 -0.209634 -0.021716
v 6.241926 0.605080 -0.536473
v 8.205603 -0.264405 0.121838
v 1.310710 0.050026 -0.628615
v 0.955726 1.241509 0.043064
v 4.039120 -0.135248 0.058559
v 0.948879 1.192575 -0.108851
v 7.470588 -0.329338 -0.097524
v 5.391415 0.316467 0.422541
v 4.709133 0.393701 1.142413
v 6.213153 0.617771 0.654672
v 6.621836 -0.018898 0.399860
v 4.087725 0.484220 -1.222304
v 3.204176 0.635817 -0.104509
v 4.553309 1.544865 -0.493637
v 5.411389 0.454339 -0.076717
v 2.658195 0.425488 1.708526
v 0.001671 0.340705 -0.267036
v 6.566620 0.738193 0.764775
v 6.359799 0.135241 -0.751785
v 5.672170 -0.168431 0.539203
v 4.355302 0.983726 1.561035
v 2.115191 1.096553 -0.041435
v 8.213481 -0.186927 -0.084290
v 2.963884 0.770089 -1.681943
v 3.074215 -0.062552 0.321138
v -0.152888 -0.000076 -0.211657
v 8.248674 0.008259 0.412524
v 2.232035 0.875865 1.458811
v 3.127045 0.421461 -1.056579
v 2.133714 1.019848 0.179089
v 6.399258 -0.119196 0.767836
v 7.503789 -0.086784 -0.371435
v 5.518900 1.022853 0.081495
v 6.594070 -0.150739 -0.072782
v 2.825090 2.037399 0.733767
v 2.858315 1.674474 -1.186802
v 1.611564 1.479402 1.559223
v -0.247477 -0.000079 0.079460
v 0.000162 -0.000080 0.259380
v 6.794945 0.846480 0.067221
v 3.165358 0.389212 0.884880
v 2.936488 1.631151 1.067177
v 4.008574 1.193241 0.879735
v 7.553566 0.244774 -0.372242
v 4.899880 1.078003 0.086054
v 3.240701 1.039170 -1.052915
v 3.198672 0.573100 0.083291
v 2.140360 0.749602 0.203943
v 7.514097 -0.081754 0.563816
v 6.683046 0.309082 0.202268
v 5.185004 -0.189471 0.092585
v 5.330132 0.329261 1.142843
v 2.354189 0.073439 0.978582
v -0.190202 0.698422 0.085047
v -0.262326 0.343779 -0.075214
v 3.347545 1.353728 0.318653
v 1.021445 1.036768 0.191617
v 2.128869 0.671360 -0.039301
v 6.655515 0.165306 -0.270386
v 5.353082 0.118545 0.423739
v 6.700093 0.164938 -0.872385
v 3.332098 1.386584 -0.482314
v 0.164691 0.340670 0.234690
v 0.248099 -0.004206 0.079220
v 7.474892 -0.327751 0.291026
v 5.701549 -0.174079 -0.426608
v 4.823308 0.057206 0.798157
v -0.059748 0.730853 0.043783
v 0.912594 1.001553 0.038199
v 2.135022 0.699225 0.085938
v 2.115305 1.007907 -0.116841
v 2.137713 0.884807 0.201839
v 2.122611 0.782447 -0.116325
v 2.124265 1.068424 0.071233
v -0.225058 0.343768 0.084087
v 0.144104 0.306832 -0.184333
v 0.001447 0.343761 0.248652
v -0.138541 0.343790 -0.182185
v 0.230621 0.306814 0.081939
v 6.648587 0.447648 -0.765202
v 6.561812 0.012333 -0.763624
v 6.480226 -0.255900 0.429241
v 6.616565 0.460824 0.908024
v 6.697024 0.799313 -0.284852
v 6.493494 -0.259695 -0.281147
v 6.530570 0.021449 0.909597
v 6.682975 0.807169 0.425542
v 6.228569 0.036679 -0.660040
v 6.302284 0.372130 -0.661403
v 6.327227 0.667288 0.362105
v 6.195323 0.044463 0.776479
v 6.169584 -0.159837 -0.247041
v 6.342054 0.660560 -0.250239
v 6.268332 0.383158 0.775115
v 6.155463 -0.156353 0.365304
v 5.613086 0.935008 -0.285883
v 5.500478 0.582858 0.989025
v 5.311343 -0.112347 0.452815
v 5.422939 0.126548 -0.822029
v 5.538655 0.560991 -0.825883
v 5.597545 0.941911 0.443343
v 5.385962 0.150556 0.992792
v 5.325685 -0.121391 -0.276324
v 4.704231 -0.048376 -0.270126
v 4.994120 0.991497 -0.279552
v 4.880051 0.643876 0.989236
v 4.689472 -0.039523 0.455450
v 4.802532 0.194928 -0.813272
v 4.919287 0.622550 -0.817072
v 4.978131 0.998162 0.446112
v 4.764525 0.218441 0.992948
v 4.013599 0.852017 -1.055274
v 4.129481 1.236201 0.473908
v 4.021973 0.268104 1.058346
v 3.908126 -0.055749 -0.445474
v 4.094076 1.241542 -0.407547
v 4.099813 0.853457 1.050400
v 3.946579 -0.049726 0.492450
v 3.932711 0.255299 -1.103797
v 2.781012 -0.078654 0.549565
v 2.788712 0.416948 -1.515969
v 2.911495 1.235541 -1.467604
v 3.064857 1.714177 0.530639
v 2.889354 0.411191 1.309685
v 2.737812 -0.080355 -0.663195
v 3.024823 1.737478 -0.625650
v 3.008971 1.204783 1.301579
v 2.512706 1.747651 0.481605
v 2.292193 0.462544 1.250996
v 2.159066 -0.024570 -0.571523
v 2.493402 1.767362 -0.568377
v 2.427521 1.245627 1.252382
v 2.178807 -0.031400 0.478271
v 2.243675 0.487258 -1.342312
v 2.379440 1.283222 -1.341115
vt 0.5901 0.3410
vt 0.5819 0.3289
vt 0.5888 0.3223
vt 0.6018 0.3304
vt 0.6021 0.3145
vt 0.5889 0.3130
vt 0.5890 0.3036
vt 0.6023 0.2986
vt 0.5635 0.2758
vt 0.5661 0.2897
vt 0.5564 0.2893
vt 0.5475 0.2756
vt 0.5251 0.3125
vt 0.5419 0.3119
vt 0.5417 0.3216
vt 0.5250 0.3278
vt 0.5626 0.3508
vt 0.5653 0.3353
vt 0.5750 0.3355
vt 0.5784 0.3516
vt 0.5910 0.2873
vt 0.5824 0.2969
vt 0.5758 0.2901
vt 0.5796 0.2760
vt 0.5363 0.2864
vt 0.5493 0.2957
vt 0.5422 0.3022
vt 0.5252 0.2972
vt 0.5358 0.3389
vt 0.5487 0.3284
vt 0.5556 0.3351
vt 0.5467 0.3501
vt 0.5191 0.3121
vt 0.5189 0.3286
vt 0.5073 0.3328
vt 0.5076 0.3124
vt 0.5599 0.2725
vt 0.5428 0.2725
vt 0.5369 0.2633
vt 0.5587 0.2628
vt 0.5889 0.3402
vt 0.6026 0.3278
vt 0.6146 0.3308
vt 0.5961 0.3471
vt 0.5306 0.3403
vt 0.5422 0.3521
vt 0.5358 0.3623
vt 0.5215 0.3476
vt 0.5310 0.2841
vt 0.5193 0.2956
vt 0.5078 0.2919
vt 0.5223 0.2776
vt 0.5900 0.2836
vt 0.5770 0.2724
vt 0.5805 0.2624
vt 0.5976 0.2760
vt 0.6027 0.3113
vt 0.6028 0.2948
vt 0.6146 0.2895
vt 0.6146 0.3101
vt 0.5587 0.3523
vt 0.5753 0.3526
vt 0.5776 0.3633
vt 0.5567 0.3628
vt 0.5953 0.3151
vt 0.5954 0.3277
vt 0.5746 0.3197
vt 0.5743 0.3142
vt 0.5603 0.2824
vt 0.5731 0.2823
vt 0.5660 0.3011
vt 0.5605 0.3011
vt 0.5297 0.3139
vt 0.5296 0.3009
vt 0.5477 0.3092
vt 0.5480 0.3146
vt 0.5623 0.3453
vt 0.5487 0.3451
vt 0.5563 0.3273
vt 0.5616 0.3275
vt 0.5841 0.2924
vt 0.5951 0.3025
vt 0.5740 0.3087
vt 0.5700 0.3049
vt 0.5386 0.2917
vt 0.5475 0.2825
vt 0.5551 0.3011
vt 0.5514 0.3051
vt 0.5393 0.3360
vt 0.5299 0.3270
vt 0.5482 0.3201
vt 0.5523 0.3237
vt 0.5857 0.3365
vt 0.5759 0.3454
vt 0.5669 0.3276
vt 0.5707 0.3237
vt 0.5383 0.3386
vt 0.5483 0.3485
vt 0.5408 0.3639
vt 0.5264 0.3496
vt 0.5382 0.2906
vt 0.5283 0.3007
vt 0.5117 0.2947
vt 0.5261 0.2800
vt 0.5863 0.2907
vt 0.5764 0.2806
vt 0.5817 0.2654
vt 0.5961 0.2800
vt 0.5962 0.3148
vt 0.5962 0.3008
vt 0.6105 0.2947
vt 0.6104 0.3151
vt 0.5623 0.3486
vt 0.5763 0.3486
vt 0.5814 0.3640
vt 0.5611 0.3640
vt 0.5283 0.3147
vt 0.5284 0.3287
vt 0.5120 0.3353
vt 0.5118 0.3150
vt 0.5623 0.2806
vt 0.5482 0.2806
vt 0.5405 0.2654
vt 0.5611 0.2654
vt 0.5863 0.3387
vt 0.5962 0.3288
vt 0.6103 0.3354
vt 0.5958 0.3497
vt 0.5829 0.2943
vt 0.5913 0.3026
vt 0.5696 0.3130
vt 0.5681 0.3115
vt 0.5429 0.2944
vt 0.5512 0.2861
vt 0.5625 0.3098
vt 0.5609 0.3113
vt 0.5426 0.3344
vt 0.5344 0.3259
vt 0.5594 0.3172
vt 0.5610 0.3187
vt 0.5828 0.3345
vt 0.5746 0.3430
vt 0.5666 0.3200
vt 0.5680 0.3185
vt 0.5912 0.3144
vt 0.5912 0.3261
vt 0.5694 0.3170
vt 0.5695 0.3150
vt 0.5629 0.2861
vt 0.5746 0.2860
vt 0.5667 0.3099
vt 0.5646 0.3098
vt 0.5345 0.3142
vt 0.5346 0.3026
vt 0.5593 0.3129
vt 0.5594 0.3151
vt 0.5627 0.3429
vt 0.5509 0.3428
vt 0.5625 0.3202
vt 0.5646 0.3201
vt 0.5834 0.3341
vt 0.5925 0.3251
vt 0.6121 0.3359
vt 0.5968 0.3508
vt 0.5397 0.3340
vt 0.5487 0.3429
vt 0.5390 0.3655
vt 0.5240 0.3505
vt 0.5396 0.2902
vt 0.5306 0.2994
vt 0.5085 0.2928
vt 0.5236 0.2774
vt 0.5926 0.3122
vt 0.5927 0.2994
vt 0.6127 0.2928
vt 0.6124 0.3144
vt 0.5615 0.3430
vt 0.5742 0.3431
vt 0.5814 0.3657
vt 0.5602 0.3656
vt 0.5307 0.3122
vt 0.5308 0.3250
vt 0.5090 0.3356
vt 0.5087 0.3142
vt 0.5616 0.2810
vt 0.5487 0.2810
vt 0.5386 0.2620
vt 0.5603 0.2620
vt 0.5836 0.2902
vt 0.5745 0.2810
vt 0.5820 0.2620
vt 0.5974 0.2774
vt 0.4419 0.3316
vt 0.4358 0.3313
vt 0.4398 0.3241
vt 0.4521 0.3229
vt 0.4470 0.3273
vt 0.4449 0.3198
vt 0.4443 0.2993
vt 0.4487 0.3045
vt 0.4410 0.3079
vt 0.4207 0.3094
vt 0.4252 0.3045
vt 0.4292 0.3130
vt 0.4296 0.3309
vt 0.4257 0.3264
vt 0.4337 0.3238
vt 0.4531 0.3098
vt 0.4526 0.3163
vt 0.4454 0.3132
vt 0.4297 0.2996
vt 0.4370 0.2994
vt 0.4337 0.3081
vt 0.4218 0.3218
vt 0.4212 0.3156
vt 0.4297 0.3192
vt 0.4046 0.3138
vt 0.4044 0.2994
vt 0.4393 0.2803
vt 0.4534 0.2808
vt 0.4717 0.3147
vt 0.4715 0.3284
vt 0.4145 0.3381
vt 0.4047 0.3281
vt 0.4148 0.2896
vt 0.4251 0.2799
vt 0.4627 0.2909
vt 0.4719 0.3010
vt 0.4616 0.3381
vt 0.4518 0.3479
vt 0.4381 0.3480
vt 0.4243 0.3480
vt 0.6099 0.2937
vt 0.6098 0.3127
vt 0.5868 0.3040
vt 0.5824 0.3592
vt 0.5630 0.3596
vt 0.5731 0.3367
vt 0.5161 0.3337
vt 0.5161 0.3147
vt 0.5400 0.3239
vt 0.5436 0.2682
vt 0.5631 0.2678
vt 0.5537 0.2912
vt 0.6098 0.3317
vt 0.5961 0.3454
vt 0.5868 0.3230
vt 0.5435 0.3600
vt 0.5298 0.3469
vt 0.5537 0.3371
vt 0.5161 0.2957
vt 0.5299 0.2819
vt 0.5400 0.3049
vt 0.5825 0.2674
vt 0.5962 0.2806
vt 0.5731 0.2908
vt 0.8244 0.9058
vt 0.8242 0.9159
vt 0.8180 0.9181
vt 0.8182 0.9070
vt 0.7874 0.9070
vt 0.7876 0.9181
vt 0.7815 0.9179
vt 0.7812 0.9068
vt 0.8120 0.9072
vt 0.8119 0.9182
vt 0.8058 0.9183
vt 0.8059 0.9073
vt 0.8368 0.9058
vt 0.8367 0.9159
vt 0.8305 0.9136
vt 0.8306 0.9045
vt 0.7997 0.9073
vt 0.7998 0.9182
vt 0.7938 0.9182
vt 0.7936 0.9073
vt 0.7991 0.9479
vt 0.7995 0.9769
vt 0.7933 0.9769
vt 0.7936 0.9475
vt 0.8358 0.9488
vt 0.8363 0.9775
vt 0.8302 0.9775
vt 0.8303 0.9495
vt 0.8113 0.9488
vt 0.8119 0.9770
vt 0.8058 0.9769
vt 0.8046 0.9483
vt 0.7880 0.9479
vt 0.7872 0.9770
vt 0.7810 0.9772
vt 0.7825 0.9483
vt 0.8242 0.9495
vt 0.8241 0.9773
vt 0.8181 0.9772
vt 0.8181 0.9494
vt 0.8369 0.8088
vt 0.8370 0.7950
vt 0.8493 0.7950
vt 0.8512 0.8088
vt 0.8369 0.8354
vt 0.8288 0.8290
vt 0.8450 0.8290
vt 0.7867 0.8146
vt 0.7748 0.8146
vt 0.7748 0.8021
vt 0.7867 0.7982
vt 0.8185 0.8150
vt 0.8086 0.8249
vt 0.8086 0.8047
vt 0.7987 0.8146
vt 0.7987 0.7943
vt 0.7987 0.8349
vt 0.7867 0.8311
vt 0.7748 0.8272
vt 0.8369 0.8226
vt 0.8531 0.8226
vt 0.8207 0.8226
vt 0.8226 0.8088
vt 0.8246 0.7950
vt 0.8242 0.9216
vt 0.8180 0.9216
vt 0.8304 0.9215
vt 0.7889 0.9188
vt 0.7839 0.9194
vt 0.7938 0.9182
vt 0.8107 0.9207
vt 0.8034 0.9197
vt 0.8353 0.9201
vt 0.8402 0.9187
vt 0.8413 0.9481
vt 0.8424 0.9774
vt 0.7986 0.9190
vt 0.7997 0.8964
vt 0.7934 0.8963
vt 0.8060 0.8964
vt 0.8368 0.8957
vt 0.8307 0.8954
vt 0.8430 0.8959
vt 0.8429 0.9070
vt 0.8429 0.9181
vt 0.8122 0.8961
vt 0.8184 0.8959
vt 0.7872 0.8960
vt 0.7810 0.8956
vt 0.8246 0.8957
vt 0.5638 0.3142
vt 0.4617 0.3642
vt 0.4403 0.3647
vt 0.4190 0.3652
vt 0.4908 0.3338
vt 0.4762 0.3490
vt 0.4625 0.2623
vt 0.4766 0.2772
vt 0.4908 0.2922
vt 0.3882 0.2895
vt 0.4044 0.2748
vt 0.4206 0.2601
vt 0.4033 0.3498
vt 0.3877 0.3344
vt 0.4908 0.3130
vt 0.4416 0.2612
vt 0.3880 0.3119
vt 0.4377 0.3166
vt 0.5728 0.3059
vt 0.5699 0.3030
vt 0.5670 0.3001
vt 0.5628 0.3001
vt 0.5587 0.3001
vt 0.5526 0.3060
vt 0.5526 0.3102
vt 0.5525 0.3144
vt 0.5585 0.3204
vt 0.5627 0.3204
vt 0.5670 0.3204
vt 0.5729 0.3143
vt 0.5728 0.3101
vt 0.5556 0.3030
vt 0.5555 0.3174
vt 0.5699 0.3174
vt 0.5825 0.3660
vt 0.5609 0.3658
vt 0.5392 0.3655
vt 0.5094 0.3345
vt 0.5097 0.3134
vt 0.5100 0.2923
vt 0.5399 0.2625
vt 0.5612 0.2623
vt 0.5825 0.2622
vt 0.6129 0.2922
vt 0.6129 0.3137
vt 0.6129 0.3352
vt 0.5977 0.3506
vt 0.5243 0.3500
vt 0.5250 0.2774
vt 0.5977 0.2772
vt 0.5713 0.3332
vt 0.5768 0.3277
vt 0.5822 0.3222
vt 0.5711 0.2959
vt 0.5634 0.2959
vt 0.5558 0.2959
vt 0.5449 0.3066
vt 0.5448 0.3144
vt 0.5448 0.3221
vt 0.5558 0.3331
vt 0.5635 0.3331
vt 0.5821 0.3145
vt 0.5820 0.3068
vt 0.5766 0.3013
vt 0.5504 0.3012
vt 0.5503 0.3276
vt 0.6163 0.3356
vt 0.6006 0.3494
vt 0.5849 0.3632
vt 0.5412 0.3629
vt 0.5264 0.3483
vt 0.5115 0.3338
vt 0.5115 0.2926
vt 0.5257 0.2783
vt 0.5399 0.2639
vt 0.5803 0.2635
vt 0.5983 0.2799
vt 0.6163 0.2963
vt 0.5631 0.3630
vt 0.5115 0.3132
vt 0.5601 0.2637
vt 0.6163 0.3159
vt 0.5485 0.3418
vt 0.5608 0.3418
vt 0.5730 0.3419
vt 0.5906 0.3249
vt 0.5908 0.3125
vt 0.5911 0.3001
vt 0.5824 0.2912
vt 0.5736 0.2823
vt 0.5487 0.2818
vt 0.5397 0.2905
vt 0.5307 0.2993
vt 0.5306 0.3244
vt 0.5396 0.3331
vt 0.5818 0.3334
vt 0.5611 0.2821
vt 0.5307 0.3119
vt 0.5231 0.3496
vt 0.5378 0.3650
vt 0.5083 0.3341
vt 0.5234 0.2770
vt 0.5081 0.2923
vt 0.5386 0.2618
vt 0.5995 0.2776
vt 0.5833 0.2618
vt 0.6157 0.2935
vt 0.5598 0.3663
vt 0.5818 0.3677
vt 0.5082 0.3132
vt 0.5610 0.2618
vt 0.6152 0.3160
vt 0.6148 0.3385
vt 0.5983 0.3531
vn 0.3617 0.3659 -0.8575
vn -0.7955 0.1455 -0.5883
vn -0.8603 0.1300 -0.4930
vn 0.3050 -0.0465 -0.9512
vn 0.2175 -0.4597 -0.8610
vn -0.7936 0.1344 -0.5935
vn -0.9216 0.2167 -0.3220
vn 0.1182 -0.8102 -0.5741
vn -0.0227 -0.9838 0.1778
vn -0.9694 -0.1577 -0.1884
vn -0.9316 0.1917 0.3089
vn 0.1646 -0.8177 0.5515
vn 0.4413 0.3246 0.8366
vn -0.7327 0.1582 0.6620
vn -0.8808 0.3997 0.2539
vn 0.4977 0.6832 0.5344
vn 0.4023 0.9051 -0.1377
vn -0.7612 0.6319 0.1461
vn -0.9251 0.3354 -0.1781
vn 0.4347 0.7169 -0.5451
vn -0.0351 -0.9810 -0.1906
vn -0.9821 -0.1161 0.1481
vn -0.9919 0.0389 0.1213
vn -0.0733 -0.9973 -0.0057
vn 0.2890 -0.4627 0.8381
vn -0.7425 0.1676 0.6485
vn -0.8093 0.1693 0.5625
vn 0.3824 -0.0697 0.9214
vn 0.4291 0.8909 0.1492
vn -0.7412 0.6685 -0.0615
vn -0.8044 0.5916 0.0537
vn 0.4010 0.9161 0.0065
vn -0.8769 -0.2994 -0.3760
vn -0.9017 0.1764 -0.3947
vn -0.3890 0.0410 0.9203
vn -0.6310 0.2125 0.7461
vn -0.7820 -0.5683 0.2560
vn -0.8512 -0.5246 0.0145
vn -0.5565 0.8294 -0.0488
vn -0.6575 0.7376 0.1539
vn -0.2102 0.9414 0.2638
vn -0.4364 0.8011 0.4096
vn -0.9114 -0.3167 -0.2629
vn -0.9111 -0.2624 0.3178
vn -0.6597 0.6146 -0.4324
vn -0.4605 0.7865 -0.4116
vn -0.9116 -0.2668 0.3129
vn -0.7445 -0.0210 0.6673
vn -0.8361 -0.4945 -0.2373
vn -0.8390 -0.4265 -0.3378
vn -0.6568 0.6344 0.4077
vn -0.6317 0.7656 -0.1217
vn -0.8152 -0.3374 0.4708
vn -0.7747 -0.4937 0.3951
vn -0.6892 0.6364 -0.3463
vn -0.6815 0.3016 -0.6668
vn -0.6539 0.5994 0.4617
vn -0.8689 0.1401 0.4747
vn -0.3955 0.1088 -0.9120
vn -0.7655 -0.0953 -0.6363
vn -0.2711 0.9193 -0.2851
vn -0.1986 0.9800 -0.0086
vn -0.8977 -0.2293 -0.3761
vn -0.9325 -0.2881 -0.2179
vn 0.3181 -0.6659 -0.6748
vn 0.5414 -0.1062 -0.8340
vn -0.8303 0.5554 -0.0471
vn -0.8814 -0.4543 -0.1298
vn 0.0743 -0.9664 0.2462
vn 0.0704 -0.9974 0.0161
vn -0.9506 0.1624 0.2644
vn -0.7597 0.1006 0.6424
vn 0.5328 0.4311 0.7282
vn 0.4763 -0.1181 0.8713
vn -0.9052 0.4081 0.1184
vn -0.5096 0.8444 0.1652
vn 0.5431 0.8086 -0.2263
vn 0.5474 0.8368 -0.0126
vn -0.8354 0.5479 -0.0442
vn -0.6822 0.5297 -0.5040
vn 0.0828 -0.9745 -0.2085
vn 0.1907 -0.8753 -0.4444
vn -0.9175 -0.0162 -0.3974
vn -0.7313 0.0851 -0.6767
vn 0.2659 -0.6457 0.7158
vn 0.1623 -0.8565 0.4900
vn -0.8824 0.0976 0.4602
vn -0.9139 -0.3484 0.2082
vn 0.5389 0.8174 0.2036
vn 0.5596 0.6707 0.4868
vn -0.7382 0.6208 0.2640
vn -0.7079 0.5534 0.4389
vn 0.5664 0.4639 -0.6812
vn 0.5713 0.6720 -0.4713
vn -0.7035 0.6623 -0.2577
vn -0.4309 0.8982 -0.0872
vn -0.5452 0.5143 -0.6620
vn -0.3455 0.8209 -0.4548
vn -0.8751 -0.4815 0.0492
vn -0.8348 -0.5208 0.1783
vn -0.7797 -0.6259 -0.0202
vn -0.8544 -0.3540 -0.3804
vn -0.4345 0.7808 0.4490
vn -0.7115 0.6231 0.3249
vn -0.7455 0.0117 0.6664
vn -0.8668 -0.3420 0.3629
vn -0.4257 0.7660 -0.4816
vn -0.5903 0.6697 -0.4506
vn -0.5465 0.5288 0.6494
vn -0.6714 0.2455 0.6993
vn -0.7573 0.0523 -0.6510
vn -0.8426 -0.5049 -0.1876
vn -0.1213 0.9721 -0.2006
vn -0.1029 0.9946 -0.0150
vn -0.9925 -0.1217 -0.0129
vn -0.9361 -0.0088 0.3516
vn -0.7382 -0.0038 -0.6745
vn -0.6662 0.2313 -0.7090
vn -0.7573 0.0661 0.6497
vn -0.5771 0.6997 0.4212
vn -0.7849 -0.6196 -0.0005
vn -0.7653 -0.6436 -0.0107
vn -0.7675 0.6409 -0.0159
vn -0.6969 0.6189 -0.3622
vn -0.1142 0.9785 0.1717
vn -0.3406 0.8351 0.4321
vn -0.8830 -0.4658 -0.0572
vn -0.9250 -0.0070 -0.3800
vn 0.0109 -0.9762 -0.2168
vn 0.1189 -0.8734 -0.4723
vn -0.8812 0.4215 -0.2141
vn -0.8087 -0.2185 0.5461
vn 0.2532 -0.6439 0.7220
vn 0.1284 -0.8616 0.4911
vn -0.8465 0.4758 0.2387
vn -0.3145 0.5844 0.7481
vn 0.5162 0.8464 0.1313
vn 0.5713 0.6257 0.5311
vn -0.9611 0.2667 0.0714
vn -0.6264 0.6579 -0.4181
vn 0.4945 0.2390 -0.8357
vn 0.5701 0.6222 -0.5365
vn -0.9573 0.2373 -0.1650
vn -0.6721 -0.2221 -0.7064
vn 0.2427 -0.6568 -0.7139
vn 0.4130 -0.2187 -0.8841
vn -0.7382 0.2204 -0.6375
vn -0.3573 0.5424 -0.7604
vn 0.0178 -0.9701 0.2421
vn 0.0045 -0.9999 0.0132
vn -0.9979 -0.0638 -0.0109
vn -0.7985 -0.2275 -0.5574
vn 0.5043 0.2533 0.8255
vn 0.4245 -0.2037 0.8822
vn -0.7442 0.2323 0.6263
vn -0.6806 -0.2436 0.6910
vn 0.5162 0.8472 -0.1260
vn 0.5080 0.8614 0.0033
vn -0.7733 0.6337 -0.0206
vn -0.6381 0.6699 0.3795
vn -0.1468 0.9230 -0.3556
vn -0.1625 0.9867 -0.0035
vn -0.9565 -0.2894 -0.0357
vn -0.9585 -0.1638 -0.2334
vn -0.7397 -0.3848 -0.5521
vn -0.6971 0.2810 -0.6596
vn -0.4799 -0.0782 0.8738
vn -0.7660 0.0619 0.6399
vn -0.7536 -0.5755 0.3177
vn -0.7942 -0.6077 -0.0056
vn -0.6702 0.7415 -0.0308
vn -0.7328 0.6633 0.1518
vn -0.1594 0.9242 0.3470
vn -0.1987 0.8931 0.4037
vn -0.8834 0.1285 -0.4506
vn -0.9683 -0.1619 0.1903
vn -0.2913 0.8300 -0.4757
vn -0.1900 0.8861 -0.4228
vn -0.9028 0.1248 0.4115
vn -0.5319 0.3240 0.7823
vn -0.7375 -0.5894 -0.3297
vn -0.7316 -0.5049 -0.4581
vn -0.7754 0.5232 0.3535
vn -0.7261 0.6562 -0.2054
vn -0.7719 -0.3913 0.5011
vn -0.7530 -0.5006 0.4271
vn -0.7643 0.5155 -0.3875
vn -0.7290 0.0784 -0.6800
vn -0.2991 0.8478 0.4379
vn -0.7378 0.2961 0.6066
vn -0.4219 -0.1111 -0.8998
vn -0.5049 0.2999 -0.8094
vn 0.3974 -0.0944 -0.9128
vn 0.4001 0.3894 -0.8296
vn 0.3875 -0.0392 -0.9210
vn 0.1397 -0.8007 -0.5825
vn 0.2619 -0.5277 -0.8080
vn 0.2827 -0.7200 -0.6338
vn 0.1114 -0.7946 0.5968
vn 0.0789 -0.9343 0.3475
vn 0.2434 -0.7214 0.6483
vn 0.3856 0.7051 0.5951
vn 0.3496 0.3983 0.8480
vn 0.3984 0.6741 0.6220
vn 0.4173 0.6888 -0.5928
vn 0.3774 0.8752 -0.3027
vn 0.4319 0.6504 -0.6248
vn 0.0521 -0.9986 0.0015
vn 0.0995 -0.9336 -0.3443
vn 0.2188 -0.9758 0.0025
vn 0.3389 -0.0773 0.9377
vn 0.2160 -0.5101 0.8325
vn 0.3336 -0.0248 0.9424
vn 0.3772 0.9261 -0.0104
vn 0.3603 0.8888 0.2832
vn 0.4160 0.9093 -0.0117
vn 0.3570 0.8976 0.2585
vn 0.3890 0.7191 0.5758
vn 0.1619 -0.6987 0.6968
vn 0.0321 -0.8604 0.5086
vn -0.0245 -0.9439 -0.3293
vn 0.0506 -0.8696 -0.4911
vn 0.3731 0.8871 -0.2719
vn 0.3676 0.9300 -0.0071
vn 0.3852 0.4218 0.8208
vn 0.3551 -0.1490 0.9229
vn -0.0406 -0.9432 0.3299
vn -0.0413 -0.9991 0.0003
vn 0.1870 -0.7297 -0.6577
vn 0.4123 -0.1664 -0.8957
vn 0.4334 0.4349 -0.7893
vn 0.4180 0.7136 -0.5622
vn -0.7714 0.1192 -0.6251
vn -0.7855 -0.4816 -0.3887
vn -0.8179 0.1320 0.5600
vn -0.9897 -0.1428 0.0122
vn -0.8795 -0.1804 0.4404
vn -0.4581 0.8888 0.0141
vn -0.7479 0.1170 0.6534
vn -0.5801 0.6874 0.4370
vn -0.8201 0.1371 -0.5555
vn -0.7914 0.6108 0.0245
vn -0.7289 0.5932 -0.3417
vn -0.8358 -0.5488 0.0152
vn -0.6676 -0.6227 -0.4081
vn -0.8951 -0.1684 -0.4127
vn -0.7632 0.5873 0.2696
vn -0.6481 -0.6120 0.4533
vn -0.7677 -0.4875 0.4159
vn -0.7642 0.5949 -0.2492
vn -0.3786 0.7869 0.4873
vn -0.7004 0.5952 0.3940
vn -0.9412 -0.2222 -0.2544
vn -0.4112 0.8033 -0.4309
vn -0.6066 0.6900 -0.3949
vn -0.9368 -0.2169 0.2744
vn 0.9476 0.0666 0.3125
vn 0.8651 0.4939 0.0877
vn 0.5258 0.6071 0.5957
vn 0.5956 0.0721 0.8000
vn -0.5734 0.1100 -0.8119
vn -0.4081 0.7025 -0.5831
vn 0.0793 0.6313 -0.7715
vn 0.0117 0.1328 -0.9911
vn 0.0137 0.0477 0.9988
vn 0.0136 0.6794 0.7337
vn -0.4857 0.5417 0.6860
vn -0.5844 0.0606 0.8092
vn 0.5817 0.1051 -0.8066
vn 0.6413 0.5122 -0.5713
vn 0.9013 0.3242 -0.2873
vn 0.9470 0.0934 -0.3072
vn -0.9489 0.0652 0.3088
vn -0.6956 0.6817 0.2269
vn -0.7899 0.5583 -0.2536
vn -0.9457 0.0988 -0.3096
vn 0.1401 0.9374 0.3188
vn 0.1463 0.9382 0.3135
vn 0.1531 0.9395 -0.3065
vn 0.1470 0.9396 -0.3091
vn -0.0627 -0.4990 -0.8643
vn -0.0618 -0.5391 -0.8400
vn -0.1072 -0.9364 -0.3340
vn -0.1117 -0.9281 -0.3553
vn 0.0131 0.1009 0.9948
vn 0.0132 0.0546 0.9984
vn 0.0906 0.5899 0.8024
vn 0.0862 0.6162 0.7829
vn 0.0939 0.5714 -0.8153
vn 0.1005 0.5757 -0.8115
vn 0.0173 0.0099 -0.9998
vn 0.0135 0.0413 -0.9991
vn -0.1151 -0.9441 0.3090
vn -0.1100 -0.9445 0.3096
vn -0.0595 -0.5586 0.8273
vn -0.0631 -0.5433 0.8372
vn -0.9461 -0.2939 0.1363
vn -0.5822 -0.7659 0.2728
vn -0.3443 -0.4726 0.8112
vn -0.4814 -0.0130 0.8764
vn -0.2270 0.9297 -0.2899
vn -0.5262 0.5104 -0.6801
vn -0.4851 0.8232 0.2950
vn -0.0653 0.9976 0.0225
vn 0.3372 0.9351 -0.1085
vn -0.9769 0.2123 -0.0257
vn -0.3705 0.5436 0.7531
vn -0.4406 0.0110 -0.8976
vn -0.5463 -0.5109 -0.6638
vn -0.3932 -0.8485 -0.3541
vn -0.9505 0.0500 0.3066
vn -0.9451 0.0793 -0.3170
vn -0.5931 0.0407 0.8041
vn 0.5850 0.0804 -0.8071
vn 0.9454 0.0702 -0.3181
vn 0.0032 0.0984 -0.9951
vn 0.0001 0.0236 0.9997
vn 0.5951 0.0364 0.8029
vn -0.5845 0.0859 -0.8068
vn 0.9509 0.0419 0.3066
vn -0.9724 0.2330 0.0092
vn 0.9943 -0.1024 0.0292
usemtl None
s 1
f 322/1/1 233/2/2 3/3/3 147/4/4
f 321/5/5 216/6/6 5/7/7 123/8/8
f 320/9/9 212/10/10 9/11/11 240/12/12
f 319/13/13 145/14/14 13/15/15 93/16/16
f 318/17/17 249/18/18 2/19/19 171/20/20
f 317/21/21 108/22/22 8/23/23 131/24/24
f 316/25/25 228/26/26 12/27/27 215/28/28
f 315/29/29 243/30/30 16/31/31 98/32/32
f 314/33/33 152/34/34 17/35/35 158/36/36
f 313/37/37 121/38/38 19/39/39 133/40/40
f 312/41/41 92/42/42 21/43/43 107/44/44
f 311/45/45 162/46/46 23/47/47 203/48/48
f 310/49/49 229/50/50 18/51/51 222/52/52
f 309/53/53 223/54/54 20/55/55 144/56/56
f 308/57/57 211/58/58 24/59/59 96/60/60
f 307/61/61 187/62/62 22/63/63 182/64/64
f 306/65/65 199/66/66 25/67/67 184/68/68
f 305/69/69 192/70/70 27/71/71 163/72/72
f 304/73/73 175/74/74 29/75/75 195/76/76
f 303/77/77 170/78/78 31/79/79 202/80/80
f 302/81/81 127/82/82 26/83/83 87/84/84
f 301/85/85 101/86/86 28/87/87 247/88/88
f 300/89/89 230/90/90 30/91/91 103/92/92
f 299/93/93 91/94/94 32/95/95 151/96/96
f 298/97/97 254/98/98 33/99/99 154/100/100
f 297/101/101 169/102/102 35/103/103 130/104/104
f 296/105/105 161/106/106 37/107/107 102/108/108
f 295/109/109 106/110/110 38/111/111 174/112/112
f 294/113/113 116/114/114 40/115/115 110/116/116
f 293/117/117 196/118/118 34/119/119 208/120/120
f 292/121/121 232/122/122 36/123/123 201/124/124
f 291/125/125 181/126/126 39/127/127 109/128/128
f 290/129/129 180/130/130 41/131/131 221/132/132
f 289/133/133 173/134/134 43/135/135 198/136/136
f 288/137/137 150/138/138 45/139/139 237/140/140
f 287/141/141 183/142/142 47/143/143 246/144/144
f 286/145/145 90/146/146 48/147/147 186/148/148
f 285/149/149 238/150/150 42/151/151 126/152/152
f 284/153/153 239/154/154 44/155/155 115/156/156
f 283/157/157 220/158/158 46/159/159 139/160/160
f 282/161/161 100/162/162 49/163/163 207/164/164
f 281/165/165 136/166/166 51/167/167 185/168/168
f 280/169/169 114/170/170 53/171/171 165/172/172
f 279/173/173 135/174/174 55/175/175 253/176/176
f 278/177/177 149/178/178 50/179/179 105/180/180
f 277/181/181 197/182/182 52/183/183 97/184/184
f 276/185/185 188/186/186 54/187/187 143/188/188
f 275/189/189 206/190/190 56/191/191 179/192/192
f 57/193/193 231/194/194 142/195/195
f 60/196/196 219/197/197 210/198/198
f 61/199/199 252/200/200 120/201/201
f 63/202/202 95/203/203 129/204/204
f 58/205/205 112/206/206 138/207/207
f 62/208/208 194/209/209 189/210/210
f 64/211/211 236/212/212 214/213/213
f 65/214/214 164/215/215 125/216/216
f 274/217/217 205/218/218 63/202/202 164/215/215
f 273/219/219 218/220/220 61/199/199 236/212/212
f 272/221/221 160/222/222 60/196/196 194/209/209
f 271/223/223 227/224/224 65/214/214 112/206/206
f 270/225/225 141/226/226 64/211/211 95/203/203
f 269/227/227 134/228/228 62/208/208 252/200/200
f 268/229/229 248/230/230 57/193/193 219/197/197
f 267/231/231 124/232/232 58/205/205 231/194/194
f 4/233/233 146/234/234 113/235/235
f 7/236/236 117/237/237 132/238/238
f 11/239/239 224/240/240 156/241/241
f 15/242/242 176/243/243 178/244/244
f 6/245/245 190/246/246 128/247/247
f 10/248/248 155/249/249 148/250/250
f 14/251/251 166/252/252 168/253/253
f 1/254/254 159/255/255 99/256/256
f 266/257/257 167/258/258 69/259/259 250/260/260
f 265/261/261 122/262/262 73/263/263 204/264/264
f 264/265/265 119/266/266 75/267/267 177/268/268
f 263/269/269 140/270/270 68/271/271 94/272/272
f 262/273/273 241/274/274 72/275/275 242/276/276
f 261/277/277 111/278/278 79/279/279 209/280/280
f 260/281/281 200/282/282 83/283/283 245/284/284
f 259/285/285 172/286/286 78/287/287 217/288/288
f 258/289/289 153/290/290 82/291/291 118/292/292
f 257/293/293 234/294/294 86/295/295 235/296/296
f 256/297/297 157/298/298 85/299/299 244/300/300
f 80/301/301 193/302/302 191/303/303
f 255/304/304 241/305/274 75/306/267 119/307/266
f 68/308/271 140/309/270 167/310/258
f 167/310/258 137/311/305 69/312/259
f 167/310/258 140/309/270 137/311/305
f 140/309/270 73/313/263 137/311/305
f 137/311/305 255/304/304 119/307/266 69/312/259
f 73/313/263 122/314/262 255/304/304 137/311/305
f 122/314/262 72/315/275 241/305/274 255/304/304
f 191/303/303 104/316/306 77/317/307
f 191/303/303 193/302/302 104/316/306
f 193/302/302 81/318/308 104/316/306
f 104/316/306 256/297/297 244/300/300 77/317/307
f 81/318/308 88/319/309 256/297/297 104/316/306
f 88/319/309 84/320/310 157/298/298 256/297/297
f 157/321/298 257/293/293 235/296/296 85/322/299
f 84/323/310 245/284/284 257/293/293 157/321/298
f 245/284/284 83/283/283 234/294/294 257/293/293
f 193/324/302 258/289/289 118/292/292 81/325/308
f 80/326/301 209/280/280 258/289/289 193/324/302
f 209/280/280 79/279/279 153/290/290 258/289/289
f 244/327/300 259/285/285 217/288/288 77/328/307
f 85/322/299 235/296/296 259/285/285 244/327/300
f 235/296/296 86/295/295 172/286/286 259/285/285
f 88/329/309 260/281/281 245/284/284 84/323/310
f 81/330/308 118/331/292 260/281/281 88/329/309
f 118/331/292 82/332/291 200/282/282 260/281/281
f 191/333/303 261/277/277 209/280/280 80/326/301
f 77/328/307 217/288/288 261/277/277 191/333/303
f 217/288/288 78/287/287 111/278/278 261/277/277
f 225/334/311 262/273/273 242/276/276 71/335/312
f 76/336/313 177/268/268 262/273/273 225/334/311
f 177/268/268 75/267/267 241/274/274 262/273/273
f 89/337/314 263/269/269 94/272/272 67/338/315
f 74/339/316 204/340/264 263/269/269 89/337/314
f 204/340/264 73/341/263 140/270/270 263/269/269
f 226/342/317 264/265/265 177/268/268 76/336/313
f 70/343/318 250/260/260 264/265/265 226/342/317
f 250/260/260 69/259/259 119/266/266 264/265/265
f 213/344/319 265/261/261 204/264/264 74/345/316
f 71/335/312 242/276/276 265/261/261 213/344/319
f 242/276/276 72/275/275 122/262/262 265/261/261
f 251/346/320 266/257/257 250/260/260 70/343/318
f 67/338/315 94/272/272 266/257/257 251/346/320
f 94/272/272 68/271/271 167/258/258 266/257/257
f 99/256/256 113/235/235 66/347/321
f 99/256/256 159/255/255 113/235/235
f 159/255/255 4/233/233 113/235/235
f 168/253/253 178/244/244 66/347/321
f 168/253/253 166/252/252 178/244/244
f 166/252/252 15/242/242 178/244/244
f 148/250/250 156/241/241 66/347/321
f 148/250/250 155/249/249 156/241/241
f 155/249/249 11/239/239 156/241/241
f 128/247/247 132/238/238 66/347/321
f 128/247/247 190/246/246 132/238/238
f 190/246/246 7/236/236 132/238/238
f 178/244/244 99/256/256 66/347/321
f 178/244/244 176/243/243 99/256/256
f 176/243/243 1/254/254 99/256/256
f 156/241/241 168/253/253 66/347/321
f 156/241/241 224/240/240 168/253/253
f 224/240/240 14/251/251 168/253/253
f 132/238/238 148/250/250 66/347/321
f 132/238/238 117/237/237 148/250/250
f 117/237/237 10/248/248 148/250/250
f 113/235/235 128/247/247 66/347/321
f 113/235/235 146/234/234 128/247/247
f 146/234/234 6/245/245 128/247/247
f 248/230/230 267/231/231 231/194/194 57/193/193
f 56/348/191 143/349/188 267/231/231 248/230/230
f 143/349/188 54/350/187 124/232/232 267/231/231
f 160/222/222 268/229/229 219/197/197 60/196/196
f 55/351/175 179/352/192 268/229/229 160/222/222
f 179/352/192 56/348/191 248/230/230 268/229/229
f 218/220/220 269/227/227 252/200/200 61/199/199
f 50/353/179 207/354/164 269/227/227 218/220/220
f 207/354/164 49/355/163 134/228/228 269/227/227
f 205/218/218 270/225/225 95/203/203 63/202/202
f 52/356/183 185/357/168 270/225/225 205/218/218
f 185/357/168 51/358/167 141/226/226 270/225/225
f 124/232/232 271/223/223 112/206/206 58/205/205
f 54/350/187 165/359/172 271/223/223 124/232/232
f 165/359/172 53/360/171 227/224/224 271/223/223
f 134/228/228 272/221/221 194/209/209 62/208/208
f 49/355/163 253/361/176 272/221/221 134/228/228
f 253/361/176 55/351/175 160/222/222 272/221/221
f 141/226/226 273/219/219 236/212/212 64/211/211
f 51/358/167 105/362/180 273/219/219 141/226/226
f 105/362/180 50/353/179 218/220/220 273/219/219
f 227/224/224 274/217/217 164/215/215 65/214/214
f 53/360/171 97/363/184 274/217/217 227/224/224
f 97/363/184 52/356/183 205/218/218 274/217/217
f 125/216/216 129/204/204 59/364/322
f 125/216/216 164/215/215 129/204/204
f 164/215/215 63/202/202 129/204/204
f 214/213/213 120/201/201 59/364/322
f 214/213/213 236/212/212 120/201/201
f 236/212/212 61/199/199 120/201/201
f 189/210/210 210/198/198 59/364/322
f 189/210/210 194/209/209 210/198/198
f 194/209/209 60/196/196 210/198/198
f 138/207/207 125/216/216 59/364/322
f 138/207/207 112/206/206 125/216/216
f 112/206/206 65/214/214 125/216/216
f 129/204/204 214/213/213 59/364/322
f 129/204/204 95/203/203 214/213/213
f 95/203/203 64/211/211 214/213/213
f 120/201/201 189/210/210 59/364/322
f 120/201/201 252/200/200 189/210/210
f 252/200/200 62/208/208 189/210/210
f 210/198/198 142/195/195 59/364/322
f 210/198/198 219/197/197 142/195/195
f 219/197/197 57/193/193 142/195/195
f 142/195/195 138/207/207 59/364/322
f 142/195/195 231/194/194 138/207/207
f 231/194/194 58/205/205 138/207/207
f 135/174/174 275/189/189 179/192/192 55/175/175
f 41/365/131 186/366/148 275/189/189 135/174/174
f 186/366/148 48/367/147 206/190/190 275/189/189
f 206/190/190 276/185/185 143/188/188 56/191/191
f 48/367/147 246/368/144 276/185/185 206/190/190
f 246/368/144 47/369/143 188/186/186 276/185/185
f 114/170/170 277/181/181 97/184/184 53/171/171
f 46/370/159 237/371/140 277/181/181 114/170/170
f 237/371/140 45/372/139 197/182/182 277/181/181
f 136/166/166 278/177/177 105/180/180 51/167/167
f 44/373/155 198/374/136 278/177/177 136/166/166
f 198/374/136 43/375/135 149/178/178 278/177/177
f 100/162/162 279/173/173 253/176/176 49/163/163
f 42/376/151 221/377/132 279/173/173 100/162/162
f 221/377/132 41/365/131 135/174/174 279/173/173
f 188/186/186 280/169/169 165/172/172 54/187/187
f 47/369/143 139/378/160 280/169/169 188/186/186
f 139/378/160 46/370/159 114/170/170 280/169/169
f 197/182/182 281/165/165 185/168/168 52/183/183
f 45/372/139 115/379/156 281/165/165 197/182/182
f 115/379/156 44/373/155 136/166/166 281/165/165
f 149/178/178 282/161/161 207/164/164 50/179/179
f 43/375/135 126/380/152 282/161/161 149/178/178
f 126/380/152 42/376/151 100/162/162 282/161/161
f 183/142/142 283/157/157 139/160/160 47/143/143
f 37/381/107 201/382/124 283/157/157 183/142/142
f 201/382/124 36/383/123 220/158/158 283/157/157
f 150/138/138 284/153/153 115/156/156 45/139/139
f 35/384/103 208/385/120 284/153/153 150/138/138
f 208/385/120 34/386/119 239/154/154 284/153/153
f 173/134/134 285/149/149 126/152/152 43/135/135
f 33/387/99 110/388/116 285/149/149 173/134/134
f 110/388/116 40/389/115 238/150/150 285/149/149
f 180/130/130 286/145/145 186/148/148 41/131/131
f 39/390/127 174/391/112 286/145/145 180/130/130
f 174/391/112 38/392/111 90/146/146 286/145/145
f 90/146/146 287/141/141 246/144/144 48/147/147
f 38/392/111 102/393/108 287/141/141 90/146/146
f 102/393/108 37/381/107 183/142/142 287/141/141
f 220/158/158 288/137/137 237/140/140 46/159/159
f 36/383/123 130/394/104 288/137/137 220/158/158
f 130/394/104 35/384/103 150/138/138 288/137/137
f 239/154/154 289/133/133 198/136/136 44/155/155
f 34/386/119 154/395/100 289/133/133 239/154/154
f 154/395/100 33/387/99 173/134/134 289/133/133
f 238/150/150 290/129/129 221/132/132 42/151/151
f 40/389/115 109/396/128 290/129/129 238/150/150
f 109/396/128 39/390/127 180/130/130 290/129/129
f 116/114/114 291/125/125 109/128/128 40/115/115
f 27/397/71 87/398/84 291/125/125 116/114/114
f 87/398/84 26/399/83 181/126/126 291/125/125
f 161/106/106 292/121/121 201/124/124 37/107/107
f 32/400/95 202/401/80 292/121/121 161/106/106
f 202/401/80 31/402/79 232/122/122 292/121/121
f 169/102/102 293/117/117 208/120/120 35/103/103
f 30/403/91 195/404/76 293/117/117 169/102/102
f 195/404/76 29/405/75 196/118/118 293/117/117
f 254/98/98 294/113/113 110/116/116 33/99/99
f 28/406/87 163/407/72 294/113/113 254/98/98
f 163/407/72 27/397/71 116/114/114 294/113/113
f 181/126/126 295/109/109 174/112/112 39/127/127
f 26/399/83 184/408/68 295/109/109 181/126/126
f 184/408/68 25/409/67 106/110/110 295/109/109
f 106/110/110 296/105/105 102/108/108 38/111/111
f 25/409/67 151/410/96 296/105/105 106/110/110
f 151/410/96 32/400/95 161/106/106 296/105/105
f 232/122/122 297/101/101 130/104/104 36/123/123
f 31/402/79 103/411/92 297/101/101 232/122/122
f 103/411/92 30/403/91 169/102/102 297/101/101
f 196/118/118 298/97/97 154/100/100 34/119/119
f 29/405/75 247/412/88 298/97/97 196/118/118
f 247/412/88 28/406/87 254/98/98 298/97/97
f 199/66/66 299/93/93 151/96/96 25/67/67
f 24/413/59 144/414/56 299/93/93 199/66/66
f 144/414/56 20/415/55 91/94/94 299/93/93
f 170/78/78 300/89/89 103/92/92 31/79/79
f 19/416/39 222/417/52 300/89/89 170/78/78
f 222/417/52 18/418/51 230/90/90 300/89/89
f 175/74/74 301/85/85 247/88/88 29/75/75
f 17/419/35 203/420/48 301/85/85 175/74/74
f 203/420/48 23/421/47 101/86/86 301/85/85
f 192/70/70 302/81/81 87/84/84 27/71/71
f 22/422/63 107/423/44 302/81/81 192/70/70
f 107/423/44 21/424/43 127/82/82 302/81/81
f 91/94/94 303/77/77 202/80/80 32/95/95
f 20/415/55 133/425/40 303/77/77 91/94/94
f 133/425/40 19/416/39 170/78/78 303/77/77
f 230/90/90 304/73/73 195/76/76 30/91/91
f 18/418/51 158/426/36 304/73/73 230/90/90
f 158/426/36 17/419/35 175/74/74 304/73/73
f 101/86/86 305/69/69 163/72/72 28/87/87
f 23/421/47 182/427/64 305/69/69 101/86/86
f 182/427/64 22/422/63 192/70/70 305/69/69
f 127/82/82 306/65/65 184/68/68 26/83/83
f 21/424/43 96/428/60 306/65/65 127/82/82
f 96/428/60 24/413/59 199/66/66 306/65/65
f 162/46/46 307/61/61 182/64/64 23/47/47
f 9/429/11 212/430/10 307/61/61 162/46/46
f 212/430/10 8/431/23 187/62/62 307/61/61
f 92/42/42 308/57/57 96/60/60 21/43/43
f 5/432/7 216/433/6 308/57/57 92/42/42
f 216/433/6 3/434/3 211/58/58 308/57/57
f 211/58/58 309/53/53 144/56/56 24/59/59
f 3/434/3 233/435/2 309/53/53 211/58/58
f 233/435/2 2/436/19 223/54/54 309/53/53
f 121/38/38 310/49/49 222/52/52 19/39/39
f 16/437/31 243/438/30 310/49/49 121/38/38
f 243/438/30 13/439/15 229/50/50 310/49/49
f 152/34/34 311/45/45 203/48/48 17/35/35
f 12/440/27 228/441/26 311/45/45 152/34/34
f 228/441/26 9/429/11 162/46/46 311/45/45
f 187/62/62 312/41/41 107/44/44 22/63/63
f 8/431/23 108/442/22 312/41/41 187/62/62
f 108/442/22 5/432/7 92/42/42 312/41/41
f 223/54/54 313/37/37 133/40/40 20/55/55
f 2/436/19 249/443/18 313/37/37 223/54/54
f 249/443/18 16/437/31 121/38/38 313/37/37
f 229/50/50 314/33/33 158/36/36 18/51/51
f 13/439/15 145/444/14 314/33/33 229/50/50
f 145/444/14 12/440/27 152/34/34 314/33/33
f 166/445/252 315/29/29 98/32/32 15/446/242
f 14/447/251 93/16/16 315/29/29 166/445/252
f 93/16/16 13/15/15 243/30/30 315/29/29
f 155/448/249 316/25/25 215/28/28 11/449/239
f 10/450/248 240/12/12 316/25/25 155/448/249
f 240/12/12 9/11/11 228/26/26 316/25/25
f 190/451/246 317/21/21 131/24/24 7/452/236
f 6/453/245 123/8/8 317/21/21 190/451/246
f 123/8/8 5/7/7 108/22/22 317/21/21
f 176/454/243 318/17/17 171/20/20 1/455/254
f 15/446/242 98/32/32 318/17/17 176/454/243
f 98/32/32 16/31/31 249/18/18 318/17/17
f 224/456/240 319/13/13 93/16/16 14/447/251
f 11/449/239 215/28/28 319/13/13 224/456/240
f 215/28/28 12/27/27 145/14/14 319/13/13
f 117/457/237 320/9/9 240/12/12 10/450/248
f 7/452/236 131/24/24 320/9/9 117/457/237
f 131/24/24 8/23/23 212/10/10 320/9/9
f 146/458/234 321/5/5 123/8/8 6/453/245
f 4/459/233 147/4/4 321/5/5 146/458/234
f 147/4/4 3/3/3 216/6/6 321/5/5
f 159/460/255 322/1/1 147/4/4 4/459/233
f 1/455/254 171/20/20 322/1/1 159/460/255
f 171/20/20 2/19/19 233/2/2 322/1/1
