# Blender v2.78 (sub 0) OBJ File: ''
# www.blender.org
mtllib Pine_Tree_l_02.mtl
o Pine_Tree_l_02
v 1.450881 3.653880 1.450879
v 0.614478 5.926128 0.614477
v 0.034186 6.312017 0.854842
v 0.017571 4.014086 2.044575
v 0.017571 4.014679 -2.009435
v 0.034186 6.313423 -0.786473
v 0.614478 5.927013 -0.546108
v 1.450881 3.654158 -1.415739
v -1.415739 3.654258 -1.415739
v -0.546107 5.927595 -0.546108
v 0.854843 6.312257 0.034185
v 2.044577 4.014278 0.017571
v -2.009434 4.014484 0.017570
v -0.786472 6.313183 0.034185
v -1.415738 3.653977 1.450879
v -0.546107 5.926709 0.614477
v 0.000639 3.853700 2.686167
v 0.000002 7.174313 0.751660
v -0.504034 7.172870 0.544083
v -1.897785 4.416695 1.899814
v 1.899062 4.417154 -1.897034
v 0.504037 7.174415 -0.463988
v 0.711615 7.175404 0.040048
v 2.685415 3.853880 0.001391
v 0.000638 3.853760 -2.683387
v 0.000001 7.175991 -0.671565
v 0.504037 7.173226 0.544083
v 1.899062 4.417114 1.899814
v -1.897786 4.416735 -1.897033
v -0.504034 7.174057 -0.463988
v -2.684139 3.853580 0.001391
v -0.711612 7.174899 0.040048
v 0.001349 3.065143 3.209972
v -2.268219 2.535853 2.269886
v -3.208304 3.065151 0.000319
v -2.268219 2.535859 -2.269250
v 3.211002 3.065147 0.000319
v 2.270917 2.535851 2.269886
v 2.270917 2.535857 -2.269250
v 0.001348 3.065155 -3.209335
v 1.850328 5.409596 1.851080
v 0.455493 8.947198 0.455492
v 0.023996 9.242460 0.638225
v 0.000453 6.060512 2.557538
v 0.000452 6.060568 -2.555127
v 0.023995 9.243671 -0.590235
v 0.455493 8.948015 -0.407502
v 1.850328 5.409635 -1.848670
v -1.849423 5.408917 -1.848670
v -0.407502 8.948413 -0.407502
v 0.638226 9.242773 0.023995
v 2.556786 6.061182 0.001205
v -2.555880 6.059898 0.001205
v -0.590235 9.243357 0.023995
v -1.849423 5.408878 1.851080
v -0.407502 8.947594 0.455492
v 2.470295 7.311919 0.000452
v 0.541997 11.438632 0.000002
v 0.380993 11.700617 0.353171
v 1.564015 7.838542 1.563491
v -1.562063 7.837338 -1.562586
v -0.325346 11.701218 -0.353168
v 0.027823 11.439041 -0.514173
v 0.000976 7.311086 -2.468867
v -2.468344 7.310229 0.000452
v -0.486351 11.439452 0.000002
v 0.380993 11.700617 -0.353168
v 1.564015 7.838559 -1.562586
v -1.562063 7.837322 1.563491
v -0.325346 11.701218 0.353171
v 0.000976 7.311062 2.469771
v 0.027823 11.439041 0.514176
v 2.193388 9.319290 0.000002
v 0.511107 12.737988 0.000002
v 0.361900 13.018017 0.334889
v 1.216473 9.978983 1.215441
v -1.214407 9.977630 -1.215438
v -0.307874 13.018646 -0.334885
v 0.027013 12.738417 -0.484092
v 0.001032 9.318197 -2.192355
v -2.191324 9.317106 0.000002
v -0.457082 12.738847 0.000002
v 0.361900 13.018017 -0.334885
v 1.216473 9.978983 -1.215438
v -1.214407 9.977630 1.215441
v -0.307874 13.018645 0.334889
v 0.001032 9.318197 2.192357
v 0.027013 12.738417 0.484096
v 1.147258 13.197054 0.000002
v 0.257288 15.455730 0.000003
v 0.184495 15.687641 0.170897
v 0.740828 13.656566 0.740264
v -0.739696 13.655294 -0.740260
v -0.157295 15.687660 -0.170893
v 0.013600 15.455743 -0.243686
v 0.000566 13.196114 -1.146690
v -1.146127 13.195170 0.000002
v -0.230089 15.455756 0.000003
v 0.184495 15.687641 -0.170893
v 0.740828 13.656566 -0.740260
v -0.739696 13.655294 0.740264
v -0.157295 15.687660 0.170897
v 0.000566 13.196114 1.146693
v 0.013600 15.455743 0.243691
v 0.325872 15.937786 0.000003
v 0.010889 17.039640 0.000003
v 0.230488 16.015499 0.230277
v -0.230061 16.015001 -0.230272
v 0.000214 15.937437 -0.325656
v -0.325444 15.937086 0.000003
v 0.230488 16.015499 -0.230272
v -0.230061 16.015001 0.230277
v 0.000214 15.937437 0.325660
v 0.000257 14.760771 -0.740037
v -0.523029 14.951105 -0.523284
v -0.739781 14.760061 0.000002
v -0.523029 14.951106 0.523288
v 0.000257 14.760771 0.740041
v 0.523543 14.952127 0.523288
v 0.523543 14.952127 -0.523284
v 0.740296 14.761482 0.000002
v 1.540883 11.433998 0.000002
v 0.318578 14.267776 0.000002
v 0.227971 14.434245 0.211545
v 1.055424 11.753042 1.054607
v -1.053786 11.751570 -1.054603
v -0.195116 14.434345 -0.211541
v 0.016427 14.267845 -0.302148
v 0.000818 11.432961 -1.540063
v -1.539247 11.431925 0.000002
v -0.285722 14.267915 0.000002
v 0.227971 14.434245 -0.211541
v 1.055424 11.753042 -1.054603
v -1.053786 11.751570 1.054606
v -0.195116 14.434345 0.211545
v 0.000818 11.432961 1.540067
v 0.016427 14.267845 0.302152
v 0.052651 4.680095 0.000001
v -0.317341 0.030011 -0.022531
v -0.193312 3.632500 0.032653
v 0.007550 3.545769 -0.221126
v -0.065789 0.027614 -0.333158
v -0.120472 7.846024 -0.046572
v 0.042969 7.979047 -0.235975
v 0.310198 0.029457 0.203861
v 0.266972 3.614955 0.228904
v -0.060809 3.617376 0.316692
v -0.093153 0.029528 0.314782
v 0.179277 7.921378 0.114555
v 0.008508 7.927976 0.159860
v 0.281834 3.657389 -0.094445
v 0.298782 0.030588 -0.187013
v 0.219599 7.989799 -0.136271
v 0.351398 15.329276 0.344344
v 0.012450 8.268060 -1.529507
v 2.040533 7.575247 -0.787071
v -0.613650 7.174479 -0.214384
v 0.000001 5.501779 -1.677474
v 0.795491 10.847550 0.781057
v 0.146682 3.601104 -0.163147
v 1.358408 11.020598 0.000002
v 0.494030 15.119243 0.000002
v -0.953758 13.425223 0.373208
v -1.200844 5.798637 -1.180068
v 0.222790 5.814443 0.172245
v -0.680394 12.388561 -0.694407
v -0.762491 11.493773 -0.776504
v -0.766620 10.847172 0.781057
v 0.351398 15.329276 -0.344340
v 0.099867 15.571692 0.209273
v -0.608584 9.647911 1.724720
v 0.196084 12.878216 -0.413419
v 1.155271 7.171874 1.155271
v 1.021350 12.091777 0.000002
v 0.382388 15.466326 -0.382384
v -0.150439 11.570131 0.437722
v 0.613653 7.174314 0.294479
v -1.633662 6.619136 0.020778
v 0.264776 14.856453 0.638607
v 0.014435 10.385357 -1.350826
v 0.012450 7.660507 -1.572650
v -1.177160 6.283224 1.197939
v 0.638862 14.856812 0.264521
v -0.946372 9.775100 0.960809
v -0.673258 6.119948 0.327218
v -0.959294 4.816253 -0.959294
v 0.729667 13.737913 0.000002
v 0.708424 12.388981 -0.694407
v 1.766295 3.834218 -0.706775
v -0.096634 3.588201 -0.098062
v -0.161239 16.503990 0.000003
v 0.206084 11.569827 -0.437719
v -1.367563 5.197098 0.026355
v -0.464698 14.051065 -0.473220
v 2.744741 2.819341 1.136376
v -1.872183 3.052042 -1.872184
v 0.008786 3.501423 2.668877
v -1.134219 2.819347 -2.742584
v 1.138024 2.819340 2.743093
v -1.478979 9.376513 0.000002
v 0.026356 5.197318 -1.367564
v 0.007056 15.118899 0.486976
v -0.276194 15.992700 -0.114542
v -0.503806 9.095477 0.241789
v 0.314143 0.030023 0.008862
v 0.017571 5.073388 -1.743006
v -0.242809 14.351131 0.106764
v 0.008523 12.848089 0.923258
v -0.264262 14.855936 -0.638603
v -0.935311 5.734694 2.228394
v 1.365262 10.385700 0.000002
v -1.134218 2.819340 2.743093
v -0.626433 13.088090 -0.634955
v 0.222870 15.571686 -0.086265
v 0.008786 3.501718 -2.651307
v 1.724590 3.862213 0.000001
v -1.572649 7.660024 0.012449
v -0.213493 0.029770 0.151427
v 1.227381 3.611664 -1.200369
v 1.007582 8.390503 -0.982683
v -1.336392 10.385014 0.000002
v -0.337285 15.328783 0.344344
v 0.931780 12.848577 0.000002
v 0.551797 9.094980 0.241789
v 1.012006 4.815309 1.012004
v 0.708424 12.388981 0.694411
v 0.007056 14.321953 0.698685
v 0.373772 13.426342 0.954325
v -0.195671 15.571709 0.086269
v -2.316246 4.135156 -0.958294
v 0.111518 0.029493 0.268462
v -0.766620 10.847172 -0.781054
v -0.935311 5.734742 -2.225983
v 0.241789 9.094822 0.551796
v 1.633665 6.620051 0.020778
v -0.386409 12.878751 0.169073
v -1.130372 7.172150 -1.130372
v -0.042563 7.911334 -0.145062
v 0.027012 3.862213 1.697579
v -1.227344 5.167276 -1.227345
v -1.670566 3.862213 0.000001
v -0.464698 14.051065 0.473223
v 0.008523 12.848089 -0.923255
v 0.382388 15.466326 0.382389
v 0.014015 11.020267 1.344394
v 0.241789 9.095847 -0.503806
v 0.014015 12.091476 -1.007332
v -0.386409 12.878751 -0.169070
v -0.613650 7.173879 0.294479
v -0.078321 1.772201 0.318635
v -0.982683 8.389658 1.007582
v 0.014015 12.091476 1.007336
v 0.790521 11.494134 -0.776504
v -0.786548 7.574189 2.040009
v 0.960324 4.135410 2.318274
v 1.507849 9.376940 0.000002
v 0.292056 1.792444 -0.141384
v 0.741630 6.119632 -0.258848
v 0.643481 13.088783 -0.634955
v -0.193798 9.096048 -0.503806
v 0.254433 7.175212 -0.573604
v -0.946372 9.775100 -0.960806
v -1.731153 3.834232 0.741915
v -0.257886 1.780969 0.005557
v 0.464396 14.671541 -0.457337
v 2.317523 4.135518 -0.958294
v 0.464396 14.671541 0.457341
v 0.005587 16.504169 0.166829
v 0.954890 13.426819 0.373208
v 0.795491 10.847550 -0.781054
v 0.276878 15.993296 -0.114542
v 0.005587 16.504169 -0.166824
v 0.026041 5.809108 -0.228397
v 0.203672 7.955529 -0.010167
v -0.372640 13.425700 -0.954322
v 0.788500 7.574826 -2.039104
v 1.698254 5.501546 0.020777
v 1.177163 6.283772 1.197939
v 0.196084 12.878216 0.413423
v -2.740936 2.819343 1.136376
v 1.725752 9.649147 -0.609615
v -1.200844 5.798021 1.221622
v -0.254430 7.175031 -0.573604
v -0.959046 4.135194 2.318274
v 0.280022 3.637261 0.067587
v -0.337285 15.328782 -0.344340
v -0.382385 15.465551 0.382389
v 0.276878 15.993296 0.114548
v 0.007056 14.321953 -0.698681
v -0.131992 3.625864 0.177854
v -0.638347 14.855577 -0.264516
v -1.311053 11.591737 0.532634
v 0.114886 15.993122 -0.276534
v 0.790521 11.494134 0.776507
v 1.554406 8.268024 0.012449
v -0.114204 15.992874 -0.276534
v 1.725752 9.649147 0.609617
v -0.193798 9.095022 0.551796
v 1.200847 5.798415 1.221622
v -0.090334 14.351095 -0.259235
v -0.540775 15.330662 0.000002
v 0.000001 15.331203 -0.540774
v 1.889756 3.051996 -1.872184
v -2.226737 5.734401 -0.934558
v 2.227642 5.735396 0.936969
v 0.012450 8.267431 1.554406
v -0.608584 9.647911 -1.724718
v 0.275665 14.351009 0.106764
v 1.778147 5.072865 0.017570
v -0.372640 13.425700 0.954325
v 0.275665 14.351009 -0.106760
v -1.311053 11.591737 -0.532630
v 0.012450 7.659877 1.597548
v -0.673258 6.120396 -0.258848
v 0.014015 11.020267 -1.344391
v 0.936217 5.735055 2.228394
v 0.104157 3.615560 0.278446
v -2.316246 4.135137 0.961075
v -1.698251 5.501140 0.020777
v 0.440434 12.877998 -0.169070
v -2.038581 7.573775 -0.787071
v 0.465543 11.569620 0.178263
v 0.936216 5.735102 -2.225983
v -0.060094 7.885346 0.059542
v -0.409897 11.570340 0.178263
v 1.420275 5.196518 0.026355
v 0.123189 14.351045 -0.259235
v -1.723687 9.647357 0.609617
v 0.251014 5.870869 -0.115058
v 0.014435 9.376726 1.493415
v -0.150439 11.570131 -0.437719
v 0.254433 7.173762 0.653699
v -0.258847 6.119358 0.741629
v 0.533451 11.593007 1.311873
v -0.112377 16.539562 0.117967
v 0.610649 9.648593 1.724720
v 1.155271 7.172298 -1.130372
v 0.975243 9.775408 -0.960806
v 0.960323 4.135460 -2.315494
v 1.766295 3.834079 0.741916
v -0.638347 14.855577 0.264521
v -0.479917 15.118557 0.000002
v 0.465543 11.569620 -0.178260
v 0.551797 9.095393 -0.193799
v 0.613653 7.174915 -0.214384
v -0.258847 6.120517 -0.673259
v -0.156379 5.784956 -0.006724
v -0.959293 4.815659 1.012004
v -0.712620 13.737044 0.000002
v -0.953758 13.425223 -0.373204
v 0.610649 9.648593 -1.724718
v 1.138023 2.819347 -2.742584
v 0.741916 3.834421 -1.731154
v 1.262486 5.167191 -1.227345
v 1.312689 11.593530 0.532634
v -0.072667 15.571702 -0.209268
v -2.740936 2.819346 -1.135866
v -0.025730 5.819574 0.238558
v 0.007056 15.118899 -0.486971
v -0.090334 14.351095 0.259239
v -0.276194 15.992700 0.114548
v -0.114204 15.992874 0.276538
v 1.012006 4.815902 -0.959294
v 0.222870 15.571686 0.086269
v 0.095007 7.924919 0.142875
v -0.112377 16.539562 -0.117961
v 0.172413 16.504349 0.000003
v -0.254430 7.173582 0.653699
v 1.227381 3.611663 1.200370
v -0.626433 13.088090 0.634959
v 0.026356 5.196301 1.420274
v 0.027012 3.862213 -1.697578
v 0.788500 7.574806 2.040009
v 0.741917 3.833980 1.766294
v 0.000002 6.619158 1.654441
v -0.072667 15.571702 0.209273
v 0.099867 15.571692 -0.209268
v -0.959047 4.135244 -2.315493
v 0.638862 14.856812 -0.264516
v 0.014435 10.385357 1.350828
v -0.531814 11.592262 -1.311869
v -1.723687 9.647357 -0.609615
v -1.130372 7.171724 1.155271
v 1.177163 6.284388 -1.156384
v -0.382385 15.465551 -0.382384
v -0.503806 9.095890 -0.193799
v 1.312689 11.593530 -0.532630
v 0.643481 13.088783 0.634959
v -0.242809 14.351131 -0.106760
v -0.142059 12.878534 -0.413419
v 1.597549 7.660360 0.012449
v 1.889756 3.051860 1.889754
v 0.119497 0.029101 -0.268891
v -0.450283 14.670912 0.457341
v -1.173357 3.611663 1.200370
v 0.440434 12.877998 0.169073
v -1.173357 3.611664 -1.200369
v 0.481745 14.051649 0.473223
v 0.008523 13.737479 0.721145
v 0.533451 11.593007 -1.311869
v 0.540778 15.331743 0.000002
v -0.142059 12.878534 0.413423
v 0.975243 9.775408 0.960809
v 0.290890 1.771040 0.218260
v 2.040533 7.575239 0.787976
v -1.731153 3.834371 -0.706775
v -0.914733 12.847600 0.000002
v -0.762491 11.493773 0.776507
v -2.651306 3.501619 0.008785
v -0.706774 3.834029 1.766294
v 0.133859 7.987097 -0.191591
v -1.743005 5.073187 0.017570
v 0.017571 5.072664 1.778146
v 0.123189 14.351045 0.259239
v 0.264776 14.856453 -0.638603
v -0.691627 14.321486 0.000002
v -0.786548 7.574209 -2.039104
v 2.317523 4.135499 0.961075
v -2.038581 7.573767 0.787976
v -0.680394 12.388561 0.694411
v -0.264262 14.855936 0.638607
v 0.373772 13.426342 -0.954322
v 2.744741 2.819344 -1.135866
v 0.123551 16.539818 -0.117961
v -1.872183 3.051905 1.889754
v 0.741630 6.119186 0.327218
v -0.993320 12.091176 0.000002
v 0.000001 15.331203 0.540778
v -0.409897 11.570340 -0.178260
v 0.014435 9.376726 -1.493413
v 0.114886 15.993122 0.276538
v 2.668878 3.501521 0.008786
v -0.706775 3.834471 -1.731154
v -1.330378 11.019935 0.000002
v 2.227642 5.735415 -0.934558
v 1.262486 5.166735 1.262485
v 1.200847 5.799032 -1.180068
v -0.198968 0.028813 -0.183918
v -0.982683 8.390083 -0.982683
v 0.327219 6.120224 -0.673259
v 0.008523 13.737479 -0.721141
v -0.030037 1.734462 -0.278782
v -1.529507 8.267464 0.012449
v 0.481745 14.051649 -0.473220
v 0.954890 13.426819 -0.373204
v 0.705739 14.322420 0.000002
v -1.227344 5.166819 1.262485
v -0.531814 11.592262 1.311872
v -2.226737 5.734382 0.936969
v -0.450283 14.670912 -0.457337
v 0.000001 6.620030 -1.612886
v 0.123551 16.539818 0.117967
v 0.000002 5.500907 1.719029
v 0.327219 6.119065 0.741629
v -0.195671 15.571709 -0.086265
v -1.177160 6.283840 -1.156384
v 1.007582 8.390078 1.007582
v 0.206084 11.569827 0.437722
v 0.241299 5.843178 0.029031
v 0.297902 1.782287 0.038781
v -0.095063 5.802108 0.118595
v -0.173662 1.777048 0.165675
v 0.140488 5.840754 -0.176459
v 0.133129 1.763215 -0.216066
v 0.099486 5.816797 0.210351
v 0.107946 1.771318 0.274700
v -0.068475 5.796114 -0.120894
v -0.148614 1.757248 -0.140804
v 1.536443 5.120028 -0.611567
v 0.646708 5.120294 -1.501302
v -0.611566 5.120335 -1.501302
v -1.501301 5.120234 -0.611567
v -1.501301 5.120003 0.646708
v -0.611566 5.119737 1.536442
v 0.646709 5.119696 1.536442
v 1.536443 5.119797 0.646708
v 1.420371 6.451914 0.615978
v 1.420371 6.452226 -0.574423
v 0.595202 6.452213 -1.399591
v -0.595200 6.451938 -1.399591
v -1.420367 6.451486 -0.574423
v -1.420367 6.451174 0.615978
v -0.595199 6.451186 1.441146
v 0.595203 6.451462 1.441146
v 1.295152 8.329268 -0.489142
v 0.514041 8.329285 -1.270253
v -0.489142 8.329073 -1.270253
v -1.270253 8.328772 -0.489142
v -1.270253 8.328558 0.514041
v -0.489142 8.328541 1.295151
v 0.514041 8.328753 1.295151
v 1.295152 8.329052 0.514041
v 0.406750 10.616453 -1.078375
v -0.377879 10.616264 -1.078375
v -1.063941 10.616090 -0.392313
v -1.063941 10.616090 0.392316
v -0.377879 10.616264 1.078377
v 0.406750 10.616453 1.078377
v 1.092812 10.616629 0.392316
v 1.092812 10.616629 -0.392313
v 0.364699 12.240229 -0.860103
v -0.336668 12.240018 -0.860103
v -0.846090 12.239866 -0.350682
v -0.846090 12.239866 0.350685
v -0.336668 12.240018 0.860107
v 0.364699 12.240229 0.860107
v 0.874120 12.240381 0.350686
v 0.874120 12.240381 -0.350682
v 0.247166 13.894566 -0.603799
v 0.612324 13.894785 -0.238641
v 0.612324 13.894785 0.238645
v 0.247166 13.894566 0.603803
v -0.230120 13.894272 0.603803
v -0.595277 13.894051 0.238645
v -0.595277 13.894051 -0.238641
v -0.230120 13.894272 -0.603799
v 0.181075 15.224089 -0.420116
v -0.166962 15.223839 -0.420116
v -0.413062 15.223666 -0.174016
v -0.413062 15.223666 0.174021
v -0.166962 15.223839 0.420120
v 0.181075 15.224089 0.420120
v 0.427175 15.224262 0.174021
v 0.427175 15.224262 -0.174016
v 0.329162 12.968438 0.787572
v -0.312115 12.968088 0.787572
v -0.779047 12.967840 0.320640
v 0.796094 12.968685 -0.320637
v 0.329162 12.968438 -0.787568
v -0.779047 12.967840 -0.320637
v -0.312115 12.968088 -0.787568
v 0.796094 12.968685 0.320641
v 0.466536 15.399038 0.193247
v -0.193244 15.398375 0.466537
v -0.466533 15.398102 -0.193242
v 0.466536 15.399039 -0.193242
v 0.193246 15.398766 -0.466533
v 0.193246 15.398766 0.466537
v -0.466533 15.398102 0.193247
v -0.193244 15.398375 -0.466532
v 0.237673 14.496748 0.584426
v -0.223560 14.496431 0.584426
v -0.577368 14.496195 0.230619
v 0.591480 14.496984 -0.230615
v 0.237673 14.496748 -0.584422
v -0.577368 14.496195 -0.230615
v -0.223560 14.496431 -0.584422
v 0.591480 14.496984 0.230619
v 0.404030 11.257200 1.072827
v -0.376000 11.257019 1.072827
v -1.058810 11.256850 0.390017
v 1.086841 11.257369 -0.390013
v 0.404030 11.257200 -1.072824
v -1.058810 11.256850 -0.390013
v -0.376000 11.257019 -1.072824
v 1.086841 11.257369 0.390017
v 0.498680 9.576068 1.240825
v -0.469809 9.575912 1.240825
v -1.226388 9.575804 0.484246
v 1.255259 9.576176 -0.484243
v 0.498680 9.576068 -1.240822
v -1.226388 9.575804 -0.484243
v -0.469809 9.575912 -1.240822
v 1.255259 9.576176 0.484246
v -0.565396 7.415799 1.390921
v -1.366022 7.415872 0.590295
v -1.366022 7.416086 -0.565397
v 1.390922 7.416117 0.590295
v 1.390922 7.416332 -0.565397
v -0.565397 7.416331 -1.366022
v 0.590296 7.416405 -1.366022
v 0.590296 7.415873 1.390921
v 0.959364 3.276640 2.303681
v 0.959363 3.276858 -2.286111
v -0.941791 3.276881 -2.286111
v 2.303683 3.276758 -0.941792
v 2.303683 3.276690 0.959362
v -2.286110 3.276831 -0.941792
v -2.286110 3.276762 0.959362
v -0.941791 3.276663 2.303681
v -1.465103 5.649577 0.627643
v -1.465103 5.649889 -0.586089
v -0.606865 5.650210 -1.444327
v 0.606868 5.649659 1.485881
v 1.465106 5.649981 0.627643
v 0.606867 5.650411 -1.444327
v 1.465106 5.650292 -0.586089
v -0.606864 5.649458 1.485881
v -0.471757 5.005975 1.228907
v -1.176196 5.006380 0.524468
v -1.176196 5.006679 -0.471758
v 1.228908 5.005910 0.524469
v 1.228908 5.006208 -0.471758
v -0.471758 5.006790 -1.176197
v 0.524469 5.006614 -1.176197
v 0.524469 5.005799 1.228907
vt 0.9409 0.4219
vt 0.9367 0.4304
vt 0.9328 0.4301
vt 0.9334 0.4200
vt 0.9388 0.4553
vt 0.9357 0.4462
vt 0.9396 0.4464
vt 0.9464 0.4543
vt 0.9236 0.4543
vt 0.9279 0.4457
vt 0.9318 0.4460
vt 0.9311 0.4563
vt 0.9483 0.4468
vt 0.9398 0.4424
vt 0.9401 0.4385
vt 0.9503 0.4392
vt 0.9493 0.4316
vt 0.9403 0.4346
vt 0.9406 0.4307
vt 0.9483 0.4239
vt 0.9151 0.4447
vt 0.9243 0.4415
vt 0.9240 0.4454
vt 0.9161 0.4524
vt 0.9161 0.4295
vt 0.9248 0.4336
vt 0.9246 0.4376
vt 0.9141 0.4370
vt 0.9258 0.4209
vt 0.9290 0.4299
vt 0.9251 0.4297
vt 0.9181 0.4219
vt 0.9553 0.4130
vt 0.9477 0.4295
vt 0.9430 0.4291
vt 0.9438 0.4096
vt 0.9528 0.4658
vt 0.9467 0.4484
vt 0.9514 0.4484
vt 0.9647 0.4635
vt 0.9294 0.4647
vt 0.9374 0.4480
vt 0.9421 0.4483
vt 0.9410 0.4682
vt 0.9681 0.4518
vt 0.9517 0.4437
vt 0.9520 0.4391
vt 0.9715 0.4402
vt 0.9692 0.4284
vt 0.9521 0.4345
vt 0.9523 0.4298
vt 0.9669 0.4165
vt 0.9154 0.4493
vt 0.9330 0.4429
vt 0.9328 0.4476
vt 0.9178 0.4613
vt 0.9166 0.4259
vt 0.9334 0.4336
vt 0.9331 0.4382
vt 0.9131 0.4374
vt 0.9319 0.4119
vt 0.9384 0.4290
vt 0.9337 0.4289
vt 0.9200 0.4143
vt 0.9193 0.4031
vt 0.9225 0.4120
vt 0.9111 0.4142
vt 0.9042 0.4066
vt 0.8987 0.4212
vt 0.9074 0.4253
vt 0.9037 0.4364
vt 0.8932 0.4358
vt 0.8968 0.4510
vt 0.9060 0.4478
vt 0.9082 0.4593
vt 0.9003 0.4663
vt 0.9672 0.4256
vt 0.9583 0.4286
vt 0.9561 0.4171
vt 0.9637 0.4104
vt 0.9653 0.4554
vt 0.9568 0.4511
vt 0.9605 0.4400
vt 0.9707 0.4408
vt 0.9150 0.4717
vt 0.9193 0.4630
vt 0.9304 0.4667
vt 0.9296 0.4772
vt 0.9448 0.4736
vt 0.9418 0.4645
vt 0.9532 0.4622
vt 0.9599 0.4700
vt 0.9491 0.4050
vt 0.9451 0.4135
vt 0.9340 0.4098
vt 0.9345 0.3995
vt 0.9585 0.4094
vt 0.9510 0.4269
vt 0.9461 0.4266
vt 0.9462 0.4061
vt 0.9576 0.4649
vt 0.9506 0.4467
vt 0.9555 0.4467
vt 0.9699 0.4620
vt 0.9330 0.4645
vt 0.9409 0.4466
vt 0.9458 0.4468
vt 0.9453 0.4677
vt 0.9732 0.4497
vt 0.9556 0.4418
vt 0.9558 0.4369
vt 0.9764 0.4374
vt 0.9735 0.4250
vt 0.9558 0.4320
vt 0.9558 0.4271
vt 0.9707 0.4126
vt 0.9178 0.4488
vt 0.9360 0.4414
vt 0.9360 0.4464
vt 0.9207 0.4612
vt 0.9182 0.4241
vt 0.9361 0.4316
vt 0.9360 0.4365
vt 0.9150 0.4363
vt 0.9338 0.4090
vt 0.9412 0.4266
vt 0.9363 0.4267
vt 0.9215 0.4118
vt 0.9484 0.4110
vt 0.9412 0.4263
vt 0.9371 0.4261
vt 0.9377 0.4078
vt 0.9462 0.4592
vt 0.9404 0.4429
vt 0.9445 0.4430
vt 0.9570 0.4570
vt 0.9247 0.4582
vt 0.9322 0.4426
vt 0.9363 0.4428
vt 0.9353 0.4613
vt 0.9600 0.4464
vt 0.9447 0.4389
vt 0.9448 0.4348
vt 0.9631 0.4358
vt 0.9610 0.4249
vt 0.9450 0.4307
vt 0.9452 0.4266
vt 0.9590 0.4140
vt 0.9119 0.4442
vt 0.9283 0.4381
vt 0.9281 0.4423
vt 0.9140 0.4552
vt 0.9129 0.4227
vt 0.9287 0.4299
vt 0.9285 0.4340
vt 0.9099 0.4333
vt 0.9269 0.4100
vt 0.9330 0.4259
vt 0.9289 0.4258
vt 0.9160 0.4121
vt 0.9484 0.4110
vt 0.9412 0.4263
vt 0.9371 0.4261
vt 0.9377 0.4078
vt 0.9462 0.4592
vt 0.9404 0.4429
vt 0.9445 0.4430
vt 0.9570 0.4570
vt 0.9247 0.4582
vt 0.9322 0.4426
vt 0.9363 0.4428
vt 0.9353 0.4613
vt 0.9600 0.4464
vt 0.9447 0.4389
vt 0.9448 0.4348
vt 0.9631 0.4358
vt 0.9610 0.4249
vt 0.9450 0.4307
vt 0.9452 0.4266
vt 0.9590 0.4140
vt 0.9119 0.4442
vt 0.9283 0.4381
vt 0.9281 0.4423
vt 0.9140 0.4552
vt 0.9129 0.4227
vt 0.9287 0.4299
vt 0.9285 0.4340
vt 0.9099 0.4333
vt 0.9269 0.4100
vt 0.9330 0.4259
vt 0.9289 0.4258
vt 0.9160 0.4121
vt 0.9484 0.4110
vt 0.9412 0.4263
vt 0.9371 0.4261
vt 0.9377 0.4078
vt 0.9462 0.4592
vt 0.9404 0.4429
vt 0.9445 0.4430
vt 0.9570 0.4570
vt 0.9247 0.4582
vt 0.9322 0.4426
vt 0.9363 0.4428
vt 0.9353 0.4613
vt 0.9600 0.4464
vt 0.9447 0.4389
vt 0.9448 0.4348
vt 0.9631 0.4358
vt 0.9610 0.4249
vt 0.9450 0.4307
vt 0.9452 0.4266
vt 0.9590 0.4140
vt 0.9119 0.4442
vt 0.9283 0.4381
vt 0.9281 0.4423
vt 0.9140 0.4552
vt 0.9129 0.4227
vt 0.9287 0.4299
vt 0.9285 0.4340
vt 0.9099 0.4333
vt 0.9269 0.4100
vt 0.9330 0.4259
vt 0.9289 0.4258
vt 0.9160 0.4121
vt 0.9727 0.4015
vt 0.9549 0.4138
vt 0.9555 0.3956
vt 0.9343 0.4799
vt 0.9394 0.4614
vt 0.9519 0.4755
vt 0.9000 0.4680
vt 0.9181 0.4554
vt 0.9172 0.4739
vt 0.9695 0.4711
vt 0.9571 0.4530
vt 0.9755 0.4539
vt 0.9814 0.4368
vt 0.9633 0.4317
vt 0.9771 0.4191
vt 0.8912 0.4327
vt 0.9096 0.4375
vt 0.8956 0.4503
vt 0.9031 0.3984
vt 0.9158 0.4162
vt 0.8972 0.4155
vt 0.9384 0.3896
vt 0.9337 0.4077
vt 0.9208 0.3940
vt 0.9519 0.4755
vt 0.9695 0.4711
vt 0.9695 0.4711
vt 0.9519 0.4755
vt 0.8956 0.4503
vt 0.9000 0.4680
vt 0.9000 0.4680
vt 0.8956 0.4503
vt 0.9208 0.3940
vt 0.9031 0.3984
vt 0.9031 0.3984
vt 0.9208 0.3940
vt 0.9755 0.4539
vt 0.9814 0.4368
vt 0.9814 0.4368
vt 0.9755 0.4539
vt 0.9771 0.4191
vt 0.9727 0.4015
vt 0.9727 0.4015
vt 0.9771 0.4191
vt 0.9172 0.4739
vt 0.9343 0.4799
vt 0.9343 0.4799
vt 0.9172 0.4739
vt 0.8972 0.4155
vt 0.8912 0.4327
vt 0.8912 0.4327
vt 0.8972 0.4155
vt 0.9555 0.3956
vt 0.9384 0.3896
vt 0.9384 0.3896
vt 0.9555 0.3956
vt 0.9484 0.4110
vt 0.9412 0.4263
vt 0.9371 0.4261
vt 0.9377 0.4078
vt 0.9462 0.4592
vt 0.9404 0.4429
vt 0.9445 0.4430
vt 0.9570 0.4570
vt 0.9247 0.4582
vt 0.9322 0.4426
vt 0.9363 0.4428
vt 0.9353 0.4613
vt 0.9600 0.4464
vt 0.9447 0.4389
vt 0.9448 0.4348
vt 0.9631 0.4358
vt 0.9610 0.4249
vt 0.9450 0.4307
vt 0.9452 0.4266
vt 0.9590 0.4140
vt 0.9119 0.4442
vt 0.9283 0.4381
vt 0.9281 0.4423
vt 0.9140 0.4552
vt 0.9129 0.4227
vt 0.9287 0.4299
vt 0.9285 0.4340
vt 0.9099 0.4333
vt 0.9269 0.4100
vt 0.9330 0.4259
vt 0.9289 0.4258
vt 0.9160 0.4121
vt 0.9610 0.4249
vt 0.9590 0.4140
vt 0.9452 0.4266
vt 0.9450 0.4307
vt 0.9483 0.4110
vt 0.9377 0.4078
vt 0.9371 0.4261
vt 0.9412 0.4263
vt 0.9269 0.4100
vt 0.9160 0.4121
vt 0.9289 0.4258
vt 0.9330 0.4259
vt 0.9129 0.4227
vt 0.9099 0.4333
vt 0.9285 0.4340
vt 0.9287 0.4299
vt 0.9119 0.4442
vt 0.9140 0.4552
vt 0.9281 0.4423
vt 0.9283 0.4381
vt 0.9247 0.4582
vt 0.9353 0.4613
vt 0.9363 0.4428
vt 0.9322 0.4426
vt 0.9462 0.4592
vt 0.9570 0.4570
vt 0.9445 0.4430
vt 0.9404 0.4429
vt 0.9601 0.4464
vt 0.9631 0.4358
vt 0.9448 0.4348
vt 0.9447 0.4389
vt 0.9462 0.4592
vt 0.9353 0.4613
vt 0.9343 0.4799
vt 0.9519 0.4755
vt 0.9247 0.4582
vt 0.9140 0.4552
vt 0.9000 0.4680
vt 0.9172 0.4739
vt 0.9119 0.4442
vt 0.9099 0.4333
vt 0.8912 0.4327
vt 0.8956 0.4503
vt 0.9129 0.4227
vt 0.9160 0.4121
vt 0.9031 0.3984
vt 0.8972 0.4155
vt 0.9269 0.4100
vt 0.9377 0.4078
vt 0.9384 0.3896
vt 0.9208 0.3940
vt 0.9483 0.4110
vt 0.9590 0.4140
vt 0.9727 0.4015
vt 0.9555 0.3956
vt 0.9610 0.4249
vt 0.9631 0.4358
vt 0.9814 0.4368
vt 0.9771 0.4191
vt 0.9601 0.4464
vt 0.9570 0.4570
vt 0.9695 0.4711
vt 0.9755 0.4539
vt 0.9610 0.4249
vt 0.9590 0.4140
vt 0.9452 0.4266
vt 0.9450 0.4307
vt 0.9483 0.4110
vt 0.9377 0.4078
vt 0.9371 0.4261
vt 0.9412 0.4263
vt 0.9269 0.4100
vt 0.9160 0.4121
vt 0.9289 0.4258
vt 0.9330 0.4259
vt 0.9129 0.4227
vt 0.9099 0.4333
vt 0.9285 0.4340
vt 0.9287 0.4299
vt 0.9119 0.4442
vt 0.9140 0.4552
vt 0.9281 0.4423
vt 0.9283 0.4381
vt 0.9247 0.4582
vt 0.9353 0.4613
vt 0.9363 0.4428
vt 0.9322 0.4426
vt 0.9462 0.4592
vt 0.9570 0.4570
vt 0.9445 0.4430
vt 0.9404 0.4429
vt 0.9601 0.4464
vt 0.9631 0.4358
vt 0.9448 0.4348
vt 0.9447 0.4389
vt 0.9610 0.4249
vt 0.9590 0.4140
vt 0.9452 0.4266
vt 0.9450 0.4307
vt 0.9483 0.4110
vt 0.9377 0.4078
vt 0.9371 0.4261
vt 0.9412 0.4263
vt 0.9269 0.4100
vt 0.9160 0.4121
vt 0.9289 0.4258
vt 0.9330 0.4259
vt 0.9129 0.4227
vt 0.9099 0.4333
vt 0.9285 0.4340
vt 0.9287 0.4299
vt 0.9119 0.4442
vt 0.9140 0.4552
vt 0.9281 0.4423
vt 0.9283 0.4381
vt 0.9247 0.4582
vt 0.9353 0.4613
vt 0.9363 0.4428
vt 0.9322 0.4426
vt 0.9462 0.4592
vt 0.9570 0.4570
vt 0.9445 0.4430
vt 0.9404 0.4429
vt 0.9601 0.4464
vt 0.9631 0.4358
vt 0.9448 0.4348
vt 0.9447 0.4389
vt 0.9557 0.4138
vt 0.9471 0.4083
vt 0.9558 0.4271
vt 0.9558 0.4320
vt 0.9359 0.4104
vt 0.9246 0.4125
vt 0.9461 0.4266
vt 0.9510 0.4269
vt 0.9192 0.4211
vt 0.9137 0.4297
vt 0.9363 0.4267
vt 0.9412 0.4266
vt 0.9159 0.4410
vt 0.9180 0.4523
vt 0.9360 0.4365
vt 0.9361 0.4316
vt 0.9266 0.4577
vt 0.9352 0.4631
vt 0.9360 0.4464
vt 0.9360 0.4414
vt 0.9464 0.4610
vt 0.9577 0.4589
vt 0.9458 0.4468
vt 0.9409 0.4466
vt 0.9631 0.4503
vt 0.9685 0.4417
vt 0.9555 0.4467
vt 0.9506 0.4467
vt 0.9663 0.4305
vt 0.9642 0.4192
vt 0.9558 0.4369
vt 0.9556 0.4418
vt 0.9591 0.4132
vt 0.9493 0.4078
vt 0.9523 0.4298
vt 0.9521 0.4345
vt 0.9371 0.4104
vt 0.9248 0.4130
vt 0.9430 0.4291
vt 0.9477 0.4295
vt 0.9193 0.4228
vt 0.9139 0.4326
vt 0.9337 0.4289
vt 0.9384 0.4290
vt 0.9165 0.4448
vt 0.9192 0.4571
vt 0.9331 0.4382
vt 0.9334 0.4336
vt 0.9290 0.4626
vt 0.9388 0.4681
vt 0.9328 0.4476
vt 0.9330 0.4429
vt 0.9510 0.4654
vt 0.9632 0.4628
vt 0.9421 0.4483
vt 0.9374 0.4480
vt 0.9687 0.4530
vt 0.9742 0.4431
vt 0.9514 0.4484
vt 0.9467 0.4484
vt 0.9715 0.4309
vt 0.9689 0.4187
vt 0.9520 0.4391
vt 0.9517 0.4437
vt 0.9625 0.4473
vt 0.9658 0.4360
vt 0.9406 0.4307
vt 0.9403 0.4346
vt 0.9615 0.4263
vt 0.9571 0.4166
vt 0.9328 0.4301
vt 0.9367 0.4304
vt 0.9460 0.4133
vt 0.9348 0.4099
vt 0.9251 0.4297
vt 0.9290 0.4299
vt 0.9251 0.4143
vt 0.9154 0.4186
vt 0.9246 0.4376
vt 0.9248 0.4336
vt 0.9120 0.4298
vt 0.9086 0.4410
vt 0.9240 0.4454
vt 0.9243 0.4415
vt 0.9129 0.4507
vt 0.9173 0.4604
vt 0.9318 0.4460
vt 0.9279 0.4457
vt 0.9285 0.4639
vt 0.9397 0.4672
vt 0.9396 0.4464
vt 0.9357 0.4462
vt 0.9494 0.4629
vt 0.9590 0.4585
vt 0.9401 0.4385
vt 0.9398 0.4424
vt 0.9501 0.4362
vt 0.9395 0.4620
vt 0.9584 0.4570
vt 0.9500 0.4453
vt 0.9212 0.4593
vt 0.9394 0.4665
vt 0.9409 0.4454
vt 0.9118 0.4403
vt 0.9167 0.4593
vt 0.9319 0.4451
vt 0.9146 0.4220
vt 0.9073 0.4402
vt 0.9320 0.4360
vt 0.9335 0.4126
vt 0.9146 0.4175
vt 0.9322 0.4268
vt 0.9518 0.4153
vt 0.9336 0.4081
vt 0.9412 0.4269
vt 0.9611 0.4342
vt 0.9563 0.4153
vt 0.9502 0.4271
vt 0.9584 0.4525
vt 0.9656 0.4343
vt 0.8048 0.9140
vt 0.8032 0.9391
vt 0.8010 0.9383
vt 0.8023 0.9136
vt 0.8016 0.9648
vt 0.8000 0.9905
vt 0.7982 0.9912
vt 0.7996 0.9647
vt 0.7894 0.9139
vt 0.7896 0.9391
vt 0.7872 0.9391
vt 0.7867 0.9139
vt 0.7900 0.9647
vt 0.7905 0.9904
vt 0.7893 0.9904
vt 0.7882 0.9648
vt 0.7998 0.9139
vt 0.7988 0.9390
vt 0.7966 0.9397
vt 0.7973 0.9142
vt 0.7978 0.9651
vt 0.7968 0.9912
vt 0.7953 0.9912
vt 0.7959 0.9654
vt 0.8100 0.9147
vt 0.8077 0.9398
vt 0.8055 0.9398
vt 0.8074 0.9145
vt 0.8056 0.9651
vt 0.8035 0.9904
vt 0.8018 0.9898
vt 0.8037 0.9648
vt 0.7947 0.9140
vt 0.7943 0.9394
vt 0.7920 0.9391
vt 0.7922 0.9139
vt 0.7939 0.9651
vt 0.7935 0.9907
vt 0.7917 0.9903
vt 0.7918 0.9647
vt 0.7951 0.8887
vt 0.7923 0.8887
vt 0.7980 0.8887
vt 0.8100 0.9399
vt 0.8076 0.9654
vt 0.8052 0.9910
vt 0.8123 0.8895
vt 0.8093 0.8892
vt 0.8152 0.8898
vt 0.8126 0.9148
vt 0.8008 0.8888
vt 0.8036 0.8888
vt 0.7893 0.8887
vt 0.7863 0.8887
vt 0.8065 0.8890
vt 0.9738 0.4597
vt 0.9810 0.4415
vt 0.9666 0.4778
vt 0.9762 0.4226
vt 0.9713 0.4037
vt 0.9810 0.4415
vt 0.9532 0.3965
vt 0.9350 0.3893
vt 0.9713 0.4037
vt 0.9161 0.3941
vt 0.8972 0.3990
vt 0.9350 0.3893
vt 0.8900 0.4171
vt 0.8827 0.4353
vt 0.8972 0.3990
vt 0.8876 0.4542
vt 0.8925 0.4732
vt 0.8827 0.4353
vt 0.9107 0.4804
vt 0.9288 0.4877
vt 0.8925 0.4732
vt 0.9477 0.4827
vt 0.9666 0.4778
vt 0.9288 0.4877
vt 0.9397 0.4672
vt 0.9396 0.4464
vt 0.9399 0.4881
vt 0.9589 0.4833
vt 0.9780 0.4785
vt 0.9173 0.4604
vt 0.9318 0.4460
vt 0.9027 0.4749
vt 0.9213 0.4815
vt 0.9399 0.4881
vt 0.9086 0.4410
vt 0.9240 0.4454
vt 0.8931 0.4367
vt 0.8979 0.4558
vt 0.9027 0.4749
vt 0.9154 0.4186
vt 0.9246 0.4376
vt 0.9063 0.3996
vt 0.8997 0.4182
vt 0.8931 0.4367
vt 0.9348 0.4099
vt 0.9251 0.4297
vt 0.9445 0.3901
vt 0.9254 0.3949
vt 0.9063 0.3996
vt 0.9571 0.4166
vt 0.9328 0.4301
vt 0.9815 0.4032
vt 0.9630 0.3967
vt 0.9445 0.3901
vt 0.9658 0.4360
vt 0.9406 0.4307
vt 0.9911 0.4413
vt 0.9863 0.4223
vt 0.9815 0.4032
vt 0.9590 0.4585
vt 0.9401 0.4385
vt 0.9780 0.4785
vt 0.9845 0.4599
vt 0.9911 0.4413
vt 0.9742 0.4431
vt 0.9514 0.4484
vt 0.9969 0.4379
vt 0.9913 0.4180
vt 0.9857 0.3982
vt 0.9632 0.4628
vt 0.9421 0.4483
vt 0.9844 0.4773
vt 0.9906 0.4576
vt 0.9969 0.4379
vt 0.9388 0.4681
vt 0.9328 0.4476
vt 0.9447 0.4886
vt 0.9646 0.4829
vt 0.9844 0.4773
vt 0.9192 0.4571
vt 0.9331 0.4382
vt 0.9053 0.4760
vt 0.9250 0.4823
vt 0.9447 0.4886
vt 0.9139 0.4326
vt 0.9337 0.4289
vt 0.8940 0.4362
vt 0.8996 0.4561
vt 0.9053 0.4760
vt 0.9248 0.4130
vt 0.9430 0.4291
vt 0.9066 0.3969
vt 0.9003 0.4165
vt 0.8940 0.4362
vt 0.9493 0.4078
vt 0.9523 0.4298
vt 0.9464 0.3857
vt 0.9265 0.3913
vt 0.9066 0.3969
vt 0.9689 0.4187
vt 0.9520 0.4391
vt 0.9857 0.3982
vt 0.9661 0.3920
vt 0.9464 0.3857
vt 0.9685 0.4417
vt 0.9555 0.4467
vt 0.9814 0.4368
vt 0.9771 0.4191
vt 0.9727 0.4015
vt 0.9577 0.4589
vt 0.9458 0.4468
vt 0.9695 0.4711
vt 0.9755 0.4539
vt 0.9814 0.4368
vt 0.9352 0.4631
vt 0.9360 0.4464
vt 0.9343 0.4799
vt 0.9519 0.4755
vt 0.9695 0.4711
vt 0.9180 0.4523
vt 0.9360 0.4365
vt 0.9000 0.4680
vt 0.9172 0.4739
vt 0.9343 0.4799
vt 0.9137 0.4297
vt 0.9363 0.4267
vt 0.8912 0.4327
vt 0.8956 0.4503
vt 0.9000 0.4680
vt 0.9246 0.4125
vt 0.9461 0.4266
vt 0.9031 0.3984
vt 0.8972 0.4155
vt 0.8912 0.4327
vt 0.9471 0.4083
vt 0.9558 0.4271
vt 0.9384 0.3896
vt 0.9208 0.3940
vt 0.9031 0.3984
vt 0.9642 0.4192
vt 0.9558 0.4369
vt 0.9727 0.4015
vt 0.9555 0.3956
vt 0.9384 0.3896
vt 0.9570 0.4570
vt 0.9445 0.4430
vt 0.9695 0.4711
vt 0.9755 0.4539
vt 0.9814 0.4368
vt 0.9353 0.4613
vt 0.9363 0.4428
vt 0.9343 0.4799
vt 0.9519 0.4755
vt 0.9695 0.4711
vt 0.9140 0.4552
vt 0.9281 0.4423
vt 0.9000 0.4680
vt 0.9172 0.4739
vt 0.9343 0.4799
vt 0.9099 0.4333
vt 0.9285 0.4340
vt 0.8912 0.4327
vt 0.8956 0.4503
vt 0.9000 0.4680
vt 0.9160 0.4121
vt 0.9289 0.4258
vt 0.9031 0.3984
vt 0.8972 0.4155
vt 0.8912 0.4327
vt 0.9377 0.4078
vt 0.9371 0.4261
vt 0.9384 0.3896
vt 0.9208 0.3940
vt 0.9031 0.3984
vt 0.9590 0.4140
vt 0.9452 0.4266
vt 0.9727 0.4015
vt 0.9555 0.3956
vt 0.9384 0.3896
vt 0.9631 0.4358
vt 0.9448 0.4348
vt 0.9814 0.4368
vt 0.9771 0.4191
vt 0.9727 0.4015
vt 0.9570 0.4570
vt 0.9445 0.4430
vt 0.9695 0.4711
vt 0.9755 0.4539
vt 0.9814 0.4368
vt 0.9353 0.4613
vt 0.9363 0.4428
vt 0.9343 0.4799
vt 0.9519 0.4755
vt 0.9695 0.4711
vt 0.9140 0.4552
vt 0.9281 0.4423
vt 0.9000 0.4680
vt 0.9172 0.4739
vt 0.9343 0.4799
vt 0.9099 0.4333
vt 0.9285 0.4340
vt 0.8912 0.4327
vt 0.8956 0.4503
vt 0.9000 0.4680
vt 0.9160 0.4121
vt 0.9289 0.4258
vt 0.9031 0.3984
vt 0.8972 0.4155
vt 0.8912 0.4327
vt 0.9377 0.4078
vt 0.9371 0.4261
vt 0.9384 0.3896
vt 0.9208 0.3940
vt 0.9031 0.3984
vt 0.9590 0.4140
vt 0.9452 0.4266
vt 0.9727 0.4015
vt 0.9555 0.3956
vt 0.9384 0.3896
vt 0.9631 0.4358
vt 0.9448 0.4348
vt 0.9814 0.4368
vt 0.9771 0.4191
vt 0.9727 0.4015
vt 0.9631 0.4358
vt 0.9814 0.4368
vt 0.9448 0.4348
vt 0.9447 0.4389
vt 0.9445 0.4430
vt 0.9590 0.4140
vt 0.9727 0.4015
vt 0.9452 0.4266
vt 0.9450 0.4307
vt 0.9448 0.4348
vt 0.9377 0.4078
vt 0.9384 0.3896
vt 0.9371 0.4261
vt 0.9412 0.4263
vt 0.9452 0.4266
vt 0.9160 0.4121
vt 0.9031 0.3984
vt 0.9289 0.4258
vt 0.9330 0.4259
vt 0.9371 0.4261
vt 0.9099 0.4333
vt 0.8912 0.4327
vt 0.9285 0.4340
vt 0.9287 0.4299
vt 0.9289 0.4258
vt 0.9140 0.4552
vt 0.9000 0.4680
vt 0.9281 0.4423
vt 0.9283 0.4381
vt 0.9285 0.4340
vt 0.9353 0.4613
vt 0.9343 0.4799
vt 0.9363 0.4428
vt 0.9322 0.4426
vt 0.9281 0.4423
vt 0.9570 0.4570
vt 0.9695 0.4711
vt 0.9445 0.4430
vt 0.9404 0.4429
vt 0.9363 0.4428
vt 0.9570 0.4570
vt 0.9445 0.4430
vt 0.9695 0.4711
vt 0.9755 0.4539
vt 0.9814 0.4368
vt 0.9353 0.4613
vt 0.9363 0.4428
vt 0.9343 0.4799
vt 0.9519 0.4755
vt 0.9695 0.4711
vt 0.9140 0.4552
vt 0.9281 0.4423
vt 0.9000 0.4680
vt 0.9172 0.4739
vt 0.9343 0.4799
vt 0.9099 0.4333
vt 0.9285 0.4340
vt 0.8912 0.4327
vt 0.8956 0.4503
vt 0.9000 0.4680
vt 0.9160 0.4121
vt 0.9289 0.4258
vt 0.9031 0.3984
vt 0.8972 0.4155
vt 0.8912 0.4327
vt 0.9377 0.4078
vt 0.9371 0.4261
vt 0.9384 0.3896
vt 0.9208 0.3940
vt 0.9031 0.3984
vt 0.9590 0.4140
vt 0.9452 0.4266
vt 0.9727 0.4015
vt 0.9555 0.3956
vt 0.9384 0.3896
vt 0.9631 0.4358
vt 0.9448 0.4348
vt 0.9814 0.4368
vt 0.9771 0.4191
vt 0.9727 0.4015
vt 0.9208 0.3940
vt 0.9031 0.3984
vt 0.9384 0.3896
vt 0.8972 0.4155
vt 0.8912 0.4327
vt 0.8956 0.4503
vt 0.9000 0.4680
vt 0.9771 0.4191
vt 0.9727 0.4015
vt 0.9814 0.4368
vt 0.9755 0.4539
vt 0.9695 0.4711
vt 0.9172 0.4739
vt 0.9343 0.4799
vt 0.9519 0.4755
vt 0.9555 0.3956
vt 0.9160 0.4121
vt 0.9289 0.4258
vt 0.9099 0.4333
vt 0.9285 0.4340
vt 0.9140 0.4552
vt 0.9281 0.4423
vt 0.9590 0.4140
vt 0.9452 0.4266
vt 0.9631 0.4358
vt 0.9448 0.4348
vt 0.9353 0.4613
vt 0.9363 0.4428
vt 0.9570 0.4570
vt 0.9445 0.4430
vt 0.9377 0.4078
vt 0.9371 0.4261
vt 0.9208 0.3940
vt 0.9031 0.3984
vt 0.9384 0.3896
vt 0.8972 0.4155
vt 0.8912 0.4327
vt 0.8956 0.4503
vt 0.9000 0.4680
vt 0.9771 0.4191
vt 0.9727 0.4015
vt 0.9814 0.4368
vt 0.9755 0.4539
vt 0.9695 0.4711
vt 0.9172 0.4739
vt 0.9343 0.4799
vt 0.9519 0.4755
vt 0.9555 0.3956
vt 0.9208 0.3940
vt 0.9031 0.3984
vt 0.9384 0.3896
vt 0.8972 0.4155
vt 0.8912 0.4327
vt 0.8956 0.4503
vt 0.9000 0.4680
vt 0.9771 0.4191
vt 0.9727 0.4015
vt 0.9814 0.4368
vt 0.9755 0.4539
vt 0.9695 0.4711
vt 0.9172 0.4739
vt 0.9343 0.4799
vt 0.9519 0.4755
vt 0.9555 0.3956
vt 0.9208 0.3940
vt 0.9031 0.3984
vt 0.9384 0.3896
vt 0.8972 0.4155
vt 0.8912 0.4327
vt 0.8956 0.4503
vt 0.9000 0.4680
vt 0.9771 0.4191
vt 0.9727 0.4015
vt 0.9814 0.4368
vt 0.9755 0.4539
vt 0.9695 0.4711
vt 0.9172 0.4739
vt 0.9343 0.4799
vt 0.9519 0.4755
vt 0.9555 0.3956
vt 0.9265 0.3913
vt 0.9066 0.3969
vt 0.9464 0.3857
vt 0.9003 0.4165
vt 0.8940 0.4362
vt 0.8996 0.4561
vt 0.9053 0.4760
vt 0.9913 0.4180
vt 0.9857 0.3982
vt 0.9969 0.4379
vt 0.9906 0.4576
vt 0.9844 0.4773
vt 0.9250 0.4823
vt 0.9447 0.4886
vt 0.9646 0.4829
vt 0.9661 0.3920
vt 0.9532 0.3965
vt 0.9350 0.3893
vt 0.9713 0.4037
vt 0.9477 0.4827
vt 0.9666 0.4778
vt 0.9288 0.4877
vt 0.9107 0.4804
vt 0.8925 0.4732
vt 0.9738 0.4597
vt 0.9810 0.4415
vt 0.9762 0.4226
vt 0.8876 0.4542
vt 0.8827 0.4353
vt 0.8900 0.4171
vt 0.8972 0.3990
vt 0.9161 0.3941
vt 0.9254 0.3949
vt 0.9063 0.3996
vt 0.9445 0.3901
vt 0.8997 0.4182
vt 0.8931 0.4367
vt 0.8979 0.4558
vt 0.9027 0.4749
vt 0.9863 0.4223
vt 0.9815 0.4032
vt 0.9911 0.4413
vt 0.9845 0.4599
vt 0.9780 0.4785
vt 0.9213 0.4815
vt 0.9399 0.4881
vt 0.9589 0.4833
vt 0.9630 0.3967
vn 0.4852 0.4301 0.7613
vn 0.4894 -0.8193 0.2987
vn -0.0070 -0.9999 0.0128
vn -0.0005 0.4740 0.8805
vn 0.4864 0.4386 -0.7557
vn 0.4911 -0.8143 -0.3095
vn 0.4538 -0.7639 -0.4587
vn 0.6294 0.4580 -0.6278
vn -0.4869 0.4441 -0.7521
vn -0.4958 -0.8104 -0.3123
vn -0.0066 -0.9997 -0.0255
vn -0.0004 0.4840 -0.8751
vn 0.7578 0.4356 -0.4858
vn 0.3016 -0.8154 -0.4941
vn 0.0128 -0.9999 -0.0073
vn 0.8805 0.4740 -0.0004
vn 0.7613 0.4301 0.4853
vn 0.2987 -0.8194 0.4893
vn 0.4492 -0.7724 0.4491
vn 0.6311 0.4510 0.6312
vn -0.7522 0.4441 -0.4868
vn -0.3122 -0.8103 -0.4959
vn -0.4632 -0.7556 -0.4632
vn -0.6261 0.4649 -0.6260
vn -0.7557 0.4386 0.4864
vn -0.3095 -0.8143 0.4910
vn -0.0256 -0.9996 -0.0069
vn -0.8751 0.4840 -0.0004
vn -0.4858 0.4356 0.7578
vn -0.4940 -0.8154 0.3017
vn -0.4587 -0.7639 0.4538
vn -0.6278 0.4580 0.6294
vn -0.2290 0.5076 0.8306
vn 0.2871 -0.6392 0.7135
vn -0.2174 -0.9509 0.2204
vn -0.5818 0.5681 0.5821
vn 0.8258 0.5174 -0.2246
vn 0.7214 -0.6308 0.2858
vn 0.6350 -0.7725 -0.0061
vn 0.8553 0.5182 0.0008
vn 0.2224 0.5227 -0.8230
vn -0.2919 -0.6251 -0.7239
vn 0.2303 -0.9463 -0.2269
vn 0.5768 0.5788 -0.5765
vn 0.8277 0.5133 0.2267
vn 0.7162 -0.6333 -0.2933
vn 0.2181 -0.9509 0.2197
vn 0.5816 0.5682 0.5821
vn 0.2288 0.5077 0.8306
vn -0.2868 -0.6394 0.7134
vn 0.0002 -0.7791 0.6269
vn -0.0001 0.5106 0.8598
vn -0.2226 0.5226 -0.8230
vn 0.2922 -0.6248 -0.7240
vn 0.0002 -0.7660 -0.6429
vn -0.0001 0.5253 -0.8509
vn -0.8259 0.5171 -0.2247
vn -0.7213 -0.6309 0.2857
vn -0.2296 -0.9463 -0.2277
vn -0.5770 0.5786 -0.5764
vn -0.8279 0.5130 0.2268
vn -0.7161 -0.6334 -0.2932
vn -0.6349 -0.7726 -0.0061
vn -0.8555 0.5179 0.0008
vn -0.4064 0.7180 0.5650
vn -0.4390 0.5917 0.6762
vn -0.5462 0.6344 0.5470
vn -0.4878 0.7233 0.4888
vn -0.5624 0.7203 0.4060
vn -0.6737 0.5945 0.4390
vn -0.7554 0.6553 0.0007
vn -0.6188 0.7856 0.0009
vn -0.5555 0.7265 -0.4045
vn -0.6689 0.6003 -0.4384
vn -0.5425 0.6414 -0.5424
vn -0.4830 0.7305 -0.4829
vn 0.5714 0.7123 0.4077
vn 0.6810 0.5857 0.4395
vn 0.5507 0.6272 0.5508
vn 0.4931 0.7166 0.4933
vn 0.5644 0.7186 -0.4063
vn 0.6762 0.5917 -0.4390
vn 0.7640 0.6452 0.0007
vn 0.6291 0.7773 0.0009
vn -0.4045 0.7266 -0.5554
vn -0.4385 0.6003 -0.6689
vn 0.0007 0.6553 -0.7554
vn 0.0005 0.7859 -0.6183
vn 0.4058 0.7209 -0.5618
vn 0.4390 0.5945 -0.6737
vn 0.5470 0.6344 -0.5462
vn 0.4883 0.7240 -0.4873
vn 0.4077 0.7122 0.5715
vn 0.4394 0.5858 0.6810
vn 0.0007 0.6452 0.7640
vn 0.0005 0.7770 0.6295
vn 0.4915 0.4684 0.7341
vn 0.4195 -0.8039 0.4217
vn -0.0054 -0.9903 0.1389
vn -0.0006 0.5266 0.8501
vn 0.4927 0.4757 -0.7287
vn 0.4283 -0.7976 -0.4247
vn 0.4955 -0.7126 -0.4967
vn 0.6187 0.4858 -0.6175
vn -0.4934 0.4807 -0.7249
vn -0.4354 -0.7935 -0.4251
vn -0.0052 -0.9893 -0.1456
vn -0.0006 0.5354 -0.8446
vn 0.7305 0.4734 -0.4923
vn 0.4222 -0.7997 -0.4269
vn 0.1390 -0.9903 -0.0061
vn 0.8502 0.5265 -0.0005
vn 0.7341 0.4684 0.4917
vn 0.4220 -0.8040 0.4190
vn 0.4904 -0.7207 0.4900
vn 0.6203 0.4799 0.6204
vn -0.7249 0.4808 -0.4933
vn -0.4247 -0.7934 -0.4359
vn -0.5015 -0.7047 -0.5019
vn -0.6157 0.4919 -0.6156
vn -0.7285 0.4759 0.4927
vn -0.4247 -0.7977 0.4281
vn -0.1455 -0.9893 -0.0059
vn -0.8445 0.5355 -0.0005
vn -0.4923 0.4735 0.7303
vn -0.4267 -0.7998 0.4222
vn -0.4966 -0.7127 0.4954
vn -0.6174 0.4860 0.6186
vn 0.8681 0.3899 0.3072
vn 0.3141 -0.8129 0.4905
vn 0.1461 -0.9776 0.1512
vn 0.6439 0.4122 0.6446
vn -0.3035 0.3962 -0.8665
vn -0.4996 -0.8053 -0.3193
vn 0.0000 0.0000 0.0000
vn 0.0010 0.4195 -0.9077
vn -0.8657 0.3994 -0.3017
vn -0.3223 -0.8008 -0.5049
vn -0.1586 -0.9753 -0.1536
vn -0.6423 0.4195 -0.6415
vn 0.3054 0.3929 -0.8674
vn 0.4960 -0.8084 -0.3170
vn 0.1461 -0.9776 -0.1512
vn 0.6439 0.4121 -0.6447
vn 0.8682 0.3898 -0.3072
vn 0.3141 -0.8129 -0.4905
vn 0.9098 0.4149 -0.0000
vn -0.8657 0.3995 0.3016
vn -0.3223 -0.8008 0.5049
vn -0.9055 0.4243 -0.0000
vn -0.3034 0.3964 0.8665
vn -0.4996 -0.8053 0.3193
vn -0.1586 -0.9753 0.1536
vn -0.6422 0.4196 0.6415
vn 0.3053 0.3931 0.8674
vn 0.4960 -0.8084 0.3170
vn 0.0010 0.4198 0.9076
vn 0.8486 0.3888 0.3587
vn 0.1410 -0.5849 0.7988
vn 0.6494 0.3935 0.6508
vn -0.3528 0.3969 -0.8473
vn -0.7965 -0.5844 -0.1553
vn 0.0106 -0.9114 -0.4114
vn 0.0020 0.4335 -0.9011
vn -0.8468 0.4003 -0.3502
vn -0.1670 -0.5867 -0.7924
vn -0.6479 0.4028 -0.6465
vn 0.3562 0.3922 -0.8481
vn 0.7945 -0.5876 -0.1530
vn 0.6494 0.3935 -0.6508
vn 0.8486 0.3888 -0.3587
vn 0.1410 -0.5849 -0.7988
vn 0.3902 -0.9207 0.0000
vn 0.9037 0.4281 0.0000
vn -0.8468 0.4003 0.3502
vn -0.1670 -0.5867 0.7924
vn -0.4318 -0.9020 0.0000
vn -0.8986 0.4389 0.0000
vn -0.3528 0.3969 0.8473
vn -0.7965 -0.5844 0.1553
vn -0.6479 0.4028 0.6465
vn 0.3562 0.3922 0.8481
vn 0.7945 -0.5876 0.1530
vn 0.0106 -0.9114 0.4114
vn 0.0020 0.4335 0.9011
vn 0.9173 0.3420 0.2041
vn 0.1985 -0.5744 0.7941
vn 0.1907 -0.9601 0.2044
vn 0.6530 0.3802 0.6550
vn -0.1992 0.3476 -0.9162
vn -0.7917 -0.5735 -0.2105
vn 0.0164 -0.8163 -0.5774
vn 0.0008 0.3610 -0.9326
vn -0.9156 0.3512 -0.1957
vn -0.2223 -0.5737 -0.7883
vn -0.2064 -0.9592 -0.1933
vn -0.6529 0.3873 -0.6509
vn 0.2005 0.3456 -0.9167
vn 0.7906 -0.5750 -0.2106
vn 0.1907 -0.9601 -0.2044
vn 0.6530 0.3802 -0.6550
vn 0.9173 0.3420 -0.2041
vn 0.1985 -0.5744 -0.7941
vn 0.5596 -0.8288 -0.0000
vn 0.9343 0.3565 0.0000
vn -0.9156 0.3512 0.1957
vn -0.2223 -0.5737 0.7883
vn -0.5945 -0.8041 0.0000
vn -0.9308 0.3654 0.0000
vn -0.1992 0.3476 0.9162
vn -0.7917 -0.5735 0.2105
vn -0.2064 -0.9592 0.1933
vn -0.6529 0.3873 0.6509
vn 0.2005 0.3456 0.9167
vn 0.7906 -0.5750 0.2106
vn 0.0164 -0.8163 0.5774
vn 0.0008 0.3610 0.9326
vn 0.9508 0.3098 -0.0000
vn 0.9612 0.2757 -0.0000
vn 0.9155 0.2869 0.2820
vn -0.6687 0.3290 -0.6667
vn -0.6723 0.3120 -0.6713
vn -0.2797 0.2929 -0.9143
vn -0.9488 0.3158 0.0000
vn -0.9562 0.2926 0.0000
vn -0.9139 0.2960 -0.2779
vn -0.0007 0.3128 -0.9498
vn 0.0008 0.2842 -0.9588
vn 0.2802 0.2900 -0.9151
vn 0.6684 0.3223 -0.6704
vn 0.6742 0.2995 -0.6751
vn 0.9155 0.2869 -0.2820
vn -0.6687 0.3290 0.6667
vn -0.6723 0.3120 0.6713
vn -0.9139 0.2960 0.2779
vn -0.0007 0.3128 0.9498
vn 0.0008 0.2842 0.9588
vn -0.2796 0.2929 0.9143
vn 0.6684 0.3223 0.6704
vn 0.6742 0.2995 0.6751
vn 0.2802 0.2900 0.9151
vn -0.2621 0.3244 -0.9089
vn -0.0004 0.3319 -0.9433
vn 0.0019 -0.8652 -0.5014
vn -0.5814 -0.7663 -0.2734
vn -0.9090 0.3243 0.2617
vn -0.9434 0.3317 -0.0000
vn -0.5059 -0.8626 -0.0000
vn -0.2801 -0.7651 0.5798
vn 0.2614 0.3245 0.9091
vn -0.0004 0.3319 0.9433
vn 0.0019 -0.8652 0.5014
vn 0.5838 -0.7651 0.2717
vn 0.2614 0.3245 -0.9091
vn 0.6589 0.3620 -0.6594
vn 0.5446 -0.6556 -0.5230
vn 0.5838 -0.7651 -0.2717
vn 0.9089 0.3245 -0.2618
vn 0.9433 0.3320 0.0000
vn 0.4968 -0.8679 0.0000
vn 0.2647 -0.7660 -0.5858
vn -0.9090 0.3243 -0.2617
vn -0.6594 0.3619 -0.6589
vn -0.5263 -0.6518 -0.5461
vn -0.2801 -0.7651 -0.5798
vn -0.2621 0.3244 0.9089
vn -0.6594 0.3619 0.6589
vn -0.5263 -0.6518 0.5461
vn -0.5814 -0.7663 0.2734
vn 0.9089 0.3245 0.2618
vn 0.6589 0.3620 0.6594
vn 0.5446 -0.6556 0.5230
vn 0.2647 -0.7660 0.5858
vn 0.8921 0.3749 0.2522
vn 0.2609 -0.6518 0.7121
vn 0.2470 -0.9348 0.2552
vn 0.6444 0.4107 0.6451
vn -0.2495 0.3802 -0.8906
vn -0.7140 -0.6468 -0.2680
vn 0.0077 -0.8859 -0.4639
vn 0.0005 0.3943 -0.9190
vn -0.8898 0.3832 -0.2477
vn -0.2751 -0.6434 -0.7144
vn -0.2606 -0.9318 -0.2526
vn -0.6431 0.4168 -0.6424
vn 0.2504 0.3779 -0.8913
vn 0.7125 -0.6484 -0.2680
vn 0.2470 -0.9348 -0.2551
vn 0.6444 0.4107 -0.6451
vn 0.8921 0.3749 -0.2522
vn 0.2609 -0.6518 -0.7121
vn 0.4513 -0.8924 0.0000
vn 0.9207 0.3903 0.0000
vn -0.8898 0.3832 0.2477
vn -0.2751 -0.6434 0.7144
vn -0.4762 -0.8793 0.0000
vn -0.9172 0.3984 0.0000
vn -0.2495 0.3802 0.8906
vn -0.7140 -0.6468 0.2680
vn -0.2606 -0.9318 0.2526
vn -0.6431 0.4168 0.6424
vn 0.2504 0.3779 0.8913
vn 0.7125 -0.6484 0.2680
vn 0.0077 -0.8859 0.4639
vn 0.0005 0.3943 0.9190
vn -0.8592 -0.5111 0.0232
vn -0.8431 -0.5378 0.0000
vn -0.8592 -0.5111 -0.0232
vn -0.5680 -0.5924 -0.5713
vn -0.0136 -0.5210 -0.8534
vn -0.0005 -0.5478 -0.8366
vn 0.0148 -0.5211 -0.8534
vn 0.5639 -0.6063 -0.5607
vn 0.8475 -0.5307 -0.0054
vn 0.8301 -0.5576 -0.0000
vn 0.8475 -0.5307 0.0054
vn 0.5639 -0.6063 0.5607
vn 0.0148 -0.5211 0.8534
vn -0.0005 -0.5478 0.8366
vn -0.0136 -0.5210 0.8534
vn -0.5680 -0.5924 0.5713
vn 0.0098 -0.6031 0.7976
vn 0.4971 -0.7126 0.4951
vn 0.7924 -0.6100 0.0020
vn 0.7873 -0.6165 0.0000
vn 0.7924 -0.6100 -0.0020
vn 0.4971 -0.7126 -0.4951
vn 0.0098 -0.6031 -0.7976
vn 0.0002 -0.6097 -0.7926
vn -0.0092 -0.6031 -0.7976
vn -0.5020 -0.7028 -0.5041
vn -0.8028 -0.5960 -0.0171
vn -0.7980 -0.6027 -0.0000
vn -0.8028 -0.5960 0.0171
vn -0.5020 -0.7028 0.5041
vn -0.0092 -0.6031 0.7976
vn 0.0002 -0.6097 0.7926
vn -0.8081 -0.5800 0.1027
vn 0.3561 -0.8038 -0.4765
vn 0.5777 -0.8162 -0.0000
vn -0.8000 -0.6001 -0.0000
vn -0.8081 -0.5800 -0.1027
vn 0.3561 -0.8038 0.4765
vn 0.5268 -0.6754 0.5160
vn -0.5403 -0.6440 -0.5417
vn -0.0960 -0.5886 -0.8027
vn 0.4782 -0.8002 0.3620
vn 0.0009 -0.8125 0.5830
vn -0.0010 -0.6093 -0.7929
vn 0.0950 -0.5906 -0.8013
vn -0.4777 -0.7990 0.3653
vn -0.5216 -0.6674 0.5316
vn 0.5338 -0.6569 -0.5325
vn 0.7959 -0.5990 -0.0884
vn -0.3711 -0.7953 0.4794
vn -0.5881 -0.8088 -0.0000
vn 0.7859 -0.6183 -0.0000
vn 0.7959 -0.5990 0.0884
vn -0.3711 -0.7953 -0.4794
vn -0.5216 -0.6674 -0.5316
vn 0.5338 -0.6569 0.5325
vn 0.0950 -0.5906 0.8013
vn -0.4777 -0.7990 -0.3653
vn 0.0009 -0.8125 -0.5830
vn -0.0010 -0.6093 0.7929
vn -0.0960 -0.5886 0.8027
vn 0.4782 -0.8002 -0.3620
vn 0.5268 -0.6754 -0.5160
vn -0.5403 -0.6440 0.5417
vn -0.7913 -0.5711 0.2186
vn 0.2262 -0.7700 -0.5965
vn 0.6259 -0.7799 -0.0000
vn -0.8006 -0.5992 -0.0000
vn -0.7913 -0.5711 -0.2186
vn 0.2262 -0.7700 0.5965
vn 0.4774 -0.7417 0.4711
vn -0.5658 -0.5979 -0.5678
vn -0.2137 -0.5762 -0.7889
vn 0.5987 -0.7672 0.2301
vn -0.0005 -0.7768 0.6297
vn -0.0020 -0.6053 -0.7960
vn 0.2105 -0.5798 -0.7871
vn -0.6001 -0.7645 0.2356
vn -0.4785 -0.7323 0.4846
vn 0.5618 -0.6090 -0.5599
vn 0.7846 -0.5849 -0.2056
vn -0.2395 -0.7616 0.6022
vn 0.7914 -0.6113 0.0000
vn 0.7846 -0.5849 0.2056
vn -0.2395 -0.7616 -0.6022
vn -0.4785 -0.7323 -0.4846
vn 0.5618 -0.6090 0.5599
vn 0.2105 -0.5798 0.7871
vn -0.6001 -0.7645 -0.2356
vn -0.0005 -0.7768 -0.6297
vn -0.0020 -0.6053 0.7960
vn -0.2137 -0.5762 0.7889
vn 0.5987 -0.7672 -0.2301
vn 0.4774 -0.7417 -0.4711
vn -0.5658 -0.5979 0.5678
vn -0.6288 -0.7222 -0.2883
vn 0.4739 -0.8004 0.3672
vn 0.5408 -0.6413 0.5443
vn -0.4446 -0.7774 -0.4450
vn -0.2880 -0.7220 -0.6291
vn 0.3664 -0.7997 0.4757
vn 0.0000 -0.7464 0.6655
vn -0.0002 -0.7173 -0.6968
vn 0.2862 -0.7261 -0.6252
vn -0.3663 -0.7975 0.4794
vn -0.5436 -0.6352 0.5486
vn 0.4386 -0.7832 -0.4408
vn 0.6212 -0.7306 -0.2833
vn -0.4837 -0.7936 0.3691
vn -0.6701 -0.7423 0.0018
vn 0.6879 -0.7258 -0.0005
vn 0.6175 -0.7347 0.2810
vn -0.4850 -0.7923 -0.3703
vn -0.5498 -0.6318 -0.5463
vn 0.4345 -0.7891 0.4342
vn 0.2813 -0.7348 0.6172
vn -0.3709 -0.7930 -0.4832
vn -0.0001 -0.7438 -0.6684
vn -0.0002 -0.7260 0.6877
vn -0.2830 -0.7309 0.6210
vn 0.3711 -0.7952 -0.4795
vn 0.5470 -0.6378 -0.5422
vn -0.4405 -0.7835 0.4383
vn -0.6250 -0.7264 0.2859
vn 0.4752 -0.7990 -0.3684
vn 0.6638 -0.7479 0.0019
vn -0.6965 -0.7175 -0.0006
vn -0.4013 -0.7557 -0.5175
vn 0.0912 -0.7338 0.6732
vn 0.0002 -0.8369 -0.5474
vn 0.4017 -0.7555 -0.5176
vn -0.0941 -0.7324 0.6743
vn -0.4652 -0.7540 0.4637
vn 0.4744 -0.7415 -0.4744
vn 0.5161 -0.7567 -0.4014
vn -0.6753 -0.7313 0.0958
vn -0.8613 -0.5081 0.0043
vn 0.5397 -0.8418 -0.0016
vn 0.5056 -0.7649 0.3991
vn -0.6821 -0.7245 -0.0995
vn -0.4688 -0.7488 -0.4685
vn 0.4672 -0.7509 0.4668
vn 0.3993 -0.7660 0.5039
vn -0.0997 -0.7242 -0.6824
vn 0.0002 -0.8469 0.5318
vn -0.3989 -0.7661 0.5038
vn 0.0969 -0.7256 -0.6813
vn 0.4664 -0.7506 -0.4681
vn -0.4668 -0.7511 0.4668
vn -0.5052 -0.7651 0.3992
vn 0.6804 -0.7266 -0.0952
vn 0.8592 -0.5117 0.0041
vn -0.5393 -0.8421 -0.0016
vn -0.5157 -0.7569 -0.4015
vn 0.6736 -0.7334 0.0915
vn 0.4628 -0.7558 0.4632
vn -0.4740 -0.7417 -0.4745
vn -0.7062 -0.6528 -0.2742
vn 0.5671 -0.8034 0.1815
vn 0.5835 -0.5801 0.5683
vn -0.4876 -0.7243 -0.4875
vn -0.2741 -0.6529 -0.7061
vn 0.1924 -0.8050 0.5612
vn 0.0063 -0.7729 0.6345
vn -0.0000 -0.6330 -0.7742
vn 0.2725 -0.6583 -0.7018
vn -0.1969 -0.8035 0.5618
vn -0.5732 -0.5755 0.5833
vn 0.4792 -0.7329 -0.4829
vn 0.6957 -0.6659 -0.2694
vn -0.5679 -0.7973 0.2044
vn -0.6414 -0.7672 -0.0001
vn 0.7632 -0.6462 -0.0000
vn 0.6915 -0.6709 0.2677
vn -0.5715 -0.7948 -0.2041
vn -0.5752 -0.5673 -0.5893
vn 0.4747 -0.7411 0.4748
vn 0.2678 -0.6708 0.6916
vn -0.1945 -0.7933 -0.5770
vn 0.0060 -0.7642 -0.6450
vn 0.0000 -0.6460 0.7633
vn -0.2694 -0.6657 0.6958
vn 0.1901 -0.7947 -0.5765
vn 0.5856 -0.5718 -0.5745
vn -0.4830 -0.7327 0.4794
vn -0.7019 -0.6581 0.2725
vn 0.5707 -0.8008 -0.1814
vn 0.6383 -0.7698 0.0002
vn -0.7743 -0.6328 -0.0001
vn 0.5544 -0.6164 -0.5592
vn -0.3961 -0.8285 0.3957
vn 0.2239 -0.6002 -0.7679
vn 0.0023 -0.3724 -0.9281
vn -0.0014 -0.8910 0.4540
vn -0.2268 -0.5925 -0.7730
vn -0.5597 -0.6096 -0.5613
vn 0.3895 -0.8344 0.3899
vn -0.7729 -0.5923 -0.2274
vn -0.9289 -0.3702 -0.0139
vn 0.4482 -0.8939 0.0000
vn -0.7719 -0.5956 0.2223
vn -0.5610 -0.6131 0.5563
vn 0.3895 -0.8345 -0.3898
vn -0.2216 -0.5974 0.7708
vn 0.0017 -0.3785 0.9256
vn -0.0014 -0.8911 -0.4539
vn 0.2185 -0.6051 0.7656
vn 0.5557 -0.6199 0.5540
vn -0.3961 -0.8286 -0.3957
vn 0.7656 -0.6053 0.2179
vn 0.9246 -0.3808 -0.0143
vn -0.4597 -0.8881 0.0000
vn 0.7667 -0.6020 -0.2232
vn -0.7771 0.0371 -0.6283
vn -0.7779 0.0201 -0.6280
vn -0.2321 0.0215 -0.9725
vn -0.2440 0.0371 -0.9691
vn -0.7721 0.0029 -0.6355
vn -0.7578 0.0024 -0.6524
vn -0.0385 -0.0031 -0.9993
vn -0.2100 -0.0016 -0.9777
vn 0.2622 -0.0025 0.9650
vn 0.2595 0.0145 0.9656
vn -0.4038 0.0221 0.9146
vn -0.3813 0.0054 0.9245
vn 0.2582 0.0313 0.9656
vn 0.2568 0.0321 0.9659
vn -0.3215 0.0389 0.9461
vn -0.4010 0.0384 0.9153
vn 0.3897 0.0240 -0.9206
vn 0.4169 0.0097 -0.9089
vn 0.8600 0.0117 -0.5102
vn 0.8355 0.0188 -0.5492
vn 0.4512 -0.0042 -0.8924
vn 0.4704 -0.0042 -0.8824
vn 0.8648 0.0077 -0.5020
vn 0.8819 0.0084 -0.4714
vn -0.8682 0.0157 0.4959
vn -0.8905 0.0222 0.4544
vn -0.9947 0.0237 -0.1005
vn -0.9961 0.0337 -0.0815
vn -0.8830 0.0280 0.4686
vn -0.8662 0.0292 0.4989
vn -0.9921 0.0161 -0.1242
vn -0.9947 0.0166 -0.1017
vn 0.9999 0.0090 0.0055
vn 0.9987 0.0140 0.0493
vn 0.7769 0.0179 0.6294
vn 0.7921 0.0046 0.6104
vn 0.9946 0.0194 0.1022
vn 0.9919 0.0197 0.1252
vn 0.7829 0.0315 0.6214
vn 0.7649 0.0313 0.6434
vn 0.9999 0.0088 -0.0137
vn 0.8007 0.0038 0.5991
vn 0.8225 0.0191 -0.5685
vn -0.8497 0.0145 0.5271
vn -0.9971 0.0337 -0.0689
vn -0.3668 0.0040 0.9303
vn 0.3789 0.0246 -0.9251
vn -0.2524 0.0375 -0.9669
vn 0.2639 -0.0036 0.9645
vn -0.7765 0.0376 -0.6290
vn -0.0069 -1.0000 -0.0000
vn 0.6013 -0.7295 -0.3259
vn -0.0008 -0.8402 -0.5422
vn 0.5693 -0.5997 -0.5624
vn 0.3194 -0.7339 -0.5994
vn 0.5381 -0.8429 0.0000
vn 0.3194 -0.7339 0.5994
vn 0.5693 -0.5997 0.5624
vn 0.6013 -0.7295 0.3259
vn -0.0008 -0.8402 0.5422
vn -0.6003 -0.7296 0.3277
vn -0.5670 -0.5912 0.5735
vn -0.3340 -0.7252 0.6021
vn -0.5463 -0.8376 0.0000
vn -0.3340 -0.7252 -0.6021
vn -0.5670 -0.5912 -0.5735
vn -0.6003 -0.7296 -0.3277
vn 0.0093 1.0000 0.0000
usemtl None
s 1
f 596/1/1 454/2/2 3/3/3 371/4/4
f 595/5/5 440/6/6 7/7/7 363/8/8
f 594/9/9 346/10/10 6/11/11 201/12/12
f 593/13/13 258/14/14 11/15/15 326/16/16
f 592/17/17 426/18/18 2/19/19 225/20/20
f 591/21/21 314/22/22 10/23/23 186/24/24
f 590/25/25 185/26/26 14/27/27 193/28/28
f 589/29/29 333/30/30 16/31/31 348/32/32
f 588/33/33 368/34/34 19/35/35 282/36/36
f 587/37/37 345/38/38 23/39/39 277/40/40
f 586/41/41 261/42/42 22/43/43 437/44/44
f 585/45/45 177/46/46 27/47/47 299/48/48
f 584/49/49 332/50/50 18/51/51 453/52/52
f 583/53/53 283/54/54 26/55/55 158/56/56
f 582/57/57 157/58/58 30/59/59 164/60/60
f 581/61/61 249/62/62 32/63/63 319/64/64
f 580/65/65 410/66/66 15/67/67 425/68/68
f 579/69/69 263/70/70 13/71/71 409/72/72
f 578/73/73 406/74/74 9/75/75 196/76/76
f 577/77/77 340/78/78 1/79/79 392/80/80
f 576/81/81 189/82/82 12/83/83 432/84/84
f 575/85/85 433/86/86 5/87/87 215/88/88
f 574/89/89 353/90/90 8/91/91 303/92/92
f 573/93/93 374/94/94 4/95/95 197/96/96
f 572/97/97 234/98/98 43/99/99 313/100/100
f 571/101/101 246/102/102 47/103/103 337/104/104
f 570/105/105 260/106/106 46/107/107 181/108/108
f 569/109/109 344/110/110 51/111/111 391/112/112
f 568/113/113 224/114/114 42/115/115 173/116/116
f 567/117/117 386/118/118 50/119/119 237/120/120
f 566/121/121 204/122/122 54/123/123 217/124/124
f 565/125/125 298/126/126 56/127/127 383/128/128
f 564/129/129 322/130/130 59/131/131 403/132/132
f 563/133/133 331/134/134 63/135/135 430/136/136
f 562/137/137 429/138/138 62/139/139 262/140/140
f 561/141/141 192/142/142 67/143/143 338/144/144
f 560/145/145 343/146/146 58/147/135 256/148/147
f 559/149/148 325/150/149 66/151/135 200/152/150
f 558/153/151 176/154/152 70/155/153 184/156/154
f 557/157/155 458/158/156 72/159/135 330/160/157
f 556/161/158 396/162/159 75/163/135 294/164/160
f 555/165/161 390/166/162 79/167/163 315/168/164
f 554/169/165 248/170/166 78/171/135 167/172/167
f 553/173/168 172/174/169 83/175/135 253/176/170
f 552/177/171 320/178/172 74/179/173 161/180/174
f 551/181/175 236/182/176 82/183/177 434/184/178
f 550/185/179 402/186/180 86/187/135 408/188/181
f 549/189/182 279/190/183 88/191/184 245/192/185
f 548/193/186 364/194/187 91/195/188 267/196/189
f 547/197/190 356/198/191 95/199/192 289/200/193
f 546/201/194 455/202/195 94/203/196 450/204/197
f 545/205/198 377/206/199 99/207/200 265/208/201
f 544/209/202 214/210/203 90/211/204 446/212/205
f 543/213/206 229/214/207 98/215/208 416/216/209
f 542/217/210 376/218/211 102/219/212 394/220/213
f 541/221/214 170/222/215 104/223/216 227/224/217
f 105/225/218 367/226/219 288/227/220
f 108/228/221 366/229/222 296/230/223
f 110/231/224 191/232/225 203/233/226
f 109/234/227 272/235/228 293/236/229
f 111/237/230 424/238/231 271/239/232
f 112/240/233 335/241/234 361/242/235
f 113/243/236 268/244/237 362/245/238
f 107/246/239 452/247/240 431/248/241
f 540/249/242 302/250/243 114/251/244 209/252/245
f 539/253/246 301/254/247 116/255/248 341/256/249
f 538/257/250 428/258/251 118/259/252 179/260/253
f 537/261/254 175/262/255 120/263/256 415/264/257
f 536/265/258 401/266/259 121/267/260 379/268/261
f 535/269/262 385/270/263 115/271/264 291/272/265
f 534/273/266 287/274/267 117/275/268 421/276/269
f 533/277/270 244/278/271 119/279/272 183/280/273
f 532/281/274 308/282/275 124/283/276 388/284/277
f 531/285/278 300/286/279 128/287/280 243/288/281
f 530/289/282 389/290/283 127/291/284 213/292/285
f 529/293/286 327/294/287 132/295/288 259/296/289
f 528/297/290 311/298/291 123/299/292 223/300/293
f 527/301/294 207/302/295 131/303/296 407/304/297
f 526/305/298 360/306/299 135/307/300 370/308/301
f 525/309/302 414/310/303 137/311/304 208/312/305
f 524/313/306 379/314/261 121/315/260 162/316/307
f 523/317/308 183/318/273 119/319/272 154/320/309
f 522/321/310 179/322/253 118/323/252 202/324/311
f 521/325/312 421/326/269 117/327/268 222/328/313
f 520/329/314 341/330/249 116/331/248 342/332/315
f 519/333/316 291/334/265 115/335/264 286/336/317
f 518/337/318 209/338/245 114/339/244 359/340/319
f 517/341/320 415/342/257 120/343/256 169/344/321
f 516/345/322 300/346/279 127/347/284 194/348/323
f 515/349/324 389/350/283 131/351/296 349/352/325
f 514/353/326 207/354/295 135/355/300 242/356/327
f 513/357/328 360/358/299 137/359/304 399/360/329
f 512/361/330 414/362/303 124/363/276 398/364/331
f 511/365/332 308/366/275 123/367/292 187/368/333
f 510/369/334 311/370/291 132/371/288 444/372/335
f 509/373/336 327/374/287 128/375/280 441/376/337
f 508/377/338 387/378/339 122/379/340 174/380/341
f 507/381/342 355/382/343 125/383/344 226/384/345
f 506/385/346 334/386/347 136/387/348 252/388/349
f 505/389/350 448/390/351 134/391/352 420/392/353
f 504/393/354 292/394/355 130/395/356 427/396/357
f 503/397/358 312/398/359 126/399/360 166/400/361
f 502/401/362 381/402/363 129/403/364 247/404/365
f 501/405/366 400/406/367 133/407/368 188/408/369
f 500/409/370 281/410/371 73/411/372 211/412/373
f 499/413/374 297/414/375 76/415/376 159/416/377
f 498/417/378 336/418/379 87/419/380 380/420/381
f 497/421/382 171/422/383 85/423/384 168/424/385
f 496/425/386 328/426/387 81/427/135 221/428/388
f 495/429/389 382/430/390 77/431/391 232/432/392
f 494/433/393 307/434/394 80/435/395 180/436/396
f 493/437/397 351/438/398 84/439/399 270/440/400
f 492/441/401 405/442/402 60/443/403 457/444/404
f 491/445/405 373/446/406 71/447/407 306/448/408
f 490/449/409 254/450/410 69/451/411 251/452/412
f 489/453/413 419/454/414 65/455/415 443/456/416
f 488/457/417 321/458/418 61/459/419 439/460/420
f 487/461/421 417/462/422 64/463/423 155/464/424
f 486/465/425 276/466/426 68/467/427 220/468/428
f 485/469/429 156/470/430 57/471/431 295/472/432
f 484/473/433 316/474/434 44/475/135 375/476/435
f 483/477/436 210/478/437 55/479/438 182/480/439
f 482/481/440 449/482/441 53/483/442 178/484/443
f 481/485/444 304/486/445 49/487/446 456/488/447
f 480/489/448 233/490/449 45/491/135 451/492/450
f 479/493/451 323/494/452 48/495/453 384/496/454
f 478/497/455 435/498/456 52/499/457 235/500/458
f 477/501/459 305/502/460 41/503/461 278/504/462
f 476/505/463 418/506/464 28/507/465 436/508/466
f 475/509/467 255/510/468 17/511/469 413/512/470
f 474/513/471 284/514/472 20/515/473 447/516/474
f 473/517/475 318/518/476 31/519/477 412/520/478
f 472/521/479 230/522/480 29/523/481 240/524/482
f 471/525/483 378/526/484 25/527/485 206/528/486
f 470/529/487 339/530/488 21/531/489 354/532/490
f 469/533/491 266/534/492 24/535/493 309/536/494
f 39/537/495 219/538/496 352/539/497
f 40/540/498 372/541/499 198/542/500
f 36/543/501 397/544/502 357/545/503
f 35/546/504 241/547/505 280/548/506
f 34/549/507 395/550/508 212/551/509
f 33/552/510 239/553/511 199/554/512
f 38/555/513 369/556/514 195/557/515
f 37/558/516 216/559/517 423/560/518
f 468/561/519 190/562/520 141/563/521 442/564/522
f 467/565/523 238/566/524 144/567/525 273/568/526
f 466/569/527 317/570/528 147/571/529 250/572/530
f 465/573/531 365/574/532 150/575/533 358/576/534
f 464/577/535 160/578/536 151/579/537 257/580/538
f 463/581/539 411/582/540 153/583/541 329/584/542
f 462/585/543 290/586/544 140/587/545 264/588/546
f 461/589/547 324/590/548 143/591/549 347/592/550
f 460/593/551 285/594/552 146/595/553 404/596/554
f 459/597/555 274/598/556 149/599/557 165/600/558
f 285/594/552 459/597/555 165/600/558 146/595/553
f 151/579/537 329/584/542 459/597/555 285/594/552
f 329/584/542 153/583/541 274/598/556 459/597/555
f 205/601/559 460/593/551 404/596/554 145/602/560
f 152/603/561 257/580/538 460/593/551 205/601/559
f 257/580/538 151/579/537 285/594/552 460/593/551
f 290/586/544 461/589/547 347/592/550 140/587/545
f 147/604/529 358/605/534 461/589/547 290/586/544
f 358/605/534 150/606/533 324/590/548 461/589/547
f 218/607/562 462/585/543 264/588/546 139/608/563
f 148/609/564 250/610/530 462/585/543 218/607/562
f 250/610/530 147/604/529 290/586/544 462/585/543
f 160/578/536 463/581/539 329/584/542 151/579/537
f 141/563/521 273/568/526 463/581/539 160/578/536
f 273/568/526 144/567/525 411/582/540 463/581/539
f 393/611/565 464/577/535 257/580/538 152/603/561
f 142/612/566 442/564/522 464/577/535 393/611/565
f 442/564/522 141/563/521 160/578/536 464/577/535
f 317/570/528 465/573/531 358/576/534 147/571/529
f 146/595/553 165/600/558 465/573/531 317/570/528
f 165/600/558 149/599/557 365/574/532 465/573/531
f 231/613/567 466/569/527 250/572/530 148/614/564
f 145/602/560 404/596/554 466/569/527 231/613/567
f 404/596/554 146/595/553 317/570/528 466/569/527
f 190/562/520 467/565/523 273/568/526 141/563/521
f 140/587/545 347/592/550 467/565/523 190/562/520
f 347/592/550 143/591/549 238/566/524 467/565/523
f 438/615/568 468/561/519 442/564/522 142/612/566
f 139/608/563 264/588/546 468/561/519 438/615/568
f 264/588/546 140/587/545 190/562/520 468/561/519
f 423/560/518 219/616/496 39/617/495
f 423/560/518 216/559/517 219/616/496
f 216/559/517 138/618/569 219/616/496
f 195/557/515 216/619/517 37/620/516
f 195/557/515 369/556/514 216/619/517
f 369/556/514 138/621/569 216/619/517
f 199/554/512 369/622/514 38/623/513
f 199/554/512 239/553/511 369/622/514
f 239/553/511 138/624/569 369/622/514
f 212/551/509 239/625/511 33/626/510
f 212/551/509 395/550/508 239/625/511
f 395/550/508 138/627/569 239/625/511
f 280/548/506 395/628/508 34/629/507
f 280/548/506 241/547/505 395/628/508
f 241/547/505 138/630/569 395/628/508
f 357/545/503 241/631/505 35/632/504
f 357/545/503 397/544/502 241/631/505
f 397/544/502 138/633/569 241/631/505
f 198/542/500 397/634/502 36/635/501
f 198/542/500 372/541/499 397/634/502
f 372/541/499 138/636/569 397/634/502
f 352/539/497 372/637/499 40/638/498
f 352/539/497 219/538/496 372/637/499
f 219/538/496 138/639/569 372/637/499
f 258/640/14 469/533/491 309/536/494 11/641/15
f 7/642/7 354/643/490 469/533/491 258/640/14
f 354/643/490 21/644/489 266/534/492 469/533/491
f 440/645/6 470/529/487 354/532/490 7/646/7
f 6/647/11 206/648/486 470/529/487 440/645/6
f 206/648/486 25/649/485 339/530/488 470/529/487
f 346/650/10 471/525/483 206/528/486 6/651/11
f 10/652/23 240/653/482 471/525/483 346/650/10
f 240/653/482 29/654/481 378/526/484 471/525/483
f 314/655/22 472/521/479 240/524/482 10/656/23
f 14/657/27 412/658/478 472/521/479 314/655/22
f 412/658/478 31/659/477 230/522/480 472/521/479
f 185/660/26 473/517/475 412/520/478 14/661/27
f 16/662/31 447/663/474 473/517/475 185/660/26
f 447/663/474 20/664/473 318/518/476 473/517/475
f 333/665/30 474/513/471 447/516/474 16/666/31
f 3/667/3 413/668/470 474/513/471 333/665/30
f 413/668/470 17/669/469 284/514/472 474/513/471
f 454/670/2 475/509/467 413/512/470 3/671/3
f 2/672/19 436/673/466 475/509/467 454/670/2
f 436/673/466 28/674/465 255/510/468 475/509/467
f 426/675/18 476/505/463 436/508/466 2/676/19
f 11/677/15 309/678/494 476/505/463 426/675/18
f 309/678/494 24/679/493 418/506/464 476/505/463
f 177/680/46 477/501/459 278/504/462 27/681/47
f 23/682/39 235/683/458 477/501/459 177/680/46
f 235/683/458 52/684/457 305/502/460 477/501/459
f 345/685/38 478/497/455 235/500/458 23/686/39
f 22/687/43 384/688/454 478/497/455 345/685/38
f 384/688/454 48/689/453 435/498/456 478/497/455
f 261/690/42 479/493/451 384/496/454 22/691/43
f 26/692/55 451/693/450 479/493/451 261/690/42
f 451/693/450 45/694/135 323/494/452 479/493/451
f 283/695/54 480/489/448 451/492/450 26/696/55
f 30/697/59 456/698/447 480/489/448 283/695/54
f 456/698/447 49/699/446 233/490/449 480/489/448
f 157/700/58 481/485/444 456/488/447 30/701/59
f 32/702/63 178/703/443 481/485/444 157/700/58
f 178/703/443 53/704/442 304/486/445 481/485/444
f 249/705/62 482/481/440 178/484/443 32/706/63
f 19/707/35 182/708/439 482/481/440 249/705/62
f 182/708/439 55/709/438 449/482/441 482/481/440
f 368/710/34 483/477/436 182/480/439 19/711/35
f 18/712/51 375/713/435 483/477/436 368/710/34
f 375/713/435 44/714/135 210/478/437 483/477/436
f 332/715/50 484/473/433 375/476/435 18/716/51
f 27/717/47 278/718/462 484/473/433 332/715/50
f 278/718/462 41/719/461 316/474/434 484/473/433
f 344/720/110 485/469/429 295/472/432 51/721/111
f 47/722/103 220/723/428 485/469/429 344/720/110
f 220/723/428 68/724/427 156/470/430 485/469/429
f 246/725/102 486/465/425 220/468/428 47/726/103
f 46/727/107 155/728/424 486/465/425 246/725/102
f 155/728/424 64/729/423 276/466/426 486/465/425
f 260/730/106 487/461/421 155/464/424 46/731/107
f 50/732/119 439/733/420 487/461/421 260/730/106
f 439/733/420 61/734/419 417/462/422 487/461/421
f 386/735/118 488/457/417 439/460/420 50/736/119
f 54/737/123 443/738/416 488/457/417 386/735/118
f 443/738/416 65/739/415 321/458/418 488/457/417
f 204/740/122 489/453/413 443/456/416 54/741/123
f 56/742/127 251/743/412 489/453/413 204/740/122
f 251/743/412 69/744/411 419/454/414 489/453/413
f 298/745/126 490/449/409 251/452/412 56/746/127
f 43/747/99 306/748/408 490/449/409 298/745/126
f 306/748/408 71/749/407 254/450/410 490/449/409
f 234/750/98 491/445/405 306/448/408 43/751/99
f 42/752/115 457/753/404 491/445/405 234/750/98
f 457/753/404 60/754/403 373/446/406 491/445/405
f 224/755/114 492/441/401 457/444/404 42/756/115
f 51/757/111 295/758/432 492/441/401 224/755/114
f 295/758/432 57/759/431 405/442/402 492/441/401
f 192/760/142 493/437/397 270/440/400 67/761/143
f 63/762/135 180/763/396 493/437/397 192/760/142
f 180/763/396 80/764/395 351/438/398 493/437/397
f 331/765/134 494/433/393 180/436/396 63/766/135
f 62/767/139 232/768/392 494/433/393 331/765/134
f 232/768/392 77/769/391 307/434/394 494/433/393
f 429/770/138 495/429/389 232/432/392 62/771/139
f 66/772/135 221/773/388 495/429/389 429/770/138
f 221/773/388 81/774/135 382/430/390 495/429/389
f 325/775/149 496/425/386 221/428/388 66/776/135
f 70/777/153 168/778/385 496/425/386 325/775/149
f 168/778/385 85/779/384 328/426/387 496/425/386
f 176/780/152 497/421/382 168/424/385 70/781/153
f 72/782/135 380/783/381 497/421/382 176/780/152
f 380/783/381 87/784/380 171/422/383 497/421/382
f 458/785/156 498/417/378 380/420/381 72/786/135
f 59/787/131 159/788/377 498/417/378 458/785/156
f 159/788/377 76/789/376 336/418/379 498/417/378
f 322/790/130 499/413/374 159/416/377 59/791/131
f 58/792/135 211/793/373 499/413/374 322/790/130
f 211/793/373 73/794/372 297/414/375 499/413/374
f 343/795/146 500/409/370 211/412/373 58/796/135
f 67/797/143 270/798/400 500/409/370 343/795/146
f 270/798/400 84/799/399 281/410/371 500/409/370
f 172/800/169 501/405/366 188/408/369 83/801/135
f 79/802/163 247/803/365 501/405/366 172/800/169
f 247/803/365 129/804/364 400/406/367 501/405/366
f 390/805/162 502/401/362 247/404/365 79/806/163
f 78/807/135 166/808/361 502/401/362 390/805/162
f 166/808/361 126/809/360 381/402/363 502/401/362
f 248/810/166 503/397/358 166/400/361 78/811/135
f 82/812/177 427/813/357 503/397/358 248/810/166
f 427/813/357 130/814/356 312/398/359 503/397/358
f 236/815/176 504/393/354 427/396/357 82/816/177
f 86/817/135 420/818/353 504/393/354 236/815/176
f 420/818/353 134/819/352 292/394/355 504/393/354
f 402/820/180 505/389/350 420/392/353 86/821/135
f 88/822/184 252/823/349 505/389/350 402/820/180
f 252/823/349 136/824/348 448/390/351 505/389/350
f 279/825/183 506/385/346 252/388/349 88/826/184
f 75/827/135 226/828/345 506/385/346 279/825/183
f 226/828/345 125/829/344 334/386/347 506/385/346
f 396/830/159 507/381/342 226/384/345 75/831/135
f 74/832/173 174/833/341 507/381/342 396/830/159
f 174/833/341 122/834/340 355/382/343 507/381/342
f 320/835/172 508/377/338 174/380/341 74/836/173
f 83/837/135 188/838/369 508/377/338 320/835/172
f 188/838/369 133/839/368 387/378/339 508/377/338
f 422/840/570 509/373/336 441/376/337 96/841/571
f 100/842/572 444/843/335 509/373/336 422/840/570
f 444/843/335 132/844/288 327/374/287 509/373/336
f 445/845/573 510/369/334 444/372/335 100/846/572
f 89/847/574 187/848/333 510/369/334 445/845/573
f 187/848/333 123/849/292 311/370/291 510/369/334
f 269/850/575 511/365/332 187/368/333 89/851/574
f 92/852/576 398/853/331 511/365/332 269/850/575
f 398/853/331 124/854/276 308/366/275 511/365/332
f 228/855/577 512/361/330 398/364/331 92/856/576
f 103/857/578 399/858/329 512/361/330 228/855/577
f 399/858/329 137/859/304 414/362/303 512/361/330
f 310/860/579 513/357/328 399/360/329 103/861/578
f 101/862/580 242/863/327 513/357/328 310/860/579
f 242/863/327 135/864/300 360/358/299 513/357/328
f 163/865/581 514/353/326 242/356/327 101/866/580
f 97/867/582 349/868/325 514/353/326 163/865/581
f 349/868/325 131/869/296 207/354/295 514/353/326
f 350/870/583 515/349/324 349/352/325 97/871/582
f 93/872/584 194/873/323 515/349/324 350/870/583
f 194/873/323 127/874/284 389/350/283 515/349/324
f 275/875/585 516/345/322 194/348/323 93/876/584
f 96/877/571 441/878/337 516/345/322 275/875/585
f 441/878/337 128/879/280 300/346/279 516/345/322
f 377/880/199 517/341/320 169/344/321 99/881/200
f 95/882/192 359/883/319 517/341/320 377/880/199
f 359/883/319 114/884/244 415/342/257 517/341/320
f 356/885/191 518/337/318 359/340/319 95/886/192
f 94/887/196 286/888/317 518/337/318 356/885/191
f 286/888/317 115/889/264 209/338/245 518/337/318
f 455/890/195 519/333/316 286/336/317 94/891/196
f 98/892/208 342/893/315 519/333/316 455/890/195
f 342/893/315 116/894/248 291/334/265 519/333/316
f 229/895/207 520/329/314 342/332/315 98/896/208
f 102/897/212 222/898/313 520/329/314 229/895/207
f 222/898/313 117/899/268 341/330/249 520/329/314
f 376/900/211 521/325/312 222/328/313 102/901/212
f 104/902/216 202/903/311 521/325/312 376/900/211
f 202/903/311 118/904/252 421/326/269 521/325/312
f 170/905/215 522/321/310 202/324/311 104/906/216
f 91/907/188 154/908/309 522/321/310 170/905/215
f 154/908/309 119/909/272 179/322/253 522/321/310
f 364/910/187 523/317/308 154/320/309 91/911/188
f 90/912/204 162/913/307 523/317/308 364/910/187
f 162/913/307 121/914/260 183/318/273 523/317/308
f 214/915/203 524/313/306 162/316/307 90/916/204
f 99/917/200 169/918/321 524/313/306 214/915/203
f 169/918/321 120/919/256 379/314/261 524/313/306
f 334/920/347 525/309/302 208/312/305 136/921/348
f 125/922/344 388/284/277 525/309/302 334/920/347
f 388/284/277 124/283/276 414/310/303 525/309/302
f 448/923/351 526/305/298 370/308/301 134/924/352
f 136/921/348 208/312/305 526/305/298 448/923/351
f 208/312/305 137/311/304 360/306/299 526/305/298
f 292/925/355 527/301/294 407/304/297 130/926/356
f 134/924/352 370/308/301 527/301/294 292/925/355
f 370/308/301 135/307/300 207/302/295 527/301/294
f 387/927/339 528/297/290 223/300/293 122/928/340
f 133/929/368 259/296/289 528/297/290 387/927/339
f 259/296/289 132/295/288 311/298/291 528/297/290
f 400/930/367 529/293/286 259/296/289 133/929/368
f 129/931/364 243/288/281 529/293/286 400/930/367
f 243/288/281 128/287/280 327/294/287 529/293/286
f 312/932/359 530/289/282 213/292/285 126/933/360
f 130/926/356 407/304/297 530/289/282 312/932/359
f 407/304/297 131/303/296 389/290/283 530/289/282
f 381/934/363 531/285/278 243/288/281 129/931/364
f 126/933/360 213/292/285 531/285/278 381/934/363
f 213/292/285 127/291/284 300/286/279 531/285/278
f 355/935/343 532/281/274 388/284/277 125/922/344
f 122/928/340 223/300/293 532/281/274 355/935/343
f 223/300/293 123/299/292 308/282/275 532/281/274
f 401/266/259 533/277/270 183/280/273 121/267/260
f 105/225/218 288/227/220 533/277/270 401/266/259
f 288/227/220 107/246/239 244/278/271 533/277/270
f 428/258/251 534/273/266 421/276/269 118/259/252
f 113/243/236 362/245/238 534/273/266 428/258/251
f 362/245/238 112/240/233 287/274/267 534/273/266
f 301/254/247 535/269/262 291/272/265 116/255/248
f 110/231/224 203/233/226 535/269/262 301/254/247
f 203/233/226 108/228/221 385/270/263 535/269/262
f 175/262/255 536/265/258 379/268/261 120/263/256
f 111/237/230 271/239/232 536/265/258 175/262/255
f 271/239/232 105/225/218 401/266/259 536/265/258
f 302/250/243 537/261/254 415/264/257 114/251/244
f 109/234/227 293/236/229 537/261/254 302/250/243
f 293/236/229 111/237/230 175/262/255 537/261/254
f 244/278/271 538/257/250 179/260/253 119/279/272
f 107/246/239 431/248/241 538/257/250 244/278/271
f 431/248/241 113/243/236 428/258/251 538/257/250
f 287/274/267 539/253/246 341/256/249 117/275/268
f 112/240/233 361/242/235 539/253/246 287/274/267
f 361/242/235 110/231/224 301/254/247 539/253/246
f 385/270/263 540/249/242 209/252/245 115/271/264
f 108/228/221 296/230/223 540/249/242 385/270/263
f 296/230/223 109/234/227 302/250/243 540/249/242
f 431/248/241 268/936/237 113/243/236
f 431/248/241 452/247/240 268/936/237
f 452/247/240 106/937/586 268/936/237
f 362/245/238 335/938/234 112/240/233
f 362/245/238 268/244/237 335/938/234
f 268/244/237 106/939/586 335/938/234
f 361/242/235 191/940/225 110/231/224
f 361/242/235 335/241/234 191/940/225
f 335/241/234 106/941/586 191/940/225
f 271/239/232 367/942/219 105/225/218
f 271/239/232 424/238/231 367/942/219
f 424/238/231 106/943/586 367/942/219
f 293/236/229 424/944/231 111/237/230
f 293/236/229 272/235/228 424/944/231
f 272/235/228 106/945/586 424/944/231
f 203/233/226 366/946/222 108/228/221
f 203/233/226 191/232/225 366/946/222
f 191/232/225 106/947/586 366/946/222
f 296/230/223 272/948/228 109/234/227
f 296/230/223 366/229/222 272/948/228
f 366/229/222 106/949/586 272/948/228
f 288/227/220 452/950/240 107/246/239
f 288/227/220 367/226/219 452/950/240
f 367/226/219 106/951/586 452/950/240
f 228/952/577 541/221/214 227/224/217 103/953/578
f 92/954/576 267/196/189 541/221/214 228/952/577
f 267/196/189 91/195/188 170/222/215 541/221/214
f 310/955/579 542/217/210 394/220/213 101/956/580
f 103/953/578 227/224/217 542/217/210 310/955/579
f 227/224/217 104/223/216 376/218/211 542/217/210
f 163/957/581 543/213/206 416/216/209 97/958/582
f 101/956/580 394/220/213 543/213/206 163/957/581
f 394/220/213 102/219/212 229/214/207 543/213/206
f 445/959/573 544/209/202 446/212/205 89/960/574
f 100/961/572 265/208/201 544/209/202 445/959/573
f 265/208/201 99/207/200 214/210/203 544/209/202
f 422/962/570 545/205/198 265/208/201 100/961/572
f 96/963/571 289/200/193 545/205/198 422/962/570
f 289/200/193 95/199/192 377/206/199 545/205/198
f 350/964/583 546/201/194 450/204/197 93/965/584
f 97/958/582 416/216/209 546/201/194 350/964/583
f 416/216/209 98/215/208 455/202/195 546/201/194
f 275/966/585 547/197/190 289/200/193 96/963/571
f 93/965/584 450/204/197 547/197/190 275/966/585
f 450/204/197 94/203/196 356/198/191 547/197/190
f 269/967/575 548/193/186 267/196/189 92/954/576
f 89/960/574 446/212/205 548/193/186 269/967/575
f 446/212/205 90/211/204 364/194/187 548/193/186
f 336/968/379 549/189/182 245/192/185 87/969/380
f 76/970/376 294/164/160 549/189/182 336/968/379
f 294/164/160 75/163/135 279/190/183 549/189/182
f 171/971/383 550/185/179 408/188/181 85/972/384
f 87/969/380 245/192/185 550/185/179 171/971/383
f 245/192/185 88/191/184 402/186/180 550/185/179
f 328/973/387 551/181/175 434/184/178 81/974/135
f 85/972/384 408/188/181 551/181/175 328/973/387
f 408/188/181 86/187/135 236/182/176 551/181/175
f 281/975/371 552/177/171 161/180/174 73/976/372
f 84/977/399 253/176/170 552/177/171 281/975/371
f 253/176/170 83/175/135 320/178/172 552/177/171
f 351/978/398 553/173/168 253/176/170 84/977/399
f 80/979/395 315/168/164 553/173/168 351/978/398
f 315/168/164 79/167/163 172/174/169 553/173/168
f 382/980/390 554/169/165 167/172/167 77/981/391
f 81/974/135 434/184/178 554/169/165 382/980/390
f 434/184/178 82/183/177 248/170/166 554/169/165
f 307/982/394 555/165/161 315/168/164 80/979/395
f 77/981/391 167/172/167 555/165/161 307/982/394
f 167/172/167 78/171/135 390/166/162 555/165/161
f 297/983/375 556/161/158 294/164/160 76/970/376
f 73/976/372 161/180/174 556/161/158 297/983/375
f 161/180/174 74/179/173 396/162/159 556/161/158
f 373/984/406 557/157/155 330/160/157 71/985/407
f 60/986/403 403/132/132 557/157/155 373/984/406
f 403/132/132 59/131/131 458/158/156 557/157/155
f 254/987/410 558/153/151 184/156/154 69/988/411
f 71/985/407 330/160/157 558/153/151 254/987/410
f 330/160/157 72/159/135 176/154/152 558/153/151
f 419/989/414 559/149/148 200/152/150 65/990/415
f 69/988/411 184/156/154 559/149/148 419/989/414
f 184/156/154 70/155/153 325/150/149 559/149/148
f 156/991/430 560/145/145 256/148/147 57/992/431
f 68/993/427 338/144/144 560/145/145 156/991/430
f 338/144/144 67/143/143 343/146/146 560/145/145
f 276/994/426 561/141/141 338/144/144 68/993/427
f 64/995/423 430/136/136 561/141/141 276/994/426
f 430/136/136 63/135/135 192/142/142 561/141/141
f 321/996/418 562/137/137 262/140/140 61/997/419
f 65/990/415 200/152/150 562/137/137 321/996/418
f 200/152/150 66/151/135 429/138/138 562/137/137
f 417/998/422 563/133/133 430/136/136 64/995/423
f 61/997/419 262/140/140 563/133/133 417/998/422
f 262/140/140 62/139/139 331/134/134 563/133/133
f 405/999/402 564/129/129 403/132/132 60/986/403
f 57/992/431 256/148/147 564/129/129 405/999/402
f 256/148/147 58/147/135 322/130/130 564/129/129
f 210/1000/437 565/125/125 383/128/128 55/1001/438
f 44/1002/135 313/100/100 565/125/125 210/1000/437
f 313/100/100 43/99/99 298/126/126 565/125/125
f 449/1003/441 566/121/121 217/124/124 53/1004/442
f 55/1001/438 383/128/128 566/121/121 449/1003/441
f 383/128/128 56/127/127 204/122/122 566/121/121
f 304/1005/445 567/117/117 237/120/120 49/1006/446
f 53/1004/442 217/124/124 567/117/117 304/1005/445
f 217/124/124 54/123/123 386/118/118 567/117/117
f 305/1007/460 568/113/113 173/116/116 41/1008/461
f 52/1009/457 391/112/112 568/113/113 305/1007/460
f 391/112/112 51/111/111 224/114/114 568/113/113
f 435/1010/456 569/109/109 391/112/112 52/1009/457
f 48/1011/453 337/104/104 569/109/109 435/1010/456
f 337/104/104 47/103/103 344/110/110 569/109/109
f 233/1012/449 570/105/105 181/108/108 45/1013/135
f 49/1006/446 237/120/120 570/105/105 233/1012/449
f 237/120/120 50/119/119 260/106/106 570/105/105
f 323/1014/452 571/101/101 337/104/104 48/1011/453
f 45/1013/135 181/108/108 571/101/101 323/1014/452
f 181/108/108 46/107/107 246/102/102 571/101/101
f 316/1015/434 572/97/97 313/100/100 44/1002/135
f 41/1008/461 173/116/116 572/97/97 316/1015/434
f 173/116/116 42/115/115 234/98/98 572/97/97
f 199/1016/512 573/93/93 197/96/96 33/1017/510
f 38/1018/513 392/80/80 573/93/93 199/1016/512
f 392/80/80 1/79/79 374/94/94 573/93/93
f 352/1019/497 574/89/89 303/92/92 39/1020/495
f 40/1021/498 215/88/88 574/89/89 352/1019/497
f 215/88/88 5/87/87 353/90/90 574/89/89
f 198/1022/500 575/85/85 215/88/88 40/1021/498
f 36/1023/501 196/76/76 575/85/85 198/1022/500
f 196/76/76 9/75/75 433/86/86 575/85/85
f 423/1024/518 576/81/81 432/84/84 37/1025/516
f 39/1020/495 303/92/92 576/81/81 423/1024/518
f 303/92/92 8/91/91 189/82/82 576/81/81
f 195/1026/515 577/77/77 392/80/80 38/1018/513
f 37/1025/516 432/84/84 577/77/77 195/1026/515
f 432/84/84 12/83/83 340/78/78 577/77/77
f 357/1027/503 578/73/73 196/76/76 36/1023/501
f 35/1028/504 409/72/72 578/73/73 357/1027/503
f 409/72/72 13/71/71 406/74/74 578/73/73
f 280/1029/506 579/69/69 409/72/72 35/1028/504
f 34/1030/507 425/68/68 579/69/69 280/1029/506
f 425/68/68 15/67/67 263/70/70 579/69/69
f 212/1031/509 580/65/65 425/68/68 34/1030/507
f 33/1017/510 197/96/96 580/65/65 212/1031/509
f 197/96/96 4/95/95 410/66/66 580/65/65
f 318/1032/476 581/61/61 319/64/64 31/1033/477
f 20/1034/473 282/36/36 581/61/61 318/1032/476
f 282/36/36 19/35/35 249/62/62 581/61/61
f 230/1035/480 582/57/57 164/60/60 29/1036/481
f 31/1033/477 319/64/64 582/57/57 230/1035/480
f 319/64/64 32/63/63 157/58/58 582/57/57
f 378/1037/484 583/53/53 158/56/56 25/1038/485
f 29/1036/481 164/60/60 583/53/53 378/1037/484
f 164/60/60 30/59/59 283/54/54 583/53/53
f 255/1039/468 584/49/49 453/52/52 17/1040/469
f 28/1041/465 299/48/48 584/49/49 255/1039/468
f 299/48/48 27/47/47 332/50/50 584/49/49
f 418/1042/464 585/45/45 299/48/48 28/1041/465
f 24/1043/493 277/40/40 585/45/45 418/1042/464
f 277/40/40 23/39/39 177/46/46 585/45/45
f 339/1044/488 586/41/41 437/44/44 21/1045/489
f 25/1038/485 158/56/56 586/41/41 339/1044/488
f 158/56/56 26/55/55 261/42/42 586/41/41
f 266/1046/492 587/37/37 277/40/40 24/1043/493
f 21/1045/489 437/44/44 587/37/37 266/1046/492
f 437/44/44 22/43/43 345/38/38 587/37/37
f 284/1047/472 588/33/33 282/36/36 20/1034/473
f 17/1040/469 453/52/52 588/33/33 284/1047/472
f 453/52/52 18/51/51 368/34/34 588/33/33
f 410/66/66 589/29/29 348/32/32 15/67/67
f 4/95/95 371/4/4 589/29/29 410/66/66
f 371/4/4 3/3/3 333/30/30 589/29/29
f 263/70/70 590/25/25 193/28/28 13/71/71
f 15/67/67 348/32/32 590/25/25 263/70/70
f 348/32/32 16/31/31 185/26/26 590/25/25
f 406/74/74 591/21/21 186/24/24 9/75/75
f 13/71/71 193/28/28 591/21/21 406/74/74
f 193/28/28 14/27/27 314/22/22 591/21/21
f 340/78/78 592/17/17 225/20/20 1/79/79
f 12/83/83 326/16/16 592/17/17 340/78/78
f 326/16/16 11/15/15 426/18/18 592/17/17
f 189/82/82 593/13/13 326/16/16 12/83/83
f 8/91/91 363/8/8 593/13/13 189/82/82
f 363/8/8 7/7/7 258/14/14 593/13/13
f 433/86/86 594/9/9 201/12/12 5/87/87
f 9/75/75 186/24/24 594/9/9 433/86/86
f 186/24/24 10/23/23 346/10/10 594/9/9
f 353/90/90 595/5/5 363/8/8 8/91/91
f 5/87/87 201/12/12 595/5/5 353/90/90
f 201/12/12 6/11/11 440/6/6 595/5/5
f 374/94/94 596/1/1 371/4/4 4/95/95
f 1/79/79 225/20/20 596/1/1 374/94/94
f 225/20/20 2/19/19 454/2/2 596/1/1
