# Blender v2.78 (sub 0) OBJ File: ''
# www.blender.org
mtllib Pine_Tree_l_04.mtl
o Pine_Tree_l_04
v 2.296590 3.372354 2.130716
v 0.480666 7.124647 0.527631
v -0.022564 7.134056 0.783372
v 0.009317 4.104496 3.205719
v -0.354066 4.105299 -3.188613
v -0.123971 7.140826 -0.720782
v 0.405737 7.131480 -0.525151
v 2.046664 3.372777 -2.390924
v -2.493433 3.372212 -2.120551
v -0.630162 7.117252 -0.461327
v 0.674538 7.150155 -0.015018
v 3.033254 4.105486 -0.182466
v -3.377916 4.104267 0.199544
v -0.814601 7.122592 0.075537
v -2.243409 3.371894 2.401071
v -0.563200 7.115247 0.591735
v 2.871003 5.582921 -0.218607
v 0.469289 8.962289 -0.033548
v 0.301401 9.276019 0.419573
v 1.903885 6.018546 1.902203
v -2.346828 6.020813 -1.814389
v -0.629080 9.270869 -0.408258
v -0.186913 8.959361 -0.618401
v -0.379771 5.584361 -3.060834
v -3.245573 5.097695 0.169615
v -0.770559 8.951534 0.040920
v 0.248196 9.277369 -0.459817
v 1.594697 6.306829 -2.032045
v -2.099195 5.721173 2.190145
v -0.576102 9.269241 0.472824
v 0.050535 5.096250 3.051483
v -0.114204 8.954639 0.625939
v 1.517504 7.072463 -1.882023
v 0.092569 11.630139 -0.403542
v 0.245268 11.914426 -0.046393
v 2.191955 7.747870 -0.135086
v -2.367092 7.984350 0.098857
v -0.753507 11.901211 0.014067
v -0.639001 11.622209 -0.360073
v -2.081143 7.279986 -1.680325
v -1.841549 7.494527 1.903474
v -0.587512 11.625324 0.371971
v -0.289231 11.905746 -0.518601
v -0.227370 7.739424 -2.309839
v 0.014292 7.995632 2.243685
v -0.219836 11.910068 0.485687
v 1.720453 7.290247 1.737344
v 0.138281 11.633183 0.327922
v 1.214271 9.423502 -1.650165
v 0.044802 13.013458 -0.381536
v 0.188471 13.314339 -0.047130
v 1.453367 10.084502 -0.088255
v -1.966083 10.012505 0.133830
v -0.756577 13.296238 0.009934
v -0.641572 13.001413 -0.341143
v -1.868560 9.368382 -1.449993
v -1.663690 9.240763 1.636074
v -0.594128 13.004584 0.345476
v -0.316483 13.302783 -0.492927
v -0.370982 10.119728 -1.689109
v -0.141887 9.978117 1.734684
v -0.251791 13.307981 0.455712
v 1.419076 9.294235 1.435848
v 0.087875 13.016516 0.303673
v 0.453031 13.624479 -0.872786
v -0.405349 15.859601 -0.186676
v -0.351451 16.099518 -0.017237
v 0.681524 14.075857 -0.046900
v -1.386831 13.874999 0.083808
v -0.835486 16.081062 0.011485
v -0.750776 15.846487 -0.166193
v -1.158219 13.471775 -0.771207
v -1.040659 13.364189 0.841215
v -0.730095 15.845972 0.178863
v -0.608010 16.090515 -0.244793
v -0.431295 14.044859 -1.021654
v -0.274048 13.905960 1.058563
v -0.578930 16.090078 0.239041
v 0.566613 13.516010 0.738298
v -0.384748 15.859069 0.158353
v -0.413156 16.354824 -0.235951
v -0.806033 17.459728 0.000646
v -0.311889 16.438164 -0.011867
v -0.961787 16.415289 0.026601
v -0.872734 16.338724 -0.208759
v -0.845402 16.340202 0.250776
v -0.656172 16.425686 -0.317581
v -0.617506 16.427782 0.332315
v -0.385821 16.356304 0.223585
v -1.036703 15.116241 -0.483996
v -1.242919 15.338757 0.040171
v -0.983391 15.164075 0.558217
v -0.463562 15.365608 0.737104
v 0.065601 15.153322 0.501615
v 0.240745 15.324389 -0.039914
v -0.538651 15.297869 -0.736847
v 0.012258 15.105381 -0.540593
v 0.761551 11.334930 -1.122827
v -0.218721 14.623578 -0.235390
v -0.141092 14.800730 -0.025948
v 1.224417 11.747980 -0.093768
v -1.735481 11.967050 0.044391
v -0.740858 14.785038 0.008917
v -0.647476 14.612655 -0.210493
v -1.405030 11.499280 -1.022552
v -1.283682 11.705055 1.139139
v -0.621947 14.615387 0.217492
v -0.458912 14.790932 -0.308048
v -0.340224 11.717454 -1.504749
v -0.170354 12.000763 1.455363
v -0.423031 14.794929 0.291018
v 0.879306 11.542387 1.037780
v -0.193344 14.626324 0.192547
v -0.090401 5.920208 -0.008279
v -0.231583 0.034099 0.226264
v -0.193205 3.814143 0.186510
v -0.252218 3.712555 -0.161314
v -0.298142 0.029445 -0.175038
v -0.249258 8.346933 0.065379
v -0.293006 8.489618 -0.184090
v 0.365628 0.025366 -0.098553
v 0.307588 3.795315 -0.050263
v 0.130420 3.797032 0.286163
v 0.177095 0.023259 0.284433
v 0.062393 8.429742 -0.053397
v -0.015599 8.436371 0.105964
v 0.052995 3.843916 -0.297385
v 0.059795 0.027170 -0.354510
v -0.103354 8.502734 -0.250212
v -0.032550 3.806701 0.242963
v 1.189901 6.576974 1.213556
v -0.346969 9.111919 0.554614
v -2.016621 7.013790 0.105626
v -0.201041 15.492557 -0.359663
v -0.480870 15.974607 0.200690
v -0.887119 14.599030 0.512578
v -1.340294 7.499581 1.333100
v -0.038772 11.771662 0.410880
v -0.426157 14.996214 0.651596
v -0.221604 6.130492 0.125829
v -0.766421 16.399801 -0.261800
v -1.168720 7.509366 -2.016559
v -0.537410 15.878548 0.542988
v -0.594907 16.924746 0.114799
v -0.918394 16.394501 -0.090617
v -1.216469 9.565781 1.139431
v -0.537867 16.407906 -0.275334
v -0.844578 16.915701 -0.106820
v 0.032460 9.118387 -0.544332
v 1.581786 4.978941 -0.102246
v 0.653494 9.635660 1.600937
v -0.102235 9.962413 1.368585
v -1.113641 14.976192 0.048119
v 0.271904 12.972437 -0.680216
v -0.694850 7.118843 0.336529
v -1.567809 5.229352 -1.297790
v 0.015354 6.106775 1.917209
v 2.548043 3.753516 -1.290690
v -0.732899 11.854847 1.312007
v -0.366637 16.414112 -0.123297
v -2.103580 5.615394 0.138631
v -1.564369 9.951832 0.055837
v 0.184970 3.820957 -0.178411
v -1.134671 9.744562 -1.585222
v -0.164752 15.517807 0.326854
v 0.026494 14.739133 -0.532679
v -0.239099 5.620309 -1.961763
v -1.523666 11.837751 0.599134
v -0.504999 16.409466 0.276434
v -0.017098 8.466188 -0.154612
v -0.326632 12.511267 -0.998894
v -0.522778 15.739114 0.483783
v -0.726098 15.265214 0.654982
v 0.806450 9.351212 -1.144498
v -2.028938 6.101696 0.122562
v -0.680361 15.968468 -0.207486
v -1.363647 11.648862 0.072744
v -0.025656 6.225151 -0.273899
v -0.034204 4.978487 1.707990
v 0.224574 3.795455 0.121316
v 1.397390 5.233216 1.336027
v 1.050461 4.628256 -1.282004
v -0.204595 8.341885 -1.457307
v 1.066617 11.644738 0.478019
v 0.401109 12.177438 -0.748183
v -0.696699 14.698766 -0.101664
v -0.904783 16.395147 0.137930
v -0.337938 14.707281 -0.274246
v -0.925385 7.747216 2.096082
v 1.979425 7.518786 0.813490
v -1.031040 5.405779 2.651894
v -1.486879 6.574413 -1.135147
v 0.776172 10.469810 0.879042
v 0.152733 13.710812 0.908187
v -0.595139 15.842964 -0.535293
v -0.830472 16.915989 0.128794
v 0.633712 11.212962 -1.021066
v -1.329493 6.420694 1.389833
v -1.018469 12.255726 -0.678709
v -0.080019 13.162295 0.383648
v -0.096869 11.767960 -0.465351
v 0.096000 9.115351 0.527729
v 0.707483 12.532982 -0.070736
v -2.125137 7.741452 1.015441
v 2.261688 5.947681 -1.135805
v -1.132904 11.111665 0.995603
v -0.276551 8.416902 -0.059007
v 0.185392 14.078512 0.462713
v 0.546093 7.140923 -0.273003
v -0.028833 0.028671 0.265556
v -0.272991 6.152124 -0.173221
v -0.523368 14.705133 0.256783
v -0.700534 11.761624 -0.174486
v -0.705034 9.111173 -0.185478
v 1.453677 9.689124 0.686523
v -0.196899 11.636897 1.097671
v -2.818102 3.752508 1.303747
v -0.177495 14.712231 -0.131836
v -1.373609 5.804602 -2.467166
v -1.120210 15.251626 0.302548
v 0.997058 6.727363 -1.275450
v -0.683814 14.700134 0.114372
v -0.134419 13.158146 -0.441387
v -0.285517 7.268194 -1.846307
v 0.219807 0.026222 -0.233846
v -0.192261 15.710913 -0.394178
v 0.216585 11.524269 -1.328533
v -1.830527 9.625707 0.899829
v 0.173003 11.772360 -0.226946
v -1.251517 10.502273 -0.902900
v -0.573928 15.703429 -0.487136
v -0.655239 15.968001 0.211045
v 1.102648 7.656615 1.161391
v -0.678275 9.110359 0.259295
v 2.418113 5.802724 0.848069
v -0.703242 13.148717 -0.167046
v 0.842366 11.008569 -0.066816
v -0.164686 14.713608 0.084175
v -1.028904 13.052311 -0.617781
v -1.107878 15.858574 0.033935
v -0.213095 1.868448 0.208814
v 0.280667 0.024169 0.096985
v -0.520081 15.067915 -0.635519
v -0.400091 13.245668 -0.909459
v 0.920624 7.806399 -1.246713
v 0.058110 1.878390 -0.328008
v -0.934705 12.363503 0.738474
v -0.784785 15.963446 0.096141
v -0.366005 15.979368 0.071283
v -0.331276 11.022293 -1.097768
v 0.156038 1.853255 0.288526
v -0.209640 12.659706 0.954416
v -1.585051 11.733595 -0.495105
v 0.015821 13.835870 -0.957710
v 0.120602 13.163999 -0.216254
v -0.405085 11.767681 0.433122
v -0.444543 14.428121 -0.660571
v -1.036390 15.721262 0.025217
v 0.543855 13.265795 -0.060138
v -0.674542 11.763188 0.195010
v 1.007100 11.539705 -0.615655
v -0.257892 9.828234 -1.419690
v -0.728611 7.119797 -0.195059
v 0.094146 14.683086 0.450439
v -0.915473 9.608580 1.702842
v -0.733192 16.956028 -0.162552
v -1.282979 13.672783 -0.348735
v 0.988603 5.555499 2.506087
v -0.032383 7.014406 1.845405
v -1.243918 12.636279 0.026271
v 0.196004 11.773888 0.142234
v -0.353026 16.414759 0.105250
v 0.656809 7.403803 -2.119098
v 1.861783 5.625176 -0.098337
v -0.956841 14.654615 -0.471237
v -0.102648 3.777650 -0.235076
v -1.375310 4.628037 -1.137567
v -0.899300 14.049538 -0.488769
v -0.260576 15.201255 -0.646042
v 0.363690 9.119856 -0.249095
v -0.295007 7.124735 0.693914
v -0.554363 14.701757 -0.261677
v 0.930702 9.465077 1.034765
v -1.843991 4.978487 0.101859
v 0.167422 15.087954 -0.032043
v -2.247324 7.632444 -0.802431
v -2.826708 5.557380 -0.829771
v 2.673230 3.753309 0.976630
v -0.228766 3.762198 0.012919
v -1.241650 4.627821 1.278279
v 0.577004 13.851542 -0.466138
v -0.679273 13.150311 0.179639
v -0.200847 8.499150 -0.222909
v -1.355655 10.962989 0.074347
v -0.410402 9.115095 -0.518313
v -0.379969 7.129041 -0.597086
v -1.408707 5.231165 1.503612
v -0.556655 16.962442 -0.005844
v 0.142299 13.165533 0.129699
v -1.362353 9.453548 -1.021981
v 0.849522 3.753441 -2.798080
v 0.434326 9.772501 -1.687100
v 0.184390 6.163225 -0.051204
v 0.160535 15.238919 0.233428
v 1.224010 9.837287 -0.091383
v 0.362019 11.772456 1.260695
v 1.876301 7.408092 -1.022888
v -1.123669 10.436628 1.001539
v 0.343351 13.080648 0.617146
v 0.133557 15.214670 -0.293608
v 1.234910 5.234037 -1.465968
v -1.147172 15.227434 -0.224490
v -1.934774 9.690662 -0.670808
v 0.390557 9.119182 0.194812
v 0.883679 8.158846 -1.170078
v -0.958159 15.708345 -0.351648
v -0.006514 5.621374 2.002719
v -0.662267 13.633881 0.960392
v 1.157040 3.752821 2.675579
v -2.702305 5.406511 1.190670
v -0.917232 15.733470 0.410792
v -1.259875 11.177180 -0.899801
v 1.184001 4.628037 1.133839
v 0.266803 14.448531 -0.036018
v -0.227969 4.978942 -1.708376
v -1.352452 8.264273 -1.043499
v 0.650882 10.536364 -1.024719
v 0.822597 11.696819 -0.067621
v -0.182119 10.949752 1.105309
v 0.634483 13.796530 0.350721
v 1.349459 9.754939 -0.884087
v -0.891199 15.493103 -0.321656
v -1.223431 13.618229 0.468820
v -0.424340 13.156260 0.404763
v -0.124019 0.028286 -0.273295
v 1.773059 6.363002 -0.117014
v -0.733555 16.401363 0.289968
v -0.466173 11.763941 -0.443425
v -0.132841 8.389802 0.090866
v -0.795225 15.963700 -0.078079
v -0.344319 11.709272 -1.092557
v -0.713234 16.956436 0.170663
v -0.505953 15.975083 -0.217827
v 0.881081 7.643342 2.012049
v -2.943356 3.752673 -0.963566
v -0.889770 16.950016 0.013955
v -1.119610 3.752600 2.811148
v 1.325787 8.347606 -0.083309
v -0.274830 0.031992 0.027195
v -0.827752 13.994019 0.526700
v 0.614011 5.948410 -2.576406
v -0.276324 1.813066 -0.168718
v -0.348050 14.356517 0.671300
v -0.791025 15.206760 -0.617422
v 0.583974 7.137453 0.258469
v 0.758510 11.146530 0.873616
v 0.056991 6.168112 0.196101
v -1.206199 8.375780 1.186347
v -0.151317 15.736094 0.368261
v -1.427194 3.753178 -2.662504
v -0.609014 16.924458 -0.120815
v -0.481012 13.152050 -0.421005
v -0.880201 11.607535 -1.277785
v -1.490505 7.655317 -1.112087
v -1.059376 14.336113 0.046746
v -0.801248 13.758480 -0.906201
v 0.142865 7.136143 -0.629325
v -0.376406 15.979630 -0.102924
v -0.854927 15.518299 0.364863
v -0.024650 15.862760 -0.026240
v -0.251417 6.359008 -1.890391
v -0.297366 13.393462 0.875560
v -1.559946 8.467690 0.069469
v 1.010779 8.272030 1.077783
v -0.307018 14.710663 0.244189
v -0.195632 15.259764 0.626360
v -0.955634 13.159647 0.680130
v 1.675057 7.268773 -0.127122
v 0.340819 1.853607 -0.074981
v -0.049303 8.474947 1.427882
v 0.115914 14.134489 -0.552060
v 0.231946 7.129320 0.661558
v -0.060295 15.721107 -0.028570
v -1.241566 13.371663 0.026243
v 0.028513 8.433356 0.029306
v 0.480811 12.286029 0.667729
v 0.082974 6.194840 -0.165898
v 0.204464 1.866652 -0.206531
v -0.083040 6.149165 0.166226
v -0.029702 1.861405 0.255811
v -0.151841 6.189460 -0.228582
v -0.112442 1.845427 -0.254421
v 0.125394 6.165422 0.075265
v 0.254703 1.853018 0.109972
v -0.252357 6.140217 -0.023404
v -0.251474 1.840264 0.020802
v 1.402455 6.546639 -0.702931
v 0.377086 6.544589 -1.601083
v -0.875754 6.467719 -1.530562
v -1.776277 6.337055 -0.511066
v -1.697150 6.259695 0.763039
v -0.661487 6.262309 1.672241
v 0.609772 6.340909 1.583032
v 1.500001 6.471009 0.552487
v 0.346323 8.249306 -1.327887
v -0.786958 8.302898 -1.263633
v -1.470410 8.366104 -0.493768
v -1.395953 8.422727 0.636258
v -0.634537 8.426420 1.320982
v 0.488793 8.373699 1.266086
v 1.182499 8.309696 0.504317
v 1.117993 8.252202 -0.635067
v -0.799875 10.762518 -1.010214
v -1.314452 10.732697 -0.421381
v -1.249499 10.699306 0.546377
v -0.659941 10.692753 1.064303
v 0.305479 10.709541 1.002049
v 0.820112 10.739109 0.413211
v 0.756487 10.772974 -0.554196
v 0.166874 10.779779 -1.072116
v -0.677330 12.383057 -0.847854
v -1.140676 12.446163 -0.329952
v -1.098314 12.500690 0.387024
v -0.575803 12.512562 0.855908
v 0.140327 12.473331 0.820112
v 0.603588 12.409336 0.302217
v 0.563337 12.354385 -0.414098
v 0.040910 12.343403 -0.882989
v -0.675752 14.238892 -0.580759
v -0.161399 14.281918 -0.612824
v 0.197427 14.292234 -0.297771
v 0.232570 14.263859 0.216296
v -0.077520 14.217446 0.573088
v -0.590797 14.174660 0.605515
v -0.949613 14.164345 0.290462
v -0.985831 14.192482 -0.223967
v -0.734722 15.598103 -0.408892
v -0.968522 15.607113 -0.149871
v -0.950183 15.619850 0.197201
v -0.690526 15.628881 0.429030
v -0.341607 15.628626 0.409815
v -0.107796 15.619524 0.150793
v -0.126143 15.606760 -0.196277
v -0.385811 15.597820 -0.428107
v 0.452247 13.173039 0.281948
v 0.027348 13.237514 0.754618
v -0.629880 13.277512 0.786486
v -0.060693 13.108103 -0.803474
v -0.718869 13.148556 -0.771890
v -1.106848 13.266466 0.357455
v -1.143899 13.212162 -0.299219
v 0.416143 13.118280 -0.374440
v -0.103436 15.786785 -0.212611
v -0.341964 15.807494 0.460617
v -1.017575 15.796072 0.224765
v -0.391848 15.776775 -0.469964
v -0.779049 15.775482 -0.448463
v -0.082734 15.799516 0.172842
v -0.729174 15.806173 0.482118
v -1.038267 15.783369 -0.160688
v 0.137038 14.885855 0.212071
v -0.162297 14.839581 0.556893
v -0.659458 14.797013 0.588385
v -0.243954 14.904137 -0.590391
v -0.742190 14.861330 -0.559260
v -1.006220 14.786894 0.283987
v -1.041515 14.815064 -0.214439
v 0.102818 14.914267 -0.285992
v 0.801344 11.421606 0.410074
v 0.289225 11.391479 0.995457
v -0.671933 11.373839 1.057453
v 0.151748 11.461573 -1.067621
v -0.810539 11.443457 -1.006000
v -1.258055 11.379749 0.542580
v -1.322571 11.413076 -0.420612
v 0.737957 11.455409 -0.552743
v 1.091081 9.651088 0.478606
v 0.422090 9.713964 1.214480
v -0.665936 9.765158 1.267406
v 0.280881 9.588661 -1.295818
v -0.818383 9.640703 -1.233618
v -1.402844 9.759774 0.605768
v -1.477105 9.702786 -0.489662
v 1.028058 9.593250 -0.626097
v 0.542030 7.334572 1.520506
v -0.690601 7.255517 1.607409
v -1.695890 7.255210 0.725970
v 1.314733 7.539003 -0.693364
v 0.321736 7.538716 -1.564105
v -1.771424 7.333602 -0.507828
v -0.894368 7.462753 -1.496466
v 1.406793 7.463704 0.521169
v -0.714332 5.426309 1.772424
v -1.774515 5.423240 0.830005
v -1.854873 5.422308 -0.586224
v 1.648835 5.429224 0.625489
v 1.566722 5.429661 -0.791048
v -0.912349 5.424834 -1.648092
v 0.504557 5.427170 -1.733124
v 0.704328 5.427276 1.687701
vt 0.9553 0.4130
vt 0.9477 0.4295
vt 0.9430 0.4291
vt 0.9438 0.4096
vt 0.9528 0.4658
vt 0.9467 0.4484
vt 0.9514 0.4484
vt 0.9647 0.4635
vt 0.9294 0.4647
vt 0.9374 0.4480
vt 0.9421 0.4483
vt 0.9410 0.4682
vt 0.9681 0.4518
vt 0.9517 0.4437
vt 0.9520 0.4391
vt 0.9715 0.4402
vt 0.9692 0.4284
vt 0.9521 0.4345
vt 0.9523 0.4298
vt 0.9669 0.4165
vt 0.9154 0.4493
vt 0.9330 0.4429
vt 0.9328 0.4476
vt 0.9178 0.4613
vt 0.9166 0.4259
vt 0.9334 0.4336
vt 0.9331 0.4382
vt 0.9131 0.4374
vt 0.9319 0.4119
vt 0.9384 0.4290
vt 0.9337 0.4289
vt 0.9200 0.4143
vt 0.9585 0.4094
vt 0.9510 0.4269
vt 0.9461 0.4266
vt 0.9462 0.4061
vt 0.9576 0.4649
vt 0.9506 0.4467
vt 0.9555 0.4467
vt 0.9699 0.4620
vt 0.9330 0.4645
vt 0.9409 0.4466
vt 0.9458 0.4468
vt 0.9453 0.4677
vt 0.9732 0.4497
vt 0.9556 0.4418
vt 0.9558 0.4369
vt 0.9764 0.4374
vt 0.9735 0.4250
vt 0.9558 0.4320
vt 0.9558 0.4271
vt 0.9707 0.4126
vt 0.9178 0.4488
vt 0.9360 0.4414
vt 0.9360 0.4464
vt 0.9207 0.4612
vt 0.9182 0.4241
vt 0.9361 0.4316
vt 0.9360 0.4365
vt 0.9150 0.4363
vt 0.9338 0.4090
vt 0.9412 0.4266
vt 0.9363 0.4267
vt 0.9215 0.4118
vt 0.9484 0.4110
vt 0.9412 0.4263
vt 0.9371 0.4261
vt 0.9377 0.4078
vt 0.9462 0.4592
vt 0.9404 0.4429
vt 0.9445 0.4430
vt 0.9570 0.4570
vt 0.9247 0.4582
vt 0.9322 0.4426
vt 0.9363 0.4428
vt 0.9353 0.4613
vt 0.9600 0.4464
vt 0.9447 0.4389
vt 0.9448 0.4348
vt 0.9631 0.4358
vt 0.9610 0.4249
vt 0.9450 0.4307
vt 0.9452 0.4266
vt 0.9590 0.4140
vt 0.9119 0.4442
vt 0.9283 0.4381
vt 0.9281 0.4423
vt 0.9140 0.4552
vt 0.9129 0.4227
vt 0.9287 0.4299
vt 0.9285 0.4340
vt 0.9099 0.4333
vt 0.9269 0.4100
vt 0.9330 0.4259
vt 0.9289 0.4258
vt 0.9160 0.4121
vt 0.9484 0.4110
vt 0.9412 0.4263
vt 0.9371 0.4261
vt 0.9377 0.4078
vt 0.9462 0.4592
vt 0.9404 0.4429
vt 0.9445 0.4430
vt 0.9570 0.4570
vt 0.9247 0.4582
vt 0.9322 0.4426
vt 0.9363 0.4428
vt 0.9353 0.4613
vt 0.9600 0.4464
vt 0.9447 0.4389
vt 0.9448 0.4348
vt 0.9631 0.4358
vt 0.9610 0.4249
vt 0.9450 0.4307
vt 0.9452 0.4266
vt 0.9590 0.4140
vt 0.9119 0.4442
vt 0.9283 0.4381
vt 0.9281 0.4423
vt 0.9140 0.4552
vt 0.9129 0.4227
vt 0.9287 0.4299
vt 0.9285 0.4340
vt 0.9099 0.4333
vt 0.9269 0.4100
vt 0.9330 0.4259
vt 0.9289 0.4258
vt 0.9160 0.4121
vt 0.9484 0.4110
vt 0.9412 0.4263
vt 0.9371 0.4261
vt 0.9377 0.4078
vt 0.9462 0.4592
vt 0.9404 0.4429
vt 0.9445 0.4430
vt 0.9570 0.4570
vt 0.9247 0.4582
vt 0.9322 0.4426
vt 0.9363 0.4428
vt 0.9353 0.4613
vt 0.9600 0.4464
vt 0.9447 0.4389
vt 0.9448 0.4348
vt 0.9631 0.4358
vt 0.9610 0.4249
vt 0.9450 0.4307
vt 0.9452 0.4266
vt 0.9590 0.4140
vt 0.9119 0.4442
vt 0.9283 0.4381
vt 0.9281 0.4423
vt 0.9140 0.4552
vt 0.9129 0.4227
vt 0.9287 0.4299
vt 0.9285 0.4340
vt 0.9099 0.4333
vt 0.9269 0.4100
vt 0.9330 0.4259
vt 0.9289 0.4258
vt 0.9160 0.4121
vt 0.9727 0.4015
vt 0.9549 0.4138
vt 0.9555 0.3956
vt 0.9343 0.4799
vt 0.9394 0.4614
vt 0.9519 0.4755
vt 0.9000 0.4680
vt 0.9181 0.4554
vt 0.9172 0.4739
vt 0.9695 0.4711
vt 0.9571 0.4530
vt 0.9755 0.4539
vt 0.9814 0.4368
vt 0.9633 0.4317
vt 0.9771 0.4191
vt 0.8912 0.4327
vt 0.9096 0.4375
vt 0.8956 0.4503
vt 0.9031 0.3984
vt 0.9158 0.4162
vt 0.8972 0.4155
vt 0.9384 0.3896
vt 0.9337 0.4077
vt 0.9208 0.3940
vt 0.9519 0.4755
vt 0.9695 0.4711
vt 0.9695 0.4711
vt 0.9519 0.4755
vt 0.8956 0.4503
vt 0.9000 0.4680
vt 0.9000 0.4680
vt 0.8956 0.4503
vt 0.9208 0.3940
vt 0.9031 0.3984
vt 0.9031 0.3984
vt 0.9208 0.3940
vt 0.9755 0.4539
vt 0.9814 0.4368
vt 0.9814 0.4368
vt 0.9755 0.4539
vt 0.9771 0.4191
vt 0.9727 0.4015
vt 0.9727 0.4015
vt 0.9771 0.4191
vt 0.9172 0.4739
vt 0.9343 0.4799
vt 0.9343 0.4799
vt 0.9172 0.4739
vt 0.8972 0.4155
vt 0.8912 0.4327
vt 0.8912 0.4327
vt 0.8972 0.4155
vt 0.9555 0.3956
vt 0.9384 0.3896
vt 0.9384 0.3896
vt 0.9555 0.3956
vt 0.9484 0.4110
vt 0.9412 0.4263
vt 0.9371 0.4261
vt 0.9377 0.4078
vt 0.9462 0.4592
vt 0.9404 0.4429
vt 0.9445 0.4430
vt 0.9570 0.4570
vt 0.9247 0.4582
vt 0.9322 0.4426
vt 0.9363 0.4428
vt 0.9353 0.4613
vt 0.9600 0.4464
vt 0.9447 0.4389
vt 0.9448 0.4348
vt 0.9631 0.4358
vt 0.9610 0.4249
vt 0.9450 0.4307
vt 0.9452 0.4266
vt 0.9590 0.4140
vt 0.9119 0.4442
vt 0.9283 0.4381
vt 0.9281 0.4423
vt 0.9140 0.4552
vt 0.9129 0.4227
vt 0.9287 0.4299
vt 0.9285 0.4340
vt 0.9099 0.4333
vt 0.9269 0.4100
vt 0.9330 0.4259
vt 0.9289 0.4258
vt 0.9160 0.4121
vt 0.9610 0.4249
vt 0.9590 0.4140
vt 0.9452 0.4266
vt 0.9450 0.4307
vt 0.9483 0.4110
vt 0.9377 0.4078
vt 0.9371 0.4261
vt 0.9412 0.4263
vt 0.9269 0.4100
vt 0.9160 0.4121
vt 0.9289 0.4258
vt 0.9330 0.4259
vt 0.9129 0.4227
vt 0.9099 0.4333
vt 0.9285 0.4340
vt 0.9287 0.4299
vt 0.9119 0.4442
vt 0.9140 0.4552
vt 0.9281 0.4423
vt 0.9283 0.4381
vt 0.9247 0.4582
vt 0.9353 0.4613
vt 0.9363 0.4428
vt 0.9322 0.4426
vt 0.9462 0.4592
vt 0.9570 0.4570
vt 0.9445 0.4430
vt 0.9404 0.4429
vt 0.9601 0.4464
vt 0.9631 0.4358
vt 0.9448 0.4348
vt 0.9447 0.4389
vt 0.9462 0.4592
vt 0.9353 0.4613
vt 0.9343 0.4799
vt 0.9519 0.4755
vt 0.9247 0.4582
vt 0.9140 0.4552
vt 0.9000 0.4680
vt 0.9172 0.4739
vt 0.9119 0.4442
vt 0.9099 0.4333
vt 0.8912 0.4327
vt 0.8956 0.4503
vt 0.9129 0.4227
vt 0.9160 0.4121
vt 0.9031 0.3984
vt 0.8972 0.4155
vt 0.9269 0.4100
vt 0.9377 0.4078
vt 0.9384 0.3896
vt 0.9208 0.3940
vt 0.9483 0.4110
vt 0.9590 0.4140
vt 0.9727 0.4015
vt 0.9555 0.3956
vt 0.9610 0.4249
vt 0.9631 0.4358
vt 0.9814 0.4368
vt 0.9771 0.4191
vt 0.9601 0.4464
vt 0.9570 0.4570
vt 0.9695 0.4711
vt 0.9755 0.4539
vt 0.9610 0.4249
vt 0.9590 0.4140
vt 0.9452 0.4266
vt 0.9450 0.4307
vt 0.9483 0.4110
vt 0.9377 0.4078
vt 0.9371 0.4261
vt 0.9412 0.4263
vt 0.9269 0.4100
vt 0.9160 0.4121
vt 0.9289 0.4258
vt 0.9330 0.4259
vt 0.9129 0.4227
vt 0.9099 0.4333
vt 0.9285 0.4340
vt 0.9287 0.4299
vt 0.9119 0.4442
vt 0.9140 0.4552
vt 0.9281 0.4423
vt 0.9283 0.4381
vt 0.9247 0.4582
vt 0.9353 0.4613
vt 0.9363 0.4428
vt 0.9322 0.4426
vt 0.9462 0.4592
vt 0.9570 0.4570
vt 0.9445 0.4430
vt 0.9404 0.4429
vt 0.9601 0.4464
vt 0.9631 0.4358
vt 0.9448 0.4348
vt 0.9447 0.4389
vt 0.9610 0.4249
vt 0.9590 0.4140
vt 0.9452 0.4266
vt 0.9450 0.4307
vt 0.9483 0.4110
vt 0.9377 0.4078
vt 0.9371 0.4261
vt 0.9412 0.4263
vt 0.9269 0.4100
vt 0.9160 0.4121
vt 0.9289 0.4258
vt 0.9330 0.4259
vt 0.9129 0.4227
vt 0.9099 0.4333
vt 0.9285 0.4340
vt 0.9287 0.4299
vt 0.9119 0.4442
vt 0.9140 0.4552
vt 0.9281 0.4423
vt 0.9283 0.4381
vt 0.9247 0.4582
vt 0.9353 0.4613
vt 0.9363 0.4428
vt 0.9322 0.4426
vt 0.9462 0.4592
vt 0.9570 0.4570
vt 0.9445 0.4430
vt 0.9404 0.4429
vt 0.9601 0.4464
vt 0.9631 0.4358
vt 0.9448 0.4348
vt 0.9447 0.4389
vt 0.9557 0.4138
vt 0.9471 0.4083
vt 0.9558 0.4271
vt 0.9558 0.4320
vt 0.9359 0.4104
vt 0.9246 0.4125
vt 0.9461 0.4266
vt 0.9510 0.4269
vt 0.9192 0.4211
vt 0.9137 0.4297
vt 0.9363 0.4267
vt 0.9412 0.4266
vt 0.9159 0.4410
vt 0.9180 0.4523
vt 0.9360 0.4365
vt 0.9361 0.4316
vt 0.9266 0.4577
vt 0.9352 0.4631
vt 0.9360 0.4464
vt 0.9360 0.4414
vt 0.9464 0.4610
vt 0.9577 0.4589
vt 0.9458 0.4468
vt 0.9409 0.4466
vt 0.9631 0.4503
vt 0.9685 0.4417
vt 0.9555 0.4467
vt 0.9506 0.4467
vt 0.9663 0.4305
vt 0.9642 0.4192
vt 0.9558 0.4369
vt 0.9556 0.4418
vt 0.9591 0.4132
vt 0.9493 0.4078
vt 0.9523 0.4298
vt 0.9521 0.4345
vt 0.9371 0.4104
vt 0.9248 0.4130
vt 0.9430 0.4291
vt 0.9477 0.4295
vt 0.9193 0.4228
vt 0.9139 0.4326
vt 0.9337 0.4289
vt 0.9384 0.4290
vt 0.9165 0.4448
vt 0.9192 0.4571
vt 0.9331 0.4382
vt 0.9334 0.4336
vt 0.9290 0.4626
vt 0.9388 0.4681
vt 0.9328 0.4476
vt 0.9330 0.4429
vt 0.9510 0.4654
vt 0.9632 0.4628
vt 0.9421 0.4483
vt 0.9374 0.4480
vt 0.9687 0.4530
vt 0.9742 0.4431
vt 0.9514 0.4484
vt 0.9467 0.4484
vt 0.9715 0.4309
vt 0.9689 0.4187
vt 0.9520 0.4391
vt 0.9517 0.4437
vt 0.9780 0.4785
vt 0.9845 0.4599
vt 0.9593 0.4546
vt 0.9911 0.4413
vt 0.9863 0.4223
vt 0.9620 0.4357
vt 0.9815 0.4032
vt 0.9630 0.3967
vt 0.9533 0.4164
vt 0.9445 0.3901
vt 0.9254 0.3949
vt 0.9346 0.4139
vt 0.9063 0.3996
vt 0.8997 0.4182
vt 0.9152 0.4225
vt 0.8931 0.4367
vt 0.8979 0.4558
vt 0.9125 0.4413
vt 0.9027 0.4749
vt 0.9213 0.4815
vt 0.9211 0.4606
vt 0.9399 0.4881
vt 0.9589 0.4833
vt 0.9400 0.4633
vt 0.8048 0.9140
vt 0.8032 0.9391
vt 0.8010 0.9383
vt 0.8023 0.9136
vt 0.8016 0.9648
vt 0.8000 0.9905
vt 0.7982 0.9912
vt 0.7996 0.9647
vt 0.7894 0.9139
vt 0.7896 0.9391
vt 0.7872 0.9391
vt 0.7867 0.9139
vt 0.7900 0.9647
vt 0.7905 0.9904
vt 0.7893 0.9904
vt 0.7882 0.9648
vt 0.7998 0.9139
vt 0.7988 0.9390
vt 0.7966 0.9397
vt 0.7973 0.9142
vt 0.7978 0.9651
vt 0.7968 0.9912
vt 0.7953 0.9912
vt 0.7959 0.9654
vt 0.8100 0.9147
vt 0.8077 0.9398
vt 0.8055 0.9398
vt 0.8074 0.9145
vt 0.8056 0.9651
vt 0.8035 0.9904
vt 0.8018 0.9898
vt 0.8037 0.9648
vt 0.7947 0.9140
vt 0.7943 0.9394
vt 0.7920 0.9391
vt 0.7922 0.9139
vt 0.7939 0.9651
vt 0.7935 0.9907
vt 0.7917 0.9903
vt 0.7918 0.9647
vt 0.7951 0.8887
vt 0.7923 0.8887
vt 0.7980 0.8887
vt 0.8100 0.9399
vt 0.8076 0.9654
vt 0.8052 0.9910
vt 0.8123 0.8895
vt 0.8093 0.8892
vt 0.8152 0.8898
vt 0.8126 0.9148
vt 0.8008 0.8888
vt 0.8036 0.8888
vt 0.7893 0.8887
vt 0.7863 0.8887
vt 0.8065 0.8890
vt 0.9590 0.4585
vt 0.9401 0.4385
vt 0.9780 0.4785
vt 0.9397 0.4672
vt 0.9396 0.4464
vt 0.9399 0.4881
vt 0.9173 0.4604
vt 0.9318 0.4460
vt 0.9027 0.4749
vt 0.9086 0.4410
vt 0.9240 0.4454
vt 0.8931 0.4367
vt 0.9154 0.4186
vt 0.9246 0.4376
vt 0.9063 0.3996
vt 0.9348 0.4099
vt 0.9251 0.4297
vt 0.9445 0.3901
vt 0.9571 0.4166
vt 0.9328 0.4301
vt 0.9815 0.4032
vt 0.9658 0.4360
vt 0.9406 0.4307
vt 0.9911 0.4413
vt 0.9742 0.4431
vt 0.9514 0.4484
vt 0.9969 0.4379
vt 0.9913 0.4180
vt 0.9857 0.3982
vt 0.9632 0.4628
vt 0.9421 0.4483
vt 0.9844 0.4773
vt 0.9906 0.4576
vt 0.9969 0.4379
vt 0.9388 0.4681
vt 0.9328 0.4476
vt 0.9447 0.4886
vt 0.9646 0.4829
vt 0.9844 0.4773
vt 0.9192 0.4571
vt 0.9331 0.4382
vt 0.9053 0.4760
vt 0.9250 0.4823
vt 0.9447 0.4886
vt 0.9139 0.4326
vt 0.9337 0.4289
vt 0.8940 0.4362
vt 0.8996 0.4561
vt 0.9053 0.4760
vt 0.9248 0.4130
vt 0.9430 0.4291
vt 0.9066 0.3969
vt 0.9003 0.4165
vt 0.8940 0.4362
vt 0.9493 0.4078
vt 0.9523 0.4298
vt 0.9464 0.3857
vt 0.9265 0.3913
vt 0.9066 0.3969
vt 0.9689 0.4187
vt 0.9520 0.4391
vt 0.9857 0.3982
vt 0.9661 0.3920
vt 0.9464 0.3857
vt 0.9685 0.4417
vt 0.9555 0.4467
vt 0.9814 0.4368
vt 0.9771 0.4191
vt 0.9727 0.4015
vt 0.9577 0.4589
vt 0.9458 0.4468
vt 0.9695 0.4711
vt 0.9755 0.4539
vt 0.9814 0.4368
vt 0.9352 0.4631
vt 0.9360 0.4464
vt 0.9343 0.4799
vt 0.9519 0.4755
vt 0.9695 0.4711
vt 0.9180 0.4523
vt 0.9360 0.4365
vt 0.9000 0.4680
vt 0.9172 0.4739
vt 0.9343 0.4799
vt 0.9137 0.4297
vt 0.9363 0.4267
vt 0.8912 0.4327
vt 0.8956 0.4503
vt 0.9000 0.4680
vt 0.9246 0.4125
vt 0.9461 0.4266
vt 0.9031 0.3984
vt 0.8972 0.4155
vt 0.8912 0.4327
vt 0.9471 0.4083
vt 0.9558 0.4271
vt 0.9384 0.3896
vt 0.9208 0.3940
vt 0.9031 0.3984
vt 0.9642 0.4192
vt 0.9558 0.4369
vt 0.9727 0.4015
vt 0.9555 0.3956
vt 0.9384 0.3896
vt 0.9570 0.4570
vt 0.9445 0.4430
vt 0.9695 0.4711
vt 0.9755 0.4539
vt 0.9814 0.4368
vt 0.9353 0.4613
vt 0.9363 0.4428
vt 0.9343 0.4799
vt 0.9519 0.4755
vt 0.9695 0.4711
vt 0.9140 0.4552
vt 0.9281 0.4423
vt 0.9000 0.4680
vt 0.9172 0.4739
vt 0.9343 0.4799
vt 0.9099 0.4333
vt 0.9285 0.4340
vt 0.8912 0.4327
vt 0.8956 0.4503
vt 0.9000 0.4680
vt 0.9160 0.4121
vt 0.9289 0.4258
vt 0.9031 0.3984
vt 0.8972 0.4155
vt 0.8912 0.4327
vt 0.9377 0.4078
vt 0.9371 0.4261
vt 0.9384 0.3896
vt 0.9208 0.3940
vt 0.9031 0.3984
vt 0.9590 0.4140
vt 0.9452 0.4266
vt 0.9727 0.4015
vt 0.9555 0.3956
vt 0.9384 0.3896
vt 0.9631 0.4358
vt 0.9448 0.4348
vt 0.9814 0.4368
vt 0.9771 0.4191
vt 0.9727 0.4015
vt 0.9570 0.4570
vt 0.9445 0.4430
vt 0.9695 0.4711
vt 0.9755 0.4539
vt 0.9814 0.4368
vt 0.9353 0.4613
vt 0.9363 0.4428
vt 0.9343 0.4799
vt 0.9519 0.4755
vt 0.9695 0.4711
vt 0.9140 0.4552
vt 0.9281 0.4423
vt 0.9000 0.4680
vt 0.9172 0.4739
vt 0.9343 0.4799
vt 0.9099 0.4333
vt 0.9285 0.4340
vt 0.8912 0.4327
vt 0.8956 0.4503
vt 0.9000 0.4680
vt 0.9160 0.4121
vt 0.9289 0.4258
vt 0.9031 0.3984
vt 0.8972 0.4155
vt 0.8912 0.4327
vt 0.9377 0.4078
vt 0.9371 0.4261
vt 0.9384 0.3896
vt 0.9208 0.3940
vt 0.9031 0.3984
vt 0.9590 0.4140
vt 0.9452 0.4266
vt 0.9727 0.4015
vt 0.9555 0.3956
vt 0.9384 0.3896
vt 0.9631 0.4358
vt 0.9448 0.4348
vt 0.9814 0.4368
vt 0.9771 0.4191
vt 0.9727 0.4015
vt 0.9631 0.4358
vt 0.9814 0.4368
vt 0.9448 0.4348
vt 0.9447 0.4389
vt 0.9445 0.4430
vt 0.9590 0.4140
vt 0.9727 0.4015
vt 0.9452 0.4266
vt 0.9450 0.4307
vt 0.9448 0.4348
vt 0.9377 0.4078
vt 0.9384 0.3896
vt 0.9371 0.4261
vt 0.9412 0.4263
vt 0.9452 0.4266
vt 0.9160 0.4121
vt 0.9031 0.3984
vt 0.9289 0.4258
vt 0.9330 0.4259
vt 0.9371 0.4261
vt 0.9099 0.4333
vt 0.8912 0.4327
vt 0.9285 0.4340
vt 0.9287 0.4299
vt 0.9289 0.4258
vt 0.9140 0.4552
vt 0.9000 0.4680
vt 0.9281 0.4423
vt 0.9283 0.4381
vt 0.9285 0.4340
vt 0.9353 0.4613
vt 0.9343 0.4799
vt 0.9363 0.4428
vt 0.9322 0.4426
vt 0.9281 0.4423
vt 0.9570 0.4570
vt 0.9695 0.4711
vt 0.9445 0.4430
vt 0.9404 0.4429
vt 0.9363 0.4428
vt 0.9570 0.4570
vt 0.9445 0.4430
vt 0.9695 0.4711
vt 0.9755 0.4539
vt 0.9814 0.4368
vt 0.9353 0.4613
vt 0.9363 0.4428
vt 0.9343 0.4799
vt 0.9519 0.4755
vt 0.9695 0.4711
vt 0.9140 0.4552
vt 0.9281 0.4423
vt 0.9000 0.4680
vt 0.9172 0.4739
vt 0.9343 0.4799
vt 0.9099 0.4333
vt 0.9285 0.4340
vt 0.8912 0.4327
vt 0.8956 0.4503
vt 0.9000 0.4680
vt 0.9160 0.4121
vt 0.9289 0.4258
vt 0.9031 0.3984
vt 0.8972 0.4155
vt 0.8912 0.4327
vt 0.9377 0.4078
vt 0.9371 0.4261
vt 0.9384 0.3896
vt 0.9208 0.3940
vt 0.9031 0.3984
vt 0.9590 0.4140
vt 0.9452 0.4266
vt 0.9727 0.4015
vt 0.9555 0.3956
vt 0.9384 0.3896
vt 0.9631 0.4358
vt 0.9448 0.4348
vt 0.9814 0.4368
vt 0.9771 0.4191
vt 0.9727 0.4015
vt 0.9208 0.3940
vt 0.9031 0.3984
vt 0.9384 0.3896
vt 0.8972 0.4155
vt 0.8912 0.4327
vt 0.8956 0.4503
vt 0.9000 0.4680
vt 0.9771 0.4191
vt 0.9727 0.4015
vt 0.9814 0.4368
vt 0.9755 0.4539
vt 0.9695 0.4711
vt 0.9172 0.4739
vt 0.9343 0.4799
vt 0.9519 0.4755
vt 0.9555 0.3956
vt 0.9160 0.4121
vt 0.9289 0.4258
vt 0.9099 0.4333
vt 0.9285 0.4340
vt 0.9140 0.4552
vt 0.9281 0.4423
vt 0.9590 0.4140
vt 0.9452 0.4266
vt 0.9631 0.4358
vt 0.9448 0.4348
vt 0.9353 0.4613
vt 0.9363 0.4428
vt 0.9570 0.4570
vt 0.9445 0.4430
vt 0.9377 0.4078
vt 0.9371 0.4261
vt 0.9208 0.3940
vt 0.9031 0.3984
vt 0.9384 0.3896
vt 0.8972 0.4155
vt 0.8912 0.4327
vt 0.8956 0.4503
vt 0.9000 0.4680
vt 0.9771 0.4191
vt 0.9727 0.4015
vt 0.9814 0.4368
vt 0.9755 0.4539
vt 0.9695 0.4711
vt 0.9172 0.4739
vt 0.9343 0.4799
vt 0.9519 0.4755
vt 0.9555 0.3956
vt 0.9208 0.3940
vt 0.9031 0.3984
vt 0.9384 0.3896
vt 0.8972 0.4155
vt 0.8912 0.4327
vt 0.8956 0.4503
vt 0.9000 0.4680
vt 0.9771 0.4191
vt 0.9727 0.4015
vt 0.9814 0.4368
vt 0.9755 0.4539
vt 0.9695 0.4711
vt 0.9172 0.4739
vt 0.9343 0.4799
vt 0.9519 0.4755
vt 0.9555 0.3956
vt 0.9208 0.3940
vt 0.9031 0.3984
vt 0.9384 0.3896
vt 0.8972 0.4155
vt 0.8912 0.4327
vt 0.8956 0.4503
vt 0.9000 0.4680
vt 0.9771 0.4191
vt 0.9727 0.4015
vt 0.9814 0.4368
vt 0.9755 0.4539
vt 0.9695 0.4711
vt 0.9172 0.4739
vt 0.9343 0.4799
vt 0.9519 0.4755
vt 0.9555 0.3956
vt 0.9265 0.3913
vt 0.9066 0.3969
vt 0.9464 0.3857
vt 0.9003 0.4165
vt 0.8940 0.4362
vt 0.8996 0.4561
vt 0.9053 0.4760
vt 0.9913 0.4180
vt 0.9857 0.3982
vt 0.9969 0.4379
vt 0.9906 0.4576
vt 0.9844 0.4773
vt 0.9250 0.4823
vt 0.9447 0.4886
vt 0.9646 0.4829
vt 0.9661 0.3920
vt 0.9254 0.3949
vt 0.9063 0.3996
vt 0.9445 0.3901
vt 0.8997 0.4182
vt 0.8931 0.4367
vt 0.8979 0.4558
vt 0.9027 0.4749
vt 0.9863 0.4223
vt 0.9815 0.4032
vt 0.9911 0.4413
vt 0.9845 0.4599
vt 0.9780 0.4785
vt 0.9213 0.4815
vt 0.9399 0.4881
vt 0.9589 0.4833
vt 0.9630 0.3967
vn 0.4714 0.5441 0.6941
vn 0.7865 -0.5765 0.2215
vn 0.1429 -0.9524 0.2692
vn 0.0384 0.6155 0.7872
vn 0.3856 0.5543 -0.7376
vn 0.6260 -0.6179 -0.4758
vn 0.4610 -0.7131 -0.5282
vn 0.5541 0.5550 -0.6204
vn -0.4895 0.5610 -0.6675
vn -0.6299 -0.6557 -0.4163
vn 0.0632 -0.8807 -0.4693
vn -0.0570 0.6242 -0.7792
vn 0.6916 0.5501 -0.4680
vn 0.3943 -0.6363 -0.6631
vn 0.4355 -0.8922 -0.1200
vn 0.7937 0.6065 -0.0464
vn 0.7469 0.5433 0.3835
vn 0.4907 -0.6828 0.5414
vn 0.5750 -0.7387 0.3517
vn 0.6273 0.5461 0.5552
vn -0.7173 0.5654 -0.4072
vn -0.3045 -0.5349 -0.7881
vn -0.4360 -0.7122 -0.5501
vn -0.6186 0.5604 -0.5508
vn -0.6686 0.5623 0.4866
vn -0.2334 -0.5962 0.7682
vn -0.3188 -0.9366 -0.1452
vn -0.7697 0.6369 0.0443
vn -0.4033 0.5557 0.7270
vn -0.7454 -0.5973 0.2962
vn -0.4528 -0.7458 0.4886
vn -0.5505 0.5563 0.6225
vn 0.8209 0.5398 0.1864
vn 0.6021 -0.7805 0.1686
vn 0.0188 -0.9666 0.2557
vn 0.5809 0.5707 0.5804
vn -0.2845 0.5473 -0.7870
vn -0.3220 -0.7724 -0.5474
vn -0.2372 -0.6499 -0.7221
vn -0.0702 0.5740 -0.8158
vn -0.8488 0.5224 -0.0815
vn -0.6318 -0.7533 0.1828
vn -0.2840 -0.9579 0.0409
vn -0.6474 0.5794 -0.4951
vn 0.1456 0.5538 -0.8198
vn -0.2552 -0.7335 -0.6299
vn 0.0770 -0.9962 -0.0402
vn 0.5314 0.5890 -0.6088
vn 0.7953 0.5489 -0.2573
vn 0.6553 -0.7430 0.1358
vn 0.7426 -0.6599 0.1142
vn 0.8224 0.5678 -0.0363
vn -0.8255 0.5120 0.2375
vn -0.5889 -0.7717 0.2402
vn -0.7488 -0.6360 0.1864
vn -0.8438 0.5308 0.0790
vn -0.1338 0.5073 0.8513
vn -0.1182 -0.7735 0.6227
vn -0.1380 -0.9673 0.2128
vn -0.5494 0.5566 0.6232
vn 0.2012 0.5145 0.8335
vn -0.0542 -0.7606 0.6469
vn -0.0557 -0.6468 0.7607
vn 0.0338 0.5243 0.8509
vn 0.7743 0.3930 -0.4960
vn 0.4446 -0.8805 -0.1642
vn 0.1441 -0.9779 -0.1517
vn 0.8988 0.4322 -0.0740
vn -0.8598 0.3755 -0.3460
vn -0.5330 -0.8328 0.1496
vn -0.1942 -0.9134 -0.3577
vn -0.6814 0.4014 -0.6121
vn -0.8241 0.3833 0.4170
vn -0.6403 -0.6836 -0.3503
vn -0.2333 -0.9655 -0.1153
vn -0.9182 0.3943 0.0386
vn -0.4358 0.3752 -0.8181
vn 0.2331 -0.7563 -0.6113
vn 0.1260 -0.9762 -0.1765
vn -0.0220 0.4045 -0.9143
vn 0.3949 0.3847 -0.8343
vn 0.0775 -0.8784 -0.4717
vn 0.2909 -0.8901 -0.3509
vn 0.6039 0.4047 -0.6867
vn -0.3320 0.3977 0.8554
vn 0.3648 -0.7190 0.5916
vn -0.2940 -0.9365 0.1911
vn -0.6106 0.4208 0.6709
vn 0.4623 0.4089 0.7868
vn -0.0579 -0.8270 0.5592
vn 0.1026 -0.9703 0.2189
vn 0.0727 0.4244 0.9026
vn 0.8370 0.4088 0.3637
vn 0.5754 -0.7927 -0.2012
vn 0.3711 -0.9050 0.2078
vn 0.6751 0.4306 0.5990
vn 0.8421 0.3806 -0.3821
vn 0.6669 -0.4301 0.6085
vn 0.3849 -0.9131 0.1346
vn 0.9227 0.3830 -0.0432
vn -0.8866 0.3600 -0.2903
vn -0.6226 -0.5111 0.5926
vn -0.4107 -0.9115 0.0206
vn -0.6914 0.4008 -0.6011
vn -0.8257 0.3601 0.4342
vn -0.6589 -0.6857 -0.3094
vn -0.3276 -0.9338 0.1439
vn -0.9276 0.3651 0.0787
vn -0.4098 0.3662 -0.8354
vn 0.4726 -0.5860 -0.6582
vn -0.1325 -0.9168 -0.3767
vn -0.0719 0.3714 -0.9257
vn 0.2756 0.3742 -0.8854
vn -0.6753 -0.4473 -0.5865
vn 0.1054 -0.9917 -0.0733
vn 0.6002 0.4193 -0.6811
vn -0.3199 0.3659 0.8740
vn 0.4447 -0.6349 0.6318
vn -0.2312 -0.8973 0.3761
vn -0.6051 0.3952 0.6911
vn 0.4069 0.3741 0.8334
vn -0.4526 -0.5605 0.6935
vn -0.0284 -0.9383 0.3446
vn 0.0473 0.3766 0.9252
vn 0.8748 0.3800 0.3004
vn 0.6034 -0.6213 -0.4999
vn 0.1220 -0.9165 0.3809
vn 0.6825 0.4132 0.6029
vn 0.7402 0.4227 -0.5229
vn 0.7710 -0.4103 0.4870
vn 0.3693 -0.9215 0.1202
vn 0.8830 0.4688 -0.0238
vn -0.8709 0.2380 -0.4300
vn -0.6314 -0.5699 0.5259
vn -0.4790 -0.8632 -0.1594
vn -0.7402 0.2720 -0.6150
vn -0.7740 0.2392 0.5863
vn -0.6436 -0.7114 -0.2824
vn -0.1563 -0.9808 0.1164
vn -0.9614 0.2593 0.0919
vn -0.5717 0.2770 -0.7723
vn 0.4201 -0.5868 -0.6923
vn -0.0296 -0.9561 -0.2916
vn -0.0922 0.3631 -0.9272
vn 0.4074 0.3875 -0.8270
vn -0.5265 -0.5016 -0.6864
vn 0.3464 -0.8169 -0.4611
vn 0.5851 0.4236 -0.6916
vn -0.4956 0.2679 0.8262
vn 0.4260 -0.6301 0.6493
vn -0.3310 -0.8476 0.4148
vn -0.6457 0.2633 0.7168
vn 0.5378 0.3873 0.7489
vn -0.3243 -0.5781 0.7488
vn 0.0355 -0.9705 0.2386
vn 0.0277 0.3676 0.9296
vn 0.7714 0.4165 0.4811
vn 0.7143 -0.5851 -0.3840
vn 0.3734 -0.7711 0.5157
vn 0.6631 0.4143 0.6234
vn 0.6090 0.3726 -0.7002
vn 0.6046 0.3673 -0.7067
vn 0.7776 0.3834 -0.4984
vn -0.9802 0.1903 0.0557
vn -0.9865 0.1523 0.0598
vn -0.9013 0.1655 -0.4002
vn -0.6508 0.2328 0.7227
vn -0.6610 0.1866 0.7268
vn -0.8501 0.1766 0.4962
vn -0.7300 0.2134 -0.6493
vn -0.7436 0.1663 -0.6476
vn -0.5039 0.2142 -0.8368
vn -0.0580 0.3066 -0.9501
vn -0.0663 0.2877 -0.9554
vn 0.3915 0.3315 -0.8584
vn 0.0517 0.3319 0.9419
vn 0.0453 0.3161 0.9477
vn -0.4038 0.2379 0.8834
vn 0.6839 0.3914 0.6157
vn 0.6802 0.3858 0.6233
vn 0.4862 0.3540 0.7989
vn 0.8989 0.4344 -0.0565
vn 0.8975 0.4376 -0.0539
vn 0.8291 0.3951 0.3956
vn -0.8770 0.2214 -0.4263
vn -0.7207 0.2430 -0.6493
vn -0.3061 -0.9068 -0.2900
vn -0.5360 -0.7883 0.3020
vn -0.4097 0.2770 0.8692
vn -0.6489 0.2611 0.7147
vn -0.2687 -0.8872 0.3751
vn 0.2955 -0.7686 0.5674
vn 0.8251 0.4035 0.3954
vn 0.6840 0.3974 0.6117
vn 0.4200 -0.8336 0.3588
vn 0.6352 -0.7366 -0.2324
vn -0.5111 0.2557 -0.8206
vn -0.0567 0.3410 -0.9384
vn -0.0191 -0.6696 -0.7424
vn 0.2280 -0.7963 -0.5604
vn 0.4094 0.3527 -0.8414
vn 0.6082 0.3784 -0.6978
vn 0.3825 -0.8547 -0.3511
vn -0.2389 -0.7603 -0.6040
vn -0.8347 0.2300 0.5003
vn -0.9670 0.2513 0.0426
vn -0.6964 -0.7161 0.0471
vn -0.5407 -0.8202 -0.1870
vn 0.4932 0.3721 0.7863
vn 0.0480 0.3613 0.9312
vn 0.0637 -0.6445 0.7620
vn -0.1739 -0.7324 0.6583
vn 0.7658 0.3918 -0.5100
vn 0.8937 0.4440 -0.0639
vn 0.8015 -0.5969 -0.0363
vn 0.6769 -0.7030 0.2181
vn 0.7726 0.3676 -0.5176
vn 0.6955 -0.7001 0.1613
vn 0.3756 -0.9197 -0.1139
vn 0.9069 0.4128 -0.0849
vn -0.8413 0.3111 -0.4420
vn -0.5790 -0.7696 0.2691
vn -0.0696 -0.8716 -0.4853
vn -0.6877 0.3289 -0.6472
vn -0.8173 0.3214 0.4781
vn -0.6981 -0.5527 -0.4553
vn -0.2990 -0.9462 -0.1240
vn -0.9392 0.3427 0.0199
vn -0.4892 0.3186 -0.8119
vn 0.4114 -0.5652 -0.7150
vn 0.1916 -0.9266 -0.3236
vn -0.0320 0.3673 -0.9295
vn 0.4301 0.3506 -0.8319
vn -0.1621 -0.7564 -0.6337
vn 0.3701 -0.8657 -0.3369
vn 0.6182 0.3691 -0.6939
vn -0.3912 0.3452 0.8531
vn 0.5680 -0.4988 0.6547
vn -0.2217 -0.9460 0.2367
vn -0.6298 0.3526 0.6921
vn 0.5057 0.3828 0.7731
vn -0.1737 -0.7158 0.6764
vn 0.2476 -0.9106 0.3309
vn 0.0658 0.3964 0.9157
vn 0.8463 0.3869 0.3662
vn 0.7038 -0.5643 -0.4315
vn 0.4961 -0.8599 0.1198
vn 0.7008 0.4007 0.5902
vn -0.5403 -0.5352 0.6493
vn -0.5409 -0.5567 0.6304
vn -0.5639 -0.5365 0.6278
vn -0.7668 -0.6390 0.0606
vn -0.6269 -0.5684 -0.5328
vn -0.6055 -0.5947 -0.5288
vn -0.6114 -0.5735 -0.5452
vn -0.0292 -0.6103 -0.7916
vn 0.5806 -0.4800 -0.6576
vn 0.5852 -0.5097 -0.6307
vn 0.6072 -0.4770 -0.6354
vn 0.8490 -0.5276 -0.0295
vn 0.6733 -0.4440 0.5912
vn 0.6494 -0.4681 0.5993
vn 0.6434 -0.4372 0.6284
vn 0.0584 -0.5589 0.8272
vn 0.6946 -0.5190 0.4982
vn 0.7958 -0.5989 -0.0898
vn 0.5817 -0.5006 -0.6411
vn 0.5776 -0.5049 -0.6414
vn 0.5772 -0.4996 -0.6460
vn 0.0116 -0.6658 -0.7460
vn -0.5511 -0.6234 -0.5546
vn -0.5424 -0.6301 -0.5556
vn -0.5391 -0.6305 -0.5585
vn -0.6458 -0.7635 0.0008
vn -0.5023 -0.6593 0.5595
vn -0.4810 -0.6645 0.5719
vn -0.4687 -0.6562 0.5914
vn 0.1098 -0.7027 0.7030
vn 0.6534 -0.5363 0.5343
vn 0.6718 -0.5361 0.5111
vn -0.4830 -0.4965 0.7212
vn -0.1670 -0.8158 -0.5536
vn 0.3657 -0.8610 -0.3534
vn -0.5695 -0.5110 0.6439
vn -0.6561 -0.4985 0.5666
vn 0.5998 -0.7861 0.1494
vn 0.7216 -0.6923 -0.0089
vn -0.8159 -0.5718 0.0858
vn -0.7281 -0.5414 -0.4205
vn 0.5468 -0.8307 -0.1051
vn 0.3995 -0.8218 0.4063
vn -0.6444 -0.5711 -0.5085
vn -0.5649 -0.5622 -0.6039
vn -0.1445 -0.7566 0.6377
vn 0.0563 -0.6740 0.7366
vn -0.0673 -0.6339 -0.7705
vn 0.4552 -0.5810 -0.6747
vn 0.1264 -0.8145 0.5662
vn -0.3660 -0.8140 0.4511
vn 0.5388 -0.6041 -0.5871
vn 0.6352 -0.5760 -0.5146
vn -0.5451 -0.8375 -0.0375
vn -0.7081 -0.7018 0.0779
vn 0.7864 -0.6177 -0.0015
vn 0.6701 -0.5374 0.5121
vn -0.5770 -0.7919 0.2000
vn -0.4178 -0.8490 -0.3236
vn 0.5917 -0.5447 0.5943
vn 0.5216 -0.5146 0.6805
vn 0.0344 -0.8594 -0.5101
vn -0.0046 -0.7193 -0.6947
vn 0.0212 -0.5582 0.8294
vn -0.3500 -0.5572 0.7530
vn -0.3248 -0.7723 -0.5459
vn 0.4125 -0.7827 -0.4661
vn -0.5371 -0.5886 0.6042
vn -0.7065 -0.5574 0.4361
vn 0.5810 -0.7768 0.2429
vn 0.6597 -0.7471 -0.0810
vn -0.8162 -0.5769 0.0308
vn -0.7432 -0.5502 -0.3806
vn 0.5648 -0.7394 -0.3665
vn 0.4699 -0.7981 0.3770
vn -0.6075 -0.5728 -0.5504
vn -0.4559 -0.5432 -0.7051
vn -0.2312 -0.7798 0.5818
vn 0.0663 -0.7434 0.6655
vn -0.0373 -0.5672 -0.8227
vn 0.3899 -0.5352 -0.7494
vn 0.3313 -0.7625 0.5557
vn -0.3821 -0.8131 0.4392
vn 0.5440 -0.5585 -0.6262
vn 0.6878 -0.5355 -0.4900
vn -0.5970 -0.7580 -0.2629
vn -0.6630 -0.7486 0.0095
vn 0.8205 -0.5664 -0.0771
vn 0.7618 -0.5419 0.3550
vn -0.5346 -0.7936 0.2907
vn -0.4349 -0.7975 -0.4182
vn 0.6257 -0.5734 0.5288
vn 0.4730 -0.5490 0.6892
vn 0.2802 -0.7526 -0.5959
vn -0.0175 -0.7535 -0.6573
vn 0.0693 -0.5762 0.8143
vn -0.6204 -0.7059 0.3418
vn 0.5971 -0.7958 -0.1005
vn 0.7873 -0.6162 -0.0224
vn -0.6227 -0.7792 0.0715
vn -0.6547 -0.7295 -0.1979
vn 0.5923 -0.7983 0.1087
vn 0.4627 -0.7458 0.4793
vn -0.5308 -0.7281 -0.4337
vn -0.3015 -0.7530 -0.5848
vn 0.0533 -0.7598 0.6479
vn 0.0283 -0.6006 0.7991
vn -0.0644 -0.8193 -0.5697
vn 0.1655 -0.7698 -0.6165
vn -0.0507 -0.7784 0.6257
vn -0.4598 -0.7185 0.5218
vn 0.4354 -0.7630 -0.4777
vn 0.6037 -0.7649 -0.2245
vn -0.6078 -0.7861 0.1128
vn -0.7789 -0.6221 0.0801
vn 0.5827 -0.8127 -0.0024
vn 0.6267 -0.7475 0.2200
vn -0.6343 -0.7718 0.0452
vn -0.5232 -0.7483 -0.4078
vn 0.4901 -0.7264 0.4818
vn 0.2545 -0.7229 0.6424
vn -0.1424 -0.8110 -0.5675
vn -0.0485 -0.6359 -0.7703
vn -0.0023 -0.7721 0.6354
vn -0.2603 -0.7040 0.6608
vn 0.0182 -0.7970 -0.6037
vn 0.4131 -0.7860 -0.4600
vn -0.4817 -0.6856 0.5458
vn -0.5585 -0.8204 -0.1223
vn 0.6270 -0.6997 0.3425
vn 0.6755 -0.4978 0.5440
vn -0.3326 -0.8595 -0.3881
vn -0.0858 -0.7742 -0.6271
vn 0.5309 -0.6759 0.5112
vn 0.0915 -0.7277 0.6798
vn 0.0009 -0.7560 -0.6545
vn 0.0856 -0.7643 -0.6392
vn -0.3463 -0.7315 0.5873
vn -0.5444 -0.5325 0.6481
vn 0.3612 -0.8359 -0.4134
vn 0.6045 -0.7824 -0.1496
vn -0.5467 -0.7173 0.4320
vn -0.6978 -0.7162 0.0009
vn 0.6222 -0.7780 -0.0872
vn 0.6021 -0.7981 -0.0209
vn -0.5944 -0.6563 -0.4647
vn -0.6393 -0.4771 -0.6031
vn 0.3998 -0.8821 0.2491
vn 0.1731 -0.8445 0.5068
vn -0.4319 -0.6806 -0.5918
vn -0.0078 -0.6392 -0.7690
vn 0.0807 -0.8420 0.5333
vn -0.0188 -0.8547 0.5187
vn 0.4611 -0.6322 -0.6227
vn 0.5969 -0.4567 -0.6597
vn -0.2784 -0.9069 0.3164
vn -0.5312 -0.8403 0.1084
vn 0.5464 -0.6483 -0.5302
vn 0.7523 -0.6523 -0.0921
vn -0.5682 -0.8229 -0.0055
vn -0.0065 -1.0000 0.0020
vn -0.4139 -0.7827 0.4649
vn -0.5052 -0.8625 0.0287
vn -0.4645 -0.7831 -0.4135
vn -0.0206 -0.8681 -0.4960
vn 0.4101 -0.7860 -0.4626
vn 0.4871 -0.8729 -0.0269
vn 0.4639 -0.7831 0.4143
vn 0.0391 -0.8666 0.4975
vn -0.9864 0.0124 0.1638
vn -0.9860 0.0025 0.1665
vn -0.8829 0.0046 -0.4696
vn -0.8874 0.0138 -0.4608
vn -0.9856 -0.0074 0.1689
vn -0.9877 -0.0078 0.1560
vn -0.7761 -0.0092 -0.6306
vn -0.8761 -0.0094 -0.4821
vn 0.8913 0.0099 0.4533
vn 0.8871 0.0286 0.4607
vn 0.4040 0.0269 0.9144
vn 0.4314 0.0072 0.9021
vn 0.8890 0.0470 0.4555
vn 0.8915 0.0479 0.4505
vn 0.4949 0.0491 0.8676
vn 0.4103 0.0472 0.9107
vn -0.4310 0.0114 -0.9023
vn -0.4073 0.0029 -0.9133
vn 0.1853 0.0159 -0.9825
vn 0.1435 0.0160 -0.9895
vn -0.3749 -0.0051 -0.9271
vn -0.3546 -0.0047 -0.9350
vn 0.1849 0.0163 -0.9826
vn 0.2265 0.0177 -0.9739
vn -0.2126 0.0053 0.9771
vn -0.2610 0.0160 0.9652
vn -0.7392 0.0104 0.6734
vn -0.7258 0.0127 0.6878
vn -0.2452 0.0268 0.9691
vn -0.2100 0.0288 0.9773
vn -0.7465 0.0097 0.6653
vn -0.7358 0.0099 0.6771
vn 0.6686 0.0166 -0.7434
vn 0.6990 0.0259 -0.7146
vn 0.9873 0.0337 -0.1554
vn 0.9833 0.0171 -0.1814
vn 0.7326 0.0353 -0.6797
vn 0.7459 0.0359 -0.6651
vn 0.9826 0.0509 -0.1784
vn 0.9885 0.0507 -0.1425
vn 0.6546 0.0160 -0.7558
vn 0.9806 0.0161 -0.1951
vn 0.1296 0.0156 -0.9915
vn -0.1736 0.0045 0.9848
vn -0.7094 0.0124 0.7047
vn 0.4586 0.0060 0.8886
vn -0.4403 0.0115 -0.8978
vn -0.8877 0.0139 -0.4601
vn 0.8945 0.0088 0.4471
vn -0.9865 0.0125 0.1631
vn 0.0304 -0.6832 -0.7296
vn 0.4642 -0.7210 -0.5145
vn -0.0635 -0.4387 -0.8964
vn -0.1265 -0.6731 -0.7286
vn -0.5083 -0.7293 -0.4579
vn -0.7363 -0.6746 -0.0531
vn -0.9059 -0.4213 0.0427
vn -0.7260 -0.6743 0.1354
vn -0.4534 -0.7286 0.5134
vn -0.0369 -0.6739 0.7379
vn 0.0416 -0.4429 0.8956
vn 0.1150 -0.6880 0.7165
vn 0.5202 -0.7243 0.4525
vn 0.7300 -0.6833 0.0138
vn 0.8879 -0.4563 -0.0588
vn 0.7255 -0.6808 -0.1006
vn 0.2720 -0.6838 -0.6771
vn -0.2972 -0.8761 -0.3798
vn 0.0181 -0.5945 -0.8039
vn -0.2124 -0.7288 -0.6510
vn 0.4304 -0.7931 -0.4310
vn 0.7139 -0.6838 0.1509
vn 0.8546 -0.5130 -0.0800
vn 0.7267 -0.6198 -0.2961
vn 0.4854 -0.8188 0.3065
vn -0.0807 -0.7580 0.6472
vn 0.1168 -0.6056 0.7872
vn 0.3111 -0.7289 0.6099
vn -0.2573 -0.9001 0.3515
vn -0.6074 -0.7671 -0.2066
vn -0.7291 -0.6840 0.0228
vn -0.5261 -0.8188 0.2299
vn -0.1501 0.9887 -0.0058
usemtl None
s 1
f 500/1/1 382/2/2 3/3/3 317/4/4
f 499/5/5 367/6/6 7/7/7 311/8/8
f 498/9/9 296/10/10 6/11/11 167/12/12
f 497/13/13 209/14/14 11/15/15 274/16/16
f 496/17/17 355/18/18 2/19/19 181/20/20
f 495/21/21 263/22/22 10/23/23 156/24/24
f 494/25/25 155/26/26 14/27/27 161/28/28
f 493/29/29 281/30/30 16/31/31 297/32/32
f 492/33/33 314/34/34 19/35/35 233/36/36
f 491/37/37 295/38/38 23/39/39 224/40/40
f 490/41/41 214/42/42 22/43/43 364/44/44
f 489/45/45 149/46/46 27/47/47 245/48/48
f 488/49/49 280/50/50 18/51/51 378/52/52
f 487/53/53 234/54/54 26/55/55 133/56/56
f 486/57/57 132/58/58 30/59/59 137/60/60
f 485/61/61 202/62/62 32/63/63 269/64/64
f 484/65/65 229/66/66 35/67/67 305/68/68
f 483/69/69 213/70/70 39/71/71 300/72/72
f 482/73/73 260/74/74 38/75/75 162/76/76
f 481/77/77 338/78/78 43/79/79 262/80/80
f 480/81/81 201/82/82 34/83/83 174/84/84
f 479/85/85 256/86/86 42/87/87 146/88/88
f 478/89/89 138/90/90 46/91/91 152/92/92
f 477/93/93 271/94/94 48/95/95 283/96/96
f 476/97/97 255/98/98 51/99/99 328/100/100
f 475/101/101 236/102/102 55/103/103 322/104/104
f 474/105/105 292/106/106 54/107/107 177/108/108
f 473/109/109 362/110/110 59/111/111 341/112/112
f 472/113/113 223/114/114 50/115/115 197/116/116
f 471/117/117 334/118/118 58/119/119 206/120/120
f 470/121/121 200/122/122 62/123/123 216/124/124
f 469/125/125 299/126/126 64/127/127 356/128/128
f 468/129/129 368/130/130 67/131/131 285/132/132
f 467/133/133 340/134/134 71/135/135 275/136/136
f 466/137/137 248/138/138 70/139/139 153/140/140
f 465/141/141 176/142/142 75/143/143 243/144/144
f 464/145/145 343/146/146 66/147/147 166/148/148
f 463/149/149 232/150/150 74/151/151 136/152/152
f 462/153/153 135/154/154 78/155/155 139/156/156
f 461/157/157 249/158/158 80/159/159 264/160/160
f 81/161/161 361/162/162 160/163/163
f 84/164/164 346/165/165 145/166/166
f 86/167/167 196/168/168 187/169/169
f 85/170/170 148/171/171 141/172/172
f 87/173/173 266/174/174 147/175/175
f 88/176/176 342/177/177 337/178/178
f 89/179/179 144/180/180 169/181/181
f 83/182/182 298/183/183 272/184/184
f 460/185/185 316/186/186 90/187/187 312/188/188
f 459/189/189 321/190/190 92/191/191 173/192/192
f 458/193/193 359/194/194 94/195/195 304/196/196
f 457/197/197 195/198/198 96/199/199 354/200/200
f 456/201/201 226/202/202 97/203/203 279/204/204
f 455/205/205 240/206/206 91/207/207 220/208/208
f 454/209/209 143/210/210 93/211/211 376/212/212
f 453/213/213 370/214/214 95/215/215 310/216/216
f 452/217/217 218/218/218 100/219/219 259/220/220
f 451/221/221 186/222/222 104/223/223 239/224/224
f 450/225/225 222/226/226 103/227/227 384/228/228
f 449/229/229 282/230/230 108/231/231 244/232/232
f 448/233/233 188/234/234 99/235/235 154/236/236
f 447/237/237 212/238/238 107/239/239 377/240/240
f 446/241/241 375/242/242 111/243/243 372/244/244
f 445/245/245 238/246/246 113/247/247 309/248/248
f 444/249/249 279/250/204 97/251/203 134/252/250
f 443/253/251 310/254/216 95/255/215 383/256/252
f 442/257/253 304/258/196 94/259/195 165/260/254
f 441/261/255 376/262/212 93/263/211 172/264/256
f 440/265/257 173/266/192 92/267/191 369/268/258
f 439/269/259 220/270/208 91/271/207 258/272/260
f 438/273/261 312/274/188 90/275/187 332/276/262
f 437/277/263 354/278/200 96/279/199 231/280/264
f 436/281/265 186/282/222 103/283/227 365/284/266
f 435/285/267 222/286/226 107/287/239 350/288/268
f 434/289/269 212/290/238 111/291/243 353/292/270
f 433/293/271 375/294/242 113/295/247 208/296/272
f 432/297/273 238/298/246 100/299/219 324/300/274
f 431/301/275 218/302/218 99/303/235 381/304/276
f 430/305/277 188/306/234 108/307/231 257/308/278
f 429/309/279 282/310/230 104/311/223 278/312/280
f 428/313/281 227/314/282 98/315/283 185/316/284
f 427/317/285 261/318/286 101/319/287 203/320/288
f 426/321/289 184/322/290 112/323/291 386/324/292
f 425/325/293 306/326/294 110/327/295 252/328/296
f 424/329/297 159/330/298 106/331/299 247/332/300
f 423/333/301 168/334/302 102/335/303 270/336/304
f 422/337/305 253/338/306 105/339/307 199/340/308
f 421/341/309 363/342/310 109/343/311 171/344/312
f 420/345/313 302/346/314 49/347/315 327/348/316
f 419/349/317 331/350/318 52/351/319 237/352/320
f 418/353/321 215/354/322 63/355/323 193/356/324
f 417/357/325 151/358/326 61/359/327 329/360/328
f 416/361/329 265/362/330 57/363/331 308/364/332
f 415/365/333 228/366/334 53/367/335 294/368/336
f 414/369/337 313/370/338 56/371/339 230/372/340
f 413/373/341 164/374/342 60/375/343 250/376/344
f 412/377/345 307/378/346 36/379/347 348/380/348
f 411/381/349 190/382/350 47/383/351 374/384/352
f 410/385/353 344/386/354 45/387/355 380/388/356
f 409/389/357 189/390/358 41/391/359 358/392/360
f 408/393/361 204/394/362 37/395/363 373/396/364
f 407/397/365 286/398/366 40/399/367 326/400/368
f 406/401/369 142/402/370 44/403/371 183/404/372
f 405/405/373 273/406/374 33/407/375 315/408/376
f 404/409/377 235/410/378 20/411/379 131/412/380
f 403/413/381 268/414/382 31/415/383 157/416/384
f 402/417/385 191/418/386 29/419/387 198/420/388
f 401/421/389 320/422/390 25/423/391 175/424/392
f 400/425/393 287/426/394 21/427/395 192/428/396
f 399/429/397 219/430/398 24/431/399 371/432/400
f 398/433/401 351/434/402 28/435/403 221/436/404
f 397/437/405 205/438/406 17/439/407 336/440/408
f 114/441/409 182/442/410 150/443/411
f 114/444/409 150/445/411 323/446/412
f 114/447/409 323/448/412 179/449/413
f 114/450/409 179/451/413 290/452/414
f 114/453/409 290/454/414 284/455/415
f 114/456/409 284/457/415 277/458/416
f 114/459/409 277/460/416 325/461/417
f 114/462/409 325/463/417 182/464/410
f 396/465/418 289/466/419 117/467/420 352/468/421
f 395/469/422 207/470/423 120/471/424 211/472/425
f 394/473/426 180/474/427 123/475/428 251/476/429
f 393/477/430 385/478/431 126/479/432 357/480/433
f 392/481/434 276/482/435 127/483/436 246/484/437
f 391/485/438 293/486/439 129/487/440 178/488/441
f 390/489/442 130/490/443 116/491/444 241/492/445
f 389/493/446 339/494/447 119/495/448 140/496/449
f 388/497/450 163/498/451 122/499/452 379/500/453
f 387/501/454 170/502/455 125/503/456 303/504/457
f 163/498/451 387/501/454 303/504/457 122/499/452
f 127/483/436 178/488/441 387/501/454 163/498/451
f 178/488/441 129/487/440 170/502/455 387/501/454
f 225/505/458 388/497/450 379/500/453 121/506/459
f 128/507/460 246/484/437 388/497/450 225/505/458
f 246/484/437 127/483/436 163/498/451 388/497/450
f 130/490/443 389/493/446 140/496/449 116/491/444
f 123/508/428 357/509/433 389/493/446 130/490/443
f 357/509/433 126/510/432 339/494/447 389/493/446
f 210/511/461 390/489/442 241/492/445 115/512/462
f 124/513/463 251/514/429 390/489/442 210/511/461
f 251/514/429 123/508/428 130/490/443 390/489/442
f 276/482/435 391/485/438 178/488/441 127/483/436
f 117/467/420 211/472/425 391/485/438 276/482/435
f 211/472/425 120/471/424 293/486/439 391/485/438
f 335/515/464 392/481/434 246/484/437 128/507/460
f 118/516/465 352/468/421 392/481/434 335/515/464
f 352/468/421 117/467/420 276/482/435 392/481/434
f 180/474/427 393/477/430 357/480/433 123/475/428
f 122/499/452 303/504/457 393/477/430 180/474/427
f 303/504/457 125/503/456 385/478/431 393/477/430
f 242/517/466 394/473/426 251/476/429 124/518/463
f 121/506/459 379/500/453 394/473/426 242/517/466
f 379/500/453 122/499/452 180/474/427 394/473/426
f 289/466/419 395/469/422 211/472/425 117/467/420
f 116/491/444 140/496/449 395/469/422 289/466/419
f 140/496/449 119/495/448 207/470/423 395/469/422
f 349/519/467 396/465/418 352/468/421 118/516/465
f 115/512/462 241/492/445 396/465/418 349/519/467
f 241/492/445 116/491/444 289/466/419 396/465/418
f 182/464/410 301/520/468 8/521/469
f 182/464/410 325/463/417 301/520/468
f 325/463/417 5/522/470 301/520/468
f 325/461/417 360/523/471 5/524/470
f 325/461/417 277/460/416 360/523/471
f 277/460/416 9/525/472 360/523/471
f 277/458/416 345/526/473 9/527/472
f 277/458/416 284/457/415 345/526/473
f 284/457/415 13/528/474 345/526/473
f 284/455/415 217/529/475 13/530/474
f 284/455/415 290/454/414 217/529/475
f 290/454/414 15/531/476 217/529/475
f 290/452/414 347/532/477 15/533/476
f 290/452/414 179/451/413 347/532/477
f 179/451/413 4/534/478 347/532/477
f 179/449/413 319/535/479 4/536/478
f 179/449/413 323/448/412 319/535/479
f 323/448/412 1/537/480 319/535/479
f 323/446/412 288/538/481 1/539/480
f 323/446/412 150/445/411 288/538/481
f 150/445/411 12/540/482 288/538/481
f 150/443/411 158/541/483 12/542/482
f 150/443/411 182/442/410 158/541/483
f 182/442/410 8/543/469 158/541/483
f 209/544/14 397/437/405 336/440/408 11/545/15
f 7/546/7 221/547/404 397/437/405 209/544/14
f 221/547/404 28/548/403 205/438/406 397/437/405
f 367/549/6 398/433/401 221/436/404 7/550/7
f 6/551/11 371/552/400 398/433/401 367/549/6
f 371/552/400 24/553/399 351/434/402 398/433/401
f 296/554/10 399/429/397 371/432/400 6/555/11
f 10/556/23 192/557/396 399/429/397 296/554/10
f 192/557/396 21/558/395 219/430/398 399/429/397
f 263/559/22 400/425/393 192/428/396 10/560/23
f 14/561/27 175/562/392 400/425/393 263/559/22
f 175/562/392 25/563/391 287/426/394 400/425/393
f 155/564/26 401/421/389 175/424/392 14/565/27
f 16/566/31 198/567/388 401/421/389 155/564/26
f 198/567/388 29/568/387 320/422/390 401/421/389
f 281/569/30 402/417/385 198/420/388 16/570/31
f 3/571/3 157/572/384 402/417/385 281/569/30
f 157/572/384 31/573/383 191/418/386 402/417/385
f 382/574/2 403/413/381 157/416/384 3/575/3
f 2/576/19 131/577/380 403/413/381 382/574/2
f 131/577/380 20/578/379 268/414/382 403/413/381
f 355/579/18 404/409/377 131/412/380 2/580/19
f 11/581/15 336/582/408 404/409/377 355/579/18
f 336/582/408 17/583/407 235/410/378 404/409/377
f 149/584/46 405/405/373 315/408/376 27/585/47
f 23/586/39 183/587/372 405/405/373 149/584/46
f 183/587/372 44/588/371 273/406/374 405/405/373
f 295/589/38 406/401/369 183/404/372 23/590/39
f 22/591/43 326/592/368 406/401/369 295/589/38
f 326/592/368 40/593/367 142/402/370 406/401/369
f 214/594/42 407/397/365 326/400/368 22/595/43
f 26/596/55 373/597/364 407/397/365 214/594/42
f 373/597/364 37/598/363 286/398/366 407/397/365
f 234/599/54 408/393/361 373/396/364 26/600/55
f 30/601/59 358/602/360 408/393/361 234/599/54
f 358/602/360 41/603/359 204/394/362 408/393/361
f 132/604/58 409/389/357 358/392/360 30/605/59
f 32/606/63 380/607/356 409/389/357 132/604/58
f 380/607/356 45/608/355 189/390/358 409/389/357
f 202/609/62 410/385/353 380/388/356 32/610/63
f 19/611/35 374/612/352 410/385/353 202/609/62
f 374/612/352 47/613/351 344/386/354 410/385/353
f 314/614/34 411/381/349 374/384/352 19/615/35
f 18/616/51 348/617/348 411/381/349 314/614/34
f 348/617/348 36/618/347 190/382/350 411/381/349
f 280/619/50 412/377/345 348/380/348 18/620/51
f 27/621/47 315/622/376 412/377/345 280/619/50
f 315/622/376 33/623/375 307/378/346 412/377/345
f 338/624/78 413/373/341 250/376/344 43/625/79
f 39/626/71 230/627/340 413/373/341 338/624/78
f 230/627/340 56/628/339 164/374/342 413/373/341
f 213/629/70 414/369/337 230/372/340 39/630/71
f 38/631/75 294/632/336 414/369/337 213/629/70
f 294/632/336 53/633/335 313/370/338 414/369/337
f 260/634/74 415/365/333 294/368/336 38/635/75
f 42/636/87 308/637/332 415/365/333 260/634/74
f 308/637/332 57/638/331 228/366/334 415/365/333
f 256/639/86 416/361/329 308/364/332 42/640/87
f 46/641/91 329/642/328 416/361/329 256/639/86
f 329/642/328 61/643/327 265/362/330 416/361/329
f 138/644/90 417/357/325 329/360/328 46/645/91
f 48/646/95 193/647/324 417/357/325 138/644/90
f 193/647/324 63/648/323 151/358/326 417/357/325
f 271/649/94 418/353/321 193/356/324 48/650/95
f 35/651/67 237/652/320 418/353/321 271/649/94
f 237/652/320 52/653/319 215/354/322 418/353/321
f 229/654/66 419/349/317 237/352/320 35/655/67
f 34/656/83 327/657/316 419/349/317 229/654/66
f 327/657/316 49/658/315 331/350/318 419/349/317
f 201/659/82 420/345/313 327/348/316 34/660/83
f 43/661/79 250/662/344 420/345/313 201/659/82
f 250/662/344 60/663/343 302/346/314 420/345/313
f 362/664/110 421/341/309 171/344/312 59/665/111
f 55/666/103 199/667/308 421/341/309 362/664/110
f 199/667/308 105/668/307 363/342/310 421/341/309
f 236/669/102 422/337/305 199/340/308 55/670/103
f 54/671/107 270/672/304 422/337/305 236/669/102
f 270/672/304 102/673/303 253/338/306 422/337/305
f 292/674/106 423/333/301 270/336/304 54/675/107
f 58/676/119 247/677/300 423/333/301 292/674/106
f 247/677/300 106/678/299 168/334/302 423/333/301
f 334/679/118 424/329/297 247/332/300 58/680/119
f 62/681/123 252/682/296 424/329/297 334/679/118
f 252/682/296 110/683/295 159/330/298 424/329/297
f 200/684/122 425/325/293 252/328/296 62/685/123
f 64/686/127 386/687/292 425/325/293 200/684/122
f 386/687/292 112/688/291 306/326/294 425/325/293
f 299/689/126 426/321/289 386/324/292 64/690/127
f 51/691/99 203/692/288 426/321/289 299/689/126
f 203/692/288 101/693/287 184/322/290 426/321/289
f 255/694/98 427/317/285 203/320/288 51/695/99
f 50/696/115 185/697/284 427/317/285 255/694/98
f 185/697/284 98/698/283 261/318/286 427/317/285
f 223/699/114 428/313/281 185/316/284 50/700/115
f 59/701/111 171/702/312 428/313/281 223/699/114
f 171/702/312 109/703/311 227/314/282 428/313/281
f 366/704/484 429/309/279 278/312/280 72/705/485
f 76/706/486 257/707/278 429/309/279 366/704/484
f 257/707/278 108/708/231 282/310/230 429/309/279
f 254/709/487 430/305/277 257/308/278 76/710/486
f 65/711/488 381/712/276 430/305/277 254/709/487
f 381/712/276 99/713/235 188/306/234 430/305/277
f 291/714/489 431/301/275 381/304/276 65/715/488
f 68/716/490 324/717/274 431/301/275 291/714/489
f 324/717/274 100/718/219 218/302/218 431/301/275
f 330/719/491 432/297/273 324/300/274 68/720/490
f 79/721/492 208/722/272 432/297/273 330/719/491
f 208/722/272 113/723/247 238/298/246 432/297/273
f 194/724/493 433/293/271 208/296/272 79/725/492
f 77/726/494 353/727/270 433/293/271 194/724/493
f 353/727/270 111/728/243 375/294/242 433/293/271
f 318/729/495 434/289/269 353/292/270 77/730/494
f 73/731/496 350/732/268 434/289/269 318/729/495
f 350/732/268 107/733/239 212/290/238 434/289/269
f 333/734/497 435/285/267 350/288/268 73/735/496
f 69/736/498 365/737/266 435/285/267 333/734/497
f 365/737/266 103/738/227 222/286/226 435/285/267
f 267/739/499 436/281/265 365/284/266 69/740/498
f 72/741/485 278/742/280 436/281/265 267/739/499
f 278/742/280 104/743/223 186/282/222 436/281/265
f 176/744/142 437/277/263 231/280/264 75/745/143
f 71/746/135 332/747/262 437/277/263 176/744/142
f 332/747/262 90/748/187 354/278/200 437/277/263
f 340/749/134 438/273/261 332/276/262 71/750/135
f 70/751/139 258/752/260 438/273/261 340/749/134
f 258/752/260 91/753/207 312/274/188 438/273/261
f 248/754/138 439/269/259 258/272/260 70/755/139
f 74/756/151 369/757/258 439/269/259 248/754/138
f 369/757/258 92/758/191 220/270/208 439/269/259
f 232/759/150 440/265/257 369/268/258 74/760/151
f 78/761/155 172/762/256 440/265/257 232/759/150
f 172/762/256 93/763/211 173/266/192 440/265/257
f 135/764/154 441/261/255 172/264/256 78/765/155
f 80/766/159 165/767/254 441/261/255 135/764/154
f 165/767/254 94/768/195 376/262/212 441/261/255
f 249/769/158 442/257/253 165/260/254 80/770/159
f 67/771/131 383/772/252 442/257/253 249/769/158
f 383/772/252 95/773/215 304/258/196 442/257/253
f 368/774/130 443/253/251 383/256/252 67/775/131
f 66/776/147 134/777/250 443/253/251 368/774/130
f 134/777/250 97/778/203 310/254/216 443/253/251
f 343/779/146 444/249/249 134/252/250 66/780/147
f 75/781/143 231/782/264 444/249/249 343/779/146
f 231/782/264 96/783/199 279/250/204 444/249/249
f 184/784/290 445/245/245 309/248/248 112/785/291
f 101/786/287 259/220/220 445/245/245 184/784/290
f 259/220/220 100/219/219 238/246/246 445/245/245
f 306/787/294 446/241/241 372/244/244 110/788/295
f 112/785/291 309/248/248 446/241/241 306/787/294
f 309/248/248 113/247/247 375/242/242 446/241/241
f 159/789/298 447/237/237 377/240/240 106/790/299
f 110/788/295 372/244/244 447/237/237 159/789/298
f 372/244/244 111/243/243 212/238/238 447/237/237
f 227/791/282 448/233/233 154/236/236 98/792/283
f 109/793/311 244/232/232 448/233/233 227/791/282
f 244/232/232 108/231/231 188/234/234 448/233/233
f 363/794/310 449/229/229 244/232/232 109/793/311
f 105/795/307 239/224/224 449/229/229 363/794/310
f 239/224/224 104/223/223 282/230/230 449/229/229
f 168/796/302 450/225/225 384/228/228 102/797/303
f 106/790/299 377/240/240 450/225/225 168/796/302
f 377/240/240 107/239/239 222/226/226 450/225/225
f 253/798/306 451/221/221 239/224/224 105/795/307
f 102/797/303 384/228/228 451/221/221 253/798/306
f 384/228/228 103/227/227 186/222/222 451/221/221
f 261/799/286 452/217/217 259/220/220 101/786/287
f 98/792/283 154/236/236 452/217/217 261/799/286
f 154/236/236 99/235/235 218/218/218 452/217/217
f 226/202/202 453/213/213 310/216/216 97/203/203
f 81/161/161 160/163/163 453/213/213 226/202/202
f 160/163/163 83/182/182 370/214/214 453/213/213
f 359/194/194 454/209/209 376/212/212 94/195/195
f 89/179/179 169/181/181 454/209/209 359/194/194
f 169/181/181 88/176/176 143/210/210 454/209/209
f 321/190/190 455/205/205 220/208/208 92/191/191
f 86/167/167 187/169/169 455/205/205 321/190/190
f 187/169/169 84/164/164 240/206/206 455/205/205
f 195/198/198 456/201/201 279/204/204 96/199/199
f 87/173/173 147/175/175 456/201/201 195/198/198
f 147/175/175 81/161/161 226/202/202 456/201/201
f 316/186/186 457/197/197 354/200/200 90/187/187
f 85/170/170 141/172/172 457/197/197 316/186/186
f 141/172/172 87/173/173 195/198/198 457/197/197
f 370/214/214 458/193/193 304/196/196 95/215/215
f 83/182/182 272/184/184 458/193/193 370/214/214
f 272/184/184 89/179/179 359/194/194 458/193/193
f 143/210/210 459/189/189 173/192/192 93/211/211
f 88/176/176 337/178/178 459/189/189 143/210/210
f 337/178/178 86/167/167 321/190/190 459/189/189
f 240/206/206 460/185/185 312/188/188 91/207/207
f 84/164/164 145/166/166 460/185/185 240/206/206
f 145/166/166 85/170/170 316/186/186 460/185/185
f 272/184/184 144/800/180 89/179/179
f 272/184/184 298/183/183 144/800/180
f 298/183/183 82/801/500 144/800/180
f 169/181/181 342/802/177 88/176/176
f 169/181/181 144/180/180 342/802/177
f 144/180/180 82/803/500 342/802/177
f 337/178/178 196/804/168 86/167/167
f 337/178/178 342/177/177 196/804/168
f 342/177/177 82/805/500 196/804/168
f 147/175/175 361/806/162 81/161/161
f 147/175/175 266/174/174 361/806/162
f 266/174/174 82/807/500 361/806/162
f 141/172/172 266/808/174 87/173/173
f 141/172/172 148/171/171 266/808/174
f 148/171/171 82/809/500 266/808/174
f 187/169/169 346/810/165 84/164/164
f 187/169/169 196/168/168 346/810/165
f 196/168/168 82/811/500 346/810/165
f 145/166/166 148/812/171 85/170/170
f 145/166/166 346/165/165 148/812/171
f 346/165/165 82/813/500 148/812/171
f 160/163/163 298/814/183 83/182/182
f 160/163/163 361/162/162 298/814/183
f 361/162/162 82/815/500 298/814/183
f 330/816/491 461/157/157 264/160/160 79/817/492
f 68/818/490 285/132/132 461/157/157 330/816/491
f 285/132/132 67/131/131 249/158/158 461/157/157
f 194/819/493 462/153/153 139/156/156 77/820/494
f 79/817/492 264/160/160 462/153/153 194/819/493
f 264/160/160 80/159/159 135/154/154 462/153/153
f 318/821/495 463/149/149 136/152/152 73/822/496
f 77/820/494 139/156/156 463/149/149 318/821/495
f 139/156/156 78/155/155 232/150/150 463/149/149
f 254/823/487 464/145/145 166/148/148 65/824/488
f 76/825/486 243/144/144 464/145/145 254/823/487
f 243/144/144 75/143/143 343/146/146 464/145/145
f 366/826/484 465/141/141 243/144/144 76/825/486
f 72/827/485 275/136/136 465/141/141 366/826/484
f 275/136/136 71/135/135 176/142/142 465/141/141
f 333/828/497 466/137/137 153/140/140 69/829/498
f 73/822/496 136/152/152 466/137/137 333/828/497
f 136/152/152 74/151/151 248/138/138 466/137/137
f 267/830/499 467/133/133 275/136/136 72/827/485
f 69/829/498 153/140/140 467/133/133 267/830/499
f 153/140/140 70/139/139 340/134/134 467/133/133
f 291/831/489 468/129/129 285/132/132 68/818/490
f 65/824/488 166/148/148 468/129/129 291/831/489
f 166/148/148 66/147/147 368/130/130 468/129/129
f 215/832/322 469/125/125 356/128/128 63/833/323
f 52/834/319 328/100/100 469/125/125 215/832/322
f 328/100/100 51/99/99 299/126/126 469/125/125
f 151/835/326 470/121/121 216/124/124 61/836/327
f 63/833/323 356/128/128 470/121/121 151/835/326
f 356/128/128 64/127/127 200/122/122 470/121/121
f 265/837/330 471/117/117 206/120/120 57/838/331
f 61/836/327 216/124/124 471/117/117 265/837/330
f 216/124/124 62/123/123 334/118/118 471/117/117
f 302/839/314 472/113/113 197/116/116 49/840/315
f 60/841/343 341/112/112 472/113/113 302/839/314
f 341/112/112 59/111/111 223/114/114 472/113/113
f 164/842/342 473/109/109 341/112/112 60/841/343
f 56/843/339 322/104/104 473/109/109 164/842/342
f 322/104/104 55/103/103 362/110/110 473/109/109
f 228/844/334 474/105/105 177/108/108 53/845/335
f 57/838/331 206/120/120 474/105/105 228/844/334
f 206/120/120 58/119/119 292/106/106 474/105/105
f 313/846/338 475/101/101 322/104/104 56/843/339
f 53/845/335 177/108/108 475/101/101 313/846/338
f 177/108/108 54/107/107 236/102/102 475/101/101
f 331/847/318 476/97/97 328/100/100 52/834/319
f 49/840/315 197/116/116 476/97/97 331/847/318
f 197/116/116 50/115/115 255/98/98 476/97/97
f 190/848/350 477/93/93 283/96/96 47/849/351
f 36/850/347 305/68/68 477/93/93 190/848/350
f 305/68/68 35/67/67 271/94/94 477/93/93
f 344/851/354 478/89/89 152/92/92 45/852/355
f 47/849/351 283/96/96 478/89/89 344/851/354
f 283/96/96 48/95/95 138/90/90 478/89/89
f 189/853/358 479/85/85 146/88/88 41/854/359
f 45/852/355 152/92/92 479/85/85 189/853/358
f 152/92/92 46/91/91 256/86/86 479/85/85
f 273/855/374 480/81/81 174/84/84 33/856/375
f 44/857/371 262/80/80 480/81/81 273/855/374
f 262/80/80 43/79/79 201/82/82 480/81/81
f 142/858/370 481/77/77 262/80/80 44/857/371
f 40/859/367 300/72/72 481/77/77 142/858/370
f 300/72/72 39/71/71 338/78/78 481/77/77
f 204/860/362 482/73/73 162/76/76 37/861/363
f 41/854/359 146/88/88 482/73/73 204/860/362
f 146/88/88 42/87/87 260/74/74 482/73/73
f 286/862/366 483/69/69 300/72/72 40/859/367
f 37/861/363 162/76/76 483/69/69 286/862/366
f 162/76/76 38/75/75 213/70/70 483/69/69
f 307/863/346 484/65/65 305/68/68 36/850/347
f 33/856/375 174/84/84 484/65/65 307/863/346
f 174/84/84 34/83/83 229/66/66 484/65/65
f 268/864/382 485/61/61 269/64/64 31/865/383
f 20/866/379 233/36/36 485/61/61 268/864/382
f 233/36/36 19/35/35 202/62/62 485/61/61
f 191/867/386 486/57/57 137/60/60 29/868/387
f 31/865/383 269/64/64 486/57/57 191/867/386
f 269/64/64 32/63/63 132/58/58 486/57/57
f 320/869/390 487/53/53 133/56/56 25/870/391
f 29/868/387 137/60/60 487/53/53 320/869/390
f 137/60/60 30/59/59 234/54/54 487/53/53
f 205/871/406 488/49/49 378/52/52 17/872/407
f 28/873/403 245/48/48 488/49/49 205/871/406
f 245/48/48 27/47/47 280/50/50 488/49/49
f 351/874/402 489/45/45 245/48/48 28/873/403
f 24/875/399 224/40/40 489/45/45 351/874/402
f 224/40/40 23/39/39 149/46/46 489/45/45
f 287/876/394 490/41/41 364/44/44 21/877/395
f 25/870/391 133/56/56 490/41/41 287/876/394
f 133/56/56 26/55/55 214/42/42 490/41/41
f 219/878/398 491/37/37 224/40/40 24/875/399
f 21/877/395 364/44/44 491/37/37 219/878/398
f 364/44/44 22/43/43 295/38/38 491/37/37
f 235/879/378 492/33/33 233/36/36 20/866/379
f 17/872/407 378/52/52 492/33/33 235/879/378
f 378/52/52 18/51/51 314/34/34 492/33/33
f 347/880/477 493/29/29 297/32/32 15/881/476
f 4/882/478 317/4/4 493/29/29 347/880/477
f 317/4/4 3/3/3 281/30/30 493/29/29
f 217/883/475 494/25/25 161/28/28 13/884/474
f 15/881/476 297/32/32 494/25/25 217/883/475
f 297/32/32 16/31/31 155/26/26 494/25/25
f 345/885/473 495/21/21 156/24/24 9/886/472
f 13/884/474 161/28/28 495/21/21 345/885/473
f 161/28/28 14/27/27 263/22/22 495/21/21
f 288/887/481 496/17/17 181/20/20 1/888/480
f 12/889/482 274/16/16 496/17/17 288/887/481
f 274/16/16 11/15/15 355/18/18 496/17/17
f 158/890/483 497/13/13 274/16/16 12/889/482
f 8/891/469 311/8/8 497/13/13 158/890/483
f 311/8/8 7/7/7 209/14/14 497/13/13
f 360/892/471 498/9/9 167/12/12 5/893/470
f 9/886/472 156/24/24 498/9/9 360/892/471
f 156/24/24 10/23/23 296/10/10 498/9/9
f 301/894/468 499/5/5 311/8/8 8/891/469
f 5/893/470 167/12/12 499/5/5 301/894/468
f 167/12/12 6/11/11 367/6/6 499/5/5
f 319/895/479 500/1/1 317/4/4 4/882/478
f 1/888/480 181/20/20 500/1/1 319/895/479
f 181/20/20 2/19/19 382/2/2 500/1/1
