# Blender v2.78 (sub 0) OBJ File: ''
# www.blender.org
mtllib Pine_Tree_crk_l_01.mtl
o Pine_Tree_crk_l_01
v 0.017144 2.247803 0.207088
v -0.016446 3.269675 0.185928
v -0.302943 3.169684 0.108680
v -0.294284 2.192057 0.129854
v -0.035444 2.233855 -0.295164
v -0.055413 3.226460 -0.270220
v 0.165455 3.262295 -0.044650
v 0.199458 2.238610 -0.053321
v 0.187594 3.497758 0.378795
v 2.963607 2.517107 1.786818
v 3.155276 2.645670 1.698190
v 0.285279 3.725019 0.204747
v 0.352707 3.269227 0.024315
v 3.083948 2.333667 1.552222
v 3.002192 2.307405 1.697035
v 0.180512 3.228223 0.271235
v 3.209260 2.538468 1.551124
v 0.420910 3.557985 0.016016
v -0.369709 3.988332 -0.416969
v -0.872954 4.274922 -0.449590
v -0.588535 3.929383 -0.072159
v -0.282532 -0.049885 -0.167839
v -0.308276 1.820975 -0.165192
v 0.034034 -0.030879 -0.338731
v 0.292045 -0.030794 -0.054658
v 0.108660 -0.030213 0.269269
v -0.250523 -0.033136 0.192554
v -0.684858 1.869923 2.308012
v 3.263697 2.161948 2.679949
v 3.301772 2.744163 2.791244
v -0.092676 3.714237 2.919214
v 2.112850 2.403357 -1.510385
v 3.955729 2.349481 1.437298
v 3.724088 1.883788 1.725060
v 0.877170 0.941196 -0.823788
v 1.744040 4.406217 -1.417717
v 4.001859 2.929623 1.552431
v 3.432233 1.805024 2.236972
v 0.395360 0.609926 1.124104
v 1.624815 5.507668 0.284727
v 3.825307 3.288614 1.991590
v 0.181042 5.335453 1.713798
v 3.540793 3.207937 2.506985
v 1.424942 0.473667 1.660930
v 5.306708 1.460060 3.099136
v 5.436553 1.690588 3.621443
v 1.449744 1.552612 3.350308
v 3.785771 3.991828 -0.232825
v 6.082345 2.362530 2.634165
v 5.758108 1.929818 2.408959
v 3.112803 2.236096 -0.928022
v 2.648725 5.281513 0.842613
v 5.662892 2.737248 2.896545
v 5.825606 1.449410 2.778037
v 2.926592 0.667597 0.327349
v 2.303674 4.877960 2.787473
v 5.692500 2.603879 3.477170
v 0.960858 3.519084 3.431563
v 5.211469 2.267495 3.586710
v 4.235262 0.474110 1.049042
v 8.025454 0.808130 3.806665
v 8.067210 0.686418 4.302166
v 3.896968 0.352181 2.819958
v 4.993129 4.420372 2.156801
v 8.362343 1.737659 4.146097
v 8.245371 1.589473 3.689989
v 5.085301 3.665590 0.523607
v 3.683362 4.513477 3.438756
v 7.915994 1.795317 4.399540
v 8.436419 1.073750 3.747972
v 5.328735 1.847325 0.624193
v 3.561319 2.925235 4.352548
v 7.991995 1.350570 4.699967
v 2.839768 1.320669 3.967483
v 7.696157 1.013830 4.516012
v 6.226803 0.209496 2.174044
v 9.244484 0.398721 4.484466
v 9.292393 0.282334 4.967198
v 6.207316 0.222668 3.789910
v 7.119260 3.398629 3.307649
v 9.552002 1.263342 4.817084
v 9.438046 1.119458 4.374583
v 7.022921 3.027876 1.733825
v 5.825611 3.772094 4.337392
v 9.121681 1.309774 5.019486
v 9.639713 0.643526 4.454987
v 7.325513 1.394122 2.077586
v 5.999159 2.229269 5.022370
v 9.203072 0.902414 5.328740
v 5.035539 0.952395 4.780643
v 8.927721 0.588910 5.128858
v 9.868052 -0.233199 4.534243
v 11.549963 0.037586 6.197551
v 11.622314 -0.013683 6.497941
v 9.836308 -0.373304 5.461126
v 10.320680 1.572080 5.152285
v 11.730900 0.494733 6.411642
v 11.629543 0.402195 6.136121
v 10.253190 1.263764 4.300774
v 9.578173 1.660923 5.623818
v 11.445132 0.496592 6.450193
v 11.806704 0.175005 6.236519
v 10.528134 0.342131 4.452241
v 9.622621 0.857216 6.158304
v 11.546110 0.306077 6.672878
v 9.189012 0.163477 5.854109
v 11.365322 0.131940 6.511441
v 11.998365 -0.109193 6.493688
v 12.768860 -0.050838 7.233104
v 11.923328 -0.151320 6.741997
v 12.050865 0.475302 6.633424
v 12.088976 0.333817 6.417009
v 11.856966 0.447207 6.794805
v 12.151567 0.081941 6.420721
v 11.822441 0.242062 6.954614
v 11.766232 0.004163 6.871404
v 11.354454 0.719712 5.450979
v 11.298420 1.022398 5.942636
v 10.867856 0.974978 6.294016
v 10.797522 0.512202 6.653442
v 10.648673 -0.001029 6.457308
v 10.993785 -0.358022 6.175640
v 11.492821 0.152321 5.463960
v 11.136307 -0.256046 5.615015
v 8.270681 0.039520 3.448451
v 10.555467 0.171893 5.441793
v 10.563574 0.108047 5.752519
v 8.027299 -0.178149 4.548417
v 8.810982 2.581044 4.148767
v 10.716743 0.747674 5.649212
v 10.667444 0.631817 5.367994
v 8.845347 2.047819 3.156444
v 8.016293 2.576888 4.982849
v 10.450306 0.752676 5.771378
v 10.792736 0.344025 5.421298
v 8.990044 0.838532 3.100426
v 7.836565 1.566419 5.592594
v 10.486595 0.511817 5.980021
v 7.436815 0.568367 5.268919
v 10.337864 0.292693 5.844719
v 2.443225 2.798489 1.455083
v 2.019902 4.325154 0.812668
v 6.384621 0.984506 4.652020
v 12.100335 -0.018480 6.478066
v 4.144981 4.015838 1.860850
v 1.255938 4.218779 1.650121
v 4.670324 3.567689 3.452220
v 0.215903 -0.030504 0.116418
v 10.025305 1.193692 5.696648
v -0.360501 4.027979 -0.157380
v 11.587999 0.499749 6.431598
v 7.193274 2.227851 1.874345
v 3.611478 3.752152 3.926832
v 3.276847 2.451461 2.746136
v 7.140953 0.512034 2.999220
v 9.267857 0.332429 4.724265
v 6.133867 0.633845 2.425737
v 0.227287 3.556159 0.156428
v 0.045112 3.282057 0.209673
v 2.411872 1.144063 1.942213
v 7.453049 2.555687 4.677875
v 5.449254 2.441826 3.539766
v 5.565957 3.023044 1.572307
v 2.140673 3.692886 -0.122186
v 11.083425 1.013025 6.120809
v 9.756403 1.674680 4.895333
v 11.801985 0.119768 5.909813
v 5.367498 1.567245 3.365199
v 8.586727 1.929891 4.998978
v 10.214720 -0.133742 5.610130
v 11.190022 0.403450 6.667173
v 9.394341 0.504988 6.023690
v 10.937625 0.839947 5.209847
v 1.616330 2.992631 1.111158
v 11.427658 -0.262966 6.441504
v 6.688727 3.080012 3.153128
v 3.474351 3.119044 -0.624537
v 1.736746 2.794742 0.797285
v 8.325649 2.337632 4.059176
v 1.712255 4.962969 -0.560763
v 3.325649 1.279146 1.029158
v 5.011935 0.970465 1.906857
v 8.307237 1.670258 3.914120
v 0.175537 -0.030837 -0.209208
v 9.061228 0.744568 5.235678
v -0.042308 2.779344 -0.285300
v 11.987334 -0.133969 6.637090
v 7.588803 1.570069 5.176722
v 7.622090 1.062256 5.455885
v 10.732727 0.488598 5.390494
v -0.744830 4.110081 -0.272816
v 2.171688 0.520518 0.986093
v -0.182555 3.208963 -0.082621
v -0.181770 2.029635 -0.224694
v 12.145126 0.200822 6.440090
v 10.702361 -0.099997 5.358519
v 3.843405 2.109346 1.572092
v 12.095150 0.395531 6.545340
v 10.559393 0.135038 5.596290
v 12.457457 0.140286 6.837772
v 0.249914 1.072399 -0.054283
v 12.310690 0.093078 7.114285
v 2.480172 5.129873 1.823036
v 1.262519 2.011841 2.493394
v 1.418280 0.972142 2.529196
v -0.005446 2.795306 0.190810
v 10.203744 0.039423 4.478693
v 11.720386 0.289181 6.182910
v 7.839983 1.181074 4.615172
v 8.772601 0.220856 3.973505
v 10.670586 0.336769 4.947628
v 11.359924 -0.106425 5.922596
v 5.782674 2.133664 4.535379
v 5.319070 1.977684 3.613034
v 2.296702 2.567932 -0.203117
v 4.119961 1.514354 3.788644
v 1.838475 4.286047 2.106623
v 9.543018 0.882586 4.407888
v 7.718493 0.298926 3.316778
v 5.925174 2.147530 2.512608
v 11.174645 0.722316 6.378636
v 11.325264 -0.182378 6.346197
v 3.042413 2.371833 -0.045334
v 5.498378 1.573995 4.932980
v 5.229508 2.768964 0.535040
v 3.460898 1.616348 3.492987
v 11.505030 0.550922 5.811695
v 6.888976 2.778607 4.373782
v 9.324900 0.735891 3.778756
v 10.223532 -0.033110 4.994568
v 3.918418 3.118660 1.766195
v 11.492285 0.055835 6.506639
v 5.800615 3.153002 3.919209
v 1.521903 1.660805 -1.164503
v 9.153629 1.573381 3.774960
v 10.675859 0.254956 5.427992
v 10.827425 0.752314 6.483988
v 0.765999 2.257361 1.986555
v 9.191716 1.916323 4.483092
v 1.913564 1.194205 1.684501
v 3.149517 2.434144 1.544599
v 11.274784 0.387443 6.796894
v 8.045491 0.738953 4.052682
v 8.879862 0.432693 5.559790
v 2.114517 3.136968 3.105039
v 7.019293 1.785028 4.861219
v 10.466688 0.635251 5.879253
v 7.090304 3.236209 2.493643
v 3.178185 2.110418 4.198943
v 3.984690 2.641145 1.484329
v 4.338385 4.511209 2.812082
v -0.126712 1.226214 1.733971
v 0.063748 3.397925 0.270028
v 5.678724 2.680613 3.188941
v 2.282268 1.403372 0.433550
v 0.004435 1.064212 -0.325613
v -0.638979 4.138596 -0.439608
v 9.883137 0.595463 4.252777
v 11.700910 0.541211 5.902967
v 11.453453 0.218427 6.595569
v 4.393852 1.053336 1.560348
v 7.758499 2.557034 3.736056
v 10.581390 0.584720 6.419528
v 11.822276 0.116848 6.929243
v -0.178781 2.268726 -0.090020
v 10.583660 0.755107 5.711165
v 12.430403 0.215345 6.946082
v 8.233183 0.935864 3.771002
v 2.923198 4.045127 2.649742
v 12.410411 -0.091811 6.878055
v 1.324660 1.552862 1.287988
v 9.284010 -0.034511 5.147749
v 11.872338 -0.077872 6.824034
v 12.483732 0.009340 6.834861
v 3.348027 0.804205 3.420563
v 3.417776 2.983341 2.658197
v 3.220606 4.290802 1.410163
v 9.777715 0.223467 5.847569
v 8.146597 -0.098533 3.991238
v 11.431368 0.437994 5.445433
v 10.401929 0.808308 4.358902
v 5.876758 2.557966 2.760449
v 0.373560 3.650530 0.110933
v 11.319811 -0.060579 5.529226
v 9.159899 1.111045 5.180115
v 4.065844 0.368888 1.920129
v 4.426604 2.082186 0.728107
v 8.670505 0.047443 4.757349
v 10.504574 1.088200 6.036830
v 0.188219 3.347404 0.344498
v 8.473449 1.021376 3.260353
v 0.926440 5.430144 1.013295
v 11.650173 0.770089 6.265701
v 8.202868 0.577213 5.194110
v 11.679930 0.103826 6.214141
v 1.650231 1.731734 0.214103
v 8.840492 2.337300 3.637754
v 11.171528 0.000570 6.654839
v 3.071435 2.895661 3.506414
v 11.527761 0.747606 6.188649
v 9.503801 -0.120513 5.669653
v 8.344958 1.332741 3.711779
v 1.760110 3.169901 0.973059
v 9.337453 1.294656 4.919870
v 0.246103 3.617114 0.308663
v 5.990400 0.505949 3.565629
v 3.894220 3.463240 0.662999
v 7.895763 1.233699 2.927541
v 11.026048 1.039837 5.781087
v 1.957513 3.402616 -1.463090
v 8.637605 0.420150 3.252628
v 9.752569 1.346122 4.258936
v 6.781660 0.769485 2.102448
v 0.255630 3.243183 0.135312
v 10.295837 1.433500 4.714487
v -0.283462 -0.041511 0.014760
v 11.541937 -0.189051 6.026859
v -0.276624 1.041939 0.169547
v 11.331102 0.730979 6.531375
v 1.616405 4.227947 3.147937
v -0.299378 0.881075 -0.168714
v 1.620914 2.757007 1.003080
v 10.448828 0.196408 5.800962
v 9.852055 -0.324268 4.991521
v 6.470253 3.621380 3.840624
v 8.217384 2.084222 3.038746
v 5.059687 4.075173 1.313430
v 0.094498 2.237350 -0.186740
v 10.468893 0.936839 4.841885
v 3.343139 1.973942 2.464280
v 3.577216 1.832504 1.978704
v 0.118297 2.244334 0.082727
v 10.726677 -0.196300 5.979905
v 0.063126 4.528649 2.337560
v -0.497652 3.970014 -0.254904
v 0.128226 3.264693 0.092998
v 11.867126 0.336166 6.891305
v 9.106894 0.429118 5.051862
v 5.322222 3.580591 2.528776
v 7.919047 2.090576 5.309567
v 0.175816 2.783932 -0.052831
v 6.957202 0.769644 4.957352
v -0.371970 2.786566 2.636298
v -0.011143 3.796650 -0.222683
v 7.648363 2.305404 2.722390
v 11.661963 0.161859 5.867182
v -0.300549 2.727778 0.123422
v 3.517939 2.297900 0.247327
v 4.792729 1.127948 0.805370
v -0.300626 2.010191 -0.028485
v -0.144503 2.219766 0.184641
v 12.364078 -0.112934 7.003090
v 10.715309 0.253607 6.567379
v 9.594700 1.274134 5.905617
v 6.219156 0.180048 2.963761
v 7.878318 0.843428 4.413011
v 5.794580 1.683476 2.585668
v -0.074735 -0.031675 0.248102
v 1.047860 3.310084 2.303772
v 5.906723 3.033075 4.703235
v 7.738160 0.252634 4.376845
v 1.602027 3.230991 2.867954
v -0.238875 3.735303 0.136160
v 3.353072 0.962007 2.373678
v 4.597642 0.919423 2.959233
v 5.268655 1.161276 4.242933
v 7.951735 1.578023 4.556072
v 2.976027 2.408562 1.747438
v 3.683986 3.260179 2.251595
v 8.416363 2.608148 4.573209
v 3.190567 2.600123 1.622524
v 6.895878 1.452383 2.183149
v 10.693989 0.693706 5.506260
v 11.028971 0.064827 6.489125
v 11.681755 0.451757 6.271934
v 3.057016 2.589185 1.748328
v 7.158115 0.460481 4.051615
v 4.951461 3.171578 1.208286
v 7.719867 0.172195 4.923483
v 8.140039 1.774806 4.274570
v 0.213439 3.299656 -0.033640
v 11.331902 0.882566 5.689980
v 9.949759 1.637516 5.394337
v 3.041156 2.310304 1.622500
v -0.131559 -0.040382 -0.269477
v 0.658589 0.759309 0.159763
v 10.068918 0.674595 6.066461
v 9.498199 1.197901 4.592002
v 3.236416 4.677645 0.281371
v 2.730897 4.408616 1.138129
v 5.535312 1.897724 1.522077
v 0.050408 3.241427 -0.165165
v 9.444565 0.516176 4.463722
v 2.858968 3.677256 0.047046
v 0.270465 3.423535 -0.030045
v 12.335340 0.199563 7.035449
v 6.669084 2.624836 2.103549
v 0.065338 1.077125 0.241686
v 0.073484 3.269804 0.073640
v 10.528290 1.144790 5.405572
v 10.409584 0.401577 5.916518
v 5.602375 0.564505 4.312383
v 9.150852 1.045823 5.787997
v 5.565123 1.444688 2.936500
v 8.931961 1.448349 3.103102
v 11.980217 0.451644 6.732323
v 11.586155 0.007865 6.347067
v 10.267125 0.147987 6.183774
v 11.494024 0.403805 6.564429
v 1.180343 2.530743 3.435102
v 1.863312 3.035030 0.803514
v 8.530466 1.229036 5.459185
v 9.228120 1.672472 5.379578
v 11.064817 -0.321370 5.892878
v 10.815783 -0.191045 6.323305
v 3.035453 1.422445 -0.338809
v -0.167230 3.218191 0.144904
v 12.288250 -0.032547 7.075706
v 4.015514 3.735230 3.139409
v 0.394708 3.402639 0.010529
v 11.167934 0.259127 5.339900
v 2.357678 1.860385 3.017447
v 4.384542 2.602293 3.965927
v 9.406956 0.106477 4.442394
v 2.866249 1.180597 1.480506
v 3.431420 1.770177 0.614463
v 3.721559 2.883907 0.427839
v 3.569415 3.902279 1.021912
v 3.074356 4.198984 2.035103
v 2.509173 3.609405 2.901140
v 2.220675 2.495327 3.088596
v 2.372831 1.476954 2.494529
v 5.280351 1.414641 1.694928
v 5.564353 2.467316 1.523285
v 5.456395 3.321953 2.034701
v 4.996857 3.601307 2.998692
v 4.520637 3.104459 3.728577
v 4.238602 2.051378 3.901228
v 4.346565 1.196739 3.389814
v 4.804136 0.917791 2.424816
v 7.783623 1.778542 2.805684
v 7.714727 2.446043 3.213715
v 7.323081 2.689989 4.064847
v 6.950173 2.300554 4.632336
v 6.690425 1.375786 4.775948
v 6.760159 0.707632 4.367332
v 7.150162 0.464080 3.515443
v 7.522231 0.854167 2.948539
v 9.248466 1.157770 3.760744
v 9.180425 1.759537 4.119685
v 8.890891 1.941747 4.745528
v 8.553667 1.591400 5.243006
v 8.357283 0.900010 5.342651
v 8.429009 0.297619 4.985054
v 8.720066 0.115491 4.361046
v 9.053604 0.466461 3.862224
v 10.576692 0.639823 4.883878
v 10.450764 0.142806 4.962047
v 10.219000 -0.096400 5.298835
v 9.990842 0.035082 5.736039
v 9.916256 0.446013 5.967830
v 10.043383 0.943178 5.890609
v 10.277031 1.182214 5.554688
v 10.503990 1.050584 5.116536
v 11.588491 0.357670 5.831715
v 11.519894 0.656666 5.995784
v 11.351339 0.744173 6.285224
v 11.178904 0.568481 6.529481
v 11.104470 0.232858 6.585855
v 11.173628 -0.066182 6.422050
v 11.342489 -0.153612 6.132832
v 11.514366 0.022123 5.888312
v 9.074894 0.185652 5.362349
v 9.006735 0.736350 5.688532
v 9.184916 1.370111 5.596488
v 9.649548 0.340030 4.334904
v 9.826305 0.973718 4.241114
v 9.493692 1.690633 5.141591
v 9.761599 1.523816 4.568537
v 9.344223 0.018908 4.791041
v 11.484724 -0.236236 6.232460
v 11.217567 0.192577 6.734420
v 11.490740 0.760762 6.400276
v 11.675806 -0.040850 5.961050
v 11.757004 0.331918 5.897820
v 11.295712 -0.139430 6.553043
v 11.299088 0.565424 6.671419
v 11.679430 0.663878 6.079463
v 10.491706 -0.033602 6.088831
v 10.417389 0.363384 6.312097
v 10.539335 0.845228 6.236903
v 10.938772 0.070808 5.340488
v 11.059544 0.552508 5.264366
v 10.765471 1.076569 5.912441
v 10.987055 0.949327 5.488472
v 10.714465 -0.160700 5.665791
v 7.336574 0.496374 4.682569
v 7.261434 1.160891 5.086212
v 7.516856 2.081550 4.941977
v 8.099955 0.641515 3.273880
v 8.357014 1.561772 3.130421
v 7.888564 2.468717 4.378370
v 8.282711 2.225656 3.533499
v 7.729084 0.253714 3.836920
v 5.617674 0.814155 3.919663
v 5.512439 1.640640 4.412211
v 5.785084 2.662271 4.246043
v 6.521360 1.024191 2.285661
v 6.795756 2.045427 2.120318
v 6.245177 3.142809 3.544196
v 6.690831 2.871867 2.612989
v 6.061578 0.543607 2.987630
v 3.251217 2.252773 3.526263
v 3.534178 3.333227 3.346034
v 4.082748 3.905627 2.505168
v 3.870905 0.977591 1.961946
v 4.419468 1.549991 1.121076
v 4.559875 3.618234 1.520354
v 4.704038 2.630101 0.941663
v 3.395388 1.264639 2.947575
v 1.710370 3.778112 2.511284
v 2.286620 4.379249 1.628268
v 2.807604 4.068446 0.576936
v 1.575385 1.577507 2.104605
v 2.095968 1.266876 1.053130
v 2.966557 3.028783 -0.027194
v 2.672207 1.868015 0.170108
v 1.416421 2.617172 2.708729
v -0.059562 3.264299 -0.010443
v 0.166846 3.419019 0.121235
v -0.181086 2.752204 -0.086581
v -0.108650 1.062782 0.217253
v 0.136143 1.071760 -0.198286
v -0.299854 0.957395 0.001996
v 0.168456 1.075326 0.100040
v -0.152411 0.969487 -0.258380
v -0.115800 3.755731 -0.038798
v -0.310972 3.884964 -0.002316
v -0.183747 3.919237 -0.202787
v 1.804047 2.913099 0.793508
v 1.613899 2.870845 1.063479
v 1.816724 3.110133 0.885874
v 1.676561 2.767136 0.898052
v 1.686181 3.088099 1.047184
v 0.094842 2.790976 0.074632
v 0.075024 2.782394 -0.181341
v -0.161268 2.760786 0.169392
vt 0.9121 0.9580
vt 0.9118 0.9654
vt 0.9095 0.9647
vt 0.9096 0.9575
vt 0.8976 0.9584
vt 0.8979 0.9657
vt 0.8954 0.9658
vt 0.8950 0.9584
vt 0.9169 0.9585
vt 0.9165 0.9660
vt 0.9142 0.9660
vt 0.9146 0.9585
vt 0.9202 0.9049
vt 0.8937 0.9021
vt 0.8931 0.9002
vt 0.9204 0.9028
vt 0.9207 0.8929
vt 0.8942 0.8922
vt 0.8941 0.8910
vt 0.9207 0.8910
vt 0.9201 0.9009
vt 0.8931 0.8987
vt 0.8932 0.8972
vt 0.9198 0.8990
vt 0.9196 0.9089
vt 0.8935 0.9057
vt 0.8943 0.9040
vt 0.9201 0.9069
vt 0.9203 0.8969
vt 0.8937 0.8953
vt 0.8942 0.8935
vt 0.9208 0.8948
vt 0.9485 0.8955
vt 0.9479 0.8958
vt 0.9479 0.8933
vt 0.9493 0.8910
vt 0.9489 0.8932
vt 0.9483 0.8910
vt 0.9455 0.9144
vt 0.9457 0.9122
vt 0.9465 0.9144
vt 0.9473 0.8961
vt 0.9469 0.8985
vt 0.9559 0.9036
vt 0.9533 0.9013
vt 0.9601 0.9017
vt 0.9647 0.9042
vt 0.9556 0.9082
vt 0.9585 0.9060
vt 0.9692 0.9067
vt 0.9643 0.9087
vt 0.8588 0.8427
vt 0.8456 0.8474
vt 0.8456 0.8377
vt 0.8140 0.8424
vt 0.8140 0.8327
vt 0.8323 0.8327
vt 0.8323 0.8424
vt 0.9022 0.9312
vt 0.9025 0.9478
vt 0.9000 0.9509
vt 0.8995 0.9327
vt 0.9184 0.9329
vt 0.9173 0.9511
vt 0.9149 0.9511
vt 0.9157 0.9328
vt 0.9075 0.9310
vt 0.9074 0.9475
vt 0.9050 0.9448
vt 0.9049 0.9297
vt 0.8966 0.9328
vt 0.8973 0.9510
vt 0.8946 0.9510
vt 0.8937 0.9329
vt 0.9129 0.9326
vt 0.9123 0.9506
vt 0.9098 0.9502
vt 0.9102 0.9324
vt 0.7921 0.7993
vt 0.8028 0.7984
vt 0.8020 0.8179
vt 0.7917 0.8189
vt 0.7931 0.7627
vt 0.7983 0.7709
vt 0.7873 0.7715
vt 0.7889 0.8414
vt 0.7820 0.8404
vt 0.7825 0.8343
vt 0.7891 0.8335
vt 0.7919 0.8253
vt 0.7837 0.8263
vt 0.7815 0.8200
vt 0.9553 0.4130
vt 0.9477 0.4295
vt 0.9430 0.4291
vt 0.9438 0.4096
vt 0.9528 0.4658
vt 0.9467 0.4484
vt 0.9514 0.4484
vt 0.9647 0.4635
vt 0.9294 0.4647
vt 0.9374 0.4480
vt 0.9421 0.4483
vt 0.9410 0.4682
vt 0.9681 0.4518
vt 0.9517 0.4437
vt 0.9520 0.4391
vt 0.9715 0.4402
vt 0.9692 0.4284
vt 0.9521 0.4345
vt 0.9523 0.4298
vt 0.9669 0.4165
vt 0.9154 0.4493
vt 0.9330 0.4429
vt 0.9328 0.4476
vt 0.9178 0.4613
vt 0.9166 0.4259
vt 0.9334 0.4336
vt 0.9331 0.4382
vt 0.9131 0.4374
vt 0.9319 0.4119
vt 0.9384 0.4290
vt 0.9337 0.4289
vt 0.9200 0.4143
vt 0.9585 0.4094
vt 0.9510 0.4269
vt 0.9461 0.4266
vt 0.9462 0.4061
vt 0.9576 0.4649
vt 0.9506 0.4467
vt 0.9555 0.4467
vt 0.9699 0.4620
vt 0.9330 0.4645
vt 0.9409 0.4466
vt 0.9458 0.4468
vt 0.9453 0.4677
vt 0.9732 0.4497
vt 0.9556 0.4418
vt 0.9558 0.4369
vt 0.9764 0.4374
vt 0.9735 0.4250
vt 0.9558 0.4320
vt 0.9558 0.4271
vt 0.9707 0.4126
vt 0.9178 0.4488
vt 0.9360 0.4414
vt 0.9360 0.4464
vt 0.9207 0.4612
vt 0.9182 0.4241
vt 0.9361 0.4316
vt 0.9360 0.4365
vt 0.9150 0.4363
vt 0.9338 0.4090
vt 0.9412 0.4266
vt 0.9363 0.4267
vt 0.9215 0.4118
vt 0.9484 0.4110
vt 0.9412 0.4263
vt 0.9371 0.4261
vt 0.9377 0.4078
vt 0.9462 0.4592
vt 0.9404 0.4429
vt 0.9445 0.4430
vt 0.9570 0.4570
vt 0.9247 0.4582
vt 0.9322 0.4426
vt 0.9363 0.4428
vt 0.9353 0.4613
vt 0.9600 0.4464
vt 0.9447 0.4389
vt 0.9448 0.4348
vt 0.9631 0.4358
vt 0.9610 0.4249
vt 0.9450 0.4307
vt 0.9452 0.4266
vt 0.9590 0.4140
vt 0.9119 0.4442
vt 0.9283 0.4381
vt 0.9281 0.4423
vt 0.9140 0.4552
vt 0.9129 0.4227
vt 0.9287 0.4299
vt 0.9285 0.4340
vt 0.9099 0.4333
vt 0.9269 0.4100
vt 0.9330 0.4259
vt 0.9289 0.4258
vt 0.9160 0.4121
vt 0.9484 0.4110
vt 0.9412 0.4263
vt 0.9371 0.4261
vt 0.9377 0.4078
vt 0.9462 0.4592
vt 0.9404 0.4429
vt 0.9445 0.4430
vt 0.9570 0.4570
vt 0.9247 0.4582
vt 0.9322 0.4426
vt 0.9363 0.4428
vt 0.9353 0.4613
vt 0.9600 0.4464
vt 0.9447 0.4389
vt 0.9448 0.4348
vt 0.9631 0.4358
vt 0.9610 0.4249
vt 0.9450 0.4307
vt 0.9452 0.4266
vt 0.9590 0.4140
vt 0.9119 0.4442
vt 0.9283 0.4381
vt 0.9281 0.4423
vt 0.9140 0.4552
vt 0.9129 0.4227
vt 0.9287 0.4299
vt 0.9285 0.4340
vt 0.9099 0.4333
vt 0.9269 0.4100
vt 0.9330 0.4259
vt 0.9289 0.4258
vt 0.9160 0.4121
vt 0.9484 0.4110
vt 0.9412 0.4263
vt 0.9371 0.4261
vt 0.9377 0.4078
vt 0.9462 0.4592
vt 0.9404 0.4429
vt 0.9445 0.4430
vt 0.9570 0.4570
vt 0.9247 0.4582
vt 0.9322 0.4426
vt 0.9363 0.4428
vt 0.9353 0.4613
vt 0.9600 0.4464
vt 0.9447 0.4389
vt 0.9448 0.4348
vt 0.9631 0.4358
vt 0.9610 0.4249
vt 0.9450 0.4307
vt 0.9452 0.4266
vt 0.9590 0.4140
vt 0.9119 0.4442
vt 0.9283 0.4381
vt 0.9281 0.4423
vt 0.9140 0.4552
vt 0.9129 0.4227
vt 0.9287 0.4299
vt 0.9285 0.4340
vt 0.9099 0.4333
vt 0.9269 0.4100
vt 0.9330 0.4259
vt 0.9289 0.4258
vt 0.9160 0.4121
vt 0.9727 0.4015
vt 0.9549 0.4138
vt 0.9555 0.3956
vt 0.9343 0.4799
vt 0.9394 0.4614
vt 0.9519 0.4755
vt 0.9000 0.4680
vt 0.9181 0.4554
vt 0.9172 0.4739
vt 0.9695 0.4711
vt 0.9571 0.4530
vt 0.9755 0.4539
vt 0.9814 0.4368
vt 0.9633 0.4317
vt 0.9771 0.4191
vt 0.8912 0.4327
vt 0.9096 0.4375
vt 0.8956 0.4503
vt 0.9031 0.3984
vt 0.9158 0.4162
vt 0.8972 0.4155
vt 0.9384 0.3896
vt 0.9337 0.4077
vt 0.9208 0.3940
vt 0.9519 0.4755
vt 0.9695 0.4711
vt 0.9695 0.4711
vt 0.9519 0.4755
vt 0.8956 0.4503
vt 0.9000 0.4680
vt 0.9000 0.4680
vt 0.8956 0.4503
vt 0.9208 0.3940
vt 0.9031 0.3984
vt 0.9031 0.3984
vt 0.9208 0.3940
vt 0.9755 0.4539
vt 0.9814 0.4368
vt 0.9814 0.4368
vt 0.9755 0.4539
vt 0.9771 0.4191
vt 0.9727 0.4015
vt 0.9727 0.4015
vt 0.9771 0.4191
vt 0.9172 0.4739
vt 0.9343 0.4799
vt 0.9343 0.4799
vt 0.9172 0.4739
vt 0.8972 0.4155
vt 0.8912 0.4327
vt 0.8912 0.4327
vt 0.8972 0.4155
vt 0.9555 0.3956
vt 0.9384 0.3896
vt 0.9384 0.3896
vt 0.9555 0.3956
vt 0.9484 0.4110
vt 0.9412 0.4263
vt 0.9371 0.4261
vt 0.9377 0.4078
vt 0.9462 0.4592
vt 0.9404 0.4429
vt 0.9445 0.4430
vt 0.9570 0.4570
vt 0.9247 0.4582
vt 0.9322 0.4426
vt 0.9363 0.4428
vt 0.9353 0.4613
vt 0.9600 0.4464
vt 0.9447 0.4389
vt 0.9448 0.4348
vt 0.9631 0.4358
vt 0.9610 0.4249
vt 0.9450 0.4307
vt 0.9452 0.4266
vt 0.9590 0.4140
vt 0.9119 0.4442
vt 0.9283 0.4381
vt 0.9281 0.4423
vt 0.9140 0.4552
vt 0.9129 0.4227
vt 0.9287 0.4299
vt 0.9285 0.4340
vt 0.9099 0.4333
vt 0.9269 0.4100
vt 0.9330 0.4259
vt 0.9289 0.4258
vt 0.9160 0.4121
vt 0.9610 0.4249
vt 0.9590 0.4140
vt 0.9452 0.4266
vt 0.9450 0.4307
vt 0.9483 0.4110
vt 0.9377 0.4078
vt 0.9371 0.4261
vt 0.9412 0.4263
vt 0.9269 0.4100
vt 0.9160 0.4121
vt 0.9289 0.4258
vt 0.9330 0.4259
vt 0.9129 0.4227
vt 0.9099 0.4333
vt 0.9285 0.4340
vt 0.9287 0.4299
vt 0.9119 0.4442
vt 0.9140 0.4552
vt 0.9281 0.4423
vt 0.9283 0.4381
vt 0.9247 0.4582
vt 0.9353 0.4613
vt 0.9363 0.4428
vt 0.9322 0.4426
vt 0.9462 0.4592
vt 0.9570 0.4570
vt 0.9445 0.4430
vt 0.9404 0.4429
vt 0.9601 0.4464
vt 0.9631 0.4358
vt 0.9448 0.4348
vt 0.9447 0.4389
vt 0.9462 0.4592
vt 0.9353 0.4613
vt 0.9343 0.4799
vt 0.9519 0.4755
vt 0.9247 0.4582
vt 0.9140 0.4552
vt 0.9000 0.4680
vt 0.9172 0.4739
vt 0.9119 0.4442
vt 0.9099 0.4333
vt 0.8912 0.4327
vt 0.8956 0.4503
vt 0.9129 0.4227
vt 0.9160 0.4121
vt 0.9031 0.3984
vt 0.8972 0.4155
vt 0.9269 0.4100
vt 0.9377 0.4078
vt 0.9384 0.3896
vt 0.9208 0.3940
vt 0.9483 0.4110
vt 0.9590 0.4140
vt 0.9727 0.4015
vt 0.9555 0.3956
vt 0.9610 0.4249
vt 0.9631 0.4358
vt 0.9814 0.4368
vt 0.9771 0.4191
vt 0.9601 0.4464
vt 0.9570 0.4570
vt 0.9695 0.4711
vt 0.9755 0.4539
vt 0.9610 0.4249
vt 0.9590 0.4140
vt 0.9452 0.4266
vt 0.9450 0.4307
vt 0.9483 0.4110
vt 0.9377 0.4078
vt 0.9371 0.4261
vt 0.9412 0.4263
vt 0.9269 0.4100
vt 0.9160 0.4121
vt 0.9289 0.4258
vt 0.9330 0.4259
vt 0.9129 0.4227
vt 0.9099 0.4333
vt 0.9285 0.4340
vt 0.9287 0.4299
vt 0.9119 0.4442
vt 0.9140 0.4552
vt 0.9281 0.4423
vt 0.9283 0.4381
vt 0.9247 0.4582
vt 0.9353 0.4613
vt 0.9363 0.4428
vt 0.9322 0.4426
vt 0.9462 0.4592
vt 0.9570 0.4570
vt 0.9445 0.4430
vt 0.9404 0.4429
vt 0.9601 0.4464
vt 0.9631 0.4358
vt 0.9448 0.4348
vt 0.9447 0.4389
vt 0.9610 0.4249
vt 0.9590 0.4140
vt 0.9452 0.4266
vt 0.9450 0.4307
vt 0.9483 0.4110
vt 0.9377 0.4078
vt 0.9371 0.4261
vt 0.9412 0.4263
vt 0.9269 0.4100
vt 0.9160 0.4121
vt 0.9289 0.4258
vt 0.9330 0.4259
vt 0.9129 0.4227
vt 0.9099 0.4333
vt 0.9285 0.4340
vt 0.9287 0.4299
vt 0.9119 0.4442
vt 0.9140 0.4552
vt 0.9281 0.4423
vt 0.9283 0.4381
vt 0.9247 0.4582
vt 0.9353 0.4613
vt 0.9363 0.4428
vt 0.9322 0.4426
vt 0.9462 0.4592
vt 0.9570 0.4570
vt 0.9445 0.4430
vt 0.9404 0.4429
vt 0.9601 0.4464
vt 0.9631 0.4358
vt 0.9448 0.4348
vt 0.9447 0.4389
vt 0.9557 0.4138
vt 0.9471 0.4083
vt 0.9558 0.4271
vt 0.9558 0.4320
vt 0.9359 0.4104
vt 0.9246 0.4125
vt 0.9461 0.4266
vt 0.9510 0.4269
vt 0.9192 0.4211
vt 0.9137 0.4297
vt 0.9363 0.4267
vt 0.9412 0.4266
vt 0.9159 0.4410
vt 0.9180 0.4523
vt 0.9360 0.4365
vt 0.9361 0.4316
vt 0.9266 0.4577
vt 0.9352 0.4631
vt 0.9360 0.4464
vt 0.9360 0.4414
vt 0.9464 0.4610
vt 0.9577 0.4589
vt 0.9458 0.4468
vt 0.9409 0.4466
vt 0.9631 0.4503
vt 0.9685 0.4417
vt 0.9555 0.4467
vt 0.9506 0.4467
vt 0.9663 0.4305
vt 0.9642 0.4192
vt 0.9558 0.4369
vt 0.9556 0.4418
vt 0.9591 0.4132
vt 0.9493 0.4078
vt 0.9523 0.4298
vt 0.9521 0.4345
vt 0.9371 0.4104
vt 0.9248 0.4130
vt 0.9430 0.4291
vt 0.9477 0.4295
vt 0.9193 0.4228
vt 0.9139 0.4326
vt 0.9337 0.4289
vt 0.9384 0.4290
vt 0.9165 0.4448
vt 0.9192 0.4571
vt 0.9331 0.4382
vt 0.9334 0.4336
vt 0.9290 0.4626
vt 0.9388 0.4681
vt 0.9328 0.4476
vt 0.9330 0.4429
vt 0.9510 0.4654
vt 0.9632 0.4628
vt 0.9421 0.4483
vt 0.9374 0.4480
vt 0.9687 0.4530
vt 0.9742 0.4431
vt 0.9514 0.4484
vt 0.9467 0.4484
vt 0.9715 0.4309
vt 0.9689 0.4187
vt 0.9520 0.4391
vt 0.9517 0.4437
vt 0.9780 0.4785
vt 0.9845 0.4599
vt 0.9593 0.4546
vt 0.9911 0.4413
vt 0.9863 0.4223
vt 0.9620 0.4357
vt 0.9815 0.4032
vt 0.9630 0.3967
vt 0.9533 0.4164
vt 0.9445 0.3901
vt 0.9254 0.3949
vt 0.9346 0.4139
vt 0.9063 0.3996
vt 0.8997 0.4182
vt 0.9152 0.4225
vt 0.8931 0.4367
vt 0.8979 0.4558
vt 0.9125 0.4413
vt 0.9027 0.4749
vt 0.9213 0.4815
vt 0.9211 0.4606
vt 0.9399 0.4881
vt 0.9589 0.4833
vt 0.9400 0.4633
vt 0.9590 0.4585
vt 0.9401 0.4385
vt 0.9780 0.4785
vt 0.9397 0.4672
vt 0.9396 0.4464
vt 0.9399 0.4881
vt 0.9173 0.4604
vt 0.9318 0.4460
vt 0.9027 0.4749
vt 0.9086 0.4410
vt 0.9240 0.4454
vt 0.8931 0.4367
vt 0.9154 0.4186
vt 0.9246 0.4376
vt 0.9063 0.3996
vt 0.9348 0.4099
vt 0.9251 0.4297
vt 0.9445 0.3901
vt 0.9571 0.4166
vt 0.9328 0.4301
vt 0.9815 0.4032
vt 0.9658 0.4360
vt 0.9406 0.4307
vt 0.9911 0.4413
vt 0.9742 0.4431
vt 0.9514 0.4484
vt 0.9969 0.4379
vt 0.9913 0.4180
vt 0.9857 0.3982
vt 0.9632 0.4628
vt 0.9421 0.4483
vt 0.9844 0.4773
vt 0.9906 0.4576
vt 0.9969 0.4379
vt 0.9388 0.4681
vt 0.9328 0.4476
vt 0.9447 0.4886
vt 0.9646 0.4829
vt 0.9844 0.4773
vt 0.9192 0.4571
vt 0.9331 0.4382
vt 0.9053 0.4760
vt 0.9250 0.4823
vt 0.9447 0.4886
vt 0.9139 0.4326
vt 0.9337 0.4289
vt 0.8940 0.4362
vt 0.8996 0.4561
vt 0.9053 0.4760
vt 0.9248 0.4130
vt 0.9430 0.4291
vt 0.9066 0.3969
vt 0.9003 0.4165
vt 0.8940 0.4362
vt 0.9493 0.4078
vt 0.9523 0.4298
vt 0.9464 0.3857
vt 0.9265 0.3913
vt 0.9066 0.3969
vt 0.9689 0.4187
vt 0.9520 0.4391
vt 0.9857 0.3982
vt 0.9661 0.3920
vt 0.9464 0.3857
vt 0.9685 0.4417
vt 0.9555 0.4467
vt 0.9814 0.4368
vt 0.9771 0.4191
vt 0.9727 0.4015
vt 0.9577 0.4589
vt 0.9458 0.4468
vt 0.9695 0.4711
vt 0.9755 0.4539
vt 0.9814 0.4368
vt 0.9352 0.4631
vt 0.9360 0.4464
vt 0.9343 0.4799
vt 0.9519 0.4755
vt 0.9695 0.4711
vt 0.9180 0.4523
vt 0.9360 0.4365
vt 0.9000 0.4680
vt 0.9172 0.4739
vt 0.9343 0.4799
vt 0.9137 0.4297
vt 0.9363 0.4267
vt 0.8912 0.4327
vt 0.8956 0.4503
vt 0.9000 0.4680
vt 0.9246 0.4125
vt 0.9461 0.4266
vt 0.9031 0.3984
vt 0.8972 0.4155
vt 0.8912 0.4327
vt 0.9471 0.4083
vt 0.9558 0.4271
vt 0.9384 0.3896
vt 0.9208 0.3940
vt 0.9031 0.3984
vt 0.9642 0.4192
vt 0.9558 0.4369
vt 0.9727 0.4015
vt 0.9555 0.3956
vt 0.9384 0.3896
vt 0.9570 0.4570
vt 0.9445 0.4430
vt 0.9695 0.4711
vt 0.9755 0.4539
vt 0.9814 0.4368
vt 0.9353 0.4613
vt 0.9363 0.4428
vt 0.9343 0.4799
vt 0.9519 0.4755
vt 0.9695 0.4711
vt 0.9140 0.4552
vt 0.9281 0.4423
vt 0.9000 0.4680
vt 0.9172 0.4739
vt 0.9343 0.4799
vt 0.9099 0.4333
vt 0.9285 0.4340
vt 0.8912 0.4327
vt 0.8956 0.4503
vt 0.9000 0.4680
vt 0.9160 0.4121
vt 0.9289 0.4258
vt 0.9031 0.3984
vt 0.8972 0.4155
vt 0.8912 0.4327
vt 0.9377 0.4078
vt 0.9371 0.4261
vt 0.9384 0.3896
vt 0.9208 0.3940
vt 0.9031 0.3984
vt 0.9590 0.4140
vt 0.9452 0.4266
vt 0.9727 0.4015
vt 0.9555 0.3956
vt 0.9384 0.3896
vt 0.9631 0.4358
vt 0.9448 0.4348
vt 0.9814 0.4368
vt 0.9771 0.4191
vt 0.9727 0.4015
vt 0.9570 0.4570
vt 0.9445 0.4430
vt 0.9695 0.4711
vt 0.9755 0.4539
vt 0.9814 0.4368
vt 0.9353 0.4613
vt 0.9363 0.4428
vt 0.9343 0.4799
vt 0.9519 0.4755
vt 0.9695 0.4711
vt 0.9140 0.4552
vt 0.9281 0.4423
vt 0.9000 0.4680
vt 0.9172 0.4739
vt 0.9343 0.4799
vt 0.9099 0.4333
vt 0.9285 0.4340
vt 0.8912 0.4327
vt 0.8956 0.4503
vt 0.9000 0.4680
vt 0.9160 0.4121
vt 0.9289 0.4258
vt 0.9031 0.3984
vt 0.8972 0.4155
vt 0.8912 0.4327
vt 0.9377 0.4078
vt 0.9371 0.4261
vt 0.9384 0.3896
vt 0.9208 0.3940
vt 0.9031 0.3984
vt 0.9590 0.4140
vt 0.9452 0.4266
vt 0.9727 0.4015
vt 0.9555 0.3956
vt 0.9384 0.3896
vt 0.9631 0.4358
vt 0.9448 0.4348
vt 0.9814 0.4368
vt 0.9771 0.4191
vt 0.9727 0.4015
vt 0.9631 0.4358
vt 0.9814 0.4368
vt 0.9448 0.4348
vt 0.9447 0.4389
vt 0.9445 0.4430
vt 0.9590 0.4140
vt 0.9727 0.4015
vt 0.9452 0.4266
vt 0.9450 0.4307
vt 0.9448 0.4348
vt 0.9377 0.4078
vt 0.9384 0.3896
vt 0.9371 0.4261
vt 0.9412 0.4263
vt 0.9452 0.4266
vt 0.9160 0.4121
vt 0.9031 0.3984
vt 0.9289 0.4258
vt 0.9330 0.4259
vt 0.9371 0.4261
vt 0.9099 0.4333
vt 0.8912 0.4327
vt 0.9285 0.4340
vt 0.9287 0.4299
vt 0.9289 0.4258
vt 0.9140 0.4552
vt 0.9000 0.4680
vt 0.9281 0.4423
vt 0.9283 0.4381
vt 0.9285 0.4340
vt 0.9353 0.4613
vt 0.9343 0.4799
vt 0.9363 0.4428
vt 0.9322 0.4426
vt 0.9281 0.4423
vt 0.9570 0.4570
vt 0.9695 0.4711
vt 0.9445 0.4430
vt 0.9404 0.4429
vt 0.9363 0.4428
vt 0.9570 0.4570
vt 0.9445 0.4430
vt 0.9695 0.4711
vt 0.9755 0.4539
vt 0.9814 0.4368
vt 0.9353 0.4613
vt 0.9363 0.4428
vt 0.9343 0.4799
vt 0.9519 0.4755
vt 0.9695 0.4711
vt 0.9140 0.4552
vt 0.9281 0.4423
vt 0.9000 0.4680
vt 0.9172 0.4739
vt 0.9343 0.4799
vt 0.9099 0.4333
vt 0.9285 0.4340
vt 0.8912 0.4327
vt 0.8956 0.4503
vt 0.9000 0.4680
vt 0.9160 0.4121
vt 0.9289 0.4258
vt 0.9031 0.3984
vt 0.8972 0.4155
vt 0.8912 0.4327
vt 0.9377 0.4078
vt 0.9371 0.4261
vt 0.9384 0.3896
vt 0.9208 0.3940
vt 0.9031 0.3984
vt 0.9590 0.4140
vt 0.9452 0.4266
vt 0.9727 0.4015
vt 0.9555 0.3956
vt 0.9384 0.3896
vt 0.9631 0.4358
vt 0.9448 0.4348
vt 0.9814 0.4368
vt 0.9771 0.4191
vt 0.9727 0.4015
vt 0.9208 0.3940
vt 0.9031 0.3984
vt 0.9384 0.3896
vt 0.8972 0.4155
vt 0.8912 0.4327
vt 0.8956 0.4503
vt 0.9000 0.4680
vt 0.9771 0.4191
vt 0.9727 0.4015
vt 0.9814 0.4368
vt 0.9755 0.4539
vt 0.9695 0.4711
vt 0.9172 0.4739
vt 0.9343 0.4799
vt 0.9519 0.4755
vt 0.9555 0.3956
vt 0.9160 0.4121
vt 0.9289 0.4258
vt 0.9099 0.4333
vt 0.9285 0.4340
vt 0.9140 0.4552
vt 0.9281 0.4423
vt 0.9590 0.4140
vt 0.9452 0.4266
vt 0.9631 0.4358
vt 0.9448 0.4348
vt 0.9353 0.4613
vt 0.9363 0.4428
vt 0.9570 0.4570
vt 0.9445 0.4430
vt 0.9377 0.4078
vt 0.9371 0.4261
vt 0.9208 0.3940
vt 0.9031 0.3984
vt 0.9384 0.3896
vt 0.8972 0.4155
vt 0.8912 0.4327
vt 0.8956 0.4503
vt 0.9000 0.4680
vt 0.9771 0.4191
vt 0.9727 0.4015
vt 0.9814 0.4368
vt 0.9755 0.4539
vt 0.9695 0.4711
vt 0.9172 0.4739
vt 0.9343 0.4799
vt 0.9519 0.4755
vt 0.9555 0.3956
vt 0.9208 0.3940
vt 0.9031 0.3984
vt 0.9384 0.3896
vt 0.8972 0.4155
vt 0.8912 0.4327
vt 0.8956 0.4503
vt 0.9000 0.4680
vt 0.9771 0.4191
vt 0.9727 0.4015
vt 0.9814 0.4368
vt 0.9755 0.4539
vt 0.9695 0.4711
vt 0.9172 0.4739
vt 0.9343 0.4799
vt 0.9519 0.4755
vt 0.9555 0.3956
vt 0.9208 0.3940
vt 0.9031 0.3984
vt 0.9384 0.3896
vt 0.8972 0.4155
vt 0.8912 0.4327
vt 0.8956 0.4503
vt 0.9000 0.4680
vt 0.9771 0.4191
vt 0.9727 0.4015
vt 0.9814 0.4368
vt 0.9755 0.4539
vt 0.9695 0.4711
vt 0.9172 0.4739
vt 0.9343 0.4799
vt 0.9519 0.4755
vt 0.9555 0.3956
vt 0.9265 0.3913
vt 0.9066 0.3969
vt 0.9464 0.3857
vt 0.9003 0.4165
vt 0.8940 0.4362
vt 0.8996 0.4561
vt 0.9053 0.4760
vt 0.9913 0.4180
vt 0.9857 0.3982
vt 0.9969 0.4379
vt 0.9906 0.4576
vt 0.9844 0.4773
vt 0.9250 0.4823
vt 0.9447 0.4886
vt 0.9646 0.4829
vt 0.9661 0.3920
vt 0.9254 0.3949
vt 0.9063 0.3996
vt 0.9445 0.3901
vt 0.8997 0.4182
vt 0.8931 0.4367
vt 0.8979 0.4558
vt 0.9027 0.4749
vt 0.9863 0.4223
vt 0.9815 0.4032
vt 0.9911 0.4413
vt 0.9845 0.4599
vt 0.9780 0.4785
vt 0.9213 0.4815
vt 0.9399 0.4881
vt 0.9589 0.4833
vt 0.9630 0.3967
vt 0.8001 0.8242
vt 0.7981 0.8305
vt 0.7921 0.8316
vt 0.7860 0.8326
vt 0.7957 0.8424
vt 0.7957 0.8327
vt 0.7957 0.8520
vt 0.7886 0.8492
vt 0.7815 0.8465
vt 0.7925 0.7796
vt 0.7815 0.7803
vt 0.8036 0.7790
vt 0.7815 0.8002
vt 0.9136 0.9145
vt 0.9106 0.9145
vt 0.9165 0.9145
vt 0.8959 0.9146
vt 0.8928 0.9147
vt 0.8990 0.9145
vt 0.9077 0.9146
vt 0.9048 0.9146
vt 0.9195 0.9146
vt 0.9225 0.9148
vt 0.9211 0.9330
vt 0.9198 0.9511
vt 0.9019 0.9146
vt 0.8140 0.8520
vt 0.8323 0.8520
vt 0.9527 0.9103
vt 0.9595 0.9107
vt 0.9459 0.9099
vt 0.9468 0.9076
vt 0.9477 0.9053
vt 0.9471 0.9031
vt 0.9465 0.9008
vt 0.9475 0.8981
vt 0.9467 0.9122
vt 0.9475 0.9145
vt 0.9473 0.8911
vt 0.9473 0.8936
vt 0.9191 0.9109
vt 0.8928 0.9074
vt 0.9193 0.9585
vt 0.9188 0.9659
vt 0.9002 0.9583
vt 0.9004 0.9657
vn -0.2424 0.0265 0.9698
vn -0.3710 0.6631 0.6501
vn -0.8619 0.4095 0.2990
vn -0.9326 0.0118 0.3607
vn 0.7196 0.0400 -0.6932
vn 0.4249 0.7031 -0.5702
vn 0.7986 0.5980 -0.0681
vn 0.9973 0.0446 -0.0592
vn 0.8025 0.0349 0.5956
vn 0.7932 0.0266 0.6084
vn 0.1745 0.6482 0.7412
vn 0.3402 0.0372 0.9396
vn -0.1327 0.6662 0.7339
vn -0.1162 0.6866 0.7177
vn 0.2792 0.9488 0.1480
vn 0.2224 0.9415 0.2531
vn -0.1711 -0.9471 -0.2717
vn -0.1730 -0.9477 -0.2683
vn -0.4214 -0.8648 0.2729
vn -0.4384 -0.8389 0.3226
vn 0.4880 0.7966 -0.3568
vn 0.4911 0.7907 -0.3656
vn 0.5504 0.3604 -0.7531
vn 0.5483 0.3506 -0.7592
vn -0.5145 -0.3641 0.7764
vn -0.5153 -0.3995 0.7582
vn -0.3844 0.1915 0.9031
vn -0.3883 0.1874 0.9023
vn 0.4237 -0.1940 -0.8848
vn 0.4158 -0.2169 -0.8832
vn 0.1661 -0.6785 -0.7156
vn 0.1579 -0.6889 -0.7074
vn -0.1914 -0.5973 -0.7788
vn 0.3287 -0.5651 -0.7567
vn -0.0878 -0.9927 -0.0827
vn -0.8964 -0.4379 0.0688
vn -0.0659 -0.9968 0.0452
vn -0.2939 -0.7901 0.5379
vn -0.4335 -0.8367 0.3345
vn -0.5313 -0.3118 0.7877
vn 0.1647 -0.6650 -0.7285
vn 0.3766 -0.1247 -0.9179
vn 0.5137 0.8374 -0.1868
vn 0.3736 -0.1565 -0.9143
vn 0.2904 -0.0539 -0.9554
vn 0.1136 0.0816 -0.9902
vn -0.0669 0.6956 0.7153
vn 0.2571 0.9140 0.3138
vn -0.7368 0.5484 -0.3956
vn -0.8535 -0.1590 0.4963
vn -0.3033 -0.8886 -0.3440
vn -0.6383 -0.3955 0.6604
vn -0.7304 -0.3100 0.6087
vn -0.3674 -0.8496 -0.3784
vn -0.4537 0.0038 -0.8912
vn -0.6563 0.1800 -0.7327
vn -0.0521 0.1081 -0.9928
vn 0.1591 0.0251 -0.9869
vn 0.8470 0.0436 0.5299
vn 0.8230 0.0434 0.5664
vn 0.3685 0.0403 0.9288
vn 0.3887 0.0402 0.9205
vn -0.9968 -0.0112 0.0789
vn -0.9661 0.1733 -0.1915
vn -0.8658 0.0693 -0.4955
vn -0.8743 -0.0081 -0.4854
vn 0.7346 0.0334 -0.6777
vn 0.7254 0.0331 -0.6875
vn 0.9966 0.0454 -0.0691
vn 0.9948 0.0437 -0.0915
vn -0.2180 0.0214 0.9757
vn -0.2324 0.0193 0.9724
vn -0.8874 0.1015 0.4497
vn -0.7680 0.0059 0.6404
vn -0.8449 -0.0050 -0.5349
vn -0.6995 0.6029 -0.3836
vn -0.6739 0.6146 -0.4100
vn -0.6687 0.5792 -0.4662
vn -0.8978 0.2898 0.3317
vn -0.1911 0.9794 -0.0655
vn -0.1417 0.5263 -0.8384
vn -0.0524 -0.2712 0.9611
vn -0.8848 -0.4652 0.0266
vn -0.9534 0.2161 -0.2106
vn 0.0681 0.1492 0.9865
vn 0.6152 -0.6735 -0.4097
vn -0.6490 -0.6041 -0.4624
vn -0.6446 -0.3604 -0.6742
vn 0.4973 -0.8333 -0.2416
vn 0.8330 0.1451 -0.5339
vn -0.3056 0.6847 -0.6617
vn -0.7167 0.0819 -0.6926
vn 0.8021 -0.2929 -0.5204
vn 0.3671 -0.9294 -0.0380
vn -0.3913 -0.3275 -0.8600
vn -0.9109 -0.1072 -0.3985
vn 0.2078 -0.9056 0.3698
vn 0.0056 -0.7086 0.7056
vn -0.9520 0.0200 0.3056
vn -0.9879 -0.1512 0.0336
vn -0.0396 -0.5077 0.8606
vn 0.7731 0.5692 -0.2798
vn -0.2326 0.1992 -0.9519
vn -0.4313 0.4178 -0.7997
vn 0.8206 0.3747 -0.4315
vn 0.4105 0.7846 0.4646
vn -0.8084 0.5403 0.2335
vn -0.7646 0.4186 -0.4901
vn 0.6559 0.7478 0.1030
vn 0.1728 0.5427 0.8220
vn -0.5348 0.8231 -0.1911
vn -0.7770 0.6229 -0.0909
vn 0.2882 0.6930 0.6609
vn 0.0249 -0.8664 0.4987
vn -0.9014 -0.3322 -0.2778
vn -0.9212 0.1618 -0.3540
vn -0.0302 -0.5116 0.8587
vn 0.7692 -0.0979 -0.6314
vn -0.5238 0.0478 -0.8505
vn -0.4358 -0.0168 -0.8999
vn 0.7294 -0.2969 -0.6163
vn 0.6785 0.7275 -0.1016
vn -0.5825 0.6675 -0.4639
vn -0.8233 0.2621 -0.5034
vn 0.8219 0.3694 -0.4336
vn 0.6576 -0.4834 -0.5778
vn -0.5483 -0.0113 -0.8362
vn -0.8596 0.1025 -0.5005
vn 0.4702 -0.8412 -0.2669
vn 0.1865 -0.9730 0.1358
vn -0.8728 -0.3456 -0.3446
vn -0.8562 -0.4430 -0.2658
vn 0.1093 -0.9395 0.3246
vn 0.5270 0.8178 0.2314
vn -0.5828 0.6726 -0.4561
vn -0.5124 0.7342 -0.4454
vn 0.6129 0.7874 0.0658
vn 0.0616 0.3389 0.9388
vn -0.9511 0.2915 0.1025
vn -0.8776 0.2768 -0.3915
vn 0.3243 0.6706 0.6672
vn -0.0467 -0.0242 0.9986
vn -0.9565 0.2752 0.0971
vn -0.9364 0.2943 0.1912
vn 0.0066 0.1611 0.9869
vn 0.1458 -0.9841 -0.1012
vn -0.9693 -0.2203 -0.1092
vn -0.9253 0.0865 -0.3694
vn -0.0084 -0.9602 0.2790
vn 0.7098 0.6395 -0.2953
vn -0.6209 0.7462 -0.2402
vn -0.6738 0.3581 -0.6463
vn 0.7633 0.3917 -0.5138
vn 0.4208 0.8067 0.4148
vn -0.4452 0.6782 -0.5846
vn -0.7848 0.4491 -0.4270
vn 0.6057 0.7934 0.0602
vn 0.7323 0.0999 -0.6736
vn -0.5758 -0.1456 -0.8045
vn -0.7786 0.2314 -0.5833
vn 0.6497 -0.2888 -0.7032
vn 0.4821 -0.6380 -0.6005
vn -0.4893 0.2754 -0.8275
vn -0.8231 -0.0138 -0.5677
vn 0.3357 -0.8650 -0.3728
vn 0.1334 0.5127 0.8482
vn -0.9680 0.1545 0.1979
vn -0.8218 0.5322 -0.2034
vn 0.2894 0.6918 0.6615
vn -0.1317 -0.2287 0.9645
vn -0.8664 0.4885 0.1038
vn -0.9218 0.3188 -0.2208
vn -0.0117 0.1602 0.9870
vn -0.1296 -0.7724 0.6217
vn -0.8141 -0.3598 -0.4559
vn -0.9878 0.0216 -0.1545
vn -0.1363 -0.5296 0.8372
vn 0.0860 -0.9944 -0.0609
vn -0.9380 -0.2831 0.2000
vn -0.9019 -0.0717 -0.4259
vn -0.0586 -0.9644 0.2578
vn 0.7422 0.6238 -0.2450
vn -0.5180 0.8535 -0.0563
vn -0.5798 0.2840 -0.7636
vn 0.7983 0.3599 -0.4829
vn 0.4733 0.7752 0.4184
vn -0.1745 0.6938 -0.6988
vn -0.6722 0.5563 -0.4886
vn 0.6387 0.7647 0.0854
vn 0.7470 0.0540 -0.6626
vn -0.4391 -0.3805 -0.8139
vn -0.6913 0.1899 -0.6972
vn 0.6516 -0.2825 -0.7040
vn 0.5021 -0.5941 -0.6285
vn -0.2100 0.4520 -0.8670
vn -0.8406 0.0075 -0.5417
vn 0.3253 -0.8691 -0.3726
vn 0.1537 0.4738 0.8671
vn -0.9329 -0.0142 0.3597
vn -0.7640 0.6305 -0.1366
vn 0.3349 0.6541 0.6782
vn -0.1261 -0.1902 0.9736
vn -0.6179 0.7549 0.2198
vn -0.9089 0.4034 -0.1056
vn -0.0067 0.1632 0.9866
vn -0.1478 -0.8141 0.5616
vn -0.5136 -0.5753 -0.6366
vn -0.9465 -0.1358 -0.2927
vn -0.1395 -0.5443 0.8272
vn 0.3060 -0.9382 -0.1616
vn -0.8877 -0.4598 -0.0262
vn -0.8202 -0.0867 -0.5654
vn 0.0318 -0.9541 0.2977
vn 0.7616 0.5615 -0.3235
vn -0.5165 0.8418 -0.1566
vn -0.3349 0.2786 -0.9001
vn 0.8097 0.3970 -0.4321
vn 0.2867 0.8364 0.4672
vn 0.0509 0.6055 -0.7942
vn -0.5816 0.4307 -0.6901
vn 0.5846 0.8084 0.0686
vn 0.8209 0.2193 -0.5272
vn -0.2171 -0.5049 -0.8354
vn -0.6934 -0.0445 -0.7192
vn 0.7723 -0.2878 -0.5663
vn 0.5369 -0.7259 -0.4298
vn -0.1883 0.2231 -0.9564
vn -0.6511 -0.3477 -0.6747
vn 0.4301 -0.8504 -0.3032
vn 0.0133 0.6190 0.7853
vn -0.9020 -0.2088 0.3778
vn -0.8040 0.5834 -0.1149
vn 0.1587 0.7448 0.6481
vn -0.2933 -0.2940 0.9097
vn -0.7711 0.6247 0.1229
vn -0.9625 0.1091 -0.2484
vn -0.1817 0.1943 0.9640
vn -0.2264 -0.6916 0.6859
vn -0.5001 -0.6397 -0.5837
vn -0.9718 -0.1743 -0.1591
vn -0.2651 -0.5062 0.8207
vn 0.4228 -0.8505 -0.3128
vn 0.3910 -0.8571 -0.3354
vn 0.2067 -0.9728 -0.1043
vn 0.5301 0.8441 0.0806
vn 0.5421 0.8353 0.0916
vn 0.7092 0.6406 -0.2943
vn 0.0935 0.7709 0.6301
vn 0.1110 0.7602 0.6402
vn 0.2438 0.8663 0.4360
vn 0.7868 0.4324 -0.4405
vn 0.7842 0.4308 -0.4466
vn 0.8001 0.1873 -0.5698
vn 0.7634 -0.2520 -0.5947
vn 0.7535 -0.2540 -0.6063
vn 0.5656 -0.6503 -0.5072
vn -0.2281 0.2194 0.9486
vn -0.2091 0.2112 0.9548
vn -0.0603 0.6179 0.7840
vn -0.3080 -0.5122 0.8018
vn -0.3113 -0.5223 0.7939
vn -0.3458 -0.2353 0.9083
vn -0.0231 -0.9584 0.2845
vn -0.0354 -0.9614 0.2730
vn -0.2506 -0.7541 0.6071
vn 0.7253 0.6234 -0.2922
vn 0.7941 0.4227 -0.4367
vn -0.4342 0.3653 -0.8234
vn -0.5651 0.7521 -0.3392
vn -0.0607 0.6173 0.7843
vn 0.0922 0.7736 0.6270
vn -0.8059 0.5380 -0.2472
vn -0.9929 0.0523 0.1065
vn -0.2238 -0.7353 0.6398
vn -0.2970 -0.5116 0.8062
vn -0.9766 -0.1191 -0.1791
vn -0.7002 -0.4912 -0.5182
vn 0.8190 0.1892 -0.5418
vn 0.7836 -0.2657 -0.5615
vn -0.1692 -0.0956 -0.9809
vn -0.3440 -0.2580 -0.9028
vn 0.5894 -0.6684 -0.4538
vn 0.4431 -0.8473 -0.2929
vn -0.6262 -0.3059 -0.7171
vn -0.3021 0.1236 -0.9452
vn 0.2493 0.8678 0.4299
vn 0.5411 0.8377 0.0737
vn -0.3674 0.8023 -0.4704
vn -0.3942 0.6261 -0.6728
vn -0.3286 -0.2475 0.9115
vn -0.2245 0.2106 0.9514
vn -0.9405 0.2723 0.2035
vn -0.9057 0.4238 -0.0128
vn 0.2732 -0.9572 -0.0957
vn 0.0222 -0.9524 0.3041
vn -0.7506 -0.6039 -0.2682
vn -0.8848 -0.4318 -0.1751
vn 0.2001 -0.9665 -0.1609
vn -0.9139 -0.4008 -0.0642
vn -0.8517 -0.1262 -0.5086
vn -0.0139 -0.9625 0.2710
vn 0.7828 0.5486 -0.2937
vn -0.4909 0.8355 -0.2469
vn -0.4531 0.2446 -0.8572
vn 0.8188 0.3610 -0.4463
vn 0.4146 0.7763 0.4748
vn -0.1052 0.6854 -0.7205
vn -0.5825 0.5239 -0.6215
vn 0.6576 0.7474 0.0945
vn 0.8068 0.1517 -0.5711
vn -0.3237 -0.3451 -0.8810
vn -0.6553 0.0388 -0.7544
vn 0.7249 -0.2982 -0.6209
vn 0.4995 -0.6920 -0.5211
vn -0.2769 0.2230 -0.9347
vn -0.7612 -0.1825 -0.6223
vn 0.3606 -0.8613 -0.3579
vn 0.1232 0.5408 0.8321
vn -0.9340 -0.0430 0.3546
vn -0.8110 0.5689 -0.1362
vn 0.2791 0.6804 0.6776
vn -0.2183 -0.2640 0.9395
vn -0.7890 0.5951 0.1531
vn -0.9632 0.2295 -0.1401
vn -0.0676 0.1628 0.9843
vn -0.2018 -0.7338 0.6487
vn -0.6102 -0.5728 -0.5473
vn -0.9573 -0.1421 -0.2516
vn -0.2195 -0.5188 0.8262
vn -0.6316 0.7616 0.1452
vn -0.6262 0.7719 0.1100
vn -0.5994 0.7934 0.1059
vn -0.3000 0.8470 -0.4388
vn 0.0384 0.5195 -0.8536
vn 0.0207 0.4844 -0.8746
vn 0.0517 0.4565 -0.8882
vn -0.0669 -0.1450 -0.9872
vn -0.2647 -0.6610 -0.7021
vn -0.3020 -0.6572 -0.6906
vn -0.2957 -0.6878 -0.6629
vn -0.6968 -0.6855 -0.2111
vn -0.8928 -0.3688 0.2586
vn -0.9053 -0.3431 0.2506
vn -0.8992 -0.3349 0.2814
vn -0.9125 0.2616 0.3143
vn -0.9360 -0.2842 0.2075
vn -0.8082 -0.5247 -0.2674
vn -0.4487 -0.5702 -0.6882
vn -0.4432 -0.5547 -0.7042
vn -0.4256 -0.5515 -0.7174
vn -0.2503 -0.0646 -0.9660
vn -0.0460 0.4633 -0.8850
vn -0.0500 0.4851 -0.8730
vn -0.0495 0.5075 -0.8602
vn -0.3854 0.8097 -0.4426
vn -0.6105 0.7828 0.1205
vn -0.6120 0.7798 0.1318
vn -0.6217 0.7716 0.1348
vn -0.9266 0.2951 0.2330
vn -0.9360 -0.2785 0.2152
vn -0.9354 -0.2842 0.2103
vn -0.5765 0.7497 0.3249
vn -0.4502 0.1496 -0.8803
vn -0.7041 -0.2239 -0.6739
vn -0.5168 0.8244 0.2310
vn -0.4362 0.8882 0.1442
vn -0.9298 -0.3113 -0.1966
vn -0.8053 -0.5066 -0.3080
vn -0.2405 0.8983 -0.3676
vn -0.0399 0.6081 -0.7929
vn -0.8351 -0.3680 -0.4088
vn -0.9967 -0.0760 -0.0287
vn -0.0627 0.5102 -0.8578
vn -0.0504 0.4049 -0.9130
vn -0.9175 0.3891 0.0827
vn -0.9083 0.2907 0.3010
vn -0.2510 -0.0591 -0.9662
vn -0.4528 -0.4710 -0.7570
vn -0.9472 0.2523 0.1978
vn -0.7224 0.6895 -0.0511
vn -0.5108 -0.4984 -0.7005
vn -0.5426 -0.5481 -0.6366
vn -0.4494 0.7521 -0.4822
vn -0.3103 0.8388 -0.4474
vn -0.8145 -0.5365 -0.2208
vn -0.9134 -0.3416 0.2215
vn -0.5017 0.7761 -0.3821
vn -0.4113 0.4583 -0.7879
vn -0.9239 -0.2625 0.2783
vn -0.9185 -0.1938 0.3448
vn -0.4441 -0.0731 -0.8930
vn -0.3156 -0.0756 -0.9459
vn -0.8498 0.3150 0.4226
vn -0.5879 0.6771 0.4426
vn -0.4043 0.3461 -0.8466
vn -0.7045 -0.2431 -0.6667
vn -0.4841 0.8369 0.2554
vn -0.3284 0.9424 0.0644
vn -0.9756 -0.2194 -0.0005
vn -0.8648 -0.3823 -0.3254
vn -0.1709 0.9224 -0.3464
vn -0.0568 0.7028 -0.7092
vn -0.7254 -0.4176 -0.5472
vn -0.9945 -0.0848 0.0618
vn -0.0784 0.5257 -0.8470
vn -0.0746 0.3220 -0.9438
vn -0.8098 0.5698 0.1394
vn -0.9040 0.3140 0.2903
vn -0.2241 -0.0881 -0.9706
vn -0.3820 -0.4540 -0.8049
vn -0.9568 0.0516 0.2861
vn 0.0000 0.0000 0.0000
vn -0.4772 -0.5468 -0.6880
vn -0.5516 -0.6268 -0.5503
vn -0.3317 0.6935 -0.6396
vn -0.3867 0.8093 -0.4421
vn -0.7608 -0.6255 -0.1730
vn -0.8569 -0.4668 0.2188
vn -0.5755 0.8039 -0.1500
vn -0.4393 0.4793 -0.7598
vn -0.8859 -0.2964 0.3569
vn -0.8668 -0.1165 0.4849
vn -0.5294 -0.2726 -0.8034
vn -0.4555 -0.0045 -0.8902
vn -0.7833 0.3015 0.5436
vn -0.4936 0.8514 -0.1772
vn -0.8723 -0.3580 -0.3330
vn -0.8191 -0.5354 -0.2059
vn -0.4429 0.7844 -0.4343
vn -0.2866 0.7103 -0.6429
vn -0.8914 -0.3693 -0.2628
vn -0.9849 -0.1428 0.0977
vn -0.2244 0.4807 -0.8477
vn -0.2504 0.1910 -0.9491
vn -0.9640 0.2241 0.1434
vn -0.8766 0.3224 0.3572
vn -0.3762 -0.0475 -0.9253
vn -0.4033 -0.3099 -0.8610
vn -0.9214 0.3538 0.1607
vn -0.7361 0.6765 -0.0208
vn -0.5221 -0.5069 -0.6859
vn -0.6732 -0.5848 -0.4526
vn -0.5596 0.7320 -0.3887
vn -0.3776 0.8392 -0.3914
vn -0.8263 -0.5076 -0.2442
vn -0.8872 -0.4611 0.0140
vn -0.5261 0.6820 -0.5081
vn -0.3995 0.4613 -0.7922
vn -0.9385 -0.2557 0.2320
vn -0.9395 0.0344 0.3408
vn -0.4842 0.0336 -0.8743
vn -0.3271 -0.0389 -0.9442
vn -0.9146 0.2953 0.2761
vn -0.7966 0.5368 0.2781
vn -0.5342 -0.0120 -0.8453
vn -0.6552 -0.3476 -0.6708
vn -0.6439 0.7590 0.0964
vn -0.4038 0.7437 -0.5327
vn -0.9666 -0.2453 0.0740
vn -0.8906 -0.2986 0.3431
vn -0.4085 0.4158 -0.8126
vn -0.3099 0.0214 -0.9505
vn -0.9743 -0.1608 0.1579
vn -0.9463 0.2798 0.1622
vn -0.3092 -0.0799 -0.9476
vn -0.3599 -0.1612 -0.9190
vn -0.7641 0.6444 0.0297
vn -0.5829 0.7948 0.1686
vn -0.6286 -0.3866 -0.6749
vn -0.7643 -0.5649 -0.3110
vn -0.6964 0.7151 -0.0606
vn -0.5338 0.7089 -0.4609
vn -0.7929 -0.5676 -0.2216
vn -0.8404 -0.5189 -0.1566
vn -0.3416 0.4975 -0.7974
vn -0.9838 -0.1726 0.0488
vn -0.9429 0.1914 0.2726
vn -0.3541 0.3809 -0.8541
vn -0.4433 -0.0267 -0.8960
vn -0.9140 0.2858 0.2880
vn -0.8941 0.3750 0.2449
vn -0.5666 -0.4019 -0.7194
vn -0.4177 -0.6048 -0.6780
vn -0.7697 0.6343 -0.0720
vn -0.4911 0.7960 -0.3538
vn -0.6240 -0.4482 -0.6401
vn -0.8522 -0.4445 -0.2760
vn -0.4263 0.7909 -0.4391
vn -0.8712 0.1438 -0.4693
vn -0.7449 0.6665 -0.0318
vn -0.5938 0.6421 -0.4848
vn -0.3541 0.4260 -0.8325
vn -0.4975 -0.0229 -0.8672
vn -0.5796 -0.4465 -0.6817
vn -0.8613 -0.4040 -0.3080
vn -0.9694 -0.2178 0.1136
vn -0.9630 0.2563 0.0829
vn -0.3871 -0.1171 -0.9146
vn -0.5948 -0.4264 -0.6815
vn -0.1089 -0.1301 -0.9855
vn -0.3461 -0.0114 -0.9381
vn -0.3713 0.4249 -0.8256
vn -0.4557 0.7262 -0.5147
vn -0.2542 0.8853 -0.3894
vn -0.5025 0.7647 -0.4034
vn -0.7520 0.6576 -0.0459
vn -0.9150 0.3343 0.2259
vn -0.8248 0.3001 0.4791
vn -0.9485 0.2160 0.2316
vn -0.9749 -0.2017 0.0941
vn -0.8343 -0.5144 -0.1985
vn -0.6780 -0.7247 -0.1232
vn -0.7905 -0.5348 -0.2984
vn -0.3171 -0.2226 -0.9219
vn -0.4090 0.4138 -0.8134
vn -0.1343 -0.1452 -0.9802
vn -0.2614 0.1377 -0.9554
vn -0.6556 -0.2734 -0.7039
vn -0.8773 -0.4648 -0.1197
vn -0.7186 -0.6546 -0.2347
vn -0.7221 -0.5156 -0.4612
vn -0.9890 -0.0917 -0.1157
vn -0.8788 0.4678 0.0942
vn -0.9128 0.2603 0.3146
vn -0.9717 0.1185 0.2045
vn -0.7655 0.6238 -0.1580
vn -0.3503 0.7063 -0.6151
vn -0.2768 0.8499 -0.4484
vn -0.4881 0.8199 -0.2994
vn 0.8056 -0.2019 0.5570
vn -0.1010 0.9934 -0.0544
vn -0.7488 -0.3223 -0.5791
vn -0.6163 0.2266 0.7542
vn 0.3230 0.3691 -0.8715
vn -0.2226 0.3286 -0.9179
vn -0.8486 0.1375 -0.5109
vn -0.1137 0.0296 -0.9931
vn -0.2073 0.0189 0.9781
vn -0.7504 -0.0009 0.6610
vn 0.4060 0.0390 0.9130
vn 0.7407 0.0310 -0.6711
vn 0.9939 0.0423 -0.1020
vn 0.1731 0.0183 -0.9847
vn -0.9965 -0.0173 0.0812
vn -0.8765 -0.0132 -0.4812
vn 0.8596 0.0424 0.5092
vn -0.4676 -0.0025 -0.8840
vn -0.1184 0.6577 0.7439
vn 0.2426 0.9238 0.2961
vn 0.5114 0.8043 -0.3026
vn -0.1274 -0.9579 -0.2574
usemtl None
s 1
f 547/1/1 417/2/2 3/3/3 347/4/4
f 546/5/5 392/6/6 7/7/7 341/8/8
f 545/9/9 399/10/10 2/11/11 206/12/12
f 544/13/13 376/14/14 11/15/15 303/16/16
f 543/17/17 384/18/18 15/19/19 322/20/20
f 542/21/21 371/22/22 17/23/23 411/24/24
f 541/25/25 368/26/26 10/27/27 174/28/28
f 540/29/29 241/30/30 14/31/31 178/32/32
f 7/33/33 381/34/34 336/35/35
f 2/36/36 399/37/37 159/38/38
f 16/39/39 290/40/40 159/41/38
f 13/42/41 381/34/34 420/43/42
f 539/44/43 344/45/44 19/46/45 257/47/46
f 538/48/47 150/49/48 20/50/49 191/51/50
f 20/52/49 257/53/46 191/54/50
f 537/55/51 363/56/52 21/57/53 335/58/54
f 536/59/55 194/60/56 5/61/57 256/62/58
f 535/63/59 332/64/60 1/65/61 398/66/62
f 534/67/63 350/68/64 23/69/65 321/70/66
f 533/71/67 328/72/68 8/73/69 201/74/70
f 532/75/71 351/76/72 4/77/73 318/78/74
f 531/79/75 347/80/4 3/81/3 193/82/76
f 23/83/65 350/84/64 194/85/56
f 530/86/77 399/87/78 2/88/36 253/89/79
f 529/90/80 392/91/6 6/92/81 193/82/76
f 528/93/82 154/94/83 30/95/84 362/96/85
f 527/97/86 197/98/87 34/99/88 255/100/89
f 526/101/90 250/102/91 33/103/92 223/104/93
f 525/105/94 331/106/95 38/107/96 240/108/97
f 524/109/98 330/110/99 29/111/100 204/112/101
f 523/113/102 231/114/103 37/115/104 394/116/105
f 522/117/106 369/118/107 41/119/108 390/120/109
f 521/121/110 276/122/111 43/123/112 217/124/113
f 520/125/114 168/126/115 46/127/116 226/128/117
f 519/129/118 220/130/119 50/131/120 287/132/121
f 518/133/122 282/134/123 49/135/124 378/136/125
f 517/137/126 357/138/127 54/139/128 261/140/129
f 516/141/130 404/142/131 45/143/132 364/144/133
f 515/145/134 254/146/135 53/147/136 145/148/137
f 514/149/138 162/150/139 57/151/140 419/152/141
f 513/153/142 214/154/143 59/155/144 299/156/145
f 512/157/146 243/158/147 62/159/148 306/160/149
f 511/161/150 183/162/151 66/163/152 397/164/153
f 510/165/154 380/166/155 65/167/156 176/168/157
f 509/169/158 302/170/159 70/171/160 372/172/161
f 508/173/162 268/174/163 61/175/164 157/176/165
f 507/177/166 367/178/167 69/179/168 233/180/169
f 506/181/170 209/182/171 73/183/172 213/184/173
f 505/185/174 356/186/175 75/187/176 366/188/177
f 504/189/178 156/190/179 78/191/180 361/192/181
f 503/193/182 388/194/183 82/195/184 326/196/185
f 502/197/186 304/198/187 81/199/188 179/200/189
f 501/201/190 218/202/191 86/203/192 291/204/193
f 500/205/194 393/206/195 77/207/196 219/208/197
f 499/209/198 285/210/199 85/211/200 161/212/201
f 498/213/202 185/214/203 89/215/204 188/216/205
f 497/217/206 338/218/207 91/219/208 342/220/209
f 496/221/210 407/222/211 94/223/212 333/224/213
f 495/225/214 375/226/215 98/227/216 173/228/217
f 494/229/218 151/230/219 97/231/220 309/232/221
f 493/233/222 208/234/223 102/235/224 421/236/225
f 492/237/226 295/238/227 93/239/228 196/240/229
f 491/241/230 409/242/231 101/243/232 289/244/233
f 490/245/234 260/246/235 105/247/236 263/248/237
f 489/249/238 232/250/239 107/251/240 408/252/241
f 108/253/242 270/254/243 187/255/244
f 111/256/245 267/257/246 198/258/247
f 113/259/248 396/260/249 406/261/250
f 112/262/251 200/263/252 195/264/253
f 114/265/254 274/266/255 144/267/256
f 115/268/257 202/269/258 337/270/259
f 116/271/260 418/272/261 264/273/262
f 110/274/263 352/275/264 273/276/265
f 488/277/266 259/278/267 117/279/268 382/280/269
f 487/281/270 319/282/271 119/283/272 237/284/273
f 486/285/274 298/286/275 121/287/276 415/288/277
f 485/289/278 167/290/279 123/291/280 280/292/281
f 484/293/282 317/294/283 124/295/284 284/296/285
f 483/297/286 293/298/287 118/299/288 165/300/289
f 482/301/290 242/302/291 120/303/292 353/304/293
f 481/305/294 175/306/295 122/307/296 414/308/297
f 480/309/298 199/310/299 127/311/300 272/312/301
f 479/313/302 373/314/303 131/315/304 312/316/305
f 478/317/306 266/318/307 130/319/308 166/320/309
f 477/321/310 190/322/311 135/323/312 258/324/313
f 476/325/314 236/326/315 126/327/316 424/328/317
f 475/329/318 247/330/319 134/331/320 413/332/321
f 474/333/322 401/334/323 138/335/324 403/336/325
f 473/337/326 323/338/327 140/339/328 244/340/329
f 472/341/330 284/342/285 124/343/284 212/344/331
f 471/345/332 414/346/297 122/347/296 222/348/333
f 470/349/334 415/350/277 121/351/276 374/352/335
f 469/353/336 353/354/293 120/355/292 171/356/337
f 468/357/338 237/358/273 119/359/272 221/360/339
f 467/361/340 165/362/289 118/363/288 300/364/341
f 466/365/342 382/366/269 117/367/268 227/368/343
f 465/369/344 280/370/281 123/371/280 346/372/345
f 464/373/346 373/374/303 130/375/308 400/376/347
f 463/377/348 266/378/307 134/379/320 149/380/349
f 462/381/350 247/382/319 138/383/324 387/384/351
f 461/385/352 401/386/323 140/387/328 278/388/353
f 460/389/354 323/390/327 127/391/300 170/392/355
f 459/393/356 199/394/299 126/395/316 230/396/357
f 458/397/358 236/398/315 135/399/312 211/400/359
f 457/401/360 190/402/311 131/403/304 329/404/361
f 456/405/362 311/406/363 125/407/364 210/408/365
f 455/409/366 279/410/367 128/411/368 288/412/369
f 454/413/370 379/414/371 139/415/372 294/416/373
f 453/417/374 189/418/375 137/419/376 412/420/377
f 452/421/378 340/422/379 133/423/380 169/424/381
f 451/425/382 370/426/383 129/427/384 239/428/385
f 450/429/386 297/430/387 132/431/388 235/432/389
f 449/433/390 405/434/391 136/435/392 229/436/393
f 448/437/394 313/438/395 76/439/396 155/440/397
f 447/441/398 355/442/399 79/443/400 377/444/401
f 446/445/402 402/446/403 90/447/404 143/448/405
f 445/449/406 224/450/407 88/451/408 246/452/409
f 444/453/410 360/454/411 84/455/412 228/456/413
f 443/457/414 325/458/415 80/459/416 262/460/417
f 442/461/418 248/462/419 83/463/420 345/464/421
f 441/465/422 152/466/423 87/467/424 308/468/425
f 440/469/426 286/470/427 63/471/428 365/472/429
f 439/473/430 275/474/431 74/475/432 216/476/433
f 438/477/434 249/478/435 72/479/436 423/480/437
f 437/481/438 153/482/439 68/483/440 147/484/441
f 436/485/442 251/486/443 64/487/444 339/488/445
f 435/489/446 327/490/447 67/491/448 163/492/449
f 434/493/450 225/494/451 71/495/452 391/496/453
f 433/497/454 349/498/455 60/499/456 182/500/457
f 432/501/458 205/502/459 47/503/460 422/504/461
f 431/505/462 410/506/463 58/507/464 245/508/465
f 430/509/466 320/510/467 56/511/468 269/512/469
f 429/513/470 203/514/471 52/515/472 277/516/473
f 428/517/474 389/518/475 48/519/412 307/520/476
f 427/521/477 177/522/478 51/523/479 348/524/480
f 426/525/481 416/526/482 55/527/483 181/528/484
f 425/529/485 192/530/486 44/531/487 160/532/488
f 141/533/489 296/534/490 271/535/491
f 141/536/489 271/537/491 238/538/492
f 141/539/489 238/540/492 359/541/493
f 141/542/489 359/543/493 146/544/494
f 141/545/489 146/546/494 142/547/495
f 141/548/489 142/549/495 164/550/496
f 141/551/489 164/552/496 215/553/497
f 141/554/489 215/555/497 296/556/490
f 296/556/490 234/557/498 35/558/499
f 296/556/490 215/555/497 234/557/498
f 215/555/497 32/559/500 234/557/498
f 215/553/497 310/560/501 32/561/500
f 215/553/497 164/552/496 310/560/501
f 164/552/496 36/562/502 310/560/501
f 164/550/496 180/563/503 36/564/502
f 164/550/496 142/549/495 180/563/503
f 142/549/495 40/565/504 180/563/503
f 142/547/495 292/566/505 40/567/504
f 142/547/495 146/546/494 292/566/505
f 146/546/494 42/568/506 292/566/505
f 146/544/494 334/569/507 42/570/506
f 146/544/494 359/543/493 334/569/507
f 359/543/493 31/571/508 334/569/507
f 359/541/493 343/572/509 31/573/508
f 359/541/493 238/540/492 343/572/509
f 238/540/492 28/574/510 343/572/509
f 238/538/492 252/575/511 28/576/510
f 238/538/492 271/537/491 252/575/511
f 271/537/491 39/577/512 252/575/511
f 271/535/491 386/578/513 39/579/512
f 271/535/491 296/534/490 386/578/513
f 296/534/490 35/580/499 386/578/513
f 331/581/95 425/529/485 160/532/488 38/582/96
f 34/583/88 181/584/484 425/529/485 331/581/95
f 181/584/484 55/585/483 192/530/486 425/529/485
f 197/586/87 426/525/481 181/528/484 34/587/88
f 33/588/92 348/589/480 426/525/481 197/586/87
f 348/589/480 51/590/479 416/526/482 426/525/481
f 250/591/91 427/521/477 348/524/480 33/592/92
f 37/593/104 307/594/476 427/521/477 250/591/91
f 307/594/476 48/595/412 177/522/478 427/521/477
f 231/596/103 428/517/474 307/520/476 37/597/104
f 41/598/108 277/599/473 428/517/474 231/596/103
f 277/599/473 52/600/472 389/518/475 428/517/474
f 369/601/107 429/513/470 277/516/473 41/602/108
f 43/603/112 269/604/469 429/513/470 369/601/107
f 269/604/469 56/605/468 203/514/471 429/513/470
f 276/606/111 430/509/466 269/512/469 43/607/112
f 30/608/84 245/609/465 430/509/466 276/606/111
f 245/609/465 58/610/464 320/510/467 430/509/466
f 154/611/83 431/505/462 245/508/465 30/612/84
f 29/613/100 422/614/461 431/505/462 154/611/83
f 422/614/461 47/615/460 410/506/463 431/505/462
f 330/616/99 432/501/458 422/504/461 29/617/100
f 38/618/96 160/619/488 432/501/458 330/616/99
f 160/619/488 44/620/487 205/502/459 432/501/458
f 357/621/127 433/497/454 182/500/457 54/622/128
f 50/623/120 391/624/453 433/497/454 357/621/127
f 391/624/453 71/625/452 349/498/455 433/497/454
f 220/626/119 434/493/450 391/496/453 50/627/120
f 49/628/124 163/629/449 434/493/450 220/626/119
f 163/629/449 67/630/448 225/494/451 434/493/450
f 282/631/123 435/489/446 163/492/449 49/632/124
f 53/633/136 339/634/445 435/489/446 282/631/123
f 339/634/445 64/635/444 327/490/447 435/489/446
f 254/636/135 436/485/442 339/488/445 53/637/136
f 57/638/140 147/639/441 436/485/442 254/636/135
f 147/639/441 68/640/440 251/486/443 436/485/442
f 162/641/139 437/481/438 147/484/441 57/642/140
f 59/643/144 423/644/437 437/481/438 162/641/139
f 423/644/437 72/645/436 153/482/439 437/481/438
f 214/646/143 438/477/434 423/480/437 59/647/144
f 46/648/116 216/649/433 438/477/434 214/646/143
f 216/649/433 74/650/432 249/478/435 438/477/434
f 168/651/115 439/473/430 216/476/433 46/652/116
f 45/653/132 365/654/429 439/473/430 168/651/115
f 365/654/429 63/655/428 275/474/431 439/473/430
f 404/656/131 440/469/426 365/472/429 45/657/132
f 54/658/128 182/659/457 440/469/426 404/656/131
f 182/659/457 60/660/456 286/470/427 440/469/426
f 302/661/159 441/465/422 308/468/425 70/662/160
f 66/663/152 345/664/421 441/465/422 302/661/159
f 345/664/421 83/665/420 152/466/423 441/465/422
f 183/666/151 442/461/418 345/464/421 66/667/152
f 65/668/156 262/669/417 442/461/418 183/666/151
f 262/669/417 80/670/416 248/462/419 442/461/418
f 380/671/155 443/457/414 262/460/417 65/672/156
f 69/673/168 228/674/413 443/457/414 380/671/155
f 228/674/413 84/675/412 325/458/415 443/457/414
f 367/676/167 444/453/410 228/456/413 69/677/168
f 73/678/172 246/679/409 444/453/410 367/676/167
f 246/679/409 88/680/408 360/454/411 444/453/410
f 209/681/171 445/449/406 246/452/409 73/682/172
f 75/683/176 143/684/405 445/449/406 209/681/171
f 143/684/405 90/685/404 224/450/407 445/449/406
f 356/686/175 446/445/402 143/448/405 75/687/176
f 62/688/148 377/689/401 446/445/402 356/686/175
f 377/689/401 79/690/400 402/446/403 446/445/402
f 243/691/147 447/441/398 377/444/401 62/692/148
f 61/693/164 155/694/397 447/441/398 243/691/147
f 155/694/397 76/695/396 355/442/399 447/441/398
f 268/696/163 448/437/394 155/440/397 61/697/164
f 70/698/160 308/699/425 448/437/394 268/696/163
f 308/699/425 87/700/424 313/438/395 448/437/394
f 218/701/191 449/433/390 229/436/393 86/702/192
f 82/703/184 235/704/389 449/433/390 218/701/191
f 235/704/389 132/705/388 405/434/391 449/433/390
f 388/706/183 450/429/386 235/432/389 82/707/184
f 81/708/188 239/709/385 450/429/386 388/706/183
f 239/709/385 129/710/384 297/430/387 450/429/386
f 304/711/187 451/425/382 239/428/385 81/712/188
f 85/713/200 169/714/381 451/425/382 304/711/187
f 169/714/381 133/715/380 370/426/383 451/425/382
f 285/716/199 452/421/378 169/424/381 85/717/200
f 89/718/204 412/719/377 452/421/378 285/716/199
f 412/719/377 137/720/376 340/422/379 452/421/378
f 185/721/203 453/417/374 412/420/377 89/722/204
f 91/723/208 294/724/373 453/417/374 185/721/203
f 294/724/373 139/725/372 189/418/375 453/417/374
f 338/726/207 454/413/370 294/416/373 91/727/208
f 78/728/180 288/729/369 454/413/370 338/726/207
f 288/729/369 128/730/368 379/414/371 454/413/370
f 156/731/179 455/409/366 288/412/369 78/732/180
f 77/733/196 210/734/365 455/409/366 156/731/179
f 210/734/365 125/735/364 279/410/367 455/409/366
f 393/736/195 456/405/362 210/408/365 77/737/196
f 86/738/192 229/739/393 456/405/362 393/736/195
f 229/739/393 136/740/392 311/406/363 456/405/362
f 281/741/514 457/401/360 329/404/361 99/742/515
f 103/743/516 211/744/359 457/401/360 281/741/514
f 211/744/359 135/745/312 190/402/311 457/401/360
f 207/746/517 458/397/358 211/400/359 103/747/516
f 92/748/518 230/749/357 458/397/358 207/746/517
f 230/749/357 126/750/316 236/398/315 458/397/358
f 324/751/519 459/393/356 230/396/357 92/752/518
f 95/753/520 170/754/355 459/393/356 324/751/519
f 170/754/355 127/755/300 199/394/299 459/393/356
f 301/756/521 460/389/354 170/392/355 95/757/520
f 106/758/522 278/759/353 460/389/354 301/756/521
f 278/759/353 140/760/328 323/390/327 460/389/354
f 172/761/523 461/385/352 278/388/353 106/762/522
f 104/763/524 387/764/351 461/385/352 172/761/523
f 387/764/351 138/765/324 401/386/323 461/385/352
f 354/766/525 462/381/350 387/384/351 104/767/524
f 100/768/526 149/769/349 462/381/350 354/766/525
f 149/769/349 134/770/320 247/382/319 462/381/350
f 383/771/527 463/377/348 149/380/349 100/772/526
f 96/773/528 400/774/347 463/377/348 383/771/527
f 400/774/347 130/775/308 266/378/307 463/377/348
f 315/776/529 464/373/346 400/376/347 96/777/528
f 99/778/515 329/779/361 464/373/346 315/776/529
f 329/779/361 131/780/304 373/374/303 464/373/346
f 208/781/223 465/369/344 346/372/345 102/782/224
f 98/783/216 227/784/343 465/369/344 208/781/223
f 227/784/343 117/785/268 280/370/281 465/369/344
f 375/786/215 466/365/342 227/368/343 98/787/216
f 97/788/220 300/789/341 466/365/342 375/786/215
f 300/789/341 118/790/288 382/366/269 466/365/342
f 151/791/219 467/361/340 300/364/341 97/792/220
f 101/793/232 221/794/339 467/361/340 151/791/219
f 221/794/339 119/795/272 165/362/289 467/361/340
f 409/796/231 468/357/338 221/360/339 101/797/232
f 105/798/236 171/799/337 468/357/338 409/796/231
f 171/799/337 120/800/292 237/358/273 468/357/338
f 260/801/235 469/353/336 171/356/337 105/802/236
f 107/803/240 374/804/335 469/353/336 260/801/235
f 374/804/335 121/805/276 353/354/293 469/353/336
f 232/806/239 470/349/334 374/352/335 107/807/240
f 94/808/212 222/809/333 470/349/334 232/806/239
f 222/809/333 122/810/296 415/350/277 470/349/334
f 407/811/211 471/345/332 222/348/333 94/812/212
f 93/813/228 212/814/331 471/345/332 407/811/211
f 212/814/331 124/815/284 414/346/297 471/345/332
f 295/816/227 472/341/330 212/344/331 93/817/228
f 102/818/224 346/819/345 472/341/330 295/816/227
f 346/819/345 123/820/280 284/342/285 472/341/330
f 379/821/371 473/337/326 244/340/329 139/822/372
f 128/823/368 272/312/301 473/337/326 379/821/371
f 272/312/301 127/311/300 323/338/327 473/337/326
f 189/824/375 474/333/322 403/336/325 137/825/376
f 139/822/372 244/340/329 474/333/322 189/824/375
f 244/340/329 140/339/328 401/334/323 474/333/322
f 340/826/379 475/329/318 413/332/321 133/827/380
f 137/825/376 403/336/325 475/329/318 340/826/379
f 403/336/325 138/335/324 247/330/319 475/329/318
f 311/828/363 476/325/314 424/328/317 125/829/364
f 136/830/392 258/324/313 476/325/314 311/828/363
f 258/324/313 135/323/312 236/326/315 476/325/314
f 405/831/391 477/321/310 258/324/313 136/830/392
f 132/832/388 312/316/305 477/321/310 405/831/391
f 312/316/305 131/315/304 190/322/311 477/321/310
f 370/833/383 478/317/306 166/320/309 129/834/384
f 133/827/380 413/332/321 478/317/306 370/833/383
f 413/332/321 134/331/320 266/318/307 478/317/306
f 297/835/387 479/313/302 312/316/305 132/832/388
f 129/834/384 166/320/309 479/313/302 297/835/387
f 166/320/309 130/319/308 373/314/303 479/313/302
f 279/836/367 480/309/298 272/312/301 128/823/368
f 125/829/364 424/328/317 480/309/298 279/836/367
f 424/328/317 126/327/316 199/310/299 480/309/298
f 317/294/283 481/305/294 414/308/297 124/295/284
f 108/253/242 187/255/244 481/305/294 317/294/283
f 187/255/244 110/274/263 175/306/295 481/305/294
f 298/286/275 482/301/290 353/304/293 121/287/276
f 116/271/260 264/273/262 482/301/290 298/286/275
f 264/273/262 115/268/257 242/302/291 482/301/290
f 319/282/271 483/297/286 165/300/289 119/283/272
f 113/259/248 406/261/250 483/297/286 319/282/271
f 406/261/250 111/256/245 293/298/287 483/297/286
f 167/290/279 484/293/282 284/296/285 123/291/280
f 114/265/254 144/267/256 484/293/282 167/290/279
f 144/267/256 108/253/242 317/294/283 484/293/282
f 259/278/267 485/289/278 280/292/281 117/279/268
f 112/262/251 195/264/253 485/289/278 259/278/267
f 195/264/253 114/265/254 167/290/279 485/289/278
f 175/306/295 486/285/274 415/288/277 122/307/296
f 110/274/263 273/276/265 486/285/274 175/306/295
f 273/276/265 116/271/260 298/286/275 486/285/274
f 242/302/291 487/281/270 237/284/273 120/303/292
f 115/268/257 337/270/259 487/281/270 242/302/291
f 337/270/259 113/259/248 319/282/271 487/281/270
f 293/298/287 488/277/266 382/280/269 118/299/288
f 111/256/245 198/258/247 488/277/266 293/298/287
f 198/258/247 112/262/251 259/278/267 488/277/266
f 273/276/265 418/837/261 116/271/260
f 273/276/265 352/275/264 418/837/261
f 352/275/264 109/838/530 418/837/261
f 264/273/262 202/839/258 115/268/257
f 264/273/262 418/272/261 202/839/258
f 418/272/261 109/840/530 202/839/258
f 337/270/259 396/841/249 113/259/248
f 337/270/259 202/269/258 396/841/249
f 202/269/258 109/842/530 396/841/249
f 144/267/256 270/843/243 108/253/242
f 144/267/256 274/266/255 270/843/243
f 274/266/255 109/844/530 270/843/243
f 195/264/253 274/845/255 114/265/254
f 195/264/253 200/263/252 274/845/255
f 200/263/252 109/846/530 274/845/255
f 406/261/250 267/847/246 111/256/245
f 406/261/250 396/260/249 267/847/246
f 396/260/249 109/848/530 267/847/246
f 198/258/247 200/849/252 112/262/251
f 198/258/247 267/257/246 200/849/252
f 267/257/246 109/850/530 200/849/252
f 187/255/244 352/851/264 110/274/263
f 187/255/244 270/254/243 352/851/264
f 270/254/243 109/852/530 352/851/264
f 301/853/521 489/249/238 408/252/241 106/854/522
f 95/855/520 333/224/213 489/249/238 301/853/521
f 333/224/213 94/223/212 232/250/239 489/249/238
f 172/856/523 490/245/234 263/248/237 104/857/524
f 106/854/522 408/252/241 490/245/234 172/856/523
f 408/252/241 107/251/240 260/246/235 490/245/234
f 354/858/525 491/241/230 289/244/233 100/859/526
f 104/857/524 263/248/237 491/241/230 354/858/525
f 263/248/237 105/247/236 409/242/231 491/241/230
f 207/860/517 492/237/226 196/240/229 92/861/518
f 103/862/516 421/236/225 492/237/226 207/860/517
f 421/236/225 102/235/224 295/238/227 492/237/226
f 281/863/514 493/233/222 421/236/225 103/862/516
f 99/864/515 173/228/217 493/233/222 281/863/514
f 173/228/217 98/227/216 208/234/223 493/233/222
f 383/865/527 494/229/218 309/232/221 96/866/528
f 100/859/526 289/244/233 494/229/218 383/865/527
f 289/244/233 101/243/232 151/230/219 494/229/218
f 315/867/529 495/225/214 173/228/217 99/864/515
f 96/866/528 309/232/221 495/225/214 315/867/529
f 309/232/221 97/231/220 375/226/215 495/225/214
f 324/868/519 496/221/210 333/224/213 95/855/520
f 92/861/518 196/240/229 496/221/210 324/868/519
f 196/240/229 93/239/228 407/222/211 496/221/210
f 402/869/403 497/217/206 342/220/209 90/870/404
f 79/871/400 361/192/181 497/217/206 402/869/403
f 361/192/181 78/191/180 338/218/207 497/217/206
f 224/872/407 498/213/202 188/216/205 88/873/408
f 90/870/404 342/220/209 498/213/202 224/872/407
f 342/220/209 91/219/208 185/214/203 498/213/202
f 360/874/411 499/209/198 161/212/201 84/875/412
f 88/873/408 188/216/205 499/209/198 360/874/411
f 188/216/205 89/215/204 285/210/199 499/209/198
f 313/876/395 500/205/194 219/208/197 76/877/396
f 87/878/424 291/204/193 500/205/194 313/876/395
f 291/204/193 86/203/192 393/206/195 500/205/194
f 152/879/423 501/201/190 291/204/193 87/878/424
f 83/880/420 326/196/185 501/201/190 152/879/423
f 326/196/185 82/195/184 218/202/191 501/201/190
f 325/881/415 502/197/186 179/200/189 80/882/416
f 84/875/412 161/212/201 502/197/186 325/881/415
f 161/212/201 85/211/200 304/198/187 502/197/186
f 248/883/419 503/193/182 326/196/185 83/880/420
f 80/882/416 179/200/189 503/193/182 248/883/419
f 179/200/189 81/199/188 388/194/183 503/193/182
f 355/884/399 504/189/178 361/192/181 79/871/400
f 76/877/396 219/208/197 504/189/178 355/884/399
f 219/208/197 77/207/196 156/190/179 504/189/178
f 275/885/431 505/185/174 366/188/177 74/886/432
f 63/887/428 306/160/149 505/185/174 275/885/431
f 306/160/149 62/159/148 356/186/175 505/185/174
f 249/888/435 506/181/170 213/184/173 72/889/436
f 74/886/432 366/188/177 506/181/170 249/888/435
f 366/188/177 75/187/176 209/182/171 506/181/170
f 153/890/439 507/177/166 233/180/169 68/891/440
f 72/889/436 213/184/173 507/177/166 153/890/439
f 213/184/173 73/183/172 367/178/167 507/177/166
f 349/892/455 508/173/162 157/176/165 60/893/456
f 71/894/452 372/172/161 508/173/162 349/892/455
f 372/172/161 70/171/160 268/174/163 508/173/162
f 225/895/451 509/169/158 372/172/161 71/894/452
f 67/896/448 397/164/153 509/169/158 225/895/451
f 397/164/153 66/163/152 302/170/159 509/169/158
f 251/897/443 510/165/154 176/168/157 64/898/444
f 68/891/440 233/180/169 510/165/154 251/897/443
f 233/180/169 69/179/168 380/166/155 510/165/154
f 327/899/447 511/161/150 397/164/153 67/896/448
f 64/898/444 176/168/157 511/161/150 327/899/447
f 176/168/157 65/167/156 183/162/151 511/161/150
f 286/900/427 512/157/146 306/160/149 63/887/428
f 60/893/456 157/176/165 512/157/146 286/900/427
f 157/176/165 61/175/164 243/158/147 512/157/146
f 410/901/463 513/153/142 299/156/145 58/902/464
f 47/903/460 226/128/117 513/153/142 410/901/463
f 226/128/117 46/127/116 214/154/143 513/153/142
f 320/904/467 514/149/138 419/152/141 56/905/468
f 58/902/464 299/156/145 514/149/138 320/904/467
f 299/156/145 59/155/144 162/150/139 514/149/138
f 203/906/471 515/145/134 145/148/137 52/907/472
f 56/905/468 419/152/141 515/145/134 203/906/471
f 419/152/141 57/151/140 254/146/135 515/145/134
f 192/908/486 516/141/130 364/144/133 44/909/487
f 55/910/483 261/140/129 516/141/130 192/908/486
f 261/140/129 54/139/128 404/142/131 516/141/130
f 416/911/482 517/137/126 261/140/129 55/910/483
f 51/912/479 287/132/121 517/137/126 416/911/482
f 287/132/121 50/131/120 357/138/127 517/137/126
f 389/913/475 518/133/122 378/136/125 48/914/412
f 52/907/472 145/148/137 518/133/122 389/913/475
f 145/148/137 53/147/136 282/134/123 518/133/122
f 177/915/478 519/129/118 287/132/121 51/912/479
f 48/914/412 378/136/125 519/129/118 177/915/478
f 378/136/125 49/135/124 220/130/119 519/129/118
f 205/916/459 520/125/114 226/128/117 47/903/460
f 44/909/487 364/144/133 520/125/114 205/916/459
f 364/144/133 45/143/132 168/126/115 520/125/114
f 334/917/507 521/121/110 217/124/113 42/918/506
f 31/919/508 362/96/85 521/121/110 334/917/507
f 362/96/85 30/95/84 276/122/111 521/121/110
f 292/920/505 522/117/106 390/120/109 40/921/504
f 42/918/506 217/124/113 522/117/106 292/920/505
f 217/124/113 43/123/112 369/118/107 522/117/106
f 180/922/503 523/113/102 394/116/105 36/923/502
f 40/921/504 390/120/109 523/113/102 180/922/503
f 390/120/109 41/119/108 231/114/103 523/113/102
f 252/924/511 524/109/98 204/112/101 28/925/510
f 39/926/512 240/108/97 524/109/98 252/924/511
f 240/108/97 38/107/96 330/110/99 524/109/98
f 386/927/513 525/105/94 240/108/97 39/926/512
f 35/928/499 255/100/89 525/105/94 386/927/513
f 255/100/89 34/99/88 331/106/95 525/105/94
f 310/929/501 526/101/90 223/104/93 32/930/500
f 36/923/502 394/116/105 526/101/90 310/929/501
f 394/116/105 37/115/104 250/102/91 526/101/90
f 234/931/498 527/97/86 255/100/89 35/928/499
f 32/930/500 223/104/93 527/97/86 234/931/498
f 223/104/93 33/103/92 197/98/87 527/97/86
f 343/932/509 528/93/82 362/96/85 31/919/508
f 28/925/510 204/112/101 528/93/82 343/932/509
f 204/112/101 29/111/100 154/94/83 528/93/82
f 417/933/2 529/90/80 193/82/76 3/81/3
f 2/934/11 399/935/531 529/90/80 417/933/2
f 399/935/531 7/936/7 392/91/6 529/90/80
f 158/937/532 530/86/77 253/89/79 9/938/533
f 18/939/534 395/940/535 530/86/77 158/937/532
f 395/940/535 7/941/33 399/87/78 530/86/77
f 194/85/56 265/942/536 5/943/57
f 194/85/56 350/84/64 265/942/536
f 350/84/64 4/944/73 265/942/536
f 186/945/537 531/79/75 193/82/76 6/92/81
f 5/943/57 265/942/536 531/79/75 186/945/537
f 265/942/536 4/944/73 347/80/4 531/79/75
f 358/946/538 532/75/71 318/78/74 27/947/539
f 26/948/540 398/66/62 532/75/71 358/946/538
f 398/66/62 1/65/61 351/76/72 532/75/71
f 184/949/541 533/71/67 201/74/70 25/950/542
f 24/951/543 256/62/58 533/71/67 184/949/541
f 256/62/58 5/61/57 328/72/68 533/71/67
f 316/952/544 534/67/63 321/70/66 22/953/545
f 27/947/539 318/78/74 534/67/63 316/952/544
f 318/78/74 4/77/73 350/68/64 534/67/63
f 148/954/546 535/63/59 398/66/62 26/948/540
f 25/955/542 201/956/70 535/63/59 148/954/546
f 201/956/70 8/957/69 332/64/60 535/63/59
f 385/958/547 536/59/55 256/62/58 24/951/543
f 22/953/545 321/70/66 536/59/55 385/958/547
f 321/70/66 23/69/65 194/60/56 536/59/55
f 344/959/44 537/55/51 335/58/54 19/960/45
f 18/939/534 158/937/532 537/55/51 344/959/44
f 158/937/532 9/938/533 363/56/52 537/55/51
f 191/54/50 335/58/54 21/57/53
f 191/54/50 257/53/46 335/58/54
f 257/53/46 19/960/45 335/58/54
f 363/961/52 538/48/47 191/51/50 21/962/53
f 9/963/533 305/964/548 538/48/47 363/961/52
f 305/964/548 12/965/549 150/49/48 538/48/47
f 150/49/48 539/44/43 257/47/46 20/50/49
f 12/965/549 283/966/550 539/44/43 150/49/48
f 283/966/550 18/967/534 344/45/44 539/44/43
f 420/43/42 395/968/535 18/967/534
f 420/43/42 381/34/34 395/968/535
f 381/34/34 7/33/33 395/968/535
f 159/41/38 253/969/79 2/970/36
f 159/41/38 290/40/40 253/969/79
f 290/40/40 9/963/533 253/969/79
f 159/38/38 336/35/35 16/971/39
f 159/38/38 399/37/37 336/35/35
f 399/37/37 7/33/33 336/35/35
f 336/35/35 314/972/551 16/971/39
f 336/35/35 381/34/34 314/972/551
f 381/34/34 13/42/41 314/972/551
f 420/43/42 540/29/29 178/32/32 13/42/41
f 18/967/534 411/24/24 540/29/29 420/43/42
f 411/24/24 17/23/23 241/30/30 540/29/29
f 290/40/40 541/25/25 174/28/28 9/963/533
f 16/39/39 322/973/20 541/25/25 290/40/40
f 322/973/20 15/974/19 368/26/26 541/25/25
f 283/966/550 542/21/21 411/24/24 18/967/534
f 12/965/549 303/16/16 542/21/21 283/966/550
f 303/16/16 11/15/15 371/22/22 542/21/21
f 314/972/551 543/17/17 322/20/20 16/971/39
f 13/42/41 178/32/32 543/17/17 314/972/551
f 178/32/32 14/31/31 384/18/18 543/17/17
f 305/964/548 544/13/13 303/16/16 12/965/549
f 9/963/533 174/28/28 544/13/13 305/964/548
f 174/28/28 10/27/27 376/14/14 544/13/13
f 332/64/60 545/9/9 206/12/12 1/65/61
f 8/957/69 341/975/8 545/9/9 332/64/60
f 341/975/8 7/976/7 399/10/10 545/9/9
f 328/72/68 546/5/5 341/8/8 8/73/69
f 5/61/57 186/977/537 546/5/5 328/72/68
f 186/977/537 6/978/81 392/6/6 546/5/5
f 351/76/72 547/1/1 347/4/4 4/77/73
f 1/65/61 206/12/12 547/1/1 351/76/72
f 206/12/12 2/11/11 417/2/2 547/1/1
