# Blender v2.78 (sub 0) OBJ File: ''
# www.blender.org
mtllib Pine_Tree_NoLeaves_l_02.mtl
o Pine_Tree_NoLeaves_l_02
v 0.049019 6.967062 0.013080
v 0.441013 7.215755 0.616857
v 0.462027 7.204930 0.610120
v 0.096904 6.936667 -0.010502
v 0.059017 6.908609 0.028864
v 0.448634 7.195879 0.628611
v -0.066781 8.702313 -0.050027
v -0.433301 8.725734 -0.437090
v -0.415965 8.708702 -0.461650
v -0.033150 8.671236 -0.091725
v -0.410664 8.742355 -0.457243
v -0.028591 8.732870 -0.088020
v 0.071822 11.875896 -0.006378
v 0.197663 11.993176 0.271561
v 0.214328 11.989349 0.269705
v 0.105982 11.867608 -0.010870
v 0.083748 11.844002 0.003419
v 0.203614 11.978071 0.277030
v -0.033455 4.281631 0.110898
v -0.414071 4.410608 0.377948
v -0.447221 4.391296 0.353986
v -0.089782 4.229414 0.039772
v -0.429342 4.429920 0.340002
v -0.088918 4.333850 0.039096
v -0.796795 4.571290 0.666838
v -0.816303 4.560382 0.653453
v -0.805086 4.582198 0.644679
v 0.066386 5.085423 0.122255
v 0.346767 5.277413 0.533630
v 0.328278 5.263629 0.559359
v 0.031284 5.059103 0.165965
v 0.318392 5.293358 0.545269
v 0.017369 5.115676 0.145008
v -0.072734 5.912513 -0.041864
v -0.605860 6.225712 -0.498080
v -0.600869 6.215659 -0.519926
v -0.054269 5.881428 -0.091512
v -0.587643 6.234484 -0.512057
v -0.033577 5.938329 -0.081525
v 0.193852 6.539953 -0.120658
v 0.142360 9.798722 -0.104875
v 0.133766 9.795751 0.041336
v 0.159326 6.494119 0.100727
v 0.005774 6.497329 0.141479
v -0.006096 9.795807 0.078791
v -0.086227 9.793995 -0.043656
v -0.107361 6.444238 -0.041162
v 0.036318 6.531083 -0.208500
v 0.007179 9.798174 -0.157565
v 0.114625 14.650757 -0.014026
v 0.111700 14.708078 -0.077339
v 0.027513 16.929771 -0.043901
v 0.032332 16.869942 -0.017458
v 0.004692 14.635401 -0.043799
v 0.073081 14.667504 -0.005528
v 0.005903 16.902264 -0.011827
v -0.017178 16.907007 -0.031779
v 0.057537 14.737962 -0.095851
v -0.006088 16.968065 -0.049932
v -0.277062 0.039559 -0.018757
v -0.201891 3.169430 0.031442
v -0.023962 3.103572 -0.192682
v -0.057543 0.036089 -0.290291
v 0.270196 0.038768 0.179460
v 0.204730 3.157862 0.204831
v -0.082977 3.159509 0.281921
v -0.081768 0.038869 0.276116
v 0.218462 3.190313 -0.080978
v 0.261457 0.040394 -0.162587
v -0.010541 12.267693 -0.042029
v 0.064201 12.297678 -0.105616
v 0.130913 12.267560 -0.011033
v 0.043955 12.261921 0.011988
v 0.137482 12.307459 -0.082187
v -0.817055 4.574103 0.654483
v 0.076400 9.798449 -0.135468
v 0.134333 11.934888 0.132538
v -0.807692 4.579340 0.660907
v 0.029306 16.923851 -0.030512
v 0.160654 11.928615 0.129251
v -0.092091 4.281632 0.035929
v 0.220316 3.175664 0.062482
v -0.606673 6.235487 -0.513278
v 0.179604 5.160613 0.363284
v 0.114671 14.678497 -0.045494
v 0.072936 15.809235 -0.015678
v -0.055580 6.469273 0.053531
v -0.604381 6.230809 -0.523617
v -0.260890 4.305717 0.189839
v 0.118081 6.537952 -0.170943
v -0.048400 8.719852 -0.067922
v 0.000568 8.160709 0.108884
v 0.022277 5.087485 0.157106
v -0.251497 4.379858 0.182492
v -0.051002 8.684526 -0.070037
v 0.100338 3.146251 -0.145151
v 0.088207 12.263944 0.002446
v -0.178790 0.037824 -0.163949
v 0.253625 7.051557 0.329246
v 0.029055 14.686569 -0.070746
v 0.145805 8.158901 0.070176
v -0.639751 4.479305 0.510504
v 0.132200 11.046484 0.014219
v 0.065013 9.795778 0.064458
v -0.613024 6.226715 -0.517080
v 0.167278 5.205306 0.345135
v -0.243794 1.536494 0.007149
v -0.250706 8.714029 -0.242818
v 0.181216 4.824734 0.154139
v 0.062546 3.157817 0.252141
v -0.214743 4.342787 0.239162
v 0.452105 7.210681 0.633546
v -0.048299 11.046910 -0.042807
v 0.025405 15.892408 -0.073412
v -0.059816 4.311594 0.076750
v -0.096526 8.131866 -0.043681
v -0.060248 4.251669 0.077088
v 0.060510 13.466917 0.002196
v -0.012391 16.963726 -0.040143
v -0.043060 9.796085 -0.103474
v 0.024794 12.282597 -0.075044
v 0.280181 7.070774 0.299284
v -0.153566 4.804975 -0.003971
v -0.042523 1.499331 -0.243995
v 0.019184 16.897224 -0.014231
v 0.462048 7.205614 0.630439
v 0.035227 11.060982 -0.130827
v 0.143591 11.910548 0.140444
v -0.420466 8.725958 -0.465945
v 0.073653 6.953997 -0.000055
v 0.076405 11.859573 -0.001020
v 0.014056 12.264255 -0.013624
v 0.021784 8.179852 -0.184217
v 0.136767 12.287806 -0.046612
v 0.139447 11.066841 -0.093284
v -0.038359 4.827321 0.212725
v 0.181517 6.516986 -0.009161
v 0.208100 11.993303 0.275774
v -0.192210 0.039214 0.136906
v 0.242325 1.545860 -0.122762
v 0.244501 7.092120 0.314985
v 0.085478 14.725813 -0.088527
v -0.310067 6.087063 -0.297004
v 0.040233 15.821413 -0.008310
v 0.240693 1.529219 0.195097
v -0.042508 5.909748 -0.088712
v 0.206224 4.865289 -0.099649
v -0.624728 4.508522 0.498753
v -0.813076 4.568868 0.665118
v 0.098862 0.038818 0.241972
v 0.068894 15.868742 -0.060479
v 0.337821 5.288529 0.547023
v -0.439084 4.410608 0.345968
v 0.095992 11.854821 -0.003597
v -0.053110 5.927589 -0.060237
v -0.428726 8.734093 -0.454183
v 0.167793 8.182815 -0.113858
v 0.329003 5.281958 0.559344
v 0.280805 0.039581 0.009116
v 0.342584 5.274353 0.553800
v 0.018102 11.043121 0.044697
v 0.106613 0.038242 -0.240104
v 0.010551 16.961836 -0.047123
v 0.083847 6.495940 0.127698
v -0.327631 6.047848 -0.306251
v -0.420819 4.421209 0.359109
v 0.124093 13.461219 -0.013329
v -0.339778 6.069151 -0.269227
v 0.210932 11.986131 0.278388
v -0.064962 5.894932 -0.065952
v -0.431308 8.718020 -0.456331
v 0.102185 12.303709 -0.096043
v -0.084799 1.529996 0.283554
v -0.430730 4.400007 0.366861
v 0.125928 13.510450 -0.079944
v -0.001329 13.452644 -0.043069
v -0.219207 8.738461 -0.272929
v -0.002822 17.006990 -0.030222
v -0.613624 4.493913 0.528429
v 0.203009 11.987946 0.279264
v 0.142606 9.797236 -0.031532
v 0.037345 14.649971 -0.023674
v -0.006303 15.820442 -0.037772
v 0.079375 6.920450 0.008980
v 0.051912 6.937892 0.022518
v -0.029121 8.702041 -0.091814
v 0.458370 7.214891 0.624769
v -0.049977 9.794901 0.020045
v 0.050365 5.070145 0.144062
v -0.224313 8.689116 -0.277130
v 0.007320 4.815798 -0.199699
v 0.089154 11.873110 -0.009212
v -0.150087 3.165808 0.161618
v 0.095085 14.658850 -0.008102
v -0.039957 6.486569 -0.129240
v 0.207356 5.181382 0.327324
v 0.062946 13.520622 -0.100623
v -0.006655 16.932758 -0.022180
v -0.118750 3.135145 -0.086557
v 0.042398 5.102573 0.132061
v 0.012358 17.001595 -0.030087
v 0.127050 13.485523 -0.046544
v 0.139380 11.056810 -0.039414
v 0.027495 13.458764 -0.019244
v -0.018332 11.044740 0.002882
v 0.095539 13.517504 -0.092320
v 0.088824 11.064482 -0.115250
v 0.093304 13.463530 -0.003745
v 0.076126 11.044405 0.032640
v 0.028762 13.486533 -0.072917
v -0.009322 11.053902 -0.088859
v 0.200543 4.845775 0.027925
v 0.251486 1.538328 0.036700
v -0.102182 4.816062 0.108532
v -0.172921 1.533914 0.150905
v 0.109813 4.841415 -0.157016
v 0.103191 1.522250 -0.192663
v 0.072911 4.825701 0.191113
v 0.080525 1.529173 0.249027
v -0.078252 4.809163 -0.107008
v -0.150378 1.517235 -0.124926
v 0.008070 15.856762 -0.056277
v 0.057421 15.814402 -0.010783
v 0.047619 15.882776 -0.068266
v 0.015912 15.819950 -0.022342
v 0.072141 15.838348 -0.037982
v -0.041356 8.155313 -0.117585
v 0.074424 8.159914 0.095025
v 0.097102 8.182550 -0.154343
v -0.052280 8.145533 0.035527
v 0.161535 8.170833 -0.021320
v -0.324829 6.079150 -0.282318
v -0.318127 6.067397 -0.302745
v -0.334520 6.057515 -0.287419
v 0.187583 5.194472 0.335297
v 0.172272 5.183014 0.355136
v 0.194384 5.169815 0.345310
v -0.618466 4.501973 0.513698
v -0.632881 4.493913 0.503808
v -0.626755 4.485853 0.520181
v -0.232163 4.363239 0.211551
v -0.257623 4.342787 0.184338
v -0.237345 4.322334 0.215604
v 0.152736 11.919054 0.134927
v 0.138214 11.922516 0.136741
v 0.147628 11.932482 0.130565
v -0.235324 8.727526 -0.257210
v -0.220762 8.713779 -0.276140
v -0.238141 8.700300 -0.259527
v 0.267675 7.060098 0.314240
v 0.247990 7.071875 0.322902
v 0.262641 7.082478 0.306372
vt 0.9730 0.9130
vt 0.9667 0.9130
vt 0.9666 0.9128
vt 0.9730 0.9126
vt 0.9730 0.9137
vt 0.9666 0.9133
vt 0.9667 0.9132
vt 0.9730 0.9133
vt 0.9665 0.9310
vt 0.9666 0.9308
vt 0.9667 0.9310
vt 0.9729 0.9122
vt 0.9665 0.9126
vt 0.9665 0.9124
vt 0.9729 0.9118
vt 0.9710 0.9172
vt 0.9754 0.9169
vt 0.9755 0.9172
vt 0.9711 0.9176
vt 0.9710 0.9155
vt 0.9754 0.9158
vt 0.9754 0.9160
vt 0.9710 0.9159
vt 0.9710 0.9163
vt 0.9754 0.9163
vt 0.9754 0.9166
vt 0.9710 0.9167
vt 0.9665 0.9285
vt 0.9667 0.9282
vt 0.9668 0.9285
vt 0.9693 0.9248
vt 0.9665 0.9247
vt 0.9665 0.9246
vt 0.9692 0.9246
vt 0.9693 0.9252
vt 0.9665 0.9250
vt 0.9666 0.9248
vt 0.9693 0.9250
vt 0.9665 0.9321
vt 0.9666 0.9320
vt 0.9667 0.9321
vt 0.9693 0.9244
vt 0.9665 0.9245
vt 0.9666 0.9243
vt 0.9693 0.9241
vt 0.9704 0.9031
vt 0.9744 0.9025
vt 0.9745 0.9029
vt 0.9705 0.9038
vt 0.9705 0.9005
vt 0.9743 0.9010
vt 0.9742 0.9014
vt 0.9705 0.9011
vt 0.9704 0.9018
vt 0.9743 0.9018
vt 0.9743 0.9022
vt 0.9704 0.9024
vt 0.9783 0.9024
vt 0.9822 0.9023
vt 0.9823 0.9025
vt 0.9784 0.9027
vt 0.9783 0.9013
vt 0.9822 0.9015
vt 0.9822 0.9017
vt 0.9782 0.9016
vt 0.9782 0.9019
vt 0.9822 0.9019
vt 0.9822 0.9021
vt 0.9783 0.9022
vt 0.9669 0.9300
vt 0.9667 0.9301
vt 0.9667 0.9299
vt 0.9710 0.9188
vt 0.9665 0.9191
vt 0.9665 0.9188
vt 0.9710 0.9184
vt 0.9710 0.9205
vt 0.9666 0.9202
vt 0.9667 0.9199
vt 0.9711 0.9201
vt 0.9711 0.9197
vt 0.9667 0.9196
vt 0.9666 0.9194
vt 0.9711 0.9193
vt 0.9665 0.9291
vt 0.9665 0.9288
vt 0.9668 0.9290
vt 0.9729 0.9070
vt 0.9793 0.9067
vt 0.9794 0.9069
vt 0.9730 0.9074
vt 0.9730 0.9055
vt 0.9793 0.9059
vt 0.9793 0.9061
vt 0.9729 0.9059
vt 0.9729 0.9063
vt 0.9793 0.9063
vt 0.9793 0.9065
vt 0.9729 0.9066
vt 0.9665 0.9306
vt 0.9666 0.9304
vt 0.9667 0.9306
vt 0.9479 0.9185
vt 0.9475 0.9441
vt 0.9464 0.9441
vt 0.9464 0.9183
vt 0.9564 0.9184
vt 0.9546 0.9444
vt 0.9534 0.9443
vt 0.9549 0.9180
vt 0.9507 0.9187
vt 0.9499 0.9441
vt 0.9487 0.9441
vt 0.9494 0.9187
vt 0.9453 0.9183
vt 0.9453 0.9441
vt 0.9441 0.9441
vt 0.9441 0.9183
vt 0.9535 0.9184
vt 0.9523 0.9442
vt 0.9511 0.9442
vt 0.9520 0.9187
vt 0.9631 0.9463
vt 0.9635 0.9469
vt 0.9638 0.9646
vt 0.9635 0.9639
vt 0.9657 0.9461
vt 0.9661 0.9464
vt 0.9658 0.9632
vt 0.9654 0.9636
vt 0.9639 0.9471
vt 0.9642 0.9474
vt 0.9645 0.9650
vt 0.9642 0.9648
vt 0.9619 0.9461
vt 0.9626 0.9456
vt 0.9632 0.9632
vt 0.9629 0.9633
vt 0.9647 0.9466
vt 0.9653 0.9459
vt 0.9651 0.9640
vt 0.9648 0.9645
vt 0.9339 0.9169
vt 0.9323 0.9417
vt 0.9300 0.9409
vt 0.9313 0.9164
vt 0.9306 0.9671
vt 0.9290 0.9926
vt 0.9272 0.9933
vt 0.9286 0.9671
vt 0.9186 0.9168
vt 0.9187 0.9417
vt 0.9163 0.9418
vt 0.9159 0.9168
vt 0.9191 0.9671
vt 0.9196 0.9924
vt 0.9184 0.9925
vt 0.9173 0.9671
vt 0.9289 0.9167
vt 0.9279 0.9417
vt 0.9257 0.9424
vt 0.9264 0.9171
vt 0.9268 0.9675
vt 0.9258 0.9933
vt 0.9244 0.9932
vt 0.9251 0.9678
vt 0.9389 0.9175
vt 0.9367 0.9425
vt 0.9345 0.9424
vt 0.9364 0.9173
vt 0.9346 0.9675
vt 0.9325 0.9925
vt 0.9308 0.9919
vt 0.9326 0.9671
vt 0.9239 0.9169
vt 0.9234 0.9420
vt 0.9211 0.9417
vt 0.9213 0.9167
vt 0.9230 0.9674
vt 0.9226 0.9927
vt 0.9208 0.9923
vt 0.9209 0.9670
vt 0.9511 0.9626
vt 0.9520 0.9625
vt 0.9507 0.9808
vt 0.9499 0.9809
vt 0.9646 0.9104
vt 0.9654 0.9098
vt 0.9654 0.9277
vt 0.9647 0.9287
vt 0.9456 0.9623
vt 0.9466 0.9624
vt 0.9468 0.9806
vt 0.9460 0.9805
vt 0.9608 0.9104
vt 0.9617 0.9100
vt 0.9620 0.9281
vt 0.9610 0.9289
vt 0.9492 0.9627
vt 0.9501 0.9627
vt 0.9491 0.9811
vt 0.9485 0.9812
vt 0.9633 0.9110
vt 0.9638 0.9111
vt 0.9639 0.9298
vt 0.9635 0.9295
vt 0.9529 0.9626
vt 0.9538 0.9627
vt 0.9519 0.9808
vt 0.9513 0.9808
vt 0.9659 0.9103
vt 0.9665 0.9107
vt 0.9665 0.9296
vt 0.9660 0.9287
vt 0.9475 0.9625
vt 0.9483 0.9627
vt 0.9479 0.9812
vt 0.9474 0.9809
vt 0.9623 0.9104
vt 0.9629 0.9109
vt 0.9632 0.9292
vt 0.9626 0.9287
vt 0.9671 0.9269
vt 0.9674 0.9266
vt 0.9677 0.9273
vt 0.9675 0.9276
vt 0.9665 0.9273
vt 0.9665 0.9268
vt 0.9668 0.9276
vt 0.9668 0.9272
vt 0.9672 0.9280
vt 0.9665 0.9263
vt 0.9668 0.9261
vt 0.9670 0.9259
vt 0.9614 0.8919
vt 0.9620 0.8923
vt 0.9626 0.8926
vt 0.9653 0.8919
vt 0.9659 0.8918
vt 0.9665 0.8918
vt 0.9557 0.9445
vt 0.9632 0.8925
vt 0.9637 0.8924
vt 0.9599 0.9108
vt 0.9599 0.9297
vt 0.9600 0.8919
vt 0.9607 0.8919
vt 0.9447 0.9623
vt 0.9453 0.9805
vt 0.9645 0.8922
vt 0.9243 0.8918
vt 0.9215 0.8918
vt 0.9271 0.8918
vt 0.9389 0.9426
vt 0.9366 0.9678
vt 0.9342 0.9931
vt 0.9412 0.8926
vt 0.9383 0.8923
vt 0.9440 0.8929
vt 0.9414 0.9178
vt 0.9298 0.8918
vt 0.9326 0.8919
vt 0.9184 0.8918
vt 0.9154 0.8919
vt 0.9355 0.8921
vt 0.9613 0.9466
vt 0.9626 0.9634
vt 0.9548 0.8925
vt 0.9530 0.8933
vt 0.9565 0.8918
vt 0.9453 0.8924
vt 0.9441 0.8925
vt 0.9465 0.8924
vt 0.9516 0.8933
vt 0.9501 0.8933
vt 0.9582 0.8924
vt 0.9599 0.8931
vt 0.9578 0.9188
vt 0.9483 0.8929
vt 0.9668 0.9304
vt 0.9669 0.9306
vt 0.9667 0.9303
vt 0.9665 0.9062
vt 0.9665 0.9068
vt 0.9666 0.9057
vt 0.9666 0.9052
vt 0.9666 0.9046
vt 0.9730 0.9052
vt 0.9794 0.9057
vt 0.9665 0.9073
vt 0.9666 0.9079
vt 0.9668 0.9288
vt 0.9670 0.9289
vt 0.9665 0.9286
vt 0.9755 0.9196
vt 0.9755 0.9191
vt 0.9755 0.9202
vt 0.9754 0.9208
vt 0.9754 0.9213
vt 0.9710 0.9209
vt 0.9665 0.9205
vt 0.9754 0.9186
vt 0.9754 0.9180
vt 0.9665 0.9300
vt 0.9665 0.9298
vt 0.9665 0.9302
vt 0.9745 0.9007
vt 0.9784 0.9009
vt 0.9823 0.9012
vt 0.9667 0.9018
vt 0.9665 0.9027
vt 0.9668 0.9009
vt 0.9667 0.9000
vt 0.9665 0.8990
vt 0.9705 0.8999
vt 0.9665 0.9037
vt 0.9665 0.9046
vt 0.9719 0.9243
vt 0.9720 0.9240
vt 0.9719 0.9246
vt 0.9668 0.9320
vt 0.9668 0.9321
vt 0.9667 0.9319
vt 0.9719 0.9255
vt 0.9720 0.9252
vt 0.9719 0.9259
vt 0.9692 0.9255
vt 0.9665 0.9251
vt 0.9719 0.9249
vt 0.9669 0.9282
vt 0.9671 0.9285
vt 0.9668 0.9280
vt 0.9665 0.9164
vt 0.9665 0.9169
vt 0.9666 0.9158
vt 0.9667 0.9152
vt 0.9667 0.9147
vt 0.9711 0.9151
vt 0.9755 0.9155
vt 0.9666 0.9174
vt 0.9667 0.9180
vt 0.9793 0.9118
vt 0.9793 0.9113
vt 0.9794 0.9124
vt 0.9668 0.9308
vt 0.9669 0.9310
vt 0.9667 0.9306
vt 0.9793 0.9140
vt 0.9793 0.9135
vt 0.9793 0.9146
vt 0.9729 0.9140
vt 0.9665 0.9135
vt 0.9793 0.9130
vn 0.2658 0.8197 -0.5074
vn 0.4986 0.8609 0.1014
vn 0.9080 0.0490 -0.4160
vn 0.8610 0.0110 -0.5084
vn -0.8378 0.0029 0.5459
vn -0.1985 0.3702 0.9075
vn -0.5169 0.8484 0.1139
vn -0.5709 0.8202 0.0353
vn 0.5887 -0.8083 0.0069
vn 0.8075 -0.1767 0.5628
vn -0.1696 -0.7296 0.6625
vn -0.2475 -0.8002 0.5463
vn -0.3964 -0.8611 0.3185
vn -0.8364 -0.4677 -0.2859
vn 0.0598 -0.8022 -0.5940
vn 0.2957 -0.8679 -0.3992
vn 0.6921 -0.0116 -0.7217
vn -0.0694 0.1216 -0.9901
vn 0.1903 0.8422 -0.5045
vn 0.3623 0.8608 -0.3575
vn -0.3308 0.8720 0.3608
vn -0.7029 0.6765 -0.2198
vn -0.8712 0.0286 0.4901
vn -0.7282 0.0123 0.6852
vn 0.1577 0.8837 -0.4406
vn 0.2770 0.8923 0.3564
vn 0.9378 0.2932 -0.1859
vn 0.8829 0.2013 -0.4241
vn -0.8651 -0.1766 0.4696
vn -0.4012 0.1561 0.9026
vn -0.6276 0.7569 0.1823
vn -0.7097 0.7039 0.0274
vn 0.7330 -0.6801 0.0158
vn 0.6930 -0.1696 0.7007
vn -0.0626 -0.7579 0.6494
vn -0.1367 -0.8630 0.4863
vn 0.0919 -0.8349 0.5427
vn 0.0834 -0.8297 0.5519
vn -0.5447 -0.8132 -0.2052
vn -0.5503 -0.8094 -0.2048
vn -0.6629 0.0118 -0.7486
vn -0.6452 0.0130 -0.7639
vn -0.1596 0.8405 -0.5178
vn -0.1940 0.8501 -0.4895
vn 0.4604 0.8498 0.2567
vn 0.4857 0.8414 0.2369
vn 0.5884 -0.0028 0.8086
vn 0.5748 0.0114 0.8182
vn 0.0745 -0.8246 0.5608
vn -0.4979 -0.1961 0.8448
vn -0.7348 -0.6770 -0.0419
vn -0.5477 -0.8087 -0.2146
vn -0.6294 0.0078 -0.7770
vn -0.9198 0.3688 -0.1340
vn -0.2337 0.8665 -0.4411
vn -0.1133 0.8274 -0.5500
vn 0.5117 0.8308 0.2189
vn -0.1240 0.8604 0.4943
vn 0.4201 0.0850 0.9035
vn 0.6029 0.0073 0.7978
vn 0.5847 -0.8111 -0.0154
vn 0.8354 -0.2005 0.5118
vn -0.0343 -0.6288 0.7768
vn -0.2165 -0.7871 0.5776
vn -0.8011 0.0204 0.5982
vn -0.1343 0.3696 0.9194
vn -0.4159 0.8810 0.2254
vn -0.5587 0.8274 0.0573
vn 0.2427 0.8076 -0.5374
vn 0.5292 0.8402 0.1188
vn 0.9294 0.0890 -0.3582
vn 0.8293 -0.0034 -0.5588
vn -0.6299 -0.7451 0.2192
vn -0.9679 -0.0861 -0.2359
vn -0.1499 -0.7324 -0.6642
vn -0.0432 -0.8122 -0.5817
vn 0.5853 -0.0723 -0.8076
vn -0.1008 0.3627 -0.9264
vn 0.5242 0.7941 -0.3075
vn 0.5995 0.7594 -0.2526
vn 0.0143 0.8341 0.5514
vn -0.4142 0.9079 0.0641
vn -0.6916 0.1331 0.7099
vn -0.6189 0.0891 0.7804
vn 0.9930 0.0128 0.1171
vn 0.9969 0.0078 0.0779
vn 0.7693 0.0163 0.6386
vn 0.7626 0.0183 0.6466
vn -0.8445 0.0069 0.5355
vn -0.8306 0.0176 0.5566
vn -0.9981 0.0189 -0.0584
vn -0.9977 0.0062 -0.0670
vn 0.4310 0.0152 -0.9022
vn 0.3763 0.0136 -0.9264
vn 0.8512 0.0119 -0.5247
vn 0.8797 0.0164 -0.4752
vn 0.2575 0.0197 0.9661
vn 0.2578 0.0207 0.9660
vn -0.3557 0.0234 0.9343
vn -0.3713 0.0161 0.9284
vn -0.7658 0.0044 -0.6430
vn -0.7615 0.0162 -0.6480
vn -0.2446 0.0190 -0.9694
vn -0.2177 0.0126 -0.9759
vn 0.9983 0.0382 -0.0431
vn 0.7975 0.0398 -0.6020
vn 0.7322 0.1279 -0.6689
vn 0.9542 0.1620 0.2515
vn -0.5430 -0.0113 0.8396
vn -0.1938 -0.0022 0.9810
vn -0.2047 0.0609 0.9769
vn -0.6567 0.1101 0.7461
vn 0.2853 0.0271 -0.9581
vn -0.2927 0.0122 -0.9561
vn -0.3492 0.2513 -0.9027
vn 0.5397 0.2233 -0.8117
vn 0.2171 0.0099 0.9761
vn 0.7992 0.0304 0.6003
vn 0.8090 0.0476 0.5859
vn 0.4097 0.1148 0.9050
vn -0.7451 -0.0047 -0.6669
vn -0.9913 -0.0115 0.1308
vn -0.9898 0.0083 0.1425
vn -0.9840 0.1240 -0.1279
vn -0.7780 0.0300 -0.6275
vn -0.7781 0.0205 -0.6279
vn -0.2373 0.0207 -0.9712
vn -0.2460 0.0349 -0.9686
vn -0.7722 0.0101 -0.6353
vn -0.7644 0.0064 -0.6447
vn -0.1954 0.0046 -0.9807
vn -0.2134 -0.0005 -0.9770
vn 0.2620 -0.0008 0.9651
vn 0.2589 0.0175 0.9657
vn -0.4043 0.0250 0.9143
vn -0.3798 0.0007 0.9251
vn 0.2577 0.0347 0.9656
vn 0.2575 0.0278 0.9659
vn -0.3828 0.0308 0.9233
vn -0.4022 0.0480 0.9143
vn 0.3887 0.0285 -0.9209
vn 0.4161 0.0095 -0.9093
vn 0.8601 0.0117 -0.5099
vn 0.8358 0.0268 -0.5484
vn 0.4506 -0.0090 -0.8927
vn 0.4644 0.0029 -0.8856
vn 0.8935 0.0090 -0.4490
vn 0.8824 0.0014 -0.4705
vn -0.8675 0.0071 0.4973
vn -0.8888 0.0249 0.4577
vn -0.9947 0.0261 -0.0994
vn -0.9964 0.0238 -0.0810
vn -0.8822 0.0404 0.4691
vn -0.8597 0.0243 0.5103
vn -0.9960 0.0187 -0.0868
vn -0.9944 0.0281 -0.1019
vn 0.9998 0.0185 0.0085
vn 0.9986 0.0159 0.0510
vn 0.7752 0.0208 0.6314
vn 0.7905 0.0113 0.6124
vn 0.9949 0.0134 0.0998
vn 0.9910 0.0132 0.1331
vn 0.7605 0.0244 0.6489
vn 0.7668 0.0292 0.6412
vn -0.7250 0.0274 -0.6882
vn -0.9980 0.0332 -0.0543
vn -0.9994 0.0234 -0.0265
vn -0.6773 0.0156 -0.7356
vn -0.6732 0.0026 -0.7394
vn -0.9994 0.0081 0.0350
vn -0.9943 0.0004 0.1067
vn -0.7021 -0.0017 -0.7121
vn 0.2574 0.0217 0.9661
vn 0.7681 0.0143 0.6401
vn 0.7652 0.0095 0.6438
vn 0.2527 0.0128 0.9675
vn 0.2376 0.0039 0.9713
vn 0.7722 0.0065 0.6354
vn 0.7930 0.0140 0.6090
vn 0.2229 0.0068 0.9748
vn 0.3385 0.0113 -0.9409
vn -0.2330 0.0241 -0.9722
vn -0.2113 0.0126 -0.9773
vn 0.3169 0.0078 -0.9484
vn 0.3148 0.0052 -0.9491
vn -0.2184 0.0034 -0.9758
vn -0.2326 0.0087 -0.9725
vn 0.3204 0.0170 -0.9471
vn -0.7908 0.0290 0.6114
vn -0.3149 0.0308 0.9486
vn -0.2546 0.0201 0.9668
vn -0.7080 0.0201 0.7059
vn -0.5980 0.0091 0.8014
vn -0.1984 0.0081 0.9801
vn -0.1765 0.0012 0.9843
vn -0.5240 -0.0011 0.8517
vn 0.9975 0.0029 0.0704
vn 0.8371 0.0071 -0.5470
vn 0.8317 0.0082 -0.5552
vn 0.9974 0.0050 0.0712
vn 0.9995 0.0090 0.0306
vn 0.8194 0.0096 -0.5732
vn 0.8136 0.0257 -0.5809
vn 0.9996 0.0235 -0.0131
vn 0.7074 0.6917 0.1452
vn -0.1827 0.9757 0.1208
vn 0.9998 0.0184 -0.0106
vn 0.8002 0.0102 0.5997
vn 0.8235 0.0273 -0.5667
vn -0.8501 0.0048 0.5266
vn -0.9973 0.0228 -0.0702
vn -0.3630 -0.0019 0.9318
vn 0.3776 0.0293 -0.9255
vn -0.2502 0.0353 -0.9676
vn 0.2643 -0.0026 0.9644
vn -0.7768 0.0301 -0.6290
vn 0.0104 0.8311 0.5560
vn -0.6263 0.0645 0.7769
vn 0.5942 0.7695 -0.2339
vn 0.5856 -0.0741 -0.8072
vn -0.0770 -0.8322 -0.5491
vn -0.6321 -0.7409 0.2269
vn 0.2445 0.8051 -0.5404
vn 0.8213 0.0192 -0.5702
vn -0.5376 0.8427 0.0282
vn -0.8033 0.0242 0.5951
vn -0.2123 -0.7934 0.5705
vn 0.5865 -0.8097 -0.0204
vn 0.4629 0.8464 0.2633
vn 0.5394 -0.1291 0.8321
vn -0.2440 0.8109 -0.5318
vn -0.6671 -0.0075 -0.7449
vn -0.5163 -0.8426 -0.1528
vn 0.0883 -0.8390 0.5370
vn 0.7281 -0.6853 0.0181
vn -0.2149 -0.8371 0.5030
vn 0.8792 0.2055 -0.4299
vn -0.8655 -0.1779 0.4682
vn -0.7555 0.6519 0.0654
vn 0.1492 0.8856 -0.4399
vn -0.3316 0.8701 0.3646
vn -0.7236 0.0382 0.6891
vn 0.3426 0.8798 -0.3297
vn 0.6939 -0.0068 -0.7200
vn 0.2939 -0.8725 -0.3902
vn -0.3977 -0.8587 0.3231
vn 0.5940 -0.8045 0.0006
vn -0.2065 -0.8241 0.5275
vn 0.8642 -0.0142 -0.5029
vn -0.8381 0.0012 0.5455
vn -0.5584 0.8293 0.0199
vn 0.2708 0.8162 -0.5104
usemtl None
s 1
f 252/1/1 187/2/2 3/3/3 122/4/4
f 251/5/5 112/6/6 2/7/7 141/8/8
f 2/9/7 112/10/6 187/11/2
f 250/12/9 126/13/10 6/14/11 99/15/12
f 249/16/13 171/17/14 9/18/15 190/19/16
f 248/20/17 129/21/18 11/22/19 177/23/20
f 247/24/21 156/25/22 8/26/23 108/27/24
f 11/28/19 129/29/18 156/30/22
f 246/31/25 138/32/26 15/33/27 80/34/28
f 245/35/29 180/36/30 14/37/31 77/38/32
f 14/39/31 180/40/30 138/41/26
f 244/42/33 169/43/34 18/44/35 128/45/36
f 243/46/37 174/47/38 21/48/39 89/49/40
f 242/50/41 153/51/42 23/52/43 94/53/44
f 241/54/45 166/55/46 20/56/47 111/57/48
f 240/58/49 149/59/50 26/60/51 102/61/52
f 239/62/53 75/63/54 27/64/55 148/65/56
f 238/66/57 78/67/58 25/68/59 179/69/60
f 27/70/55 75/71/54 78/72/58
f 237/73/61 160/74/62 30/75/63 84/76/64
f 236/77/65 158/78/66 32/79/67 106/80/68
f 235/81/69 152/82/70 29/83/71 196/84/72
f 32/85/67 158/86/66 152/87/70
f 234/88/73 105/89/74 36/90/75 165/91/76
f 233/92/77 88/93/78 38/94/79 143/95/80
f 232/96/81 83/97/82 35/98/83 168/99/84
f 38/100/79 88/101/78 83/102/82
f 231/103/85 181/104/86 42/105/87 101/106/88
f 230/107/89 188/108/90 46/109/91 116/110/92
f 229/111/93 76/112/94 41/113/95 157/114/96
f 228/115/97 104/116/98 45/117/99 92/118/100
f 227/119/101 120/120/102 49/121/103 133/122/104
f 226/123/105 151/124/106 52/125/107 79/126/108
f 225/127/109 144/128/110 56/129/111 198/130/112
f 224/131/113 114/132/114 59/133/115 163/134/116
f 223/135/117 86/136/118 53/137/119 125/138/120
f 222/139/121 183/140/122 57/141/123 119/142/124
f 221/143/125 199/144/126 62/145/127 124/146/128
f 220/147/129 195/148/130 48/149/131 191/150/132
f 219/151/133 110/152/134 66/153/135 173/154/136
f 218/155/137 164/156/138 44/157/139 136/158/140
f 217/159/141 96/160/142 68/161/143 140/162/144
f 216/163/145 90/164/146 40/165/147 147/166/148
f 215/167/149 193/168/150 61/169/151 107/170/152
f 214/171/153 87/172/154 47/173/155 123/174/156
f 213/175/157 82/176/158 65/177/159 145/178/160
f 212/179/161 137/180/162 43/181/163 109/182/164
f 211/183/165 113/184/166 70/185/167 121/186/168
f 210/187/169 176/188/170 54/189/171 100/190/172
f 209/191/173 103/192/174 72/193/175 97/194/176
f 208/195/177 167/196/178 50/197/179 194/198/180
f 207/199/181 127/200/182 71/201/183 172/202/184
f 206/203/185 197/204/186 58/205/187 142/206/188
f 205/207/189 161/208/190 73/209/191 132/210/192
f 204/211/193 118/212/194 55/213/195 182/214/196
f 203/215/197 135/216/198 74/217/199 134/218/200
f 202/219/201 175/220/202 51/221/203 85/222/204
f 201/223/205 79/224/108 52/225/107 163/226/116
f 57/227/123 198/228/112 119/229/124
f 119/229/124 178/230/206 59/231/115
f 119/229/124 198/228/112 178/230/206
f 198/228/112 56/232/111 178/230/206
f 178/230/206 201/223/205 163/226/116 59/231/115
f 56/232/111 125/233/120 201/223/205 178/230/206
f 125/233/120 53/234/119 79/224/108 201/223/205
f 167/196/178 202/219/201 85/222/204 50/197/179
f 72/235/175 134/236/200 202/219/201 167/196/178
f 134/236/200 74/237/199 175/220/202 202/219/201
f 103/192/174 203/215/197 134/218/200 72/193/175
f 42/105/87 181/104/86 203/215/197 103/192/174
f 181/104/86 41/113/95 135/216/198 203/215/197
f 176/188/170 204/211/193 182/214/196 54/189/171
f 70/238/167 132/239/192 204/211/193 176/188/170
f 132/239/192 73/240/191 118/212/194 204/211/193
f 113/184/166 205/207/189 132/210/192 70/185/167
f 46/109/91 188/108/90 205/207/189 113/184/166
f 188/108/90 45/241/99 161/208/190 205/207/189
f 175/220/202 206/203/185 142/206/188 51/221/203
f 74/237/199 172/242/184 206/203/185 175/220/202
f 172/242/184 71/243/183 197/204/186 206/203/185
f 135/216/198 207/199/181 172/202/184 74/217/199
f 41/113/95 76/112/94 207/199/181 135/216/198
f 76/112/94 49/121/103 127/200/182 207/199/181
f 118/244/194 208/195/177 194/198/180 55/245/195
f 73/246/191 97/247/176 208/195/177 118/244/194
f 97/247/176 72/235/175 167/196/178 208/195/177
f 161/248/190 209/191/173 97/194/176 73/249/191
f 45/117/99 104/116/98 209/191/173 161/248/190
f 104/116/98 42/105/87 103/192/174 209/191/173
f 197/204/186 210/187/169 100/190/172 58/205/187
f 71/243/183 121/250/168 210/187/169 197/204/186
f 121/250/168 70/238/167 176/188/170 210/187/169
f 127/200/182 211/183/165 121/186/168 71/201/183
f 49/121/103 120/120/102 211/183/165 127/200/182
f 120/120/102 46/109/91 113/184/166 211/183/165
f 82/176/158 212/179/161 109/182/164 65/177/159
f 68/161/143 147/166/148 212/179/161 82/176/158
f 147/166/148 40/165/147 137/180/162 212/179/161
f 159/251/207 213/175/157 145/178/160 64/252/208
f 69/253/209 140/162/144 213/175/157 159/251/207
f 140/162/144 68/161/143 82/176/158 213/175/157
f 193/168/150 214/171/153 123/174/156 61/169/151
f 66/254/135 136/255/140 214/171/153 193/168/150
f 136/255/140 44/256/139 87/172/154 214/171/153
f 139/257/210 215/167/149 107/170/152 60/258/211
f 67/259/212 173/260/136 215/167/149 139/257/210
f 173/260/136 66/254/135 193/168/150 215/167/149
f 96/160/142 216/163/145 147/166/148 68/161/143
f 62/145/127 191/150/132 216/163/145 96/160/142
f 191/150/132 48/149/131 90/164/146 216/163/145
f 162/261/213 217/159/141 140/162/144 69/253/209
f 63/262/214 124/146/128 217/159/141 162/261/213
f 124/146/128 62/145/127 96/160/142 217/159/141
f 110/152/134 218/155/137 136/158/140 66/153/135
f 65/177/159 109/182/164 218/155/137 110/152/134
f 109/182/164 43/181/163 164/156/138 218/155/137
f 150/263/215 219/151/133 173/154/136 67/264/212
f 64/252/208 145/178/160 219/151/133 150/263/215
f 145/178/160 65/177/159 110/152/134 219/151/133
f 199/144/126 220/147/129 191/150/132 62/145/127
f 61/169/151 123/174/156 220/147/129 199/144/126
f 123/174/156 47/173/155 195/148/130 220/147/129
f 98/265/216 221/143/125 124/146/128 63/262/214
f 60/258/211 107/170/152 221/143/125 98/265/216
f 107/170/152 61/169/151 199/144/126 221/143/125
f 114/132/114 222/139/121 119/142/124 59/133/115
f 58/205/187 100/190/172 222/139/121 114/132/114
f 100/190/172 54/189/171 183/140/122 222/139/121
f 144/266/110 223/135/117 125/138/120 56/267/111
f 55/245/195 194/198/180 223/135/117 144/266/110
f 194/198/180 50/197/179 86/136/118 223/135/117
f 151/124/106 224/131/113 163/134/116 52/125/107
f 51/221/203 142/206/188 224/131/113 151/124/106
f 142/206/188 58/205/187 114/132/114 224/131/113
f 183/140/122 225/127/109 198/130/112 57/141/123
f 54/189/171 182/214/196 225/127/109 183/140/122
f 182/214/196 55/213/195 144/128/110 225/127/109
f 86/136/118 226/123/105 79/126/108 53/137/119
f 50/197/179 85/222/204 226/123/105 86/136/118
f 85/222/204 51/221/203 151/124/106 226/123/105
f 195/268/130 227/119/101 133/122/104 48/269/131
f 47/270/155 116/110/92 227/119/101 195/268/130
f 116/110/92 46/109/91 120/120/102 227/119/101
f 164/271/138 228/115/97 92/118/100 44/272/139
f 43/273/163 101/106/88 228/115/97 164/271/138
f 101/106/88 42/105/87 104/116/98 228/115/97
f 90/274/146 229/111/93 157/114/96 40/275/147
f 48/269/131 133/122/104 229/111/93 90/274/146
f 133/122/104 49/121/103 76/112/94 229/111/93
f 87/276/154 230/107/89 116/110/92 47/270/155
f 44/277/139 92/278/100 230/107/89 87/276/154
f 92/278/100 45/241/99 188/108/90 230/107/89
f 137/279/162 231/103/85 101/106/88 43/273/163
f 40/275/147 157/114/96 231/103/85 137/279/162
f 157/114/96 41/113/95 181/104/86 231/103/85
f 83/102/82 105/280/74 35/281/83
f 83/102/82 88/101/78 105/280/74
f 88/101/78 36/282/75 105/280/74
f 155/283/217 232/96/81 168/99/84 34/284/218
f 39/285/219 143/95/80 232/96/81 155/283/217
f 143/95/80 38/94/79 83/97/82 232/96/81
f 146/286/220 233/92/77 143/95/80 39/285/219
f 37/287/221 165/288/76 233/92/77 146/286/220
f 165/288/76 36/289/75 88/93/78 233/92/77
f 170/290/222 234/88/73 165/91/76 37/291/221
f 34/284/218 168/99/84 234/88/73 170/290/222
f 168/99/84 35/98/83 105/89/74 234/88/73
f 152/87/70 160/292/62 29/293/71
f 152/87/70 158/86/66 160/292/62
f 158/86/66 30/294/63 160/292/62
f 200/295/223 235/81/69 196/84/72 28/296/224
f 33/297/225 106/80/68 235/81/69 200/295/223
f 106/80/68 32/79/67 152/82/70 235/81/69
f 93/298/226 236/77/65 106/80/68 33/297/225
f 31/299/227 84/300/64 236/77/65 93/298/226
f 84/300/64 30/301/63 158/78/66 236/77/65
f 189/302/228 237/73/61 84/76/64 31/303/227
f 28/296/224 196/84/72 237/73/61 189/302/228
f 196/84/72 29/83/71 160/74/62 237/73/61
f 78/72/58 149/304/50 25/305/59
f 78/72/58 75/71/54 149/304/50
f 75/71/54 26/306/51 149/304/50
f 166/55/46 238/66/57 179/69/60 20/56/47
f 23/52/43 148/65/56 238/66/57 166/55/46
f 148/65/56 27/64/55 78/67/58 238/66/57
f 153/51/42 239/62/53 148/65/56 23/52/43
f 21/307/39 102/308/52 239/62/53 153/51/42
f 102/308/52 26/309/51 75/63/54 239/62/53
f 174/47/38 240/58/49 102/61/52 21/48/39
f 20/56/47 179/69/60 240/58/49 174/47/38
f 179/69/60 25/68/59 149/59/50 240/58/49
f 115/310/229 241/54/45 111/57/48 19/311/230
f 24/312/231 94/53/44 241/54/45 115/310/229
f 94/53/44 23/52/43 166/55/46 241/54/45
f 81/313/232 242/50/41 94/53/44 24/312/231
f 22/314/233 89/315/40 242/50/41 81/313/232
f 89/315/40 21/307/39 153/51/42 242/50/41
f 117/316/234 243/46/37 89/49/40 22/317/233
f 19/311/230 111/57/48 243/46/37 117/316/234
f 111/57/48 20/56/47 174/47/38 243/46/37
f 154/318/235 244/42/33 128/45/36 17/319/236
f 16/320/237 80/34/28 244/42/33 154/318/235
f 80/34/28 15/33/27 169/43/34 244/42/33
f 138/41/26 169/321/34 15/322/27
f 138/41/26 180/40/30 169/321/34
f 180/40/30 18/323/35 169/321/34
f 131/324/238 245/35/29 77/38/32 13/325/239
f 17/326/236 128/327/36 245/35/29 131/324/238
f 128/327/36 18/328/35 180/36/30 245/35/29
f 192/329/240 246/31/25 80/34/28 16/320/237
f 13/325/239 77/38/32 246/31/25 192/329/240
f 77/38/32 14/37/31 138/32/26 246/31/25
f 156/30/22 171/330/14 8/331/23
f 156/30/22 129/29/18 171/330/14
f 129/29/18 9/332/15 171/330/14
f 91/333/241 247/24/21 108/27/24 7/334/242
f 12/335/243 177/23/20 247/24/21 91/333/241
f 177/23/20 11/22/19 156/25/22 247/24/21
f 186/336/244 248/20/17 177/23/20 12/335/243
f 10/337/245 190/338/16 248/20/17 186/336/244
f 190/338/16 9/339/15 129/21/18 248/20/17
f 95/340/246 249/16/13 190/19/16 10/341/245
f 7/334/242 108/27/24 249/16/13 95/340/246
f 108/27/24 8/26/23 171/17/14 249/16/13
f 184/342/247 250/12/9 99/15/12 5/343/248
f 4/344/249 122/4/4 250/12/9 184/342/247
f 122/4/4 3/3/3 126/13/10 250/12/9
f 187/11/2 126/345/10 3/346/3
f 187/11/2 112/10/6 126/345/10
f 112/10/6 6/347/11 126/345/10
f 185/348/250 251/5/5 141/8/8 1/349/251
f 5/350/248 99/351/12 251/5/5 185/348/250
f 99/351/12 6/352/11 112/6/6 251/5/5
f 130/353/252 252/1/1 122/4/4 4/344/249
f 1/349/251 141/8/8 252/1/1 130/353/252
f 141/8/8 2/7/7 187/2/2 252/1/1
