# Blender v2.78 (sub 0) OBJ File: ''
# www.blender.org
mtllib Pine_Tree_OneSided_s_05.mtl
o Pine_Tree_OneSided_s_05
v -0.191761 0.648673 -0.489594
v 0.068308 1.478033 -0.085940
v 0.210065 1.457933 -0.089500
v 0.430981 0.604412 -0.521211
v -0.336593 0.633587 0.442065
v 0.204352 0.593980 0.448862
v 0.159852 1.466596 0.117183
v 0.037873 1.484063 0.116501
v 0.574997 0.457567 0.002227
v 0.246503 1.439241 0.018339
v -0.515713 0.542302 -0.057500
v -0.005942 1.476326 0.004622
v -0.178421 1.042043 0.374681
v 0.265529 1.015076 0.381156
v 0.325353 1.933681 0.082011
v 0.210601 1.954912 0.080784
v 0.604512 1.101467 0.036508
v 0.373819 1.080433 -0.375470
v 0.364415 1.925234 -0.109271
v 0.412519 1.925324 -0.009548
v -0.089526 1.073486 -0.358437
v 0.236471 1.945434 -0.107895
v -0.375226 1.167337 -0.013963
v 0.162749 1.971657 -0.023236
v 0.111592 1.791228 -0.220659
v 0.349000 2.279276 -0.137696
v 0.508467 2.234699 -0.135349
v 0.440808 1.723566 -0.218506
v 0.042952 1.741436 0.224755
v 0.331337 1.682747 0.226516
v 0.453560 2.257767 0.081569
v 0.316035 2.296208 0.079421
v 0.556758 2.215267 -0.026422
v 0.574543 2.668104 -0.050984
v 0.255958 2.296038 -0.042567
v -0.151033 1.675547 -0.017818
v 0.569169 1.547854 0.001483
v -0.048045 0.323855 0.079024
v 0.012858 0.920085 0.063624
v -0.010513 0.924226 -0.010352
v -0.079515 0.327933 -0.019054
v 0.002852 0.317003 -0.079670
v 0.050503 0.912650 -0.056021
v 0.111411 0.900883 -0.010235
v 0.085100 0.306106 -0.019038
v 0.053653 0.310462 0.078977
v 0.088225 0.905736 0.063663
v 0.094919 0.033239 -0.031546
v 0.058441 0.033640 0.080813
v -0.096078 0.034987 -0.031556
v -0.000554 0.034032 -0.101025
v -0.059595 0.034600 0.080854
v -0.112663 1.572753 -0.019431
v 0.052998 0.033635 -0.074289
v 0.438690 2.280924 -0.138512
v 0.516213 1.514700 0.014462
v 0.420088 0.516089 0.249937
v 0.327008 1.032508 -0.312659
v 0.105554 0.902170 0.028649
v -0.069616 0.326713 0.031909
v 0.084501 0.906051 -0.038173
v 0.468572 2.493849 -0.098711
v 0.515336 2.262200 0.026717
v 0.181117 1.964837 0.031174
v 0.090727 0.147608 -0.026180
v 0.282678 1.773382 -0.238003
v 0.575413 2.466492 -0.039443
v 0.036697 1.017107 0.410867
v -0.091721 0.159119 -0.026189
v 0.144133 1.070059 -0.401290
v 0.373521 1.928513 0.039066
v 0.301416 1.934771 -0.113817
v 0.027220 0.629527 -0.067743
v -0.074852 0.626661 0.488266
v 0.394323 2.302560 0.080547
v 0.523253 2.485433 0.016930
v 0.031421 1.962274 -0.030123
v 0.550841 2.470023 -0.096642
v 0.525716 1.096505 -0.185929
v -0.464671 0.583509 0.211302
v 0.565728 1.853545 -0.011358
v -0.390626 0.592045 -0.294398
v -0.309410 1.111195 0.195521
v 0.266782 1.944973 0.087416
v 0.075208 0.307466 0.031890
v 0.050552 0.912947 0.069883
v 0.047586 0.311040 -0.054384
v 0.219196 2.017952 -0.184854
v 0.140158 1.467631 -0.092767
v 0.422422 2.510518 -0.047734
v 0.025983 1.478075 -0.043750
v 0.530078 1.625402 -0.118444
v 0.097680 1.475765 0.122649
v 0.127715 0.640663 -0.548814
v 0.016448 0.919132 -0.038241
v 0.450067 2.506619 0.014942
v 0.395076 1.923433 -0.062198
v 0.086087 0.033462 0.027690
v 0.386403 1.950194 0.162381
v -0.262069 1.126309 -0.202700
v 0.548610 0.521554 -0.281444
v 0.417266 0.944376 0.011419
v -0.054130 0.034503 -0.074297
v 0.002805 0.317167 0.085218
v 0.472789 1.959303 -0.182783
v -0.044589 0.641317 -0.014465
v -0.078420 1.704285 0.112244
v 0.166884 2.000670 0.160631
v 0.194196 1.959715 -0.068796
v -0.087246 0.034781 0.027709
v -0.056860 0.156923 0.081734
v 0.071120 1.507971 -0.237267
v 0.296540 1.472926 0.236104
v 0.071550 0.622464 0.071781
v 0.311658 2.313600 -0.092233
v -0.004570 0.923280 0.028561
v 0.468155 1.603521 0.123644
v -0.267134 1.006572 -0.027613
v -0.000455 0.153304 -0.092889
v 0.012978 1.497236 0.232954
v 0.184290 1.031705 0.288660
v -0.017121 0.637015 0.071784
v -0.043447 1.732065 -0.130104
v -0.065942 1.065459 -0.292578
v -0.041937 0.322973 -0.054395
v 0.543837 2.249594 -0.082755
v -0.154026 1.060736 0.285798
v 0.207580 1.452161 0.070465
v 0.098905 0.617629 -0.014394
v 0.465621 1.058667 0.228007
v 0.372210 1.502456 -0.248162
v 0.010592 1.481304 0.062904
v 0.234667 1.447256 -0.038297
v -0.000577 0.034119 0.090727
v 0.055873 0.149924 0.081685
v 0.295791 2.322630 0.017354
v 0.185782 1.723722 0.246433
v 0.090295 0.619210 0.030379
v -0.080737 0.158426 0.029882
v 0.049122 0.150198 -0.065051
v -0.000493 0.153427 0.088529
v -0.050071 0.156461 -0.065058
v 0.079744 0.148365 0.029859
v -0.011818 0.635935 -0.045516
v 0.027219 0.629757 0.077231
v 0.066197 0.623052 -0.045476
v -0.035926 0.639997 0.030344
v 0.485541 1.896753 0.080812
v 0.113137 1.990443 -0.113481
v 0.532673 1.901283 -0.102408
v 0.086641 1.980963 0.069934
v 0.275401 1.980243 0.172836
v 0.349029 1.994252 -0.193799
v -0.033937 1.543012 -0.135748
v 0.419571 1.493590 0.133536
v -0.064147 1.538016 0.113347
v 0.222775 1.502415 -0.257554
v 0.460396 1.509969 -0.124064
v 0.151739 1.481040 0.249141
v -0.227039 1.032407 0.137103
v 0.391639 0.984405 -0.159870
v -0.182321 1.035060 -0.169074
v 0.313834 0.984125 0.160201
v 0.011414 1.051213 0.305458
v 0.133936 1.054147 -0.320791
vt 0.5822 0.3164
vt 0.5655 0.3142
vt 0.5684 0.3061
vt 0.5896 0.2999
vt 0.5317 0.3055
vt 0.5374 0.2908
vt 0.5481 0.3015
vt 0.5455 0.3089
vt 0.5525 0.2853
vt 0.5677 0.2797
vt 0.5605 0.2985
vt 0.5543 0.3000
vt 0.5613 0.3370
vt 0.5476 0.3410
vt 0.5524 0.3243
vt 0.5574 0.3234
vt 0.5786 0.2898
vt 0.5645 0.3023
vt 0.5368 0.3306
vt 0.5259 0.3202
vt 0.5430 0.3163
vt 0.5477 0.3203
vt 0.5357 0.3066
vt 0.5410 0.2940
vt 0.5558 0.3086
vt 0.5548 0.3113
vt 0.5774 0.2917
vt 0.5856 0.3000
vt 0.5640 0.3103
vt 0.5626 0.3088
vt 0.5795 0.3152
vt 0.5733 0.3304
vt 0.5621 0.3163
vt 0.5631 0.3133
vt 0.5398 0.3290
vt 0.5304 0.3193
vt 0.5539 0.3140
vt 0.5556 0.3157
vt 0.5550 0.2887
vt 0.5691 0.2835
vt 0.5612 0.3072
vt 0.5585 0.3079
vt 0.5612 0.3346
vt 0.5491 0.3388
vt 0.5574 0.3174
vt 0.5597 0.3169
vt 0.4526 0.3342
vt 0.4426 0.3245
vt 0.4509 0.3215
vt 0.4700 0.3270
vt 0.4238 0.2906
vt 0.4391 0.2847
vt 0.4368 0.3008
vt 0.4295 0.3040
vt 0.4443 0.3047
vt 0.4367 0.3081
vt 0.4343 0.3274
vt 0.4284 0.3245
vt 0.4354 0.3214
vt 0.4518 0.3085
vt 0.4513 0.3150
vt 0.4442 0.3119
vt 0.4226 0.3215
vt 0.4223 0.3143
vt 0.4295 0.3185
vt 0.4084 0.3126
vt 0.4085 0.2964
vt 0.4221 0.3071
vt 0.4703 0.3134
vt 0.4217 0.3352
vt 0.4083 0.3289
vt 0.4548 0.2923
vt 0.4705 0.2998
vt 0.4437 0.3185
vt 0.9302 0.9425
vt 0.9301 0.9695
vt 0.9232 0.9695
vt 0.9234 0.9425
vt 0.9714 0.9426
vt 0.9712 0.9699
vt 0.9644 0.9699
vt 0.9645 0.9426
vt 0.9439 0.9426
vt 0.9439 0.9696
vt 0.9370 0.9695
vt 0.9370 0.9426
vt 0.9165 0.9424
vt 0.9163 0.9696
vt 0.9094 0.9696
vt 0.9096 0.9424
vt 0.9579 0.9028
vt 0.9577 0.9153
vt 0.9507 0.9154
vt 0.9510 0.9030
vt 0.9165 0.9030
vt 0.9168 0.9153
vt 0.9099 0.9152
vt 0.9096 0.9027
vt 0.9441 0.9032
vt 0.9439 0.9155
vt 0.9371 0.9156
vt 0.9372 0.9034
vt 0.9717 0.9028
vt 0.9715 0.9153
vt 0.9646 0.9152
vt 0.9648 0.9026
vt 0.9303 0.9033
vt 0.9304 0.9155
vt 0.9236 0.9155
vt 0.9234 0.9032
vt 0.9576 0.9426
vt 0.9576 0.9698
vt 0.9508 0.9697
vt 0.9507 0.9426
vt 0.9302 0.8911
vt 0.9232 0.8910
vt 0.9372 0.8912
vt 0.9718 0.8902
vt 0.9649 0.8900
vt 0.9786 0.8905
vt 0.9786 0.9030
vt 0.9785 0.9154
vt 0.9442 0.8909
vt 0.9512 0.8906
vt 0.9162 0.8906
vt 0.9093 0.8902
vt 0.9581 0.8903
vt 0.9783 0.9427
vt 0.9781 0.9699
vt 0.4365 0.3154
vt 0.4413 0.2687
vt 0.4653 0.2799
vt 0.4892 0.2911
vt 0.4352 0.3415
vt 0.4361 0.3556
vt 0.4150 0.3459
vt 0.3939 0.3362
vt 0.4892 0.3117
vt 0.4892 0.3324
vt 0.4293 0.3113
vt 0.3944 0.3109
vt 0.3949 0.2857
vt 0.4181 0.2772
vt 0.4627 0.3440
vt 0.5846 0.3445
vt 0.5627 0.3523
vt 0.5408 0.3601
vt 0.5262 0.2793
vt 0.5516 0.2695
vt 0.5769 0.2597
vt 0.5239 0.3424
vt 0.5070 0.3246
vt 0.6073 0.2896
vt 0.5960 0.3171
vt 0.5921 0.2747
vt 0.5166 0.3020
vt 0.5429 0.3578
vt 0.5259 0.3409
vt 0.5089 0.3240
vt 0.5748 0.2609
vt 0.5928 0.2773
vt 0.6107 0.2937
vt 0.5749 0.3329
vt 0.5625 0.3224
vt 0.5873 0.3434
vt 0.5651 0.3506
vt 0.5267 0.2801
vt 0.5508 0.2705
vt 0.5178 0.3020
vt 0.5990 0.3185
vn 0.0008 0.4757 -0.8796
vn 0.0035 0.4792 -0.8777
vn 0.5382 0.4987 -0.6795
vn 0.5695 0.4852 -0.6635
vn 0.0240 0.3847 0.9227
vn 0.4551 0.3400 0.8230
vn 0.4398 0.3496 0.8273
vn 0.0332 0.3878 0.9212
vn 0.7740 0.2794 0.5682
vn 0.9231 0.3118 0.2249
vn 0.9172 0.3189 0.2386
vn 0.7658 0.2839 0.5770
vn -0.7425 0.4773 -0.4700
vn -0.8637 0.4878 -0.1268
vn -0.8592 0.4949 -0.1299
vn -0.7286 0.4815 -0.4871
vn 0.9201 0.3515 -0.1730
vn 0.9155 0.3584 -0.1828
vn -0.8452 0.4810 0.2330
vn -0.5148 0.4983 0.6976
vn -0.4829 0.5040 0.7161
vn -0.8390 0.4855 0.2457
vn 0.0178 0.3225 0.9464
vn 0.3672 0.2700 0.8901
vn 0.3887 0.2722 0.8802
vn 0.0285 0.3238 0.9457
vn 0.8588 0.2003 -0.4716
vn 0.4699 0.2741 -0.8391
vn 0.4912 0.2800 -0.8248
vn 0.8645 0.2056 -0.4587
vn -0.0189 0.3134 -0.9494
vn -0.3454 0.3806 -0.8578
vn -0.3300 0.3831 -0.8627
vn -0.0060 0.3152 -0.9490
vn -0.7130 0.4992 0.4923
vn -0.3885 0.4339 0.8129
vn -0.3942 0.4430 0.8052
vn -0.7201 0.5056 0.4752
vn 0.6815 0.2174 0.6988
vn 0.9596 0.2345 0.1557
vn 0.9552 0.2446 0.1666
vn 0.6868 0.2214 0.6923
vn -0.6215 0.4401 -0.6481
vn -0.8264 0.5546 -0.0977
vn -0.8195 0.5602 -0.1205
vn -0.6146 0.4421 -0.6533
vn 0.0505 0.1705 -0.9841
vn 0.0591 0.1667 -0.9842
vn 0.5199 0.0689 -0.8514
vn 0.5088 0.0811 -0.8570
vn 0.0517 0.2522 0.9663
vn 0.4185 0.1425 0.8970
vn 0.4144 0.1414 0.8990
vn 0.0509 0.2622 0.9637
vn 0.7211 0.0146 0.6926
vn 0.4328 0.1731 0.8847
vn -0.3020 0.3181 -0.8987
vn -0.6081 0.4528 -0.6520
vn -0.2621 0.3677 -0.8922
vn 0.9806 -0.0059 0.1957
vn 0.9033 -0.0454 -0.4266
vn 0.9859 -0.0135 0.1669
vn -0.8109 0.5660 -0.1488
vn -0.7359 0.5650 0.3730
vn -0.7374 0.6498 -0.1843
vn -0.7462 0.5113 0.4264
vn -0.4211 0.4299 0.7987
vn -0.4200 0.4581 0.7834
vn 0.8836 0.0043 -0.4682
vn -0.6433 0.4278 -0.6350
vn -0.8328 0.5426 -0.1100
vn 0.7128 0.0503 0.6996
vn 0.9833 0.0235 0.1807
vn 0.5833 0.0862 -0.8076
vn -0.9458 0.1063 0.3067
vn -0.9464 0.1095 0.3038
vn -0.9481 0.1151 -0.2965
vn -0.9450 0.1123 -0.3071
vn 0.5954 -0.0137 -0.8033
vn 0.5908 -0.0145 -0.8067
vn 0.9489 -0.0408 -0.3130
vn 0.9512 -0.0394 -0.3060
vn 0.0048 0.0289 0.9996
vn -0.0045 0.0294 0.9996
vn -0.6043 0.0836 0.7924
vn -0.5847 0.0792 0.8074
vn -0.5851 0.0806 -0.8069
vn -0.5919 0.0827 -0.8017
vn -0.0258 0.0404 -0.9989
vn 0.0051 0.0379 -0.9993
vn 0.9511 0.0289 0.3077
vn 0.9515 -0.0105 0.3075
vn 0.5833 0.0011 0.8122
vn 0.5874 0.0208 0.8090
vn -0.5862 0.0750 -0.8067
vn -0.5863 0.0797 -0.8061
vn -0.0028 0.0595 -0.9982
vn 0.0019 0.0809 -0.9967
vn 0.0003 0.0157 0.9999
vn -0.0030 0.0233 0.9997
vn -0.5898 0.0581 0.8055
vn -0.5868 0.0319 0.8091
vn 0.5914 0.0653 -0.8038
vn 0.5934 0.0235 -0.8046
vn 0.9522 0.0061 -0.3054
vn 0.9506 0.0544 -0.3057
vn -0.9502 0.0463 0.3081
vn -0.9480 0.0812 0.3076
vn -0.9483 0.0955 -0.3027
vn -0.9492 0.0700 -0.3069
vn 0.9514 -0.0456 0.3047
vn 0.9506 -0.0465 0.3068
vn 0.5712 -0.0133 0.8207
vn 0.5930 -0.0153 0.8050
vn -0.9515 0.0336 0.3057
vn -0.9463 0.0592 -0.3178
vn -0.5918 0.0201 0.8058
vn 0.5885 0.0717 -0.8053
vn 0.9468 0.0619 -0.3157
vn 0.0046 0.0814 -0.9967
vn 0.0013 0.0072 1.0000
vn 0.5956 0.0205 0.8030
vn -0.5841 0.0697 -0.8087
vn 0.9519 0.0347 0.3043
vn 0.3764 0.9253 -0.0465
vn 0.4314 0.1361 0.8918
vn 0.7186 0.0510 0.6935
vn 0.9686 0.0279 0.2471
vn -0.3235 0.3128 -0.8930
vn -0.4038 0.3349 -0.8514
vn -0.6920 0.4426 -0.5703
vn -0.8400 0.5422 -0.0226
vn 0.9038 0.0059 -0.4280
vn 0.5518 0.0692 -0.8311
vn -0.3732 0.5432 0.7521
vn -0.7561 0.5073 0.4135
vn -0.4783 0.4333 0.7639
vn 0.0333 0.2534 0.9668
vn 0.0397 0.1710 -0.9845
vn -0.3666 0.3807 -0.8489
vn -0.6286 0.4383 -0.6425
vn -0.8333 0.5500 -0.0550
vn 0.3161 0.2737 0.9084
vn 0.6587 0.2157 0.7208
vn 0.9557 0.2256 0.1889
vn -0.6991 0.4915 0.5194
vn -0.3812 0.4267 0.8202
vn 0.4152 0.2740 -0.8675
vn -0.0459 0.3141 -0.9483
vn 0.8497 0.1956 -0.4896
vn -0.0031 0.3236 0.9462
vn -0.8674 0.4832 -0.1188
vn -0.8533 0.4772 0.2104
vn -0.5716 0.4962 0.6535
vn 0.9274 0.3072 0.2134
vn 0.9261 0.3439 -0.1551
vn 0.6131 0.4711 -0.6342
vn -0.4168 0.5036 -0.7568
vn -0.3977 0.5104 -0.7625
vn -0.4544 0.4974 -0.7390
vn -0.7628 0.4737 -0.4402
vn 0.4710 0.3308 0.8178
vn 0.7871 0.2753 0.5520
vn 0.0056 0.3832 0.9236
vn -0.0003 0.4717 -0.8818
usemtl None
s 1
f 165/1/1 89/2/2 3/3/3 58/4/4
f 164/5/5 121/6/6 7/7/7 93/8/8
f 163/9/9 102/10/10 10/11/11 128/12/12
f 162/13/13 118/14/14 12/15/15 91/16/16
f 161/17/17 58/4/4 3/3/3 133/18/18
f 160/19/19 127/20/20 8/21/21 132/22/22
f 159/23/23 113/24/24 15/25/25 84/26/26
f 158/27/27 131/28/28 19/29/29 97/30/30
f 157/31/31 112/32/32 22/33/33 72/34/34
f 156/35/35 120/36/36 16/37/37 64/38/38
f 155/39/39 56/40/40 20/41/41 71/42/42
f 154/43/43 53/44/44 24/45/45 109/46/46
f 153/47/47 55/48/48 27/49/49 105/50/50
f 152/51/51 99/52/52 31/53/53 75/54/54
f 31/53/53 63/55/55 76/56/56
f 26/57/57 115/58/58 62/59/59
f 33/60/60 126/61/61 67/62/62
f 35/63/63 136/64/64 90/65/65
f 151/66/66 108/67/67 32/68/68 136/64/64
f 31/53/53 76/56/56 75/54/54
f 150/69/69 105/50/50 27/49/49 126/61/61
f 149/70/70 77/71/71 35/63/63 115/58/58
f 148/72/72 81/73/73 33/60/60 63/55/55
f 27/49/49 55/48/48 78/74/74
f 147/75/75 116/76/76 40/77/77 106/78/78
f 146/79/79 61/80/80 44/81/81 129/82/82
f 145/83/83 86/84/84 39/85/85 122/86/86
f 144/87/87 95/88/88 43/89/89 73/90/90
f 143/91/91 85/92/92 46/93/93 135/94/94
f 142/95/95 125/96/96 42/97/97 119/98/98
f 141/99/99 104/100/100 38/101/101 111/102/102
f 140/103/103 87/104/104 45/105/105 65/106/106
f 139/107/107 60/108/108 41/109/109 69/110/110
f 138/111/111 59/112/112 47/113/113 114/114/114
f 85/92/92 138/111/111 114/114/114 46/93/93
f 45/105/105 129/82/82 138/111/111 85/92/92
f 129/82/82 44/81/81 59/112/112 138/111/111
f 110/115/115 139/107/107 69/110/110 50/116/116
f 52/117/117 111/102/102 139/107/107 110/115/115
f 111/102/102 38/101/101 60/108/108 139/107/107
f 54/118/118 140/103/103 65/106/106 48/119/119
f 51/120/120 119/121/98 140/103/103 54/118/118
f 119/121/98 42/122/97 87/104/104 140/103/103
f 134/123/121 141/99/99 111/102/102 52/117/117
f 49/124/122 135/94/94 141/99/99 134/123/121
f 135/94/94 46/93/93 104/100/100 141/99/99
f 103/125/123 142/95/95 119/98/98 51/126/120
f 50/116/116 69/110/110 142/95/95 103/125/123
f 69/110/110 41/109/109 125/96/96 142/95/95
f 98/127/124 143/91/91 135/94/94 49/124/122
f 48/119/119 65/106/106 143/91/91 98/127/124
f 65/106/106 45/105/105 85/92/92 143/91/91
f 125/96/96 144/87/87 73/90/90 42/97/97
f 41/109/109 106/78/78 144/87/87 125/96/96
f 106/78/78 40/77/77 95/88/88 144/87/87
f 104/100/100 145/83/83 122/86/86 38/101/101
f 46/93/93 114/114/114 145/83/83 104/100/100
f 114/114/114 47/113/113 86/84/84 145/83/83
f 87/104/104 146/79/79 129/82/82 45/105/105
f 42/122/97 73/128/90 146/79/79 87/104/104
f 73/128/90 43/129/89 61/80/80 146/79/79
f 60/108/108 147/75/75 106/78/78 41/109/109
f 38/101/101 122/86/86 147/75/75 60/108/108
f 122/86/86 39/85/85 116/76/76 147/75/75
f 78/74/74 62/59/59 34/130/125
f 78/74/74 55/48/48 62/59/59
f 55/48/48 26/57/57 62/59/59
f 99/52/52 148/72/72 63/55/55 31/53/53
f 30/131/126 117/132/127 148/72/72 99/52/52
f 117/132/127 37/133/128 81/73/73 148/72/72
f 88/134/129 149/70/70 115/58/58 26/57/57
f 25/135/130 123/136/131 149/70/70 88/134/129
f 123/136/131 36/137/132 77/71/71 149/70/70
f 81/73/73 150/69/69 126/61/61 33/60/60
f 37/133/128 92/138/133 150/69/69 81/73/73
f 92/138/133 28/139/134 105/50/50 150/69/69
f 75/54/54 96/140/135 32/68/68
f 75/54/54 76/56/56 96/140/135
f 76/56/56 34/130/125 96/140/135
f 77/71/71 151/66/66 136/64/64 35/63/63
f 36/137/132 107/141/136 151/66/66 77/71/71
f 107/141/136 29/142/137 108/67/67 151/66/66
f 90/65/65 96/140/135 34/130/125
f 90/65/65 136/64/64 96/140/135
f 136/64/64 32/68/68 96/140/135
f 67/62/62 78/74/74 34/130/125
f 67/62/62 126/61/61 78/74/74
f 126/61/61 27/49/49 78/74/74
f 62/59/59 90/65/65 34/130/125
f 62/59/59 115/58/58 90/65/65
f 115/58/58 35/63/63 90/65/65
f 76/56/56 67/62/62 34/130/125
f 76/56/56 63/55/55 67/62/62
f 63/55/55 33/60/60 67/62/62
f 108/67/67 152/51/51 75/54/54 32/68/68
f 29/142/137 137/143/138 152/51/51 108/67/67
f 137/143/138 30/131/126 99/52/52 152/51/51
f 66/144/139 153/47/47 105/50/50 28/139/134
f 25/135/130 88/134/129 153/47/47 66/144/139
f 88/134/129 26/57/57 55/48/48 153/47/47
f 112/32/32 154/43/43 109/46/46 22/33/33
f 21/145/140 100/146/141 154/43/43 112/32/32
f 100/146/141 23/147/142 53/44/44 154/43/43
f 113/24/24 155/39/39 71/42/42 15/25/25
f 14/148/143 130/149/144 155/39/39 113/24/24
f 130/149/144 17/150/145 56/40/40 155/39/39
f 53/44/44 156/35/35 64/38/38 24/45/45
f 23/147/142 83/151/146 156/35/35 53/44/44
f 83/151/146 13/152/147 120/36/36 156/35/35
f 131/28/28 157/31/31 72/34/34 19/29/29
f 18/153/148 70/154/149 157/31/31 131/28/28
f 70/154/149 21/145/140 112/32/32 157/31/31
f 56/40/40 158/27/27 97/30/30 20/41/41
f 17/150/145 79/155/150 158/27/27 56/40/40
f 79/155/150 18/153/148 131/28/28 158/27/27
f 120/36/36 159/23/23 84/26/26 16/37/37
f 13/152/147 68/156/151 159/23/23 120/36/36
f 68/156/151 14/148/143 113/24/24 159/23/23
f 118/14/14 160/19/19 132/22/22 12/15/15
f 11/157/152 80/158/153 160/19/19 118/14/14
f 80/158/153 5/159/154 127/20/20 160/19/19
f 102/10/10 161/17/17 133/18/18 10/11/11
f 9/160/155 101/161/156 161/17/17 102/10/10
f 101/161/156 4/162/157 58/4/4 161/17/17
f 124/163/158 162/13/13 91/16/16 2/164/159
f 1/165/160 82/166/161 162/13/13 124/163/158
f 82/166/161 11/157/152 118/14/14 162/13/13
f 121/6/6 163/9/9 128/12/12 7/7/7
f 6/167/162 57/168/163 163/9/9 121/6/6
f 57/168/163 9/160/155 102/10/10 163/9/9
f 127/20/20 164/5/5 93/8/8 8/21/21
f 5/159/154 74/169/164 164/5/5 127/20/20
f 74/169/164 6/167/162 121/6/6 164/5/5
f 94/170/165 165/1/1 58/4/4 4/162/157
f 1/165/160 124/163/158 165/1/1 94/170/165
f 124/163/158 2/164/159 89/2/2 165/1/1
