# Blender v2.78 (sub 0) OBJ File: ''
# www.blender.org
mtllib Pine_Tree_OneSided_s_09.mtl
o Pine_Tree_OneSided_s_09
v -0.027337 0.192123 0.044963
v 0.014646 0.586763 0.036325
v 0.000484 0.590307 -0.007857
v -0.045569 0.193524 -0.010863
v 0.032140 0.187779 0.028778
v 0.060964 0.575821 0.020905
v 0.043235 0.581156 -0.026760
v 0.008094 0.189941 -0.036249
v -0.059066 0.011084 -0.019536
v 0.004871 0.010857 -0.051664
v 0.035039 0.010715 0.032395
v -0.036633 0.010997 0.048861
v -0.120620 0.308317 0.309181
v 0.199275 0.321057 0.287116
v 0.118468 0.857410 0.074035
v 0.044544 0.859360 0.075819
v 0.323142 0.251076 0.027068
v 0.111306 0.335663 -0.236853
v 0.094938 0.859032 -0.045911
v 0.143163 0.850613 0.013170
v -0.201660 0.328800 -0.236187
v 0.023820 0.861307 -0.047788
v -0.384910 0.221521 0.025058
v -0.015934 0.854371 0.012695
v 0.207921 0.605142 0.224990
v 0.298946 0.669024 0.009422
v 0.155126 1.300875 0.042312
v -0.100271 0.680481 -0.197712
v 0.141223 0.638747 -0.202529
v -0.036759 0.651995 0.249297
v -0.191259 0.767395 0.009532
v -0.205057 0.536038 0.018623
v -0.028950 0.010970 -0.040973
v -0.033559 0.090310 0.047882
v 0.022948 0.188669 -0.004775
v 0.055133 0.577760 -0.004102
v 0.264546 0.663341 0.121150
v 0.160792 0.590048 0.182932
v -0.038448 0.584616 0.195567
v -0.022292 0.399496 -0.009312
v 0.232013 0.290682 -0.113760
v -0.115753 0.738681 0.134592
v 0.154414 0.969168 -0.095209
v 0.279292 0.283128 0.165255
v 0.005860 0.089267 -0.045384
v 0.001056 0.010856 0.046001
v 0.020778 0.586053 -0.020427
v 0.003459 0.189865 0.039887
v -0.148477 0.753204 -0.097463
v 0.090747 0.648473 0.246398
v 0.016679 0.993471 -0.092884
v 0.011539 0.857018 0.045741
v 0.047161 0.388894 0.024902
v 0.121309 0.854696 -0.017795
v 0.044433 0.321090 0.316837
v -0.054332 0.090984 -0.015633
v 0.004532 0.589264 0.015408
v -0.039284 0.193014 0.018090
v 0.023387 0.680595 -0.206009
v 0.133777 0.853856 0.045009
v -0.019795 0.191818 -0.026573
v -0.034967 1.037357 0.026472
v 0.000747 0.858003 -0.019130
v -0.313179 0.271445 -0.115386
v 0.024720 0.010786 -0.011339
v -0.052614 0.011040 0.016367
v 0.026190 0.392846 -0.031519
v 0.082443 0.858347 0.077934
v 0.052944 0.977078 0.160905
v 0.243936 0.981727 0.025317
v -0.090058 0.596074 -0.144585
v -0.270179 0.260242 0.176890
v 0.059183 0.860172 -0.049740
v 0.104043 0.598232 -0.143991
v 0.236493 0.549257 0.020155
v 0.038887 0.580970 0.031733
v -0.006050 0.396928 0.040937
v 0.229910 0.680939 -0.099201
v 0.192272 0.950215 0.148836
v -0.045846 0.339846 -0.254454
v 0.033810 0.088229 0.031458
v 0.023037 0.088652 -0.008122
v -0.156216 0.564724 -0.067258
v 0.206534 0.568492 0.105132
v -0.129320 0.558630 0.111315
v 0.006668 0.600009 -0.152097
v 0.176661 0.572689 -0.065777
v 0.063438 0.589718 0.197386
v -0.047148 0.090742 0.017284
v 0.001348 0.089226 0.043194
v -0.025459 0.090168 -0.034032
v 0.039228 0.390502 -0.004268
v 0.001015 0.396335 -0.023093
v 0.021489 0.392748 0.035597
v -0.016724 0.398581 0.016773
vt 0.7997 0.9354
vt 0.7997 0.9526
vt 0.7935 0.9526
vt 0.7937 0.9354
vt 0.8119 0.9354
vt 0.8119 0.9527
vt 0.8058 0.9526
vt 0.8058 0.9354
vt 0.7875 0.9353
vt 0.7873 0.9526
vt 0.7812 0.9526
vt 0.7814 0.9353
vt 0.8304 0.9355
vt 0.8304 0.9181
vt 0.8429 0.9181
vt 0.8427 0.9355
vt 0.7874 0.9070
vt 0.7876 0.9181
vt 0.7815 0.9179
vt 0.7812 0.9068
vt 0.8120 0.9072
vt 0.8119 0.9182
vt 0.8058 0.9183
vt 0.8059 0.9073
vt 0.7997 0.9073
vt 0.7998 0.9182
vt 0.7938 0.9182
vt 0.7936 0.9073
vt 0.9237 0.4265
vt 0.9292 0.4137
vt 0.9401 0.4366
vt 0.9389 0.4392
vt 0.9576 0.4254
vt 0.9634 0.4374
vt 0.9467 0.4406
vt 0.9454 0.4386
vt 0.9587 0.4500
vt 0.9540 0.4627
vt 0.9445 0.4456
vt 0.9456 0.4431
vt 0.9235 0.4539
vt 0.9182 0.4394
vt 0.9376 0.4418
vt 0.9389 0.4442
vt 0.9405 0.4136
vt 0.9518 0.4136
vt 0.9442 0.4366
vt 0.9421 0.4366
vt 0.9414 0.4656
vt 0.9288 0.4684
vt 0.9401 0.4465
vt 0.9423 0.4460
vt 0.9621 0.5165
vt 0.9757 0.5308
vt 0.9502 0.5426
vt 0.9306 0.6104
vt 0.9344 0.5896
vt 0.9519 0.6000
vt 0.9384 0.5252
vt 0.9103 0.5981
vt 0.9892 0.5452
vt 0.9812 0.5674
vt 0.9637 0.5569
vt 0.8901 0.5858
vt 0.9024 0.5598
vt 0.9141 0.5773
vt 0.8306 0.9070
vt 0.8180 0.9181
vt 0.8182 0.9070
vt 0.8307 0.8959
vt 0.8184 0.8959
vt 0.8430 0.8959
vt 0.8429 0.9070
vt 0.9265 0.5512
vt 0.9382 0.5687
vt 0.9147 0.5338
vt 0.9557 0.5792
vt 0.9733 0.5896
vt 0.9635 0.4798
vt 0.9405 0.4850
vt 0.9176 0.4903
vt 0.9183 0.3908
vt 0.9388 0.3907
vt 0.9594 0.3905
vt 0.9081 0.4636
vt 0.8987 0.4369
vt 0.9802 0.4341
vt 0.9719 0.4570
vt 0.9698 0.4123
vt 0.9085 0.4139
vt 0.7997 0.8964
vt 0.7934 0.8963
vt 0.8060 0.8964
vt 0.8122 0.8961
vt 0.7872 0.8960
vt 0.7810 0.8956
vt 0.8303 0.9528
vt 0.8426 0.9529
vt 0.8180 0.9527
vt 0.8180 0.9354
vn -0.9441 0.1078 0.3116
vn -0.9450 0.1100 0.3081
vn -0.9128 0.1098 -0.3933
vn -0.9093 0.1080 -0.4018
vn 0.2880 -0.0051 0.9576
vn 0.2920 -0.0053 0.9564
vn -0.4937 0.0730 0.8666
vn -0.4574 0.0679 0.8867
vn -0.4084 0.0573 -0.9110
vn -0.4082 0.0575 -0.9111
vn 0.3452 -0.0117 -0.9385
vn 0.3897 -0.0153 -0.9208
vn 0.9332 -0.0751 -0.3514
vn 0.9373 -0.0305 -0.3471
vn 0.3824 0.0301 -0.9235
vn -0.4362 0.0884 -0.8955
vn -0.4248 0.0736 -0.9023
vn 0.3870 0.0758 -0.9190
vn 0.2409 0.0246 0.9702
vn 0.2611 0.0109 0.9653
vn -0.4789 0.0625 0.8757
vn -0.4871 0.0502 0.8719
vn -0.9482 0.0618 0.3116
vn -0.9462 0.0881 0.3115
vn -0.9173 0.1025 -0.3847
vn -0.9199 0.0915 -0.3814
vn 0.0485 0.3988 0.9158
vn 0.5505 0.3830 0.7418
vn 0.5521 0.3893 0.7374
vn 0.0475 0.4021 0.9144
vn 0.7870 0.2473 -0.5653
vn 0.4492 0.3198 -0.8342
vn 0.4586 0.3236 -0.8276
vn 0.7808 0.2510 -0.5721
vn 0.0025 0.3613 -0.9325
vn -0.4609 0.4648 -0.7560
vn -0.4036 0.4607 -0.7905
vn 0.0171 0.3625 -0.9318
vn -0.7055 0.4503 0.5473
vn -0.3804 0.4547 0.8053
vn -0.3509 0.4573 0.8172
vn -0.6920 0.4522 0.5627
vn 0.8919 0.2960 0.3418
vn 0.9489 0.2846 -0.1362
vn 0.9440 0.2898 -0.1578
vn 0.8925 0.2992 0.3375
vn -0.7876 0.4813 -0.3849
vn -0.8555 0.5068 0.1061
vn -0.8510 0.5139 0.1082
vn -0.7758 0.4835 -0.4054
vn 0.5380 0.2048 0.8177
vn 0.8833 0.1589 0.4411
vn 0.5758 0.2623 0.7743
vn -0.3252 0.4074 -0.8534
vn -0.3678 0.4780 -0.7977
vn 0.0356 0.3239 -0.9454
vn 0.1447 0.2413 0.9596
vn -0.7059 0.4706 -0.5295
vn 0.9785 0.1775 -0.1051
vn 0.7682 0.1897 -0.6114
vn 0.9644 0.2445 -0.1011
vn -0.8651 0.4963 0.0719
vn -0.6744 0.3823 0.6317
vn -0.8272 0.5567 0.0767
vn 0.9397 0.0196 -0.3415
vn 0.8894 -0.0163 0.4568
vn 0.8873 0.0280 0.4604
vn 0.9396 0.0262 -0.3412
vn 0.8866 0.0310 0.4615
vn 0.3738 0.0798 -0.9241
vn -0.2944 0.3812 0.8763
vn 0.1692 0.9849 0.0380
vn -0.2644 0.3203 0.9097
vn 0.4460 0.3137 -0.8383
vn 0.4055 0.2677 -0.8740
vn -0.5502 0.4723 -0.6887
vn -0.8069 0.4804 -0.3437
vn -0.8567 0.5027 0.1158
vn 0.5614 0.3756 0.7374
vn 0.8960 0.2919 0.3346
vn 0.9527 0.2816 -0.1139
vn -0.7244 0.4500 0.5223
vn -0.4417 0.4544 0.7736
vn 0.4557 0.3137 -0.8330
vn -0.0211 0.3617 -0.9320
vn 0.7989 0.2436 -0.5499
vn 0.0410 0.3961 0.9173
vn -0.9495 0.0532 0.3092
vn -0.9180 0.0853 -0.3872
vn -0.4991 0.0434 0.8655
vn 0.2315 0.0233 0.9726
vn -0.4411 0.0874 -0.8932
vn 0.9306 -0.0759 -0.3581
vn 0.8934 -0.0609 0.4452
vn 0.8962 -0.0604 0.4396
usemtl None
s 1
f 95/1/1 57/2/2 3/3/3 40/4/4
f 94/5/5 76/6/6 2/7/7 77/8/8
f 93/9/9 47/10/10 7/11/11 67/12/12
f 92/13/13 35/14/14 8/15/15 67/16/12
f 91/17/16 61/18/17 8/19/15 45/20/18
f 90/21/19 48/22/20 1/23/21 34/24/22
f 89/25/23 58/26/24 4/27/25 56/28/26
f 88/29/27 38/30/28 15/31/29 68/32/30
f 87/33/31 74/34/32 19/35/33 54/36/34
f 86/37/35 71/38/36 22/39/37 73/40/38
f 85/41/39 39/42/40 16/43/41 52/44/42
f 84/45/43 75/46/44 20/47/45 60/48/46
f 83/49/47 32/50/48 24/51/49 63/52/50
f 25/53/51 37/54/52 79/55/53
f 28/56/54 51/57/55 59/58/56
f 25/53/51 79/55/53 50/59/57
f 28/56/54 49/60/58 51/57/55
f 26/61/59 78/62/60 70/63/61
f 31/64/62 42/65/63 62/66/64
f 82/67/65 35/14/14 5/68/66 81/69/67
f 65/70/68 82/67/65 81/69/67 11/71/69
f 10/72/70 45/73/18 82/67/65 65/70/68
f 45/73/18 8/15/15 35/14/14 82/67/65
f 62/66/64 69/74/71 27/75/72
f 62/66/64 42/65/63 69/74/71
f 42/65/63 30/76/73 69/74/71
f 70/63/61 43/77/74 27/75/72
f 70/63/61 78/62/60 43/77/74
f 78/62/60 29/78/75 43/77/74
f 51/57/55 62/66/64 27/75/72
f 51/57/55 49/60/58 62/66/64
f 49/60/58 31/64/62 62/66/64
f 50/59/57 69/74/71 30/76/73
f 50/59/57 79/55/53 69/74/71
f 79/55/53 27/75/72 69/74/71
f 59/58/56 43/77/74 29/78/75
f 59/58/56 51/57/55 43/77/74
f 51/57/55 27/75/72 43/77/74
f 79/55/53 70/63/61 27/75/72
f 79/55/53 37/54/52 70/63/61
f 37/54/52 26/61/59 70/63/61
f 71/38/36 83/49/47 63/52/50 22/39/37
f 21/79/76 64/80/77 83/49/47 71/38/36
f 64/80/77 23/81/78 32/50/48 83/49/47
f 38/30/28 84/45/43 60/48/46 15/31/29
f 14/82/79 44/83/80 84/45/43 38/30/28
f 44/83/80 17/84/81 75/46/44 84/45/43
f 32/50/48 85/41/39 52/44/42 24/51/49
f 23/81/78 72/85/82 85/41/39 32/50/48
f 72/85/82 13/86/83 39/42/40 85/41/39
f 74/34/32 86/37/35 73/40/38 19/35/33
f 18/87/84 80/88/85 86/37/35 74/34/32
f 80/88/85 21/79/76 71/38/36 86/37/35
f 75/46/44 87/33/31 54/36/34 20/47/45
f 17/84/81 41/89/86 87/33/31 75/46/44
f 41/89/86 18/87/84 74/34/32 87/33/31
f 39/42/40 88/29/27 68/32/30 16/43/41
f 13/86/83 55/90/87 88/29/27 39/42/40
f 55/90/87 14/82/79 38/30/28 88/29/27
f 66/91/88 89/25/23 56/28/26 9/92/89
f 12/93/90 34/24/22 89/25/23 66/91/88
f 34/24/22 1/23/21 58/26/24 89/25/23
f 46/94/91 90/21/19 34/24/22 12/93/90
f 11/71/69 81/69/67 90/21/19 46/94/91
f 81/69/67 5/68/66 48/22/20 90/21/19
f 33/95/92 91/17/16 45/20/18 10/96/70
f 9/92/89 56/28/26 91/17/16 33/95/92
f 56/28/26 4/27/25 61/18/17 91/17/16
f 36/97/93 92/13/13 67/16/12 7/98/11
f 6/99/94 53/100/95 92/13/13 36/97/93
f 53/100/95 5/68/66 35/14/14 92/13/13
f 61/18/17 93/9/9 67/12/12 8/19/15
f 4/27/25 40/4/4 93/9/9 61/18/17
f 40/4/4 3/3/3 47/10/10 93/9/9
f 48/22/20 94/5/5 77/8/8 1/23/21
f 5/68/66 53/100/95 94/5/5 48/22/20
f 53/100/95 6/99/94 76/6/6 94/5/5
f 58/26/24 95/1/1 40/4/4 4/27/25
f 1/23/21 77/8/8 95/1/1 58/26/24
f 77/8/8 2/7/7 57/2/2 95/1/1
