# Blender v2.78 (sub 0) OBJ File: ''
# www.blender.org
mtllib Pine_Tree_OneSided_m_02.mtl
o Pine_Tree_OneSided_m_02
v -1.520998 1.822550 -1.499840
v -0.871546 4.102799 -0.843727
v -0.122685 4.158220 -1.142620
v -0.071049 2.259374 -2.025296
v 0.627066 4.091119 -0.843409
v 1.380193 1.861376 -1.506079
v 1.888539 2.326625 -0.010478
v 0.925029 4.168944 -0.087738
v 0.629427 4.118696 0.667735
v 1.384301 1.920599 1.487305
v -0.065726 2.338629 2.013127
v -0.119094 4.196282 0.966667
v -0.868765 4.129801 0.667497
v -1.517137 1.880745 1.494236
v -2.025378 2.273604 -0.001658
v -1.167065 4.185431 -0.088202
v 1.341090 3.801757 -1.590883
v 0.002892 3.566703 -2.060322
v -0.032395 6.163135 -0.387019
v 0.280401 6.204025 -0.270038
v 1.331334 3.724257 1.374575
v 1.802408 3.434744 0.005811
v 0.396673 6.153097 0.075545
v 0.279007 6.202444 0.390104
v -1.343925 3.844415 1.369547
v -0.010048 3.467079 1.839832
v -0.034248 6.162119 0.507588
v -0.346350 6.216321 0.389091
v -1.334924 3.918937 -1.425480
v -1.810783 3.597062 0.019294
v -0.463447 6.171833 0.074161
v -0.345058 6.217760 -0.250837
v 1.708185 5.372697 0.139535
v 1.188131 5.166627 -0.950478
v 0.297987 7.561295 -0.217331
v 0.428951 7.603177 0.076891
v 0.094335 5.217617 1.737573
v 1.174686 4.977740 1.215560
v 0.295989 7.550297 0.368822
v 0.005033 7.589982 0.500557
v -1.497463 5.344909 0.128493
v -0.992650 4.956846 1.208106
v -0.287012 7.544018 0.367369
v -0.415664 7.594553 0.074762
v 0.117526 5.500751 -1.469569
v -0.974607 5.149953 -0.957935
v -0.284482 7.555627 -0.218790
v 0.008367 7.607825 -0.348908
v -0.030330 8.526559 -0.378385
v -0.359514 8.572218 -0.227313
v -0.034073 9.764778 0.147130
v 0.318683 8.579590 -0.225989
v 0.317980 8.591012 0.434084
v 0.470036 8.539378 0.104021
v -0.360115 8.583246 0.432789
v -0.031264 8.543274 0.584526
v -0.510624 8.528694 0.102134
v -1.074166 6.670604 0.065548
v -0.648471 7.095431 0.765747
v 0.035816 6.705772 1.190364
v 0.732301 7.100288 0.768099
v 1.149491 6.677139 0.069402
v 0.733036 7.060334 -0.625385
v -0.647734 7.056971 -0.627824
v 0.036988 6.642440 -1.055402
v -0.179208 0.949511 0.279541
v -0.124248 3.057141 0.202255
v -0.200097 3.056584 -0.030511
v -0.291583 0.949509 -0.066260
v 0.002593 0.949440 -0.279955
v -0.001850 3.055194 -0.174103
v 0.196526 3.054904 -0.030081
v 0.296780 0.949398 -0.066225
v 0.184421 0.949444 0.279563
v 0.120879 3.056120 0.202520
v 0.315613 0.074032 -0.099987
v 0.195165 0.074026 0.270713
v -0.315059 0.074029 -0.099987
v 0.000277 0.074035 -0.329092
v -0.194612 0.074024 0.270713
v 0.156720 9.245188 0.308687
v -0.022273 4.802481 1.186527
v 0.049853 6.414135 1.134875
v -1.209558 2.988816 1.097943
v -0.292102 9.236568 0.126518
v -0.183114 3.056996 0.092636
v -0.312790 0.423024 -0.086689
v -0.217674 9.240392 0.307956
v 0.817964 4.974393 0.895162
v -1.613991 3.246097 -0.044907
v -1.150049 4.873073 0.048009
v 0.660314 5.090766 1.557495
v -0.217314 9.235046 -0.054622
v 0.819607 4.129127 -0.483642
v 1.656265 3.573827 0.751550
v -0.363305 7.574827 -0.077575
v -0.034616 9.236541 -0.129347
v 0.155971 7.570491 0.448063
v -0.520338 7.760401 -0.447880
v 0.179828 0.074033 -0.244659
v -0.179275 0.074032 -0.244659
v 1.730510 2.126082 0.788249
v 0.350578 6.177809 0.238178
v 1.020238 2.959376 -1.191811
v 0.247607 2.056365 -0.047371
v 1.522152 5.173656 0.704059
v -0.648107 6.238248 0.795452
v 0.706052 3.591153 1.696873
v 0.376723 7.582262 -0.075730
v 0.153259 2.057035 0.242876
v 1.661490 3.615631 -0.838988
v 1.424549 3.264541 -0.049129
v 0.393393 6.904719 1.035570
v 0.129295 6.183321 -0.341402
v 0.290797 0.074029 0.096867
v 1.084409 6.499589 0.108466
v -0.917021 6.883097 0.425022
v -0.637648 6.341791 -0.596531
v -0.511884 4.164044 0.860774
v 0.702915 2.059071 -1.862918
v 0.823628 5.014646 -0.947258
v -0.113927 3.055874 -0.120100
v 0.000413 2.056542 -0.226906
v -0.096890 3.225091 -1.602121
v 0.002896 7.532459 0.921147
v 0.707900 2.132198 1.847209
v 1.528998 5.272574 -0.431421
v 0.139106 8.654872 0.503799
v 0.996966 6.868556 -0.287362
v 0.001581 0.423051 -0.315093
v -0.844616 2.038301 -1.859604
v 0.718095 3.684920 -1.939775
v -1.667122 3.723420 0.745332
v -0.195592 6.189471 0.461214
v 0.164628 0.949424 -0.193656
v 0.394401 6.849756 -0.896699
v -1.865213 2.076806 0.796615
v 0.384862 8.653075 0.269071
v -0.146500 7.567223 0.447315
v 0.234069 9.243203 0.127552
v -1.212931 2.945587 -1.188809
v -0.246706 2.057317 -0.047617
v 0.679541 5.341100 -1.290772
v -0.001674 3.056729 0.224361
v 0.742984 6.252043 0.799956
v -1.867262 2.045799 -0.800623
v 0.385217 8.647584 -0.055218
v -0.194827 8.650953 0.503159
v -0.857832 5.042450 0.892094
v -0.314708 6.848118 -0.897955
v -0.259572 0.949508 0.114496
v 0.127643 6.182495 0.461735
v -0.711397 3.747274 -1.837029
v 0.846930 7.515467 0.084225
v 0.315952 0.423040 -0.086689
v 1.112280 4.781469 0.044533
v -0.722974 3.655352 1.694183
v -0.852618 5.081060 -0.849949
v 0.157138 9.239695 -0.053880
v -0.035164 9.244203 0.383408
v 0.003996 7.490643 -0.755699
v -0.916641 6.863408 -0.290705
v 1.728302 2.094446 -0.808562
v 0.000277 0.074025 0.307943
v 0.139926 8.641420 -0.290879
v -1.662364 3.763379 -0.739770
v 0.375703 7.577008 0.228417
v -1.316546 5.249198 -0.441232
v -0.364590 7.569253 0.226575
v -0.416989 6.194766 -0.093692
v 0.264777 0.949421 0.114524
v -0.194066 8.637704 -0.291533
v 0.545409 7.765977 -0.445930
v 0.351286 6.178396 -0.102564
v -0.971895 6.481105 0.101778
v 0.750742 6.353042 -0.592023
v -0.290243 0.074027 0.096867
v -0.192711 0.422998 0.282876
v 0.820826 4.143582 0.308137
v -0.315719 6.902161 1.034367
v -0.152243 2.057613 0.242723
v 0.270187 4.123663 -1.036706
v -0.092381 3.284441 1.508061
v -0.014786 4.853271 -1.238635
v -1.326237 5.147670 0.694251
v -0.476075 5.079615 1.553587
v -0.521033 7.785939 0.614932
v -0.839790 2.110799 1.850951
v 0.063319 6.567001 -0.924646
v 0.273293 4.158055 0.860922
v 0.544661 7.792530 0.616819
v -0.515254 4.129995 -1.036894
v -0.827651 7.506456 0.081224
v -0.417647 6.194223 0.236944
v -0.428120 8.643788 0.267506
v -0.454003 5.332559 -1.294683
v 1.023521 3.003449 1.094534
v 0.179651 3.055440 0.093036
v -1.061463 4.158470 0.307717
v 0.110274 3.054904 -0.119853
v -0.143519 7.581380 -0.297222
v 0.158686 7.584330 -0.296472
v -1.062945 4.144357 -0.484102
v -0.427824 8.638498 -0.056798
v 0.195873 0.423008 0.282876
v -0.159437 0.949477 -0.193673
v 0.002607 0.949473 0.304972
v 0.996589 6.889163 0.428311
v -0.193991 6.190252 -0.331817
v 0.220377 2.056674 0.104237
v -0.278117 0.423009 0.106336
v 0.174444 0.423048 -0.222468
v 0.001581 0.423001 0.309548
v -0.171282 0.423039 -0.222468
v 0.281279 0.423024 0.106336
v -0.135475 2.056925 -0.154217
v 0.000512 2.057359 0.263750
v 0.136332 2.056402 -0.154081
v -0.219416 2.057513 0.104017
v -0.265357 7.624787 -0.630768
v 0.281458 7.627641 -0.629766
v 0.724937 7.654301 0.357372
v -0.266290 7.659874 0.796993
v -0.702670 7.633120 -0.190180
v 0.725323 7.640685 -0.187599
v 0.280495 7.663312 0.797961
v -0.703026 7.646152 0.354827
v -0.839926 6.412012 -0.259403
v -0.311287 6.323419 1.000451
v 0.948928 6.375331 0.466238
v 0.419114 6.462715 -0.793622
v -0.298761 6.456969 -0.795952
v -0.845413 6.358462 0.460413
v 0.408143 6.330628 1.002779
v 0.952861 6.427418 -0.253575
v -0.452694 4.968762 -1.084423
v -1.042385 4.958822 0.491138
v 0.416847 4.886824 1.079304
v 1.006388 4.897013 -0.470776
v -1.039677 4.979072 -0.416731
v -0.459283 4.922411 1.077698
v 1.003421 4.875818 0.494864
v 0.423695 4.934120 -1.140588
v -1.463338 3.117639 0.552166
v 0.490596 3.145126 1.354065
v 1.273955 3.111786 -0.646102
v -1.465104 3.095078 -0.642363
v -0.675837 3.137421 1.355862
v 1.275668 3.134832 0.548193
v 0.486551 3.091367 -1.449812
v -0.679935 3.084148 -1.448249
vt 0.9701 0.4679
vt 0.9619 0.4556
vt 0.9689 0.4489
vt 0.9820 0.4572
vt 0.9823 0.4410
vt 0.9690 0.4395
vt 0.9690 0.4300
vt 0.9826 0.4248
vt 0.9432 0.4017
vt 0.9458 0.4158
vt 0.9360 0.4154
vt 0.9269 0.4015
vt 0.9042 0.4390
vt 0.9214 0.4383
vt 0.9211 0.4482
vt 0.9042 0.4545
vt 0.9422 0.4778
vt 0.9450 0.4621
vt 0.9548 0.4623
vt 0.9583 0.4786
vt 0.9710 0.4134
vt 0.9623 0.4232
vt 0.9556 0.4163
vt 0.9594 0.4020
vt 0.9156 0.4125
vt 0.9288 0.4219
vt 0.9216 0.4285
vt 0.9043 0.4235
vt 0.9151 0.4658
vt 0.9281 0.4550
vt 0.9352 0.4619
vt 0.9261 0.4771
vt 0.9754 0.4416
vt 0.9755 0.4543
vt 0.9544 0.4463
vt 0.9541 0.4407
vt 0.9399 0.4085
vt 0.9530 0.4083
vt 0.9457 0.4274
vt 0.9402 0.4275
vt 0.9089 0.4404
vt 0.9087 0.4272
vt 0.9271 0.4357
vt 0.9274 0.4412
vt 0.9420 0.4722
vt 0.9282 0.4720
vt 0.9358 0.4540
vt 0.9412 0.4541
vt 0.9641 0.4186
vt 0.9753 0.4288
vt 0.9538 0.4351
vt 0.9498 0.4312
vt 0.9178 0.4179
vt 0.9269 0.4086
vt 0.9346 0.4275
vt 0.9309 0.4316
vt 0.9186 0.4628
vt 0.9090 0.4536
vt 0.9276 0.4467
vt 0.9317 0.4503
vt 0.9657 0.4633
vt 0.9557 0.4724
vt 0.9466 0.4543
vt 0.9505 0.4503
vt 0.9628 0.4205
vt 0.9713 0.4289
vt 0.9493 0.4394
vt 0.9478 0.4378
vt 0.9223 0.4206
vt 0.9306 0.4123
vt 0.9421 0.4363
vt 0.9405 0.4378
vt 0.9220 0.4611
vt 0.9137 0.4525
vt 0.9390 0.4438
vt 0.9405 0.4453
vt 0.9628 0.4614
vt 0.9543 0.4699
vt 0.9463 0.4466
vt 0.9477 0.4451
vt 0.9713 0.4409
vt 0.9712 0.4528
vt 0.9491 0.4436
vt 0.9492 0.4415
vt 0.9425 0.4122
vt 0.9544 0.4122
vt 0.9464 0.4363
vt 0.9442 0.4363
vt 0.9138 0.4408
vt 0.9139 0.4290
vt 0.9389 0.4394
vt 0.9390 0.4416
vt 0.9423 0.4698
vt 0.9303 0.4697
vt 0.9421 0.4467
vt 0.9442 0.4466
vt 0.9427 0.5824
vt 0.9365 0.5820
vt 0.9405 0.5748
vt 0.9531 0.5735
vt 0.9479 0.5780
vt 0.9457 0.5703
vt 0.9451 0.5496
vt 0.9496 0.5549
vt 0.9417 0.5584
vt 0.9212 0.5598
vt 0.9258 0.5548
vt 0.9298 0.5635
vt 0.9302 0.5816
vt 0.9262 0.5770
vt 0.9343 0.5744
vt 0.9540 0.5602
vt 0.9535 0.5668
vt 0.9462 0.5637
vt 0.9303 0.5499
vt 0.9377 0.5497
vt 0.9344 0.5586
vt 0.9223 0.5724
vt 0.9217 0.5661
vt 0.9303 0.5698
vt 0.9049 0.5642
vt 0.9047 0.5497
vt 0.9400 0.5303
vt 0.9543 0.5308
vt 0.9729 0.5652
vt 0.9727 0.5790
vt 0.9149 0.5889
vt 0.9050 0.5788
vt 0.9152 0.5398
vt 0.9257 0.5299
vt 0.9637 0.5411
vt 0.9731 0.5513
vt 0.9627 0.5890
vt 0.9527 0.5989
vt 0.9388 0.5990
vt 0.9248 0.5990
vt 0.9302 0.9483
vt 0.9301 0.9812
vt 0.9231 0.9812
vt 0.9233 0.9483
vt 0.9714 0.9486
vt 0.9712 0.9818
vt 0.9644 0.9818
vt 0.9645 0.9485
vt 0.9439 0.9484
vt 0.9439 0.9813
vt 0.9370 0.9811
vt 0.9370 0.9484
vt 0.9165 0.9483
vt 0.9162 0.9813
vt 0.9093 0.9814
vt 0.9096 0.9483
vt 0.9579 0.9028
vt 0.9577 0.9153
vt 0.9507 0.9154
vt 0.9510 0.9030
vt 0.9165 0.9030
vt 0.9168 0.9153
vt 0.9099 0.9152
vt 0.9096 0.9027
vt 0.9441 0.9032
vt 0.9439 0.9155
vt 0.9371 0.9156
vt 0.9372 0.9034
vt 0.9717 0.9028
vt 0.9715 0.9153
vt 0.9646 0.9152
vt 0.9648 0.9026
vt 0.9303 0.9033
vt 0.9304 0.9155
vt 0.9236 0.9155
vt 0.9234 0.9032
vt 0.9576 0.9485
vt 0.9576 0.9816
vt 0.9508 0.9815
vt 0.9507 0.9485
vt 0.9302 0.8911
vt 0.9232 0.8910
vt 0.9372 0.8912
vt 0.9718 0.8902
vt 0.9649 0.8900
vt 0.9786 0.8905
vt 0.9786 0.9030
vt 0.9785 0.9154
vt 0.9442 0.8909
vt 0.9512 0.8906
vt 0.9162 0.8906
vt 0.9093 0.8902
vt 0.9581 0.8903
vt 0.9783 0.9486
vt 0.9780 0.9818
vt 0.9627 0.6154
vt 0.9410 0.6159
vt 0.9194 0.6164
vt 0.9922 0.5846
vt 0.9775 0.6000
vt 0.9636 0.5121
vt 0.9779 0.5272
vt 0.9922 0.5424
vt 0.8882 0.5396
vt 0.9046 0.5247
vt 0.9211 0.5098
vt 0.9036 0.6008
vt 0.8878 0.5852
vt 0.9922 0.5635
vt 0.9424 0.5109
vt 0.8880 0.5624
vt 0.9384 0.5672
vt 0.9624 0.4932
vt 0.9405 0.4930
vt 0.9185 0.4927
vt 0.8883 0.4613
vt 0.8886 0.4399
vt 0.8889 0.4185
vt 0.9192 0.3883
vt 0.9408 0.3882
vt 0.9624 0.3880
vt 0.9933 0.4184
vt 0.9933 0.4402
vt 0.9933 0.4620
vt 0.9779 0.4776
vt 0.9034 0.4770
vt 0.9040 0.4034
vt 0.9779 0.4032
vt 0.9967 0.4624
vt 0.9808 0.4764
vt 0.9649 0.4904
vt 0.9206 0.4900
vt 0.9055 0.4753
vt 0.8904 0.4605
vt 0.8904 0.4188
vt 0.9048 0.4042
vt 0.9192 0.3897
vt 0.9602 0.3893
vt 0.9785 0.4060
vt 0.9967 0.4226
vt 0.9427 0.4902
vt 0.8904 0.4396
vt 0.9397 0.3895
vt 0.9967 0.4425
vt 0.9022 0.4765
vt 0.9171 0.4922
vt 0.8872 0.4608
vt 0.9025 0.4031
vt 0.8870 0.4185
vt 0.9179 0.3876
vt 0.9797 0.4036
vt 0.9632 0.3876
vt 0.9961 0.4197
vt 0.9394 0.4936
vt 0.9617 0.4949
vt 0.8871 0.4396
vt 0.9405 0.3876
vt 0.9956 0.4426
vt 0.9951 0.4654
vt 0.9784 0.4801
vn -0.3987 0.3855 -0.8321
vn -0.3857 0.3938 -0.8344
vn -0.0065 0.4293 -0.9031
vn -0.0023 0.4205 -0.9073
vn 0.3934 0.4073 -0.8243
vn 0.3807 0.4150 -0.8263
vn 0.6380 0.4232 -0.6433
vn 0.6426 0.4151 -0.6440
vn 0.8083 0.4501 0.3796
vn 0.8103 0.4576 0.3661
vn 0.6365 0.4655 0.6150
vn 0.6398 0.4578 0.6173
vn -0.4042 0.4452 0.7990
vn -0.3900 0.4536 0.8013
vn -0.6514 0.4336 0.6226
vn -0.6533 0.4257 0.6261
vn -0.8406 0.3769 -0.3891
vn -0.8409 0.3849 -0.3804
vn -0.6557 0.3891 -0.6470
vn -0.6596 0.3806 -0.6482
vn 0.8153 0.4229 -0.3956
vn 0.8161 0.4310 -0.3849
vn 0.8821 0.4708 -0.0130
vn 0.8868 0.4620 -0.0085
vn 0.4021 0.4652 0.7886
vn 0.3873 0.4732 0.7913
vn -0.0054 0.4968 0.8679
vn -0.0006 0.4883 0.8727
vn -0.8312 0.4059 0.3799
vn -0.8328 0.4132 0.3683
vn -0.9079 0.4191 -0.0096
vn -0.9120 0.4101 -0.0046
vn 0.1891 0.5555 -0.8097
vn -0.0314 0.5448 -0.8380
vn -0.0304 0.5485 -0.8356
vn 0.1944 0.5591 -0.8060
vn 0.8601 0.4669 0.2057
vn 0.8859 0.4635 0.0190
vn 0.8838 0.4674 0.0200
vn 0.8562 0.4707 0.2130
vn -0.1896 0.4571 0.8690
vn 0.0163 0.4478 0.8940
vn 0.0118 0.4519 0.8920
vn -0.2002 0.4618 0.8641
vn -0.8564 0.4825 -0.1840
vn -0.8836 0.4680 0.0106
vn -0.8814 0.4722 0.0105
vn -0.8522 0.4868 -0.1916
vn 0.8639 0.4806 -0.1508
vn 0.6132 0.5727 -0.5441
vn 0.6168 0.5792 -0.5330
vn 0.8599 0.4851 -0.1591
vn 0.2185 0.4554 0.8630
vn 0.6136 0.5047 0.6072
vn 0.6062 0.5117 0.6089
vn 0.2247 0.4593 0.8594
vn -0.8555 0.4713 0.2145
vn -0.5965 0.5101 0.6197
vn -0.5973 0.5175 0.6128
vn -0.8520 0.4752 0.2200
vn -0.2390 0.5414 -0.8060
vn -0.6173 0.5548 -0.5578
vn -0.6229 0.5610 -0.5452
vn -0.2427 0.5448 -0.8027
vn 0.7722 0.4497 -0.4488
vn 0.6525 0.4379 -0.6184
vn 0.6448 0.4418 -0.6237
vn 0.7734 0.4537 -0.4428
vn 0.4608 0.4357 0.7732
vn 0.6161 0.4330 0.6580
vn 0.6193 0.4368 0.6524
vn 0.4510 0.4396 0.7767
vn -0.7782 0.3982 0.4857
vn -0.6415 0.3944 0.6580
vn -0.6465 0.3984 0.6507
vn -0.7854 0.4031 0.4697
vn -0.4794 0.4061 -0.7780
vn -0.6643 0.3919 -0.6365
vn -0.6603 0.3966 -0.6377
vn -0.4684 0.4113 -0.7819
vn 0.4850 0.4417 -0.7548
vn 0.0036 0.4710 -0.8821
vn -0.0067 0.4776 -0.8786
vn 0.4702 0.4466 -0.7612
vn 0.7374 0.4474 0.5060
vn 0.8660 0.4987 0.0349
vn 0.8627 0.5052 0.0199
vn 0.7452 0.4530 0.4894
vn -0.4703 0.4067 0.7832
vn -0.0046 0.4636 0.8860
vn -0.0111 0.4697 0.8827
vn -0.4622 0.4109 0.7858
vn -0.8015 0.3941 -0.4498
vn -0.9001 0.4351 0.0221
vn -0.8971 0.4417 0.0081
vn -0.8035 0.3982 -0.4425
vn -0.0112 0.3386 -0.9409
vn -0.3585 0.3189 -0.8774
vn -0.0112 0.4037 -0.9148
vn 0.6519 0.3506 -0.6724
vn 0.3348 0.3311 -0.8822
vn 0.6333 0.4071 -0.6582
vn 0.6654 0.3218 0.6735
vn 0.8822 0.3111 0.3534
vn 0.6457 0.3702 0.6679
vn -0.6868 0.2851 0.6686
vn -0.3771 0.2737 0.8848
vn -0.6662 0.3565 0.6551
vn -0.6708 0.3159 -0.6710
vn -0.8821 0.2951 -0.3671
vn -0.6507 0.3937 -0.6493
vn 0.9412 0.3379 -0.0057
vn 0.8742 0.3285 -0.3575
vn 0.9184 0.3956 -0.0022
vn -0.0151 0.3020 0.9532
vn 0.3470 0.2873 0.8928
vn -0.0144 0.3515 0.9361
vn -0.9554 0.2953 -0.0060
vn -0.8908 0.2761 0.3609
vn -0.9277 0.3733 -0.0040
vn -0.8881 0.2757 0.3678
vn -0.6840 0.2877 0.6704
vn 0.3463 0.3161 0.8833
vn 0.6681 0.3368 0.6634
vn 0.8754 0.3428 -0.3408
vn 0.6554 0.3566 -0.6658
vn -0.8810 0.2879 -0.3754
vn -0.9565 0.2916 -0.0059
vn -0.3761 0.2901 0.8800
vn -0.0124 0.3150 0.9490
vn 0.8822 0.3336 0.3324
vn 0.9379 0.3467 -0.0068
vn 0.3336 0.3410 -0.8789
vn -0.0084 0.3403 -0.9403
vn -0.3571 0.3176 -0.8784
vn -0.6688 0.3110 -0.6753
vn -0.9502 0.0390 0.3092
vn -0.9500 0.0409 0.3095
vn -0.9505 0.0464 -0.3071
vn -0.9501 0.0452 -0.3086
vn 0.5871 0.0448 -0.8082
vn 0.5868 0.0459 -0.8084
vn 0.9500 0.0507 -0.3081
vn 0.9499 0.0492 -0.3086
vn -0.0004 0.0396 0.9992
vn -0.0012 0.0422 0.9991
vn -0.5876 0.0459 0.8078
vn -0.5870 0.0436 0.8084
vn -0.5866 0.0422 -0.8087
vn -0.5870 0.0432 -0.8085
vn -0.0012 0.0496 -0.9988
vn 0.0004 0.0488 -0.9988
vn 0.9507 0.0140 0.3097
vn 0.9502 0.0331 0.3097
vn 0.5861 0.0303 0.8097
vn 0.5873 0.0022 0.8094
vn -0.5872 0.0538 -0.8076
vn -0.5873 0.0496 -0.8079
vn 0.0007 0.0572 -0.9984
vn 0.0003 0.0612 -0.9981
vn 0.0001 -0.0052 1.0000
vn 0.0000 0.0230 0.9997
vn -0.5854 0.0304 0.8102
vn -0.5870 0.0055 0.8096
vn 0.5875 0.0505 -0.8077
vn 0.5876 0.0497 -0.8076
vn 0.9511 0.0468 -0.3053
vn 0.9509 0.0365 -0.3073
vn -0.9505 0.0228 0.3098
vn -0.9513 0.0331 0.3066
vn -0.9511 0.0430 -0.3057
vn -0.9518 0.0420 -0.3037
vn 0.9502 0.0429 0.3088
vn 0.9499 0.0451 0.3094
vn 0.5847 0.0485 0.8098
vn 0.5867 0.0460 0.8085
vn -0.9522 0.0098 0.3054
vn -0.9474 0.0348 -0.3180
vn -0.5936 -0.0083 0.8047
vn 0.5851 0.0455 -0.8097
vn 0.9474 0.0278 -0.3188
vn -0.0011 0.0566 -0.9984
vn -0.0004 -0.0196 0.9998
vn 0.5921 -0.0127 0.8057
vn -0.5855 0.0499 -0.8091
vn 0.9521 0.0027 0.3057
vn 0.0019 0.3399 -0.9405
vn -0.3125 0.3190 -0.8948
vn -0.6625 0.3057 -0.6838
vn 0.6585 0.3544 -0.6638
vn 0.2987 0.3406 -0.8915
vn 0.6770 0.3374 0.6541
vn 0.8976 0.3362 0.2851
vn 0.9377 0.3472 -0.0147
vn -0.6826 0.2843 0.6732
vn -0.3358 0.2934 0.8951
vn -0.0015 0.3164 0.9486
vn -0.8940 0.2852 -0.3456
vn -0.9569 0.2899 -0.0152
vn 0.8896 0.3433 -0.3011
vn 0.3151 0.3180 0.8942
vn -0.9024 0.2749 0.3319
vn -0.0087 0.9995 0.0289
vn -0.6691 0.3886 -0.6334
vn -0.7962 0.3905 -0.4621
vn -0.9025 0.4278 0.0500
vn -0.6359 0.3919 0.6649
vn -0.4840 0.4026 0.7769
vn 0.0018 0.4571 0.8894
vn 0.6128 0.4304 0.6627
vn 0.7209 0.4421 0.5337
vn 0.8684 0.4917 0.0639
vn 0.6595 0.4353 -0.6128
vn 0.5121 0.4379 -0.7390
vn 0.0133 0.4635 -0.8860
vn -0.5011 0.4008 -0.7670
vn -0.7608 0.3941 0.5156
vn 0.4775 0.4325 0.7648
vn 0.7687 0.4460 -0.4584
vn -0.0291 0.5425 -0.8395
vn -0.2211 0.5391 -0.8127
vn -0.6100 0.5484 -0.5720
vn -0.8852 0.4651 0.0115
vn -0.8602 0.4680 0.2026
vn -0.5908 0.5024 0.6313
vn 0.0206 0.4450 0.8953
vn 0.2064 0.4519 0.8679
vn 0.6209 0.4977 0.6056
vn 0.8873 0.4608 0.0186
vn 0.8684 0.4761 -0.1388
vn 0.6110 0.5663 -0.5532
vn -0.8615 0.4782 -0.1707
vn -0.1679 0.4528 0.8757
vn 0.8652 0.4636 0.1908
vn 0.1755 0.5524 -0.8149
vn -0.8214 0.4003 0.4063
vn -0.9166 0.3998 -0.0002
vn -0.6533 0.4208 0.6294
vn 0.4298 0.4578 0.7782
vn 0.0003 0.4786 0.8780
vn 0.6402 0.4530 0.6204
vn 0.8069 0.4148 -0.4204
vn 0.8920 0.4521 -0.0044
vn 0.6451 0.4100 -0.6447
vn -0.8331 0.3694 -0.4117
vn -0.6622 0.3751 -0.6487
vn -0.4325 0.4364 0.7890
vn 0.7979 0.4439 0.4077
vn 0.4204 0.4007 -0.8141
vn -0.0019 0.4103 -0.9120
vn -0.4270 0.3774 -0.8217
usemtl None
s 1
f 251/1/1 192/2/2 3/3/3 124/4/4
f 250/5/5 182/6/6 5/7/7 104/8/8
f 249/9/9 179/10/10 9/11/11 197/12/12
f 248/13/13 119/14/14 13/15/15 84/16/16
f 247/17/17 203/18/18 2/19/19 141/20/20
f 246/21/21 94/22/22 8/23/23 112/24/24
f 245/25/25 190/26/26 12/27/27 183/28/28
f 244/29/29 199/30/30 16/31/31 90/32/32
f 243/33/33 184/34/34 19/35/35 114/36/36
f 242/37/37 156/38/38 23/39/39 103/40/40
f 241/41/41 82/42/42 27/43/43 134/44/44
f 240/45/45 91/46/46 31/47/47 170/48/48
f 239/49/49 121/50/50 20/51/51 174/52/52
f 238/53/53 89/54/54 24/55/55 152/56/56
f 237/57/57 149/58/58 28/59/59 194/60/60
f 236/61/61 158/62/62 32/63/63 209/64/64
f 235/65/65 176/66/66 35/67/67 109/68/68
f 234/69/69 145/70/70 39/71/71 98/72/72
f 233/73/73 107/74/74 43/75/75 169/76/76
f 232/77/77 118/78/78 47/79/79 201/80/80
f 231/81/81 189/82/82 48/83/83 202/84/84
f 230/85/85 116/86/86 36/87/87 167/88/88
f 229/89/89 83/90/90 40/91/91 139/92/92
f 228/93/93 175/94/94 44/95/95 96/96/96
f 49/97/97 172/98/98 97/99/99
f 52/100/100 165/101/101 159/102/102
f 53/103/103 138/104/104 81/105/105
f 55/106/106 148/107/107 88/108/108
f 50/109/109 204/110/110 93/111/111
f 54/112/112 147/113/113 140/114/114
f 56/115/115 128/116/116 160/117/117
f 57/118/118 195/119/119 85/120/120
f 227/121/121 187/122/122 55/106/106 195/119/119
f 226/123/123 191/124/124 53/103/103 128/116/116
f 225/125/125 173/126/126 52/100/100 147/113/113
f 224/127/127 193/128/128 57/118/118 204/110/110
f 223/129/129 125/130/130 56/115/115 148/107/107
f 222/131/131 154/132/132 54/112/112 138/104/104
f 221/133/133 161/134/134 49/97/97 165/101/101
f 220/135/135 99/136/136 50/109/109 172/98/98
f 219/137/137 86/138/138 68/139/139 142/140/140
f 218/141/141 200/142/142 72/143/143 105/144/144
f 217/145/145 144/146/146 67/147/147 181/148/148
f 216/149/149 122/150/150 71/151/151 123/152/152
f 215/153/153 171/154/154 74/155/155 205/156/156
f 214/157/157 206/158/158 70/159/159 130/160/160
f 213/161/161 207/162/162 66/163/163 178/164/164
f 212/165/165 135/166/166 73/167/167 155/168/168
f 211/169/169 151/170/170 69/171/171 87/172/172
f 210/173/173 198/174/174 75/175/175 110/176/176
f 171/154/154 210/173/173 110/176/176 74/155/155
f 73/167/167 105/144/144 210/173/173 171/154/154
f 105/144/144 72/143/143 198/174/174 210/173/173
f 177/177/177 211/169/169 87/172/172 78/178/178
f 80/179/179 178/164/164 211/169/169 177/177/177
f 178/164/164 66/163/163 151/170/170 211/169/169
f 100/180/180 212/165/165 155/168/168 76/181/181
f 79/182/182 130/183/160 212/165/165 100/180/180
f 130/183/160 70/184/159 135/166/166 212/165/165
f 164/185/183 213/161/161 178/164/164 80/179/179
f 77/186/184 205/156/156 213/161/161 164/185/183
f 205/156/156 74/155/155 207/162/162 213/161/161
f 101/187/185 214/157/157 130/160/160 79/188/182
f 78/178/178 87/172/172 214/157/157 101/187/185
f 87/172/172 69/171/171 206/158/158 214/157/157
f 115/189/186 215/153/153 205/156/156 77/186/184
f 76/181/181 155/168/168 215/153/153 115/189/186
f 155/168/168 73/167/167 171/154/154 215/153/153
f 206/158/158 216/149/149 123/152/152 70/159/159
f 69/171/171 142/140/140 216/149/149 206/158/158
f 142/140/140 68/139/139 122/150/150 216/149/149
f 207/162/162 217/145/145 181/148/148 66/163/163
f 74/155/155 110/176/176 217/145/145 207/162/162
f 110/176/176 75/175/175 144/146/146 217/145/145
f 135/166/166 218/141/141 105/144/144 73/167/167
f 70/184/159 123/190/152 218/141/141 135/166/166
f 123/190/152 71/191/151 200/142/142 218/141/141
f 151/170/170 219/137/137 142/140/140 69/171/171
f 66/163/163 181/148/148 219/137/137 151/170/170
f 181/148/148 67/147/147 86/138/138 219/137/137
f 161/134/134 220/135/135 172/98/98 49/97/97
f 65/192/187 150/193/188 220/135/135 161/134/134
f 150/193/188 64/194/189 99/136/136 220/135/135
f 173/126/126 221/133/133 165/101/101 52/100/100
f 63/195/190 136/196/191 221/133/133 173/126/126
f 136/196/191 65/192/187 161/134/134 221/133/133
f 191/124/124 222/131/131 138/104/104 53/103/103
f 61/197/192 208/198/193 222/131/131 191/124/124
f 208/198/193 62/199/194 154/132/132 222/131/131
f 187/122/122 223/129/129 148/107/107 55/106/106
f 59/200/195 180/201/196 223/129/129 187/122/122
f 180/201/196 60/202/197 125/130/130 223/129/129
f 99/136/136 224/127/127 204/110/110 50/109/109
f 64/194/189 162/203/198 224/127/127 99/136/136
f 162/203/198 58/204/199 193/128/128 224/127/127
f 154/132/132 225/125/125 147/113/113 54/112/112
f 62/199/194 129/205/200 225/125/125 154/132/132
f 129/205/200 63/195/190 173/126/126 225/125/125
f 125/130/130 226/123/123 128/116/116 56/115/115
f 60/202/197 113/206/201 226/123/123 125/130/130
f 113/206/201 61/197/192 191/124/124 226/123/123
f 193/128/128 227/121/121 195/119/119 57/118/118
f 58/204/199 117/207/202 227/121/121 193/128/128
f 117/207/202 59/200/195 187/122/122 227/121/121
f 85/120/120 88/108/108 51/208/203
f 85/120/120 195/119/119 88/108/108
f 195/119/119 55/106/106 88/108/108
f 160/117/117 81/105/105 51/208/203
f 160/117/117 128/116/116 81/105/105
f 128/116/116 53/103/103 81/105/105
f 140/114/114 159/102/102 51/208/203
f 140/114/114 147/113/113 159/102/102
f 147/113/113 52/100/100 159/102/102
f 93/111/111 85/120/120 51/208/203
f 93/111/111 204/110/110 85/120/120
f 204/110/110 57/118/118 85/120/120
f 88/108/108 160/117/117 51/208/203
f 88/108/108 148/107/107 160/117/117
f 148/107/107 56/115/115 160/117/117
f 81/105/105 140/114/114 51/208/203
f 81/105/105 138/104/104 140/114/114
f 138/104/104 54/112/112 140/114/114
f 159/102/102 97/99/99 51/208/203
f 159/102/102 165/101/101 97/99/99
f 165/101/101 49/97/97 97/99/99
f 97/99/99 93/111/111 51/208/203
f 97/99/99 172/98/98 93/111/111
f 172/98/98 50/109/109 93/111/111
f 118/78/78 228/93/93 96/96/96 47/79/79
f 46/209/204 168/210/205 228/93/93 118/78/78
f 168/210/205 41/211/206 175/94/94 228/93/93
f 107/74/74 229/89/89 139/92/92 43/75/75
f 42/212/207 186/213/208 229/89/89 107/74/74
f 186/213/208 37/214/209 83/90/90 229/89/89
f 145/70/70 230/85/85 167/88/88 39/71/71
f 38/215/210 106/216/211 230/85/85 145/70/70
f 106/216/211 33/217/212 116/86/86 230/85/85
f 176/66/66 231/81/81 202/84/84 35/67/67
f 34/218/213 143/219/214 231/81/81 176/66/66
f 143/219/214 45/220/215 189/82/82 231/81/81
f 189/82/82 232/77/77 201/80/80 48/83/83
f 45/220/215 196/221/216 232/77/77 189/82/82
f 196/221/216 46/209/204 118/78/78 232/77/77
f 175/94/94 233/73/73 169/76/76 44/95/95
f 41/211/206 185/222/217 233/73/73 175/94/94
f 185/222/217 42/212/207 107/74/74 233/73/73
f 83/90/90 234/69/69 98/72/72 40/91/91
f 37/214/209 92/223/218 234/69/69 83/90/90
f 92/223/218 38/215/210 145/70/70 234/69/69
f 116/86/86 235/65/65 109/68/68 36/87/87
f 33/217/212 127/224/219 235/65/65 116/86/86
f 127/224/219 34/218/213 176/66/66 235/65/65
f 184/34/34 236/61/61 209/64/64 19/35/35
f 18/225/220 153/226/221 236/61/61 184/34/34
f 153/226/221 29/227/222 158/62/62 236/61/61
f 91/46/46 237/57/57 194/60/60 31/47/47
f 30/228/223 133/229/224 237/57/57 91/46/46
f 133/229/224 25/230/225 149/58/58 237/57/57
f 82/42/42 238/53/53 152/56/56 27/43/43
f 26/231/226 108/232/227 238/53/53 82/42/42
f 108/232/227 21/233/228 89/54/54 238/53/53
f 156/38/38 239/49/49 174/52/52 23/39/39
f 22/234/229 111/235/230 239/49/49 156/38/38
f 111/235/230 17/236/231 121/50/50 239/49/49
f 158/62/62 240/45/45 170/48/48 32/63/63
f 29/227/222 166/237/232 240/45/45 158/62/62
f 166/237/232 30/228/223 91/46/46 240/45/45
f 149/58/58 241/41/41 134/44/44 28/59/59
f 25/230/225 157/238/233 241/41/41 149/58/58
f 157/238/233 26/231/226 82/42/42 241/41/41
f 89/54/54 242/37/37 103/40/40 24/55/55
f 21/233/228 95/239/234 242/37/37 89/54/54
f 95/239/234 22/234/229 156/38/38 242/37/37
f 121/50/50 243/33/33 114/36/36 20/51/51
f 17/236/231 132/240/235 243/33/33 121/50/50
f 132/240/235 18/225/220 184/34/34 243/33/33
f 137/241/236 244/29/29 90/32/32 15/242/237
f 14/243/238 84/16/16 244/29/29 137/241/236
f 84/16/16 13/15/15 199/30/30 244/29/29
f 126/244/239 245/25/25 183/28/28 11/245/240
f 10/246/241 197/12/12 245/25/25 126/244/239
f 197/12/12 9/11/11 190/26/26 245/25/25
f 163/247/242 246/21/21 112/24/24 7/248/243
f 6/249/244 104/8/8 246/21/21 163/247/242
f 104/8/8 5/7/7 94/22/22 246/21/21
f 146/250/245 247/17/17 141/20/20 1/251/246
f 15/242/237 90/32/32 247/17/17 146/250/245
f 90/32/32 16/31/31 203/18/18 247/17/17
f 188/252/247 248/13/13 84/16/16 14/243/238
f 11/245/240 183/28/28 248/13/13 188/252/247
f 183/28/28 12/27/27 119/14/14 248/13/13
f 102/253/248 249/9/9 197/12/12 10/246/241
f 7/248/243 112/24/24 249/9/9 102/253/248
f 112/24/24 8/23/23 179/10/10 249/9/9
f 120/254/249 250/5/5 104/8/8 6/249/244
f 4/255/250 124/4/4 250/5/5 120/254/249
f 124/4/4 3/3/3 182/6/6 250/5/5
f 131/256/251 251/1/1 124/4/4 4/255/250
f 1/251/246 141/20/20 251/1/1 131/256/251
f 141/20/20 2/19/19 192/2/2 251/1/1
