# Blender v2.78 (sub 0) OBJ File: ''
# www.blender.org
mtllib Dead_Tree_m_02.mtl
o Dead_Tree_m_02
v -0.471799 0.099740 -0.423483
v -0.383380 1.076814 -0.483731
v 0.173128 1.076814 -0.369646
v 0.314485 0.099740 -0.389849
v 0.280851 0.099740 0.396435
v 0.059043 1.076813 0.186862
v -0.497465 1.076813 0.072777
v -0.505433 0.099740 0.362801
v 0.003442 2.121295 -0.482871
v -0.018097 2.121295 -0.095179
v -0.405789 2.121295 -0.116718
v -0.384250 2.121295 -0.504410
v 0.055214 3.317556 -0.352727
v -0.363478 2.982262 -0.381433
v -1.207307 3.183078 -1.520308
v -1.070916 3.396360 -1.536516
v -0.306313 3.542592 -0.365913
v -1.220758 3.496633 -1.375204
v 0.044167 3.002460 0.050879
v -0.343758 2.949886 0.009128
v 0.013519 2.949886 -0.326282
v -0.328808 3.313941 0.015458
v 0.064469 3.557533 0.017063
v 0.876067 3.739911 0.823732
v 0.937157 3.847681 0.669032
v 1.058598 3.623717 0.803331
v 1.094410 3.737494 0.620486
v 1.836957 5.015353 1.251511
v 1.684045 5.075366 1.264786
v 1.697550 5.136910 1.112653
v 1.850462 5.076899 1.099377
v 2.821563 5.731769 2.121823
v 2.856665 5.795084 2.040230
v 2.938512 5.726043 2.018722
v 2.903410 5.662727 2.100316
v 3.491740 6.418353 2.498888
v -1.329583 3.289358 -1.330852
v -1.588925 4.239945 -1.697702
v -1.694675 4.092767 -1.692072
v -1.505716 4.174142 -1.842208
v -1.613320 4.031861 -1.837897
v -2.199179 4.817333 -1.977201
v -2.092234 4.751171 -2.105208
v -2.191493 4.952471 -2.170156
v -2.226584 4.985006 -2.065042
v -2.263936 4.709682 -2.109802
v -2.292406 4.899146 -2.187397
v -2.284368 4.680020 -1.965877
v -2.361007 4.922449 -2.063517
v -3.177223 5.038929 -1.825678
v -3.173946 5.138088 -1.814112
v -3.164059 5.032888 -1.755392
v -3.131782 5.118369 -1.743115
v -3.785664 5.032609 -1.703774
v -2.190840 5.789370 -2.520410
v -2.207919 5.813221 -2.473630
v -2.241995 5.770654 -2.529840
v -2.259074 5.794505 -2.483061
v -0.609916 3.896862 0.624684
v -0.767859 3.801759 0.619698
v -1.698552 6.311383 -2.730525
v -0.762873 3.896862 0.461755
v -1.274673 4.504275 0.962620
v -1.272243 4.550616 0.885660
v -1.197713 4.550616 0.965049
v -1.274536 4.924587 1.434207
v 0.992885 3.859569 -1.121037
v 0.858154 3.860953 -1.264381
v 1.541584 4.674954 -1.575050
v 1.468900 4.684521 -1.658672
v 0.998660 3.779621 -1.262256
v 1.577533 5.250862 -2.203641
v 1.544979 4.633188 -1.656766
v -3.199874 5.133469 -1.770601
v 1.090301 3.671991 0.709906
v -1.291909 4.748026 1.215258
v -0.187257 3.133093 -0.413227
v 0.919600 3.866659 -1.187087
v -1.285554 4.557429 0.956109
v -1.418326 3.587993 -1.711835
v 1.019012 3.800947 0.631038
v 0.964104 3.673454 0.827252
v 0.309275 3.671549 -0.813801
v -1.290938 4.766539 1.184513
v -3.195060 5.075136 -1.737363
v -1.127929 3.282150 -1.542871
v -2.302542 4.878623 -2.006765
v 0.308606 3.481121 0.449413
v 1.774675 5.111469 1.093360
v -3.225115 5.089126 -1.816294
v 2.272704 5.483699 1.569356
v -2.239036 4.923168 -2.187605
v -0.379879 1.606931 -0.501680
v -0.114773 0.099740 0.472805
v -2.748827 5.015390 -1.928776
v -2.200595 4.973212 -2.116151
v -0.531585 3.697719 0.100363
v 1.579070 4.984221 -1.949047
v 0.519356 3.671324 -0.590532
v -1.037988 4.149540 0.788363
v -2.297743 5.314223 -2.349855
v -1.968295 4.404602 -1.847730
v -1.286353 3.400565 -1.338569
v 0.187487 0.539133 0.318718
v -0.923945 4.218209 0.791963
v -2.105740 4.776117 -2.043992
v -2.209691 4.880199 -2.021235
v 3.265023 6.102844 2.298888
v 3.245603 6.069708 2.337771
v 2.885109 5.817183 2.118872
v 0.008210 1.606930 0.030936
v -1.961181 6.081680 -2.646823
v -0.438745 3.444083 -0.189894
v -0.321813 3.116867 0.008997
v -0.581803 0.099740 -0.032823
v -0.518281 0.539133 0.240845
v -1.261163 4.766539 1.216229
v -2.270683 4.947803 -2.056193
v 0.008827 3.116867 -0.301407
v -0.191588 2.974983 0.043612
v -2.200941 5.847042 -2.494761
v 1.557538 4.697420 -1.652540
v 3.226035 6.139338 2.310516
v -1.969170 6.093643 -2.625417
v -2.219876 5.350477 -2.336106
v -2.275902 4.787187 -2.148558
v 0.184047 3.467866 -0.160863
v -0.117367 3.153876 0.094982
v -0.538793 3.560224 0.328708
v -2.345917 4.814234 -2.091548
v -0.136058 2.974983 -0.355817
v 0.923224 3.817117 -1.274736
v 0.101344 3.153775 -0.110239
v 0.265360 0.539133 -0.387051
v 2.909941 5.742410 2.151450
v 2.950199 5.813841 2.061797
v -0.212902 2.121295 -0.075595
v -2.313786 4.890315 -2.137161
v 0.159896 1.076813 -0.080708
v -0.786246 3.470444 -0.874535
v -0.076174 0.099740 -0.499853
v 1.306274 4.191908 -1.465723
v -2.662681 4.987163 -1.862316
v -0.136832 3.445956 -0.489573
v -2.324272 5.343257 -2.272437
v 1.305837 4.480662 0.877443
v 1.513744 4.703515 -1.703165
v -2.720583 4.892852 -1.972789
v 1.006875 3.816366 -1.185851
v -1.241043 4.557429 1.003521
v -3.502357 5.086686 -1.712596
v -3.517931 5.094961 -1.749860
v -1.809620 4.488155 -1.980706
v -0.786106 3.078765 -0.957160
v -0.440409 0.539133 -0.464923
v -3.515191 5.043117 -1.718758
v -1.648391 4.171660 -1.683315
v 1.301712 4.249767 -1.358238
v -2.163590 5.843756 -2.515000
v 0.000881 2.561194 -0.410064
v -1.239592 4.585104 0.957560
v -1.305920 3.766386 -1.724480
v -1.528646 3.667901 -1.550253
v 1.446243 4.320031 1.023193
v -2.243745 4.740886 -1.954232
v -0.010507 2.561194 -0.049290
v -2.143581 4.712213 -2.122494
v -1.662561 4.050825 -1.764596
v -0.115047 3.470980 0.139700
v -2.714711 4.878170 -1.873712
v -3.220301 5.030793 -1.783056
v 2.368188 5.354850 1.671170
v 2.248028 5.420345 1.688996
v -3.524889 5.046600 -1.753005
v 1.281643 4.400432 1.041161
v -1.552927 4.097698 -1.851625
v -0.679581 3.904817 0.536822
v -1.416239 3.846294 -1.562898
v 0.585883 3.479544 0.190722
v 0.482353 3.636183 0.355426
v -0.452142 1.606930 -0.041327
v -0.229895 1.076813 0.173631
v -0.778368 3.845333 0.533704
v -2.246405 5.379512 -2.258687
v 1.678077 5.110476 1.189612
v -1.916953 4.381033 -1.986246
v -2.162221 4.840894 -2.134371
v 0.892815 3.802410 0.748385
v -1.136291 3.463746 -1.457508
v -0.106874 3.582339 -0.172845
v 0.037245 2.974983 -0.171216
v 2.392865 5.418203 1.551530
v 2.975031 5.739069 2.094375
v -0.484233 1.076813 -0.216160
v -0.682699 3.845333 0.635610
v -2.280741 4.677125 -2.031035
v -0.407449 3.129221 -0.207853
v -0.359893 2.561194 -0.421453
v 0.526986 3.542823 -0.808313
v -0.310448 3.697719 0.335916
v -0.425373 2.121295 -0.311522
v 1.577670 5.001288 -1.915115
v -1.937091 6.089713 -2.642321
v -0.364890 2.974983 -0.140989
v 0.080474 1.606931 -0.429417
v 1.202269 4.255768 -1.467468
v 3.206615 6.106201 2.349398
v -1.034388 4.218209 0.674320
v -1.870620 4.537226 -1.849058
v -0.189446 2.121295 -0.523994
v 0.390856 0.099740 0.005775
v -1.945081 6.101676 -2.620915
v -1.277991 3.218968 -1.423932
v -2.219619 5.823747 -2.525367
v -0.094443 1.076814 -0.470499
v -2.182268 5.820459 -2.545606
v 1.856430 5.041787 1.174552
v 0.023026 2.121295 -0.288067
v 1.547850 5.005883 -1.949911
v 1.470436 4.400261 0.859474
v -0.564274 3.320291 -0.973109
v -1.538758 4.218533 -1.770344
v -0.864534 3.260202 -0.712031
v 1.759832 5.040795 1.270804
v 0.543766 3.293199 0.431266
v -0.371281 2.561194 -0.060679
v 1.511695 4.728647 -1.653729
v 1.312905 4.217777 -1.407119
v 1.250115 4.221567 -1.476089
v 0.541910 3.601425 -0.689402
v 0.409262 3.601567 -0.830377
v 1.247235 4.258099 -1.408221
v 0.404445 3.682703 -0.692867
v -0.410698 3.709765 0.208453
v -0.974013 4.224226 0.728304
v -0.976286 4.180867 0.800312
v -1.046021 4.180867 0.726031
v -0.554878 3.622949 0.203902
v -2.287476 5.363723 -2.259326
v -0.415249 3.622949 0.352633
v -2.317280 5.325820 -2.312253
v -2.256672 5.330012 -2.349216
v -2.226868 5.367915 -2.296289
v -2.684990 4.930938 -1.861346
v -2.704796 5.010602 -1.893314
v -2.718605 4.876186 -1.925482
v -2.738411 4.955849 -1.957450
v -1.950881 4.383161 -1.917158
v -1.923982 4.473839 -1.837513
v -1.831863 4.522346 -1.914712
v -1.858762 4.431669 -1.994357
v -2.212831 4.807516 -2.152353
v -2.173112 4.863312 -2.075974
v -1.482541 3.613577 -1.630026
v -1.353236 3.670752 -1.731173
v -1.352025 3.820709 -1.644707
v -1.481329 3.763534 -1.543560
v -0.837489 3.378679 -0.779440
v -0.837407 3.151288 -0.827408
v 2.306120 5.382494 1.689721
v 2.334772 5.456054 1.550806
v 2.390205 5.381251 1.609914
v 2.250687 5.457298 1.630612
v 1.390085 4.446924 0.855271
v 1.471598 4.353670 0.939886
v 1.280481 4.447023 0.960750
v 1.361994 4.353768 1.045364
v 0.578466 3.372495 0.303629
v 0.542812 3.571614 0.259600
v 0.417492 3.373410 0.453813
v 0.381839 3.572529 0.409784
v 0.024248 2.561194 -0.228760
v -0.394648 2.561194 -0.241984
v -0.178588 2.561194 -0.444820
v -0.191812 2.561194 -0.025924
v -0.663172 3.413563 -0.931009
v -0.663091 3.186173 -0.978978
v -0.227787 1.606930 0.031887
v -0.143881 1.606931 -0.502631
v -0.453093 1.606930 -0.277325
v 0.081424 1.606930 -0.193419
v -0.536196 0.539133 -0.118312
v 0.283274 0.539133 -0.027894
v -0.171669 0.539133 0.336632
v -0.081252 0.539133 -0.482838
vt 0.6935 0.6447
vt 0.6932 0.6536
vt 0.6880 0.6526
vt 0.6873 0.6433
vt 0.6685 0.6476
vt 0.6719 0.6560
vt 0.6669 0.6583
vt 0.6627 0.6507
vt 0.6808 0.6439
vt 0.6825 0.6532
vt 0.6770 0.6538
vt 0.6743 0.6445
vt 0.7058 0.6477
vt 0.7033 0.6558
vt 0.6984 0.6545
vt 0.6997 0.6461
vt 0.6839 0.6625
vt 0.6852 0.6718
vt 0.6814 0.6721
vt 0.6792 0.6630
vt 0.7018 0.6641
vt 0.7002 0.6725
vt 0.6967 0.6719
vt 0.6975 0.6632
vt 0.6930 0.6626
vt 0.6928 0.6717
vt 0.6890 0.6715
vt 0.6885 0.6621
vt 0.6749 0.6645
vt 0.6779 0.6729
vt 0.6744 0.6737
vt 0.6707 0.6660
vt 0.6547 0.6937
vt 0.6553 0.6909
vt 0.6671 0.6911
vt 0.6678 0.6934
vt 0.6553 0.6991
vt 0.6542 0.6964
vt 0.6685 0.6957
vt 0.6688 0.6985
vt 0.6789 0.6796
vt 0.6799 0.6863
vt 0.6769 0.6866
vt 0.6757 0.6802
vt 0.6926 0.6787
vt 0.6923 0.6858
vt 0.6892 0.6858
vt 0.6891 0.6787
vt 0.6993 0.6793
vt 0.6985 0.6861
vt 0.6954 0.6857
vt 0.6960 0.6788
vt 0.6856 0.6789
vt 0.6860 0.6860
vt 0.6829 0.6861
vt 0.6822 0.6791
vt 0.7016 0.6865
vt 0.7013 0.6890
vt 0.6892 0.6883
vt 0.6773 0.6890
vt 0.6506 0.7275
vt 0.6492 0.7254
vt 0.6617 0.7259
vt 0.6618 0.7279
vt 0.6503 0.7229
vt 0.6514 0.7204
vt 0.6626 0.7221
vt 0.6622 0.7240
vt 0.6512 0.7318
vt 0.6520 0.7295
vt 0.6618 0.7300
vt 0.6623 0.7320
vt 0.6510 0.7370
vt 0.6503 0.7342
vt 0.6629 0.7340
vt 0.6629 0.7359
vt 0.6757 0.7247
vt 0.6762 0.7231
vt 0.6899 0.7241
vt 0.6893 0.7255
vt 0.6752 0.7280
vt 0.6752 0.7264
vt 0.6887 0.7269
vt 0.6885 0.7282
vt 0.6763 0.7346
vt 0.6761 0.7329
vt 0.6893 0.7318
vt 0.6896 0.7333
vt 0.6756 0.7313
vt 0.6751 0.7297
vt 0.6884 0.7294
vt 0.6888 0.7306
vt 0.7020 0.7279
vt 0.7020 0.7267
vt 0.7153 0.7265
vt 0.7156 0.7276
vt 0.7027 0.7327
vt 0.7026 0.7315
vt 0.7159 0.7311
vt 0.7158 0.7322
vt 0.7024 0.7303
vt 0.7021 0.7290
vt 0.7158 0.7287
vt 0.7158 0.7299
vt 0.7023 0.7254
vt 0.7026 0.7242
vt 0.7154 0.7242
vt 0.7154 0.7254
vt 0.7157 0.7333
vt 0.7277 0.7307
vt 0.7278 0.7297
vt 0.7276 0.7273
vt 0.7278 0.7285
vt 0.6555 0.7097
vt 0.6538 0.7070
vt 0.6684 0.7061
vt 0.6687 0.7084
vt 0.6551 0.7044
vt 0.6565 0.7017
vt 0.6691 0.7014
vt 0.6687 0.7038
vt 0.6768 0.7020
vt 0.6772 0.7002
vt 0.6852 0.6990
vt 0.6848 0.7003
vt 0.6768 0.6982
vt 0.6763 0.6962
vt 0.6842 0.6966
vt 0.6847 0.6978
vt 0.6758 0.6943
vt 0.6752 0.6925
vt 0.6833 0.6939
vt 0.6838 0.6953
vt 0.6766 0.7059
vt 0.6765 0.7039
vt 0.6845 0.7017
vt 0.6844 0.7033
vt 0.6982 0.6967
vt 0.6981 0.6955
vt 0.6992 0.6957
vt 0.6991 0.6969
vt 0.6982 0.6945
vt 0.6982 0.6933
vt 0.6992 0.6935
vt 0.6992 0.6946
vt 0.6905 0.6948
vt 0.6903 0.6935
vt 0.6973 0.6932
vt 0.6972 0.6943
vt 0.6910 0.6972
vt 0.6906 0.6960
vt 0.6971 0.6954
vt 0.6972 0.6966
vt 0.6910 0.6997
vt 0.6912 0.6984
vt 0.6973 0.6977
vt 0.6973 0.6991
vt 0.6911 0.7023
vt 0.6909 0.7010
vt 0.6972 0.7004
vt 0.6977 0.7013
vt 0.6991 0.7028
vt 0.6980 0.7033
vt 0.6989 0.7016
vt 0.7283 0.6905
vt 0.7290 0.6914
vt 0.7204 0.6918
vt 0.7204 0.6909
vt 0.7288 0.6924
vt 0.7286 0.6933
vt 0.7204 0.6932
vt 0.7204 0.6925
vt 0.7284 0.6887
vt 0.7276 0.6895
vt 0.7204 0.6899
vt 0.7206 0.6891
vt 0.7287 0.6866
vt 0.7292 0.6878
vt 0.7207 0.6883
vt 0.7204 0.6875
vt 0.7133 0.6900
vt 0.7133 0.6910
vt 0.7135 0.6892
vt 0.7201 0.6867
vt 0.7132 0.6884
vt 0.7074 0.6974
vt 0.7074 0.6965
vt 0.7157 0.6973
vt 0.7156 0.6978
vt 0.7072 0.6957
vt 0.7070 0.6950
vt 0.7149 0.6965
vt 0.7153 0.6969
vt 0.7069 0.7007
vt 0.7067 0.6998
vt 0.7148 0.6993
vt 0.7149 0.6998
vt 0.6991 0.6980
vt 0.6989 0.6991
vt 0.6982 0.6978
vt 0.6484 0.6559
vt 0.6499 0.6538
vt 0.6542 0.6596
vt 0.6531 0.6610
vt 0.7156 0.6984
vt 0.7265 0.6987
vt 0.7266 0.6982
vt 0.7149 0.7003
vt 0.7262 0.6996
vt 0.7070 0.6990
vt 0.7074 0.6982
vt 0.7152 0.6989
vt 0.6568 0.6502
vt 0.6593 0.6500
vt 0.6619 0.6566
vt 0.6600 0.6571
vt 0.6634 0.6647
vt 0.6648 0.6644
vt 0.6677 0.6721
vt 0.6668 0.6723
vt 0.6583 0.6679
vt 0.6593 0.6669
vt 0.6644 0.6743
vt 0.6635 0.6748
vt 0.6626 0.6753
vt 0.6680 0.6816
vt 0.6659 0.6726
vt 0.6697 0.6802
vt 0.6735 0.6878
vt 0.6689 0.6811
vt 0.6607 0.6660
vt 0.6620 0.6651
vt 0.6651 0.6734
vt 0.6521 0.6521
vt 0.6455 0.6480
vt 0.6481 0.6456
vt 0.7194 0.7140
vt 0.7194 0.7168
vt 0.7059 0.7161
vt 0.7061 0.7142
vt 0.6966 0.7140
vt 0.6967 0.7155
vt 0.6874 0.7149
vt 0.6870 0.7138
vt 0.7181 0.7092
vt 0.7194 0.7113
vt 0.7062 0.7123
vt 0.7056 0.7109
vt 0.7182 0.7189
vt 0.7170 0.7209
vt 0.7047 0.7192
vt 0.7053 0.7176
vt 0.6867 0.7127
vt 0.6768 0.7129
vt 0.6963 0.7113
vt 0.6964 0.7125
vt 0.6869 0.7117
vt 0.6962 0.7167
vt 0.6959 0.7179
vt 0.6870 0.7167
vt 0.6872 0.7158
vt 0.6871 0.7107
vt 0.6769 0.7119
vt 0.6771 0.7140
vt 0.6769 0.7149
vt 0.6668 0.7132
vt 0.6960 0.7101
vt 0.7050 0.7095
vt 0.7330 0.7176
vt 0.7312 0.7201
vt 0.7293 0.7226
vt 0.7168 0.7072
vt 0.7286 0.7049
vt 0.7306 0.7076
vt 0.7326 0.7102
vt 0.7262 0.6991
vt 0.7375 0.6990
vt 0.7328 0.7139
vt 0.6544 0.6503
vt 0.6507 0.6431
vt 0.6581 0.6575
vt 0.6561 0.6586
vt 0.6706 0.6799
vt 0.6573 0.6688
vt 0.6520 0.6623
vt 0.6537 0.6432
vt 0.6567 0.6434
vt 0.6986 0.7003
vt 0.7262 0.6977
vt 0.6470 0.6580
vt 0.6419 0.6537
vt 0.6437 0.6508
vt 0.6980 0.6990
vt 0.7070 0.7016
vt 0.7062 0.6901
vt 0.7133 0.6917
vt 0.7283 0.6854
vt 0.7365 0.6842
vt 0.7371 0.6858
vt 0.7376 0.6873
vt 0.7363 0.6883
vt 0.7349 0.6892
vt 0.7376 0.6911
vt 0.7372 0.6923
vt 0.7368 0.6934
vt 0.7363 0.6902
vt 0.6977 0.7020
vt 0.6968 0.7038
vt 0.6913 0.7036
vt 0.6983 0.7023
vt 0.6843 0.7049
vt 0.6767 0.7078
vt 0.6691 0.7107
vt 0.6393 0.7080
vt 0.6416 0.7050
vt 0.6438 0.7020
vt 0.6572 0.7122
vt 0.6453 0.7138
vt 0.6423 0.7109
vt 0.7398 0.7282
vt 0.7276 0.7262
vt 0.7028 0.7340
vt 0.6900 0.7347
vt 0.6765 0.7363
vt 0.6630 0.7378
vt 0.6517 0.7397
vt 0.6405 0.7416
vt 0.6392 0.7380
vt 0.6378 0.7344
vt 0.6400 0.7317
vt 0.6422 0.7290
vt 0.6366 0.7249
vt 0.6385 0.7218
vt 0.6403 0.7186
vt 0.6394 0.7269
vt 0.6860 0.6884
vt 0.6892 0.6908
vt 0.6803 0.6888
vt 0.6777 0.6914
vt 0.6923 0.6883
vt 0.6982 0.6885
vt 0.7009 0.6914
vt 0.7037 0.6732
vt 0.7027 0.6798
vt 0.6418 0.6996
vt 0.6398 0.6971
vt 0.6416 0.6939
vt 0.6435 0.6907
vt 0.7082 0.6570
vt 0.7060 0.6651
vt 0.7083 0.6397
vt 0.7010 0.6378
vt 0.7157 0.6416
vt 0.7119 0.6493
vt 0.6790 0.6346
vt 0.6715 0.6352
vt 0.6865 0.6340
vt 0.6650 0.6392
vt 0.6585 0.6431
vt 0.6938 0.6359
vn 0.1129 0.0166 -0.9935
vn 0.1698 -0.0084 -0.9854
vn 0.8174 0.1232 -0.5627
vn 0.7718 0.1402 -0.6202
vn -0.1102 0.2648 0.9580
vn -0.1651 0.2643 0.9502
vn -0.8150 0.1953 0.5456
vn -0.7718 0.1997 0.6037
vn 0.9688 0.2233 0.1077
vn 0.9636 0.2087 0.1671
vn 0.5354 0.3058 0.7873
vn 0.5942 0.3078 0.7431
vn -0.9914 0.0615 -0.1152
vn -0.9842 0.0534 -0.1691
vn -0.5674 0.0044 -0.8234
vn -0.6225 0.0240 -0.7822
vn 0.9774 0.1560 0.1427
vn 0.9961 0.0630 0.0613
vn 0.6754 0.0684 0.7343
vn 0.5782 0.2544 0.7752
vn -0.9881 0.0409 -0.1480
vn -0.9942 0.0614 -0.0878
vn -0.6376 0.0809 -0.7661
vn -0.5928 -0.0167 -0.8052
vn 0.1447 -0.0377 -0.9888
vn 0.0708 0.0722 -0.9949
vn 0.7212 0.0804 -0.6881
vn 0.7968 0.0639 -0.6008
vn -0.1442 0.2310 0.9622
vn -0.0787 0.0497 0.9957
vn -0.7821 0.0714 0.6190
vn -0.8020 0.1729 0.5718
vn 0.5910 -0.5697 -0.5711
vn 0.0280 -0.9831 -0.1812
vn -0.1590 -0.8355 -0.5261
vn 0.4545 -0.4296 -0.7803
vn 0.4111 0.8214 -0.3952
vn 0.7198 0.0669 -0.6910
vn 0.7408 0.1518 -0.6544
vn 0.6276 0.7784 -0.0151
vn -0.0547 -0.1457 0.9878
vn -0.1346 -0.1545 0.9788
vn -0.7172 -0.0039 0.6969
vn -0.7368 -0.0501 0.6743
vn 0.0722 0.1745 -0.9820
vn 0.2001 0.0142 -0.9797
vn 0.7396 0.1109 -0.6639
vn 0.7261 0.1165 -0.6776
vn -0.9980 0.0618 -0.0096
vn -0.9934 -0.0324 0.1100
vn -0.5392 -0.6216 -0.5683
vn -0.6719 0.1558 -0.7240
vn 0.9996 -0.0266 0.0080
vn 0.9881 -0.1170 -0.0995
vn 0.5272 -0.5877 0.6138
vn 0.6868 -0.1420 0.7128
vn -0.7069 -0.0349 0.7064
vn 0.7346 -0.1858 -0.6525
vn -0.5067 0.7669 0.3938
vn -0.5529 0.0647 0.8307
vn -0.5727 0.0867 0.8151
vn -0.7279 0.6527 0.2101
vn -0.3284 -0.4730 0.8175
vn 0.2814 -0.8973 0.3401
vn 0.4672 -0.7272 0.5028
vn -0.1579 -0.4092 0.8987
vn 0.2728 0.7427 -0.6115
vn -0.1914 0.9660 -0.1741
vn -0.4390 0.7762 -0.4526
vn 0.1112 0.5239 -0.8445
vn 0.6623 -0.6441 -0.3829
vn 0.7038 -0.0338 -0.7096
vn 0.6898 -0.1283 -0.7126
vn 0.7882 -0.5787 -0.2096
vn -0.0431 -0.2847 0.9576
vn 0.5935 -0.5289 0.6067
vn 0.4549 -0.7583 0.4669
vn -0.1326 -0.4516 0.8823
vn -0.8674 0.4900 0.0869
vn -0.6462 0.1425 0.7498
vn -0.6624 0.2129 0.7183
vn -0.7655 0.6215 0.1665
vn 0.8826 -0.4588 -0.1023
vn 0.6507 -0.1001 -0.7527
vn 0.6266 0.0172 -0.7791
vn 0.7816 -0.5934 -0.1923
vn 0.0235 0.3207 -0.9469
vn -0.5828 0.5528 -0.5957
vn -0.4597 0.7393 -0.4921
vn 0.1186 0.4971 -0.8595
vn -0.6217 0.7425 0.2494
vn -0.6241 0.0664 0.7785
vn -0.5888 -0.0075 0.8083
vn -0.7153 0.6637 0.2188
vn 0.6473 -0.7203 -0.2494
vn 0.6805 -0.1160 -0.7235
vn 0.7082 -0.2024 -0.6764
vn 0.7694 -0.6252 -0.1308
vn 0.2230 0.6444 -0.7315
vn -0.2700 0.9085 -0.3189
vn -0.2792 0.8986 -0.3385
vn 0.2133 0.5024 -0.8379
vn -0.2156 -0.6126 0.7604
vn 0.2820 -0.8954 0.3445
vn 0.3104 -0.8684 0.3867
vn -0.1351 -0.4591 0.8780
vn 0.4910 -0.6613 0.5671
vn 0.7327 -0.0875 -0.6749
vn -0.5884 0.1696 0.7906
vn -0.4033 0.7730 -0.4896
vn -0.5911 -0.7188 0.3660
vn -0.8067 -0.1272 0.5771
vn -0.8501 -0.3046 0.4295
vn -0.6856 -0.7279 0.0118
vn -0.6500 0.5927 0.4756
vn -0.1515 0.9846 0.0874
vn 0.0769 0.8242 0.5611
vn -0.5370 0.4239 0.7293
vn -0.3004 0.2665 0.9158
vn 0.3559 0.5073 0.7848
vn 0.3720 0.5745 0.7291
vn -0.2461 0.2265 0.9424
vn 0.7967 0.5376 0.2762
vn 0.7961 0.2532 -0.5496
vn 0.7809 0.3215 -0.5356
vn 0.7748 0.6071 0.1764
vn 0.2512 -0.2230 -0.9419
vn -0.3670 -0.4923 -0.7892
vn -0.3585 -0.4815 -0.7998
vn 0.2306 -0.1813 -0.9560
vn -0.8206 -0.4967 -0.2825
vn -0.8865 -0.1891 0.4223
vn -0.7729 -0.2503 0.5831
vn -0.7915 -0.5651 -0.2328
vn 0.8520 0.4678 0.2350
vn 0.7758 0.1963 -0.5997
vn 0.8831 -0.0331 -0.4680
vn 0.9345 0.2455 0.2578
vn 0.1866 -0.2420 -0.9522
vn -0.3691 -0.3608 -0.8565
vn -0.4913 -0.3187 -0.8106
vn 0.2848 -0.2872 -0.9146
vn 0.2106 -0.2090 -0.9550
vn -0.3088 -0.6062 -0.7329
vn -0.3532 -0.5703 -0.7416
vn 0.1678 -0.2295 -0.9587
vn 0.6799 0.7305 0.0645
vn 0.6667 0.3813 -0.6404
vn 0.6667 0.3518 -0.6570
vn 0.7057 0.7001 0.1092
vn -0.2387 0.2036 0.9495
vn 0.3020 0.6509 0.6965
vn 0.3696 0.5343 0.7602
vn -0.0169 0.0543 0.9984
vn -0.6741 -0.7228 -0.1522
vn -0.6817 -0.3919 0.6179
vn -0.4375 -0.6393 0.6323
vn -0.5369 -0.8199 -0.1987
vn -0.8602 -0.1472 -0.4883
vn -0.2513 0.1709 -0.9527
vn -0.4134 -0.4566 -0.7877
vn -0.3473 -0.4650 -0.8143
vn -0.2092 0.1551 -0.9655
vn -0.3910 -0.9092 -0.1427
vn -0.1193 -0.7326 0.6702
vn -0.0240 -0.7048 0.7090
vn -0.1081 -0.9915 -0.0721
vn 0.3046 0.9423 0.1391
vn 0.0625 0.8325 -0.5505
vn 0.0069 0.8510 -0.5250
vn 0.0101 0.9663 0.2574
vn 0.1743 -0.1522 0.9729
vn 0.3642 0.5501 0.7515
vn 0.2757 0.6010 0.7502
vn 0.1091 -0.1591 0.9812
vn -0.2622 0.8096 -0.5252
vn -0.1515 -0.6280 -0.7633
vn -0.0400 0.5448 0.8376
vn 0.0342 -0.7810 0.6236
vn 0.9537 0.1142 0.2782
vn 0.8915 -0.1958 -0.4086
vn 0.8631 -0.3246 -0.3868
vn 0.8061 -0.3534 0.4747
vn 0.3474 -0.3580 -0.8667
vn -0.5682 -0.2565 -0.7819
vn -0.6563 -0.1330 -0.7427
vn 0.3073 -0.5370 -0.7856
vn -0.9286 -0.0747 -0.3636
vn -0.9227 0.2465 0.2964
vn -0.9171 0.3486 0.1934
vn -0.7812 0.3977 -0.4812
vn 0.4112 0.4291 0.8042
vn -0.1591 0.4721 0.8670
vn 0.4721 0.5484 0.6902
vn 0.3262 -0.5590 0.7623
vn 0.6885 0.4845 0.5396
vn 0.7520 0.3530 0.5567
vn 0.2471 -0.4501 0.8581
vn 0.2014 0.3902 0.8984
vn 0.2812 0.2270 0.9324
vn 0.6839 -0.7191 -0.1231
vn -0.2762 -0.0425 -0.9602
vn -0.2812 0.4398 0.8529
vn 0.3298 0.4188 0.8461
vn -0.4008 0.6616 0.6338
vn -0.8892 -0.3869 -0.2443
vn -0.4059 -0.8249 0.3935
vn -0.4444 -0.7504 0.4893
vn -0.8348 -0.4670 -0.2916
vn -0.8461 -0.4427 -0.2968
vn -0.6018 -0.6548 0.4571
vn -0.7045 -0.6015 0.3767
vn -0.9884 -0.0951 -0.1186
vn 0.1894 -0.3166 0.9295
vn 0.7767 0.4537 0.4370
vn 0.8689 0.4119 0.2745
vn 0.3186 -0.5848 0.7460
vn -0.5974 -0.5694 0.5647
vn -0.4941 0.3608 -0.7910
vn -0.4970 0.7282 -0.4720
vn 0.0226 0.5837 0.8117
vn 0.9916 0.0420 0.1224
vn 0.5129 0.7160 -0.4736
vn -0.3905 0.2799 -0.8770
vn 0.4887 0.7219 -0.4900
vn 0.2421 0.9409 -0.2367
vn 0.1370 0.9843 0.1112
vn 0.0283 0.9982 -0.0524
vn -0.1453 0.9811 0.1278
vn 0.5906 0.5524 0.5883
vn 0.5113 0.2890 0.8094
vn -0.3558 0.8713 0.3381
vn -0.5437 0.6583 0.5206
vn 0.4058 0.2349 0.8833
vn 0.4704 0.3053 0.8280
vn -0.5279 0.6401 0.5582
vn -0.3440 -0.6047 -0.7183
vn -0.5714 0.5617 -0.5984
vn -0.7234 0.3332 -0.6047
vn -0.2625 -0.4891 -0.8318
vn 0.7050 -0.5983 0.3808
vn 0.2543 -0.9399 -0.2280
vn 0.4034 -0.8081 -0.4291
vn 0.7611 -0.5587 0.3295
vn -0.9063 0.3576 -0.2254
vn -0.9890 0.0494 -0.1392
vn -0.1953 -0.3094 -0.9306
vn -0.8265 0.4016 -0.3944
vn -0.3261 -0.5197 -0.7897
vn 0.8693 -0.4174 0.2648
vn 0.6231 -0.6173 -0.4803
vn 0.7247 -0.5437 -0.4233
vn 0.9893 -0.0916 0.1132
vn 0.5886 -0.5280 -0.6121
vn 0.4789 0.6472 0.5931
vn 0.0264 0.6909 -0.7225
vn 0.9723 0.1973 -0.1255
vn 0.5961 -0.5927 -0.5416
vn 0.0619 0.2064 -0.9765
vn -0.2611 0.9410 -0.2154
vn -0.6584 0.7501 0.0617
vn 0.7269 0.6288 -0.2760
vn -0.5390 0.6694 -0.5113
vn -0.4841 0.4131 -0.7714
vn 0.4097 0.8326 -0.3727
vn -0.9564 0.2634 0.1263
vn -0.6664 -0.3839 0.6392
vn -0.5811 0.7946 -0.1761
vn -0.0726 0.0820 0.9940
vn 0.2113 0.8174 0.5360
vn -0.9856 -0.1274 0.1111
vn -0.5038 -0.0243 -0.8635
vn -0.8443 -0.3912 0.3662
vn 0.5805 0.7105 0.3977
vn 0.8025 -0.4791 -0.3555
vn -0.3255 -0.2996 0.8968
vn 0.4826 -0.4592 -0.7458
vn -0.9971 0.0582 -0.0493
vn -0.6835 0.0156 -0.7298
vn -0.6929 0.2048 0.6913
vn 0.9737 0.2140 0.0786
vn 0.6342 0.2964 0.7141
vn 0.7650 0.1282 -0.6312
vn -0.0544 0.2583 0.9645
vn 0.0751 0.0075 -0.9971
usemtl None
s 1
f 285/1/1 215/2/2 3/3/3 134/4/4
f 284/5/5 182/6/6 7/7/7 116/8/8
f 283/9/9 139/10/10 6/11/11 104/12/12
f 282/13/13 194/14/14 2/15/15 155/16/16
f 281/17/17 218/18/18 10/19/19 111/20/20
f 280/21/21 201/22/22 12/23/23 93/24/24
f 279/25/25 210/26/26 9/27/27 205/28/28
f 278/29/29 137/30/30 11/31/31 181/32/32
f 277/33/33 154/34/34 15/35/35 86/36/36
f 276/37/37 221/38/38 16/39/39 189/40/40
f 275/41/41 120/42/42 20/43/43 226/44/44
f 274/45/45 131/46/46 21/47/47 160/48/48
f 273/49/49 204/50/50 14/51/51 198/52/52
f 272/53/53 191/54/54 19/55/55 166/56/56
f 20/57/43 114/58/57 204/50/50
f 21/47/47 131/46/46 119/59/58
f 20/43/43 120/42/42 114/60/57
f 21/47/47 119/59/58 191/54/54
f 271/61/59 88/62/60 24/63/61 188/64/62
f 270/65/63 225/66/64 26/67/65 82/68/66
f 269/69/67 180/70/68 25/71/69 81/72/70
f 268/73/71 179/74/72 27/75/73 75/76/74
f 267/77/75 164/78/76 28/79/77 224/80/78
f 266/81/79 175/82/80 29/83/81 185/84/82
f 265/85/83 220/86/84 31/87/85 217/88/86
f 264/89/87 146/90/88 30/91/89 89/92/90
f 263/93/91 173/94/92 32/95/93 110/96/94
f 262/97/95 192/98/96 34/99/97 193/100/98
f 261/101/99 91/102/100 33/103/101 136/104/102
f 260/105/103 172/106/104 35/107/105 135/108/106
f 35/109/105 193/100/98 109/110/107
f 34/99/97 136/104/102 108/111/108
f 32/95/93 135/108/106 207/112/109
f 33/103/101 110/96/94 123/113/110
f 259/114/111 223/115/112 37/116/113 213/117/114
f 258/118/115 140/119/116 18/120/117 103/121/118
f 257/122/119 178/123/120 38/124/121 157/125/122
f 256/126/123 162/127/124 40/128/125 222/129/126
f 255/130/127 80/131/128 41/132/129 176/133/130
f 254/134/131 163/135/132 39/136/133 168/137/134
f 253/138/135 187/139/136 44/140/137 96/141/138
f 252/142/139 126/143/140 47/144/141 92/145/142
f 251/146/143 186/147/144 46/148/145 167/149/146
f 250/150/147 153/151/148 43/152/149 106/153/150
f 249/154/151 209/155/152 42/156/153 165/157/154
f 248/158/155 102/159/156 48/160/157 196/161/158
f 47/162/141 126/163/140 138/164/159
f 247/165/160 148/166/161 50/167/162 90/168/163
f 246/169/164 170/170/165 52/171/166 171/172/167
f 245/173/168 95/174/169 51/175/170 74/176/171
f 244/177/172 143/178/173 53/179/174 85/180/175
f 51/175/170 90/168/163 152/181/176
f 50/167/162 171/172/167 174/182/177
f 53/179/174 74/176/171 151/183/178
f 52/184/166 85/180/175 156/185/179
f 243/186/180 125/187/181 55/188/182 159/189/183
f 242/190/184 101/191/185 57/192/186 216/193/187
f 241/194/188 145/195/189 58/196/190 214/197/191
f 45/198/192 118/199/193 107/200/194
f 240/201/195 200/202/196 59/203/197 195/204/198
f 56/205/199 159/189/183 212/206/200
f 55/188/182 216/193/187 203/207/201
f 57/208/186 214/197/191 112/209/202
f 239/210/203 184/211/204 56/205/199 121/212/205
f 238/213/206 129/214/207 60/215/208 183/216/209
f 237/217/210 100/218/211 63/219/212 79/220/213
f 236/221/214 105/222/215 65/223/216 150/224/217
f 63/225/212 150/224/217 76/226/218
f 64/227/219 79/220/213 84/228/220
f 66/229/221 117/230/222 84/228/220
f 235/231/223 208/232/224 64/227/219 161/233/225
f 234/234/226 200/202/196 23/235/227 190/236/228
f 233/237/229 99/238/230 67/239/231 78/240/232
f 56/205/199 212/206/200 121/212/205
f 232/241/233 158/242/234 69/243/235 227/244/236
f 231/245/237 83/246/238 68/247/239 132/248/240
f 230/249/241 199/250/242 71/251/243 149/252/244
f 70/253/245 227/244/236 219/254/246
f 229/255/247 206/256/248 70/253/245 147/257/249
f 228/258/250 142/259/251 73/260/252 122/261/253
f 73/262/252 147/257/249 98/263/254
f 69/243/235 122/261/253 202/264/255
f 202/264/255 98/265/254 72/266/256
f 202/264/255 122/261/253 98/265/254
f 122/261/253 73/260/252 98/265/254
f 98/263/254 219/254/246 72/266/256
f 98/263/254 147/257/249 219/254/246
f 147/257/249 70/253/245 219/254/246
f 158/242/234 228/258/250 122/261/253 69/243/235
f 67/239/231 149/252/244 228/258/250 158/242/234
f 149/252/244 71/251/243 142/259/251 228/258/250
f 142/267/251 229/255/247 147/257/249 73/262/252
f 71/268/243 132/248/240 229/255/247 142/267/251
f 132/248/240 68/247/239 206/256/248 229/255/247
f 219/254/246 202/264/255 72/266/256
f 219/254/246 227/244/236 202/264/255
f 227/244/236 69/243/235 202/264/255
f 99/238/230 230/249/241 149/252/244 67/239/231
f 23/269/227 127/270/257 230/249/241 99/238/230
f 127/270/257 13/271/258 199/250/242 230/249/241
f 199/272/242 231/245/237 132/248/240 71/268/243
f 13/273/258 144/274/259 231/245/237 199/272/242
f 144/274/259 17/275/260 83/246/238 231/245/237
f 206/256/248 232/241/233 227/244/236 70/253/245
f 68/247/239 78/240/232 232/241/233 206/256/248
f 78/240/232 67/239/231 158/242/234 232/241/233
f 121/212/205 124/276/261 58/196/190
f 121/212/205 212/206/200 124/276/261
f 212/206/200 61/277/262 124/276/261
f 83/246/238 233/237/229 78/240/232 68/247/239
f 17/275/260 190/278/228 233/237/229 83/246/238
f 190/278/228 23/269/227 99/238/230 233/237/229
f 97/279/263 234/234/226 190/236/228 17/280/260
f 62/281/264 177/282/265 234/234/226 97/279/263
f 177/282/265 59/203/197 200/202/196 234/234/226
f 105/222/215 235/231/223 161/233/225 65/223/216
f 59/203/197 177/282/265 235/231/223 105/222/215
f 177/282/265 62/281/264 208/232/224 235/231/223
f 84/228/220 161/233/225 64/227/219
f 84/228/220 117/230/222 161/233/225
f 117/230/222 65/223/216 161/233/225
f 84/228/220 76/283/218 66/229/221
f 84/228/220 79/220/213 76/283/218
f 79/220/213 63/219/212 76/283/218
f 76/226/218 117/230/222 66/229/221
f 76/226/218 150/224/217 117/230/222
f 150/224/217 65/223/216 117/230/222
f 100/284/211 236/221/214 150/224/217 63/225/212
f 60/285/208 195/204/198 236/221/214 100/284/211
f 195/204/198 59/203/197 105/222/215 236/221/214
f 208/232/224 237/217/210 79/220/213 64/227/219
f 62/281/264 183/216/209 237/217/210 208/232/224
f 183/216/209 60/215/208 100/218/211 237/217/210
f 97/279/263 238/213/206 183/216/209 62/281/264
f 17/280/260 113/286/266 238/213/206 97/279/263
f 113/286/266 22/287/267 129/214/207 238/213/206
f 145/195/189 239/210/203 121/212/205 58/196/190
f 49/288/268 118/199/193 239/210/203 145/195/189
f 118/199/193 45/198/192 184/211/204 239/210/203
f 112/209/202 124/276/261 61/277/262
f 112/209/202 214/197/191 124/276/261
f 214/197/191 58/196/190 124/276/261
f 203/207/201 112/289/202 61/277/262
f 203/207/201 216/193/187 112/289/202
f 216/193/187 57/192/186 112/289/202
f 212/206/200 203/207/201 61/277/262
f 212/206/200 159/189/183 203/207/201
f 159/189/183 55/188/182 203/207/201
f 129/290/207 240/201/195 195/204/198 60/285/208
f 22/291/267 169/292/269 240/201/195 129/290/207
f 169/292/269 23/235/227 200/202/196 240/201/195
f 107/200/194 87/293/270 42/156/153
f 107/200/194 118/199/193 87/293/270
f 118/199/193 49/288/268 87/293/270
f 101/294/185 241/194/188 214/197/191 57/208/186
f 47/162/141 138/164/159 241/194/188 101/294/185
f 138/164/159 49/288/268 145/195/189 241/194/188
f 125/187/181 242/190/184 216/193/187 55/188/182
f 44/140/137 92/145/142 242/190/184 125/187/181
f 92/145/142 47/144/141 101/191/185 242/190/184
f 184/211/204 243/186/180 159/189/183 56/205/199
f 45/198/192 96/141/138 243/186/180 184/211/204
f 96/141/138 44/140/137 125/187/181 243/186/180
f 156/185/179 151/183/178 54/295/271
f 156/185/179 85/180/175 151/183/178
f 85/180/175 53/179/174 151/183/178
f 151/183/178 152/181/176 54/295/271
f 151/183/178 74/176/171 152/181/176
f 74/176/171 51/175/170 152/181/176
f 174/182/177 156/296/179 54/295/271
f 174/182/177 171/172/167 156/296/179
f 171/172/167 52/171/166 156/296/179
f 152/181/176 174/182/177 54/295/271
f 152/181/176 90/168/163 174/182/177
f 90/168/163 50/167/162 174/182/177
f 170/297/165 244/177/172 85/180/175 52/184/166
f 48/298/157 165/299/154 244/177/172 170/297/165
f 165/299/154 42/300/153 143/178/173 244/177/172
f 143/178/173 245/173/168 74/176/171 53/179/174
f 42/300/153 87/301/270 245/173/168 143/178/173
f 87/301/270 49/302/268 95/174/169 245/173/168
f 148/166/161 246/169/164 171/172/167 50/167/162
f 46/303/145 196/304/158 246/169/164 148/166/161
f 196/304/158 48/305/157 170/170/165 246/169/164
f 95/174/169 247/165/160 90/168/163 51/175/170
f 49/302/268 130/306/272 247/165/160 95/174/169
f 130/306/272 46/303/145 148/166/161 247/165/160
f 138/164/159 130/307/272 49/288/268
f 138/164/159 126/163/140 130/307/272
f 126/163/140 46/308/145 130/307/272
f 186/309/144 248/158/155 196/161/158 46/310/145
f 41/311/129 168/137/134 248/158/155 186/309/144
f 168/137/134 39/136/133 102/159/156 248/158/155
f 102/159/156 249/154/151 165/157/154 48/160/157
f 39/136/133 157/125/122 249/154/151 102/159/156
f 157/125/122 38/124/121 209/155/152 249/154/151
f 209/155/152 250/150/147 106/153/150 42/156/153
f 38/124/121 222/129/126 250/150/147 209/155/152
f 222/129/126 40/128/125 153/151/148 250/150/147
f 153/151/148 251/146/143 167/149/146 43/152/149
f 40/128/125 176/133/130 251/146/143 153/151/148
f 176/133/130 41/132/129 186/147/144 251/146/143
f 187/139/136 252/142/139 92/145/142 44/140/137
f 43/152/149 167/149/146 252/142/139 187/139/136
f 167/149/146 46/148/145 126/143/140 252/142/139
f 107/200/194 253/138/135 96/141/138 45/198/192
f 42/156/153 106/153/150 253/138/135 107/200/194
f 106/153/150 43/152/149 187/139/136 253/138/135
f 80/312/128 254/134/131 168/137/134 41/311/129
f 15/313/35 213/117/114 254/134/131 80/312/128
f 213/117/114 37/116/113 163/135/132 254/134/131
f 162/127/124 255/130/127 176/133/130 40/128/125
f 16/39/39 86/36/36 255/130/127 162/127/124
f 86/36/36 15/35/35 80/131/128 255/130/127
f 178/123/120 256/126/123 222/129/126 38/124/121
f 18/120/117 189/40/40 256/126/123 178/123/120
f 189/40/40 16/39/39 162/127/124 256/126/123
f 163/135/132 257/122/119 157/125/122 39/136/133
f 37/116/113 103/121/118 257/122/119 163/135/132
f 103/121/118 18/120/117 178/123/120 257/122/119
f 223/115/112 258/118/115 103/121/118 37/116/113
f 22/314/267 113/315/266 258/118/115 223/115/112
f 113/315/266 17/316/260 140/119/116 258/118/115
f 154/317/34 259/114/111 213/117/114 15/313/35
f 14/318/51 197/319/273 259/114/111 154/317/34
f 197/319/273 22/314/267 223/115/112 259/114/111
f 123/113/110 207/112/109 36/320/274
f 123/113/110 110/96/94 207/112/109
f 110/96/94 32/95/93 207/112/109
f 207/112/109 109/321/107 36/320/274
f 207/112/109 135/108/106 109/321/107
f 135/108/106 35/107/105 109/321/107
f 108/111/108 123/113/110 36/320/274
f 108/111/108 136/104/102 123/113/110
f 136/104/102 33/103/101 123/113/110
f 109/110/107 108/111/108 36/320/274
f 109/110/107 193/100/98 108/111/108
f 193/100/98 34/99/97 108/111/108
f 173/94/92 260/105/103 135/108/106 32/95/93
f 29/83/81 224/80/78 260/105/103 173/94/92
f 224/80/78 28/79/77 172/106/104 260/105/103
f 192/98/96 261/101/99 136/104/102 34/99/97
f 31/87/85 89/92/90 261/101/99 192/98/96
f 89/92/90 30/91/89 91/102/100 261/101/99
f 172/322/104 262/97/95 193/100/98 35/109/105
f 28/323/77 217/88/86 262/97/95 172/322/104
f 217/88/86 31/87/85 192/98/96 262/97/95
f 91/102/100 263/93/91 110/96/94 33/103/101
f 30/91/89 185/84/82 263/93/91 91/102/100
f 185/84/82 29/83/81 173/94/92 263/93/91
f 220/86/84 264/89/87 89/92/90 31/87/85
f 27/75/73 81/72/70 264/89/87 220/86/84
f 81/72/70 25/71/69 146/90/88 264/89/87
f 164/324/76 265/85/83 217/88/86 28/323/77
f 26/325/65 75/76/74 265/85/83 164/324/76
f 75/76/74 27/75/73 220/86/84 265/85/83
f 146/90/88 266/81/79 185/84/82 30/91/89
f 25/71/69 188/64/62 266/81/79 146/90/88
f 188/64/62 24/63/61 175/82/80 266/81/79
f 175/82/80 267/77/75 224/80/78 29/83/81
f 24/63/61 82/68/66 267/77/75 175/82/80
f 82/68/66 26/67/65 164/78/76 267/77/75
f 225/326/64 268/73/71 75/76/74 26/325/65
f 19/327/55 133/328/275 268/73/71 225/326/64
f 133/328/275 13/329/258 179/74/72 268/73/71
f 179/74/72 269/69/67 81/72/70 27/75/73
f 13/329/258 127/330/257 269/69/67 179/74/72
f 127/330/257 23/331/227 180/70/68 269/69/67
f 88/62/60 270/65/63 82/68/66 24/63/61
f 22/332/267 128/333/276 270/65/63 88/62/60
f 128/333/276 19/334/55 225/66/64 270/65/63
f 180/70/68 271/61/59 188/64/62 25/71/69
f 23/331/227 169/335/269 271/61/59 180/70/68
f 169/335/269 22/332/267 88/62/60 271/61/59
f 191/54/54 133/336/275 19/55/55
f 191/54/54 119/59/58 133/336/275
f 119/59/58 13/337/258 133/336/275
f 114/60/57 128/338/276 22/339/267
f 114/60/57 120/42/42 128/338/276
f 120/42/42 19/55/55 128/338/276
f 119/59/58 77/340/277 13/337/258
f 119/59/58 131/46/46 77/340/277
f 131/46/46 14/51/51 77/340/277
f 204/50/50 197/341/273 14/51/51
f 204/50/50 114/58/57 197/341/273
f 114/58/57 22/342/267 197/341/273
f 218/18/18 272/53/53 166/56/56 10/19/19
f 9/27/27 160/48/48 272/53/53 218/18/18
f 160/48/48 21/47/47 191/54/54 272/53/53
f 201/22/22 273/49/49 198/52/52 12/23/23
f 11/343/31 226/344/44 273/49/49 201/22/22
f 226/344/44 20/57/43 204/50/50 273/49/49
f 210/26/26 274/45/45 160/48/48 9/27/27
f 12/23/23 198/52/52 274/45/45 210/26/26
f 198/52/52 14/51/51 131/46/46 274/45/45
f 137/30/30 275/41/41 226/44/44 11/31/31
f 10/19/19 166/56/56 275/41/41 137/30/30
f 166/56/56 19/55/55 120/42/42 275/41/41
f 140/119/116 276/37/37 189/40/40 18/120/117
f 17/316/260 144/345/259 276/37/37 140/119/116
f 144/345/259 13/346/258 221/38/38 276/37/37
f 221/38/38 277/33/33 86/36/36 16/39/39
f 13/346/258 77/347/277 277/33/33 221/38/38
f 77/347/277 14/348/51 154/34/34 277/33/33
f 182/6/6 278/29/29 181/32/32 7/7/7
f 6/11/11 111/20/20 278/29/29 182/6/6
f 111/20/20 10/19/19 137/30/30 278/29/29
f 215/2/2 279/25/25 205/28/28 3/3/3
f 2/15/15 93/24/24 279/25/25 215/2/2
f 93/24/24 12/23/23 210/26/26 279/25/25
f 194/14/14 280/21/21 93/24/24 2/15/15
f 7/349/7 181/350/32 280/21/21 194/14/14
f 181/350/32 11/343/31 201/22/22 280/21/21
f 139/10/10 281/17/17 111/20/20 6/11/11
f 3/3/3 205/28/28 281/17/17 139/10/10
f 205/28/28 9/27/27 218/18/18 281/17/17
f 115/351/278 282/13/13 155/16/16 1/352/279
f 8/353/280 116/354/8 282/13/13 115/351/278
f 116/354/8 7/349/7 194/14/14 282/13/13
f 211/355/281 283/9/9 104/12/12 5/356/282
f 4/357/283 134/4/4 283/9/9 211/355/281
f 134/4/4 3/3/3 139/10/10 283/9/9
f 94/358/284 284/5/5 116/8/8 8/359/280
f 5/356/282 104/12/12 284/5/5 94/358/284
f 104/12/12 6/11/11 182/6/6 284/5/5
f 141/360/285 285/1/1 134/4/4 4/357/283
f 1/352/279 155/16/16 285/1/1 141/360/285
f 155/16/16 2/15/15 215/2/2 285/1/1
