# Blender v2.78 (sub 0) OBJ File: ''
# www.blender.org
mtllib Dead_Tree_s_05.mtl
o Dead_Tree_s_05
v 0.073437 0.060184 -0.035008
v -0.032221 0.669081 -0.214857
v -0.097679 0.695308 -0.139611
v -0.036350 0.063676 0.059679
v -0.132408 0.658690 -0.226549
v -0.063644 0.058660 -0.081665
v 0.037808 1.142791 -0.109959
v -0.006980 1.169044 -0.076691
v -0.048767 1.174153 -0.153926
v 0.024139 1.243286 -0.133369
v -0.081686 1.672674 -0.338199
v -0.114896 1.711113 -0.325761
v -0.151393 1.690118 -0.355082
v 0.243341 1.340416 0.108224
v 0.240772 1.316757 0.142095
v 0.343193 1.625585 0.248796
v 0.342178 1.637159 0.229778
v 0.257223 1.321197 0.120766
v 0.400115 1.757413 0.337086
v 0.351445 1.628656 0.237138
v -0.120118 1.741284 -0.386659
v -0.396627 2.086845 -0.692883
v -0.403440 2.092295 -0.677226
v -0.414170 2.086343 -0.691560
v -0.404589 2.296021 -0.782489
v 0.107482 1.785295 -0.361109
v 0.105581 1.802395 -0.373343
v 0.230457 1.926251 -0.349469
v 0.105728 1.805009 -0.351300
v -0.412481 2.105603 -0.693130
v 0.375669 1.704545 0.297022
v 0.115904 1.801420 -0.367529
v 0.351099 1.643973 0.239292
v -0.070892 0.357239 -0.036251
v -0.091322 1.435084 -0.241207
v -0.418163 2.207516 -0.749965
v 0.122915 1.230930 0.039741
v 0.375161 1.709278 0.289119
v -0.041203 1.453283 -0.241395
v 0.010335 0.059422 -0.073278
v -0.097757 1.708250 -0.360897
v -0.103285 0.334489 -0.158977
v 0.115990 1.803112 -0.354616
v -0.289746 1.896083 -0.527687
v 0.309874 1.474707 0.182495
v -0.401933 2.105515 -0.693536
v -0.007155 1.144344 -0.137280
v 0.177511 1.861343 -0.355588
v -0.065656 0.061168 -0.008232
v 0.249582 1.317388 0.133275
v 0.298171 1.470727 0.198502
v 0.351746 1.637105 0.250639
v -0.059425 0.684647 -0.173609
v 0.115131 1.813390 -0.361919
v 0.149962 1.234566 0.007835
v -0.059885 0.934197 -0.116810
v 0.023443 1.133958 -0.080903
v -0.143210 1.726012 -0.378115
v -0.120746 1.749491 -0.368745
v 0.028764 0.061930 0.024515
v -0.410700 2.206904 -0.749705
v 0.379059 1.705840 0.292186
v 0.346194 1.642133 0.246244
v -0.012917 1.219546 -0.150442
v 0.177304 1.868609 -0.360681
v -0.271657 1.908123 -0.506677
v -0.114248 1.668709 -0.339958
v 0.014658 1.230290 -0.101104
v -0.043425 1.167441 -0.124048
v -0.002019 1.757477 -0.336713
v -0.408191 2.102129 -0.702027
v 0.137074 1.269975 -0.008303
v -0.081238 0.660695 -0.227180
v 0.250921 1.331895 0.112331
v 0.006875 1.735535 -0.355871
v -0.267750 1.906013 -0.538608
v 0.240834 1.329086 0.125479
v -0.092350 0.919658 -0.190181
v 0.177359 1.869975 -0.352024
v -0.082844 1.674951 -0.317381
v -0.009383 0.919621 -0.176306
v -0.414010 2.209642 -0.744137
v 0.023853 0.341403 -0.127381
v -0.002282 1.757065 -0.372470
v -0.121646 0.677737 -0.180229
v 0.034018 1.194324 -0.117099
v -0.144554 1.695823 -0.339186
v 0.297761 1.487385 0.172548
v -0.063847 1.436278 -0.194772
v 0.002817 1.745633 -0.344127
v -0.002897 1.759068 -0.354486
v 0.002654 1.745376 -0.366440
v -0.279334 1.900463 -0.535336
v -0.281772 1.901780 -0.515410
v -0.268046 1.907977 -0.522226
v 0.304540 1.471504 0.191983
v 0.304284 1.481899 0.175787
v 0.136386 1.229670 0.026441
v 0.145222 1.254035 -0.003540
v 0.128344 1.251765 0.016370
v -0.066462 1.444837 -0.245148
v 0.296982 1.479415 0.185776
v -0.080592 1.434225 -0.216054
v -0.049317 1.445583 -0.216171
v -0.050121 0.918436 -0.188736
v -0.081635 0.927532 -0.151609
v -0.029862 0.927508 -0.142951
v -0.037138 0.336351 -0.152020
v -0.096262 0.346233 -0.095153
v -0.016924 0.350547 -0.075436
vt 0.5642 0.6478
vt 0.5630 0.6616
vt 0.5604 0.6622
vt 0.5613 0.6478
vt 0.5587 0.6477
vt 0.5582 0.6610
vt 0.5560 0.6598
vt 0.5560 0.6475
vt 0.5698 0.6485
vt 0.5680 0.6610
vt 0.5656 0.6610
vt 0.5670 0.6478
vt 0.5627 0.6706
vt 0.5646 0.6704
vt 0.5636 0.6797
vt 0.5625 0.6796
vt 0.5591 0.6705
vt 0.5609 0.6708
vt 0.5614 0.6795
vt 0.5599 0.6801
vt 0.5666 0.6706
vt 0.5686 0.6709
vt 0.5669 0.6808
vt 0.5653 0.6803
vt 0.5619 0.6908
vt 0.5630 0.6914
vt 0.5621 0.7006
vt 0.5612 0.7007
vt 0.5597 0.6905
vt 0.5609 0.6902
vt 0.5604 0.7009
vt 0.5595 0.7010
vt 0.5637 0.6810
vt 0.5804 0.6541
vt 0.5811 0.6542
vt 0.5811 0.6608
vt 0.5806 0.6608
vt 0.5642 0.6913
vt 0.5654 0.6912
vt 0.5639 0.7017
vt 0.5630 0.7012
vt 0.5809 0.6406
vt 0.5822 0.6407
vt 0.5811 0.6475
vt 0.5802 0.6474
vt 0.5789 0.6405
vt 0.5797 0.6405
vt 0.5792 0.6474
vt 0.5786 0.6474
vt 0.5770 0.6406
vt 0.5781 0.6405
vt 0.5781 0.6475
vt 0.5775 0.6475
vt 0.5802 0.6608
vt 0.5802 0.6646
vt 0.5793 0.6541
vt 0.5797 0.6541
vt 0.5799 0.6608
vt 0.5784 0.6542
vt 0.5789 0.6542
vt 0.5796 0.6608
vt 0.5792 0.6608
vt 0.5597 0.7138
vt 0.5603 0.7142
vt 0.5586 0.7260
vt 0.5582 0.7260
vt 0.5798 0.6646
vt 0.5789 0.6609
vt 0.5795 0.6647
vt 0.5584 0.7135
vt 0.5591 0.7134
vt 0.5578 0.7259
vt 0.5574 0.7260
vt 0.5620 0.7014
vt 0.5590 0.7262
vt 0.5577 0.7313
vt 0.5569 0.7261
vt 0.5569 0.7314
vt 0.5573 0.7312
vt 0.5830 0.6732
vt 0.5833 0.6727
vt 0.5883 0.6733
vt 0.5610 0.7141
vt 0.5617 0.7140
vt 0.5594 0.7264
vt 0.5792 0.6727
vt 0.5792 0.6720
vt 0.5835 0.6723
vt 0.5793 0.6713
vt 0.5793 0.6705
vt 0.5837 0.6712
vt 0.5836 0.6717
vt 0.5794 0.6699
vt 0.5795 0.6693
vt 0.5833 0.6701
vt 0.5835 0.6707
vt 0.5886 0.6723
vt 0.5885 0.6729
vt 0.5936 0.6734
vt 0.5884 0.6717
vt 0.5750 0.6699
vt 0.5753 0.6692
vt 0.5757 0.6685
vt 0.5750 0.6718
vt 0.5750 0.6709
vt 0.5791 0.6733
vt 0.5753 0.6734
vt 0.5752 0.6726
vt 0.5620 0.7023
vt 0.5630 0.7020
vt 0.5568 0.7366
vt 0.5581 0.7315
vt 0.5577 0.7136
vt 0.5585 0.7011
vt 0.5801 0.6685
vt 0.5612 0.7016
vt 0.5779 0.6543
vt 0.5769 0.6476
vt 0.5806 0.6646
vt 0.5760 0.6407
vt 0.5750 0.6337
vt 0.5765 0.6336
vt 0.5780 0.6335
vt 0.5791 0.6335
vt 0.5801 0.6335
vt 0.5817 0.6337
vt 0.5833 0.6339
vt 0.5638 0.6822
vt 0.5653 0.6815
vt 0.5585 0.6909
vt 0.5585 0.6806
vt 0.5626 0.6809
vt 0.5703 0.6610
vt 0.5573 0.6702
vt 0.5717 0.6359
vt 0.5685 0.6346
vt 0.5750 0.6373
vt 0.5726 0.6492
vt 0.5591 0.6344
vt 0.5560 0.6353
vt 0.5622 0.6335
vt 0.5653 0.6341
vn 0.6898 0.3049 0.6566
vn 0.7477 0.0493 0.6622
vn -0.2666 0.0906 0.9596
vn -0.2772 0.2706 0.9219
vn -0.9650 -0.0218 0.2615
vn -0.9488 0.0610 0.3099
vn -0.7416 -0.0185 -0.6706
vn -0.7034 -0.2373 -0.6700
vn 0.2377 -0.2117 -0.9480
vn 0.1561 -0.0381 -0.9870
vn 0.8913 0.0513 -0.4506
vn 0.9509 0.0819 -0.2985
vn 0.6725 -0.2516 0.6960
vn 0.9304 -0.0675 -0.3602
vn 0.8263 -0.3262 -0.4592
vn 0.4314 -0.5910 0.6816
vn -0.9201 0.1067 0.3769
vn -0.2880 -0.0997 0.9524
vn -0.5381 -0.0115 0.8428
vn -0.8881 0.0783 0.4530
vn 0.2317 0.1352 -0.9633
vn -0.7260 0.2253 -0.6497
vn -0.7165 -0.0674 -0.6943
vn 0.3854 0.0374 -0.9220
vn 0.6471 0.4475 0.6173
vn 0.8825 -0.0142 -0.4700
vn 0.5924 -0.5691 -0.5703
vn 0.6642 0.1342 0.7354
vn -0.8459 0.0680 0.5290
vn -0.2742 0.3573 0.8928
vn -0.2429 0.4515 0.8586
vn -0.7615 0.1029 0.6400
vn 0.6439 -0.0843 -0.7604
vn -0.9520 0.2556 0.1685
vn -0.3307 -0.2116 0.9197
vn -0.4035 -0.2026 0.8923
vn -0.9454 0.2600 0.1964
vn 0.2362 -0.3349 -0.9122
vn -0.7472 -0.3683 -0.5532
vn -0.7536 -0.5618 -0.3413
vn 0.1117 -0.4289 -0.8964
vn -0.6729 0.6362 0.3774
vn -0.5433 -0.1975 0.8159
vn -0.2705 -0.3869 0.8816
vn -0.8542 0.4542 0.2532
vn 0.7345 -0.0137 -0.6785
vn 0.1460 0.8727 -0.4660
vn -0.1988 0.7100 -0.6755
vn 0.7213 0.0216 -0.6923
vn 0.3278 -0.8726 0.3620
vn 0.7750 -0.5491 -0.3128
vn 0.8684 -0.4676 -0.1650
vn 0.6179 -0.6860 0.3843
vn -0.3973 0.4882 -0.7770
vn -0.3049 0.7287 -0.6132
vn 0.6774 0.0775 -0.7315
vn -0.4044 0.4636 -0.7884
vn 0.6836 0.2311 -0.6923
vn 0.7538 -0.4234 0.5025
vn 0.9560 -0.2210 -0.1932
vn 0.9498 -0.1644 -0.2661
vn 0.7553 -0.5146 0.4059
vn 0.7090 0.6918 0.1369
vn 0.6524 -0.1479 -0.7433
vn 0.5940 -0.2684 -0.7583
vn 0.9054 0.3237 0.2748
vn 0.9607 -0.1970 -0.1954
vn -0.3038 -0.4313 0.8495
vn -0.7810 0.0187 0.6243
vn -0.1506 0.6155 0.7736
vn -0.2218 0.5430 0.8099
vn -0.8431 0.1852 0.5048
vn 0.1410 -0.5179 -0.8437
vn -0.0961 -0.4640 -0.8806
vn 0.8332 -0.1886 -0.5198
vn -0.8197 -0.5431 -0.1821
vn -0.8796 -0.1194 -0.4604
vn 0.0079 0.4551 0.8904
vn 0.5183 -0.8549 -0.0230
vn 0.4915 -0.4774 -0.7284
vn 0.7474 -0.6467 0.1524
vn 0.0095 -0.6475 -0.7620
vn -0.7508 -0.6370 -0.1744
vn 0.2035 -0.5262 -0.8256
vn -0.0237 0.3117 -0.9499
vn -0.0970 0.2611 -0.9604
vn -0.2873 0.9545 0.0796
vn -0.0580 0.4748 0.8782
vn -0.1220 0.3914 0.9121
vn -0.6090 0.7888 -0.0833
vn 0.3698 -0.4056 0.8359
vn 0.4963 -0.8426 -0.2090
vn 0.3677 -0.4173 0.8310
vn -0.3812 0.3838 0.8411
vn -0.0876 0.3183 -0.9439
vn 0.6633 0.7438 0.0824
vn 0.4095 0.0107 -0.9123
vn 0.2677 0.9327 0.2415
vn 0.0827 -0.5953 -0.7993
vn 0.1022 0.9260 -0.3635
vn 0.3290 0.7123 0.6200
vn 0.8185 0.2771 -0.5032
vn -0.1593 0.7051 0.6910
vn 0.3854 -0.2275 -0.8942
vn 0.3095 -0.2204 -0.9250
vn 0.9840 0.1550 -0.0875
vn -0.6858 -0.2733 -0.6746
vn -0.9664 -0.0341 0.2546
vn -0.2019 0.2967 0.9334
vn 0.6448 0.3317 0.6886
usemtl None
s 1
f 110/1/1 53/2/2 3/3/3 34/4/4
f 109/5/5 85/6/6 5/7/7 42/8/8
f 108/9/9 73/10/10 2/11/11 83/12/12
f 107/13/13 81/14/14 7/15/15 57/16/16
f 106/17/17 56/18/18 8/19/19 69/20/20
f 105/21/21 78/22/22 9/23/23 47/24/24
f 104/25/25 39/26/26 11/27/27 80/28/28
f 103/29/29 89/30/30 12/31/31 87/32/32
f 7/15/15 47/24/24 86/33/33
f 102/34/34 51/35/35 16/36/36 63/37/37
f 101/38/38 35/39/39 13/40/40 67/41/41
f 100/42/42 37/43/43 15/44/44 77/45/45
f 99/46/46 72/47/47 14/48/48 74/49/49
f 98/50/50 55/51/51 18/52/52 50/53/53
f 17/54/54 63/37/37 38/55/55
f 97/56/56 88/57/57 17/54/54 33/58/58
f 96/59/59 45/60/60 20/61/61 52/62/62
f 95/63/63 76/64/64 22/65/65 46/66/66
f 20/61/61 33/58/58 62/67/67
f 16/68/36 52/62/62 31/69/68
f 94/70/69 66/71/70 23/72/71 30/73/72
f 11/27/27 67/41/41 41/74/73
f 22/65/65 71/75/74 61/76/75
f 24/77/76 30/73/72 36/78/77
f 23/72/71 46/66/66 82/79/78
f 26/80/79 32/81/80 48/82/81
f 93/83/82 44/84/83 24/85/76 71/75/74
f 92/86/84 84/87/85 27/88/86 32/81/80
f 91/89/87 70/90/88 29/91/89 54/92/90
f 90/93/91 75/94/92 26/95/79 43/96/93
f 29/91/89 43/96/93 79/97/94
f 27/88/86 54/92/90 65/98/95
f 65/98/95 79/97/94 28/99/96
f 65/98/95 54/92/90 79/97/94
f 54/92/90 29/91/89 79/97/94
f 79/97/94 48/100/81 28/99/96
f 79/97/94 43/96/93 48/100/81
f 43/96/93 26/95/79 48/100/81
f 70/90/88 90/93/91 43/96/93 29/91/89
f 12/101/31 80/102/28 90/93/91 70/90/88
f 80/102/28 11/103/27 75/94/92 90/93/91
f 84/87/85 91/89/87 54/92/90 27/88/86
f 21/104/97 59/105/98 91/89/87 84/87/85
f 59/105/98 12/101/31 70/90/88 91/89/87
f 75/106/92 92/86/84 32/81/80 26/80/79
f 11/107/27 41/108/73 92/86/84 75/106/92
f 41/108/73 21/104/97 84/87/85 92/86/84
f 76/64/64 93/83/82 71/75/74 22/65/65
f 21/109/97 58/110/99 93/83/82 76/64/64
f 58/110/99 13/40/40 44/84/83 93/83/82
f 48/82/81 65/98/95 28/99/96
f 48/82/81 32/81/80 65/98/95
f 32/81/80 27/88/86 65/98/95
f 82/79/78 61/76/75 25/111/100
f 82/79/78 46/66/66 61/76/75
f 46/66/66 22/65/65 61/76/75
f 36/78/77 82/79/78 25/111/100
f 36/78/77 30/73/72 82/79/78
f 30/73/72 23/72/71 82/79/78
f 61/76/75 36/112/77 25/111/100
f 61/76/75 71/75/74 36/112/77
f 71/75/74 24/85/76 36/112/77
f 41/74/73 58/110/99 21/109/97
f 41/74/73 67/41/41 58/110/99
f 67/41/41 13/40/40 58/110/99
f 44/113/83 94/70/69 30/73/72 24/77/76
f 13/114/40 87/32/32 94/70/69 44/113/83
f 87/32/32 12/31/31 66/71/70 94/70/69
f 31/69/68 62/67/67 19/115/101
f 31/69/68 52/62/62 62/67/67
f 52/62/62 20/61/61 62/67/67
f 62/67/67 38/55/55 19/115/101
f 62/67/67 33/58/58 38/55/55
f 33/58/58 17/54/54 38/55/55
f 66/71/70 95/63/63 46/66/66 23/72/71
f 12/31/31 59/116/98 95/63/63 66/71/70
f 59/116/98 21/109/97 76/64/64 95/63/63
f 51/117/35 96/59/59 52/62/62 16/68/36
f 15/118/44 50/53/53 96/59/59 51/117/35
f 50/53/53 18/52/52 45/60/60 96/59/59
f 45/60/60 97/56/56 33/58/58 20/61/61
f 18/52/52 74/49/49 97/56/56 45/60/60
f 74/49/49 14/48/48 88/57/57 97/56/56
f 38/55/55 31/119/68 19/115/101
f 38/55/55 63/37/37 31/119/68
f 63/37/37 16/36/36 31/119/68
f 37/120/43 98/50/50 50/53/53 15/118/44
f 8/121/19 57/122/16 98/50/50 37/120/43
f 57/122/16 7/123/15 55/51/51 98/50/50
f 55/51/51 99/46/46 74/49/49 18/52/52
f 7/123/15 86/124/33 99/46/46 55/51/51
f 86/124/33 10/125/102 72/47/47 99/46/46
f 72/47/47 100/42/42 77/45/45 14/48/48
f 10/125/102 68/126/103 100/42/42 72/47/47
f 68/126/103 8/127/19 37/43/43 100/42/42
f 39/26/26 101/38/38 67/41/41 11/27/27
f 10/128/102 64/129/104 101/38/38 39/26/26
f 64/129/104 9/23/23 35/39/39 101/38/38
f 88/57/57 102/34/34 63/37/37 17/54/54
f 14/48/48 77/45/45 102/34/34 88/57/57
f 77/45/45 15/44/44 51/35/35 102/34/34
f 86/33/33 64/129/104 10/128/102
f 86/33/33 47/24/24 64/129/104
f 47/24/24 9/23/23 64/129/104
f 35/130/39 103/29/29 87/32/32 13/114/40
f 9/131/23 69/20/20 103/29/29 35/130/39
f 69/20/20 8/19/19 89/30/30 103/29/29
f 89/30/30 104/25/25 80/28/28 12/31/31
f 8/19/19 68/132/103 104/25/25 89/30/30
f 68/132/103 10/128/102 39/26/26 104/25/25
f 81/14/14 105/21/21 47/24/24 7/15/15
f 2/11/11 73/10/10 105/21/21 81/14/14
f 73/10/10 5/133/7 78/22/22 105/21/21
f 78/134/22 106/17/17 69/20/20 9/131/23
f 5/7/7 85/6/6 106/17/17 78/134/22
f 85/6/6 3/3/3 56/18/18 106/17/17
f 56/18/18 107/13/13 57/16/16 8/19/19
f 3/3/3 53/2/2 107/13/13 56/18/18
f 53/2/2 2/11/11 81/14/14 107/13/13
f 40/135/105 108/9/9 83/12/12 1/136/106
f 6/137/107 42/138/8 108/9/9 40/135/105
f 42/138/8 5/133/7 73/10/10 108/9/9
f 49/139/108 109/5/5 42/8/8 6/140/107
f 4/141/109 34/4/4 109/5/5 49/139/108
f 34/4/4 3/3/3 85/6/6 109/5/5
f 60/142/110 110/1/1 34/4/4 4/141/109
f 1/136/106 83/12/12 110/1/1 60/142/110
f 83/12/12 2/11/11 53/2/2 110/1/1
