%YAML 1.1
%TAG !u! tag:unity3d.com,2011:
--- !u!21 &2100000
Material:
  serializedVersion: 6
  m_ObjectHideFlags: 0
  m_PrefabParentObject: {fileID: 0}
  m_PrefabInternal: {fileID: 0}
  m_Name: RockWall01_Sand
  m_Shader: {fileID: 4800000, guid: 66fed5dd5b3755d4199f36edae55e880, type: 3}
  m_ShaderKeywords: _METALLICGLOSSMAP _NORMALMAP _PARALLAXMAP _USELOCALNORMALS_ON
  m_LightmapFlags: 5
  m_CustomRenderQueue: -1
  stringTagMap: {}
  m_SavedProperties:
    serializedVersion: 2
    m_TexEnvs:
    - first:
        name: _BumpMap
      second:
        m_Texture: {fileID: 2800000, guid: 86a24287f8834274c8e029459deb170b, type: 3}
        m_Scale: {x: 1, y: 1}
        m_Offset: {x: 0, y: 0}
    - first:
        name: _DetailAlbedoMap
      second:
        m_Texture: {fileID: 0}
        m_Scale: {x: 1, y: 1}
        m_Offset: {x: 0, y: 0}
    - first:
        name: _DetailMask
      second:
        m_Texture: {fileID: 0}
        m_Scale: {x: 1, y: 1}
        m_Offset: {x: 0, y: 0}
    - first:
        name: _DetailNormalMap
      second:
        m_Texture: {fileID: 0}
        m_Scale: {x: 1, y: 1}
        m_Offset: {x: 0, y: 0}
    - first:
        name: _EmissionMap
      second:
        m_Texture: {fileID: 0}
        m_Scale: {x: 5, y: 5}
        m_Offset: {x: 0, y: 0}
    - first:
        name: _MainTex
      second:
        m_Texture: {fileID: 2800000, guid: 7c2dc50d2e024d44bb332ae133d09a10, type: 3}
        m_Scale: {x: 5, y: 5}
        m_Offset: {x: 0, y: 0}
    - first:
        name: _MetallicGlossMap
      second:
        m_Texture: {fileID: 2800000, guid: fd758ad2278711a41a30061bb9edcd60, type: 3}
        m_Scale: {x: 1, y: 1}
        m_Offset: {x: 0, y: 0}
    - first:
        name: _OcclusionMap
      second:
        m_Texture: {fileID: 2800000, guid: c2546b434511388459a9fcc65f6f1939, type: 3}
        m_Scale: {x: 1, y: 1}
        m_Offset: {x: 0, y: 0}
    - first:
        name: _ParallaxMap
      second:
        m_Texture: {fileID: 2800000, guid: 6e56b08be9fd1d34aba240b23a19fe9c, type: 3}
        m_Scale: {x: 1, y: 1}
        m_Offset: {x: 0, y: 0}
    - first:
        name: _RampTex
      second:
        m_Texture: {fileID: 0}
        m_Scale: {x: 1, y: 1}
        m_Offset: {x: 0, y: 0}
    - first:
        name: _UpAlbedo
      second:
        m_Texture: {fileID: 2800000, guid: b967ba89ed3cf3d438902fd36418b0da, type: 3}
        m_Scale: {x: 1, y: 1}
        m_Offset: {x: 0, y: 0}
    - first:
        name: _UpNormal
      second:
        m_Texture: {fileID: 2800000, guid: 55bab01f20ade224eb50e252e7bf1816, type: 3}
        m_Scale: {x: 1, y: 1}
        m_Offset: {x: 0, y: 0}
    m_Floats:
    - first:
        name: _BumpScale
      second: 1
    - first:
        name: _Cutoff
      second: 0.5
    - first:
        name: _CutoffIntensity
      second: 0.5
    - first:
        name: _DetailNormalMapScale
      second: 1
    - first:
        name: _DstBlend
      second: 0
    - first:
        name: _GameTime
      second: 0
    - first:
        name: _Glossiness
      second: 0.5
    - first:
        name: _GradIntensity
      second: 0.3
    - first:
        name: _GradYCap
      second: 1
    - first:
        name: _HighIntensity
      second: 1
    - first:
        name: _InvertAxis
      second: 0
    - first:
        name: _InvertDepth
      second: 0
    - first:
        name: _LightScalar
      second: 1
    - first:
        name: _LowIntensity
      second: 0
    - first:
        name: _Metallic
      second: 0
    - first:
        name: _Mode
      second: 0
    - first:
        name: _OcclusionStrenght
      second: 1
    - first:
        name: _OcclusionStrength
      second: 0.45
    - first:
        name: _Parallax
      second: 0.02
    - first:
        name: _RampIntensity
      second: 0.3
    - first:
        name: _RampLevels
      second: 2
    - first:
        name: _RimPower
      second: 1
    - first:
        name: _RimScalar
      second: 1.4
    - first:
        name: _SrcBlend
      second: 1
    - first:
        name: _TopBottom
      second: -0.31
    - first:
        name: _TopBottomMult
      second: 1.78
    - first:
        name: _TopBottomSmooth
      second: 15.75
    - first:
        name: _UVMasterTiling
      second: 1
    - first:
        name: _UVSec
      second: 0
    - first:
        name: _UpAlbPower
      second: 1
    - first:
        name: _UpGloss
      second: 0
    - first:
        name: _UpMetallic
      second: 0
    - first:
        name: _UseLocalNormals
      second: 1
    - first:
        name: _WindScalar
      second: 1
    - first:
        name: _ZWrite
      second: 1
    m_Colors:
    - first:
        name: _Color
      second: {r: 1, g: 1, b: 1, a: 1}
    - first:
        name: _EmissionColor
      second: {r: 0, g: 0, b: 0, a: 1}
    - first:
        name: _HighColor
      second: {r: 1, g: 1, b: 1, a: 1}
    - first:
        name: _LowColor
      second: {r: 1, g: 1, b: 1, a: 1}
    - first:
        name: _UpColor
      second: {r: 1, g: 1, b: 1, a: 1}
