%YAML 1.1
%TAG !u! tag:unity3d.com,2011:
--- !u!114 &11400000
MonoBehaviour:
  m_ObjectHideFlags: 0
  m_PrefabParentObject: {fileID: 0}
  m_PrefabInternal: {fileID: 0}
  m_GameObject: {fileID: 0}
  m_Enabled: 1
  m_EditorHideFlags: 0
  m_Script: {fileID: 1268376496, guid: 34a7c8ca992f915438a96c2077353778, type: 3}
  m_Name: AllyWaitTreeV2
  m_EditorClassIdentifier: 
  brickName: Assets/BehaviorTree/AllyWaitTreeV2.asset
  xml: "\uFEFF<?xml version=\"1.0\" encoding=\"utf-8\"?>\r\n<BehaviorBricks xmlns:ref=\"urn:padaone\"
    version=\"1.0\">\r\n  <BehaviorTree id=\"0\" />\r\n  <runtimeInfo>\r\n    <BehaviorTree
    id=\"0\" guid=\"8b7df8ec421087540bc367cfb2ede9a5\" nextId=\"83\">\r\n      <root>\r\n
    \       <SelectorNode id=\"2\" />\r\n      </root>\r\n      <inputParams />\r\n
    \     <outputParams />\r\n      <localParams />\r\n    </BehaviorTree>\r\n    <SelectorNode
    id=\"2\">\r\n      <children>\r\n        <elem>\r\n          <DecoratorGuard id=\"76\"
    />\r\n        </elem>\r\n        <elem>\r\n          <DecoratorGuard id=\"67\"
    />\r\n        </elem>\r\n        <elem>\r\n          <DecoratorGuard id=\"81\"
    />\r\n        </elem>\r\n      </children>\r\n      <inputParams />\r\n      <outputParams
    />\r\n      <localParams />\r\n    </SelectorNode>\r\n    <DecoratorGuard id=\"76\">\r\n
    \     <guard>\r\n        <ConditionEvalNode id=\"77\" />\r\n      </guard>\r\n
    \     <child>\r\n        <ActionNode id=\"75\" />\r\n      </child>\r\n      <inputParams
    />\r\n      <outputParams />\r\n      <localParams />\r\n    </DecoratorGuard>\r\n
    \   <DecoratorGuard id=\"67\">\r\n      <guard>\r\n        <ConditionEvalNode
    id=\"68\" />\r\n      </guard>\r\n      <child>\r\n        <SelectorNode id=\"12\"
    />\r\n      </child>\r\n      <inputParams />\r\n      <outputParams />\r\n      <localParams
    />\r\n    </DecoratorGuard>\r\n    <DecoratorGuard id=\"81\">\r\n      <guard>\r\n
    \       <ConditionEvalNode id=\"82\" />\r\n      </guard>\r\n      <child>\r\n
    \       <ActionNode id=\"80\" />\r\n      </child>\r\n      <inputParams />\r\n
    \     <outputParams />\r\n      <localParams />\r\n    </DecoratorGuard>\r\n    <ConditionEvalNode
    id=\"77\" policy=\"WAIT_UNTIL_FALSE_AND_FAIL\" name=\"Custom/AllySpecific/NotWithinFarWaitRadius\">\r\n
    \     <inputParams />\r\n      <outputParams />\r\n      <localParams />\r\n    </ConditionEvalNode>\r\n
    \   <ActionNode id=\"75\" action=\"Custom/Movement/MoveToGoToPos\">\r\n      <inputParams
    />\r\n      <outputParams />\r\n      <localParams />\r\n    </ActionNode>\r\n
    \   <ConditionEvalNode id=\"68\" policy=\"WAIT_UNTIL_FALSE_AND_FAIL\" name=\"Custom/AllySpecific/AllyAmIThreatened\">\r\n
    \     <inputParams />\r\n      <outputParams />\r\n      <localParams />\r\n    </ConditionEvalNode>\r\n
    \   <SelectorNode id=\"12\">\r\n      <children>\r\n        <elem>\r\n          <DecoratorGuard
    id=\"18\" />\r\n        </elem>\r\n        <elem>\r\n          <ActionNode id=\"24\"
    />\r\n        </elem>\r\n      </children>\r\n      <inputParams />\r\n      <outputParams
    />\r\n      <localParams />\r\n    </SelectorNode>\r\n    <ConditionEvalNode id=\"82\"
    policy=\"WAIT_UNTIL_FALSE_AND_FAIL\" name=\"Custom/AllySpecific/NotNearWaitPos\">\r\n
    \     <inputParams />\r\n      <outputParams />\r\n      <localParams />\r\n    </ConditionEvalNode>\r\n
    \   <ActionNode id=\"80\" action=\"Custom/Movement/MoveToGoToPos\">\r\n      <inputParams
    />\r\n      <outputParams />\r\n      <localParams />\r\n    </ActionNode>\r\n
    \   <DecoratorGuard id=\"18\">\r\n      <guard>\r\n        <ConditionEvalNode
    id=\"19\" />\r\n      </guard>\r\n      <child>\r\n        <SequenceNode id=\"17\"
    />\r\n      </child>\r\n      <inputParams />\r\n      <outputParams />\r\n      <localParams
    />\r\n    </DecoratorGuard>\r\n    <ActionNode id=\"24\" action=\"Custom/Movement/MoveToNearestVisibleEnemy\">\r\n
    \     <inputParams />\r\n      <outputParams />\r\n      <localParams />\r\n    </ActionNode>\r\n
    \   <ConditionEvalNode id=\"19\" policy=\"WAIT_UNTIL_FALSE_AND_FAIL\" name=\"Custom/DistanceAndLOS/TargetInAttackRange\">\r\n
    \     <inputParams />\r\n      <outputParams />\r\n      <localParams />\r\n    </ConditionEvalNode>\r\n
    \   <SequenceNode id=\"17\">\r\n      <children>\r\n        <elem>\r\n          <ActionNode
    id=\"21\" />\r\n        </elem>\r\n        <elem>\r\n          <ActionNode id=\"58\"
    />\r\n        </elem>\r\n        <elem>\r\n          <ActionNode id=\"22\" />\r\n
    \       </elem>\r\n      </children>\r\n      <inputParams />\r\n      <outputParams
    />\r\n      <localParams />\r\n    </SequenceNode>\r\n    <ActionNode id=\"21\"
    action=\"Custom/Movement/DontMove\">\r\n      <inputParams />\r\n      <outputParams
    />\r\n      <localParams />\r\n    </ActionNode>\r\n    <ActionNode id=\"58\"
    action=\"Custom/Movement/rotateTowardsNearestEnemy\">\r\n      <inputParams />\r\n
    \     <outputParams />\r\n      <localParams />\r\n    </ActionNode>\r\n    <ActionNode
    id=\"22\" action=\"Custom/Attack/AllyAttack\">\r\n      <inputParams />\r\n      <outputParams
    />\r\n      <localParams />\r\n    </ActionNode>\r\n  </runtimeInfo>\r\n  <editorInfo>\r\n
    \   <BehaviorTree id=\"0\" _name=\"AllyWaitTreeV2\" _removeIfClosed=\"False\">\r\n
    \     <_rootList>\r\n        <elem>\r\n          <SelectorNode id=\"2\" />\r\n
    \       </elem>\r\n      </_rootList>\r\n      <_nodes>\r\n        <nodes>\r\n
    \         <SelectorNode id=\"2\" />\r\n          <ActionNode id=\"80\" />\r\n
    \         <ActionNode id=\"21\" />\r\n          <SelectorNode id=\"12\" />\r\n
    \         <SequenceNode id=\"17\" />\r\n          <DecoratorGuard id=\"18\" />\r\n
    \         <ActionNode id=\"22\" />\r\n          <ActionNode id=\"24\" />\r\n          <ActionNode
    id=\"75\" />\r\n          <ActionNode id=\"58\" />\r\n          <DecoratorGuard
    id=\"76\" />\r\n          <DecoratorGuard id=\"67\" />\r\n          <DecoratorGuard
    id=\"81\" />\r\n        </nodes>\r\n      </_nodes>\r\n      <_selectedNode>\r\n
    \       <DecoratorGuard id=\"81\" />\r\n      </_selectedNode>\r\n    </BehaviorTree>\r\n
    \   <SelectorNode id=\"2\">\r\n      <_data>\r\n        <data selected=\"False\"
    position=\"806 7\" name=\"Selector\" description=\"Executes all its children until
    one of them is successful\" cardinality=\"-1\" hasParent=\"False\">\r\n          <BehaviorTree
    id=\"0\" />\r\n          <SelectorNode id=\"2\" />\r\n        </data>\r\n      </_data>\r\n
    \   </SelectorNode>\r\n    <DecoratorGuard id=\"76\">\r\n      <_data>\r\n        <data
    selected=\"False\" position=\"540 183\" name=\"Custom/AllySpecific/NotWithinFarWaitRadius\"
    description=\"Checks if the monster is notwithin half of farFollowDistance of
    their waitPos\" cardinality=\"1\" hasParent=\"True\">\r\n          <BehaviorTree
    id=\"0\" />\r\n          <DecoratorGuard id=\"76\" />\r\n          <SelectorNode
    id=\"2\" />\r\n        </data>\r\n      </_data>\r\n    </DecoratorGuard>\r\n
    \   <DecoratorGuard id=\"67\">\r\n      <_data>\r\n        <data selected=\"False\"
    position=\"768 229\" name=\"Custom/AllySpecific/AllyAmIThreatened\" description=\"checks
    if an enemy is within this allys threatRange\" cardinality=\"1\" hasParent=\"True\">\r\n
    \         <BehaviorTree id=\"0\" />\r\n          <DecoratorGuard id=\"67\" />\r\n
    \         <SelectorNode id=\"2\" />\r\n        </data>\r\n      </_data>\r\n    </DecoratorGuard>\r\n
    \   <DecoratorGuard id=\"81\">\r\n      <_data>\r\n        <data selected=\"True\"
    position=\"953 233\" name=\"Custom/AllySpecific/NotNearWaitPos\" description=\"Checks
    if the monster is notwithin IndividualFollowRadius of their waitPos\" cardinality=\"1\"
    hasParent=\"True\">\r\n          <BehaviorTree id=\"0\" />\r\n          <DecoratorGuard
    id=\"81\" />\r\n          <SelectorNode id=\"2\" />\r\n        </data>\r\n      </_data>\r\n
    \   </DecoratorGuard>\r\n    <ConditionEvalNode id=\"77\">\r\n      <_data>\r\n
    \       <data selected=\"False\" position=\"0 0\" name=\"DecoratorGuard\" description=\"Description\"
    cardinality=\"1\" hasParent=\"False\">\r\n          <BehaviorTree id=\"63\" />\r\n
    \         <ConditionEvalNode id=\"77\" />\r\n        </data>\r\n      </_data>\r\n
    \   </ConditionEvalNode>\r\n    <ActionNode id=\"75\">\r\n      <_data>\r\n        <data
    selected=\"False\" position=\"503 414\" name=\"Custom/Movement/MoveToGoToPos\"
    description=\"Moves the monster to a their myGoToPos\" cardinality=\"0\" hasParent=\"True\">\r\n
    \         <BehaviorTree id=\"0\" />\r\n          <ActionNode id=\"75\" />\r\n
    \         <DecoratorGuard id=\"76\" />\r\n        </data>\r\n      </_data>\r\n
    \   </ActionNode>\r\n    <ConditionEvalNode id=\"68\">\r\n      <_data>\r\n        <data
    selected=\"False\" position=\"0 0\" name=\"DecoratorGuard\" description=\"Description\"
    cardinality=\"1\" hasParent=\"False\">\r\n          <BehaviorTree id=\"68\" />\r\n
    \       </data>\r\n      </_data>\r\n    </ConditionEvalNode>\r\n    <SelectorNode
    id=\"12\">\r\n      <_data>\r\n        <data selected=\"False\" position=\"719
    393\" name=\"Selector\" description=\"Executes all its children until one of them
    is successful\" cardinality=\"-1\" hasParent=\"True\">\r\n          <BehaviorTree
    id=\"0\" />\r\n          <SelectorNode id=\"12\" />\r\n          <DecoratorGuard
    id=\"67\" />\r\n        </data>\r\n      </_data>\r\n    </SelectorNode>\r\n    <ConditionEvalNode
    id=\"82\">\r\n      <_data>\r\n        <data selected=\"False\" position=\"0 0\"
    name=\"DecoratorGuard\" description=\"Description\" cardinality=\"1\" hasParent=\"False\">\r\n
    \         <BehaviorTree id=\"72\" />\r\n          <ConditionEvalNode id=\"82\"
    />\r\n        </data>\r\n      </_data>\r\n    </ConditionEvalNode>\r\n    <ActionNode
    id=\"80\">\r\n      <_data>\r\n        <data selected=\"False\" position=\"978
    394\" name=\"Custom/Movement/MoveToGoToPos\" description=\"Moves the monster to
    a their myGoToPos\" cardinality=\"0\" hasParent=\"True\">\r\n          <BehaviorTree
    id=\"0\" />\r\n          <ActionNode id=\"80\" />\r\n          <DecoratorGuard
    id=\"81\" />\r\n        </data>\r\n      </_data>\r\n    </ActionNode>\r\n    <DecoratorGuard
    id=\"18\">\r\n      <_data>\r\n        <data selected=\"False\" position=\"656
    577\" name=\"Custom/DistanceAndLOS/TargetInAttackRange\" description=\"checks
    if an enemy is within the minions attackRange\" cardinality=\"1\" hasParent=\"True\">\r\n
    \         <BehaviorTree id=\"0\" />\r\n          <DecoratorGuard id=\"18\" />\r\n
    \         <SelectorNode id=\"12\" />\r\n        </data>\r\n      </_data>\r\n
    \   </DecoratorGuard>\r\n    <ActionNode id=\"24\">\r\n      <_data>\r\n        <data
    selected=\"False\" position=\"945 565.65\" name=\"Custom/Movement/MoveToNearestVisibleEnemy\"
    description=\"Moves the monster towards the nearest enemy position\" cardinality=\"0\"
    hasParent=\"True\">\r\n          <BehaviorTree id=\"0\" />\r\n          <ActionNode
    id=\"24\" />\r\n          <SelectorNode id=\"12\" />\r\n        </data>\r\n      </_data>\r\n
    \   </ActionNode>\r\n    <ConditionEvalNode id=\"19\">\r\n      <_data>\r\n        <data
    selected=\"False\" position=\"0 0\" name=\"DecoratorGuard\" description=\"Description\"
    cardinality=\"1\" hasParent=\"False\">\r\n          <BehaviorTree id=\"19\" />\r\n
    \       </data>\r\n      </_data>\r\n    </ConditionEvalNode>\r\n    <SequenceNode
    id=\"17\">\r\n      <_data>\r\n        <data selected=\"False\" position=\"596
    729.5\" name=\"Sequence\" description=\"Executes all its children in sequence
    until all of them are successful\" cardinality=\"-1\" hasParent=\"True\">\r\n
    \         <BehaviorTree id=\"0\" />\r\n          <SequenceNode id=\"17\" />\r\n
    \         <DecoratorGuard id=\"18\" />\r\n        </data>\r\n      </_data>\r\n
    \   </SequenceNode>\r\n    <ActionNode id=\"21\">\r\n      <_data>\r\n        <data
    selected=\"False\" position=\"486 909\" name=\"Custom/Movement/DontMove\" description=\"Tells
    the character not to move until DoMove node is reached.\" cardinality=\"0\" hasParent=\"True\">\r\n
    \         <BehaviorTree id=\"0\" />\r\n          <ActionNode id=\"21\" />\r\n
    \         <SequenceNode id=\"17\" />\r\n        </data>\r\n      </_data>\r\n
    \   </ActionNode>\r\n    <ActionNode id=\"58\">\r\n      <_data>\r\n        <data
    selected=\"False\" position=\"618 924.65\" name=\"Custom/Movement/rotateTowardsNearestEnemy\"
    description=\"Tells the character to rotate towards the nearest enemy\" cardinality=\"0\"
    hasParent=\"True\">\r\n          <BehaviorTree id=\"0\" />\r\n          <ActionNode
    id=\"58\" />\r\n          <SequenceNode id=\"17\" />\r\n        </data>\r\n      </_data>\r\n
    \   </ActionNode>\r\n    <ActionNode id=\"22\">\r\n      <_data>\r\n        <data
    selected=\"False\" position=\"762 919\" name=\"Custom/Attack/AllyAttack\" description=\"attack
    action for allied monsters. attacks nearest enemy, assumes it is within attackRange\"
    cardinality=\"0\" hasParent=\"True\">\r\n          <BehaviorTree id=\"0\" />\r\n
    \         <ActionNode id=\"22\" />\r\n          <SequenceNode id=\"17\" />\r\n
    \       </data>\r\n      </_data>\r\n    </ActionNode>\r\n  </editorInfo>\r\n
    \ <runtimeInfo>\r\n    <BehaviorTree id=\"63\" nextId=\"1\">\r\n      <inputParams
    />\r\n      <outputParams />\r\n      <localParams />\r\n    </BehaviorTree>\r\n
    \   <BehaviorTree id=\"68\" nextId=\"1\">\r\n      <inputParams />\r\n      <outputParams
    />\r\n      <localParams />\r\n    </BehaviorTree>\r\n    <BehaviorTree id=\"72\"
    nextId=\"1\">\r\n      <inputParams />\r\n      <outputParams />\r\n      <localParams
    />\r\n    </BehaviorTree>\r\n    <BehaviorTree id=\"19\" nextId=\"1\">\r\n      <inputParams
    />\r\n      <outputParams />\r\n      <localParams />\r\n    </BehaviorTree>\r\n
    \ </runtimeInfo>\r\n  <editorInfo>\r\n    <BehaviorTree id=\"63\" _removeIfClosed=\"False\">\r\n
    \     <_rootList />\r\n      <_nodes>\r\n        <nodes />\r\n      </_nodes>\r\n
    \   </BehaviorTree>\r\n    <BehaviorTree id=\"68\" _removeIfClosed=\"False\">\r\n
    \     <_rootList />\r\n      <_nodes>\r\n        <nodes />\r\n      </_nodes>\r\n
    \   </BehaviorTree>\r\n    <BehaviorTree id=\"72\" _removeIfClosed=\"False\">\r\n
    \     <_rootList />\r\n      <_nodes>\r\n        <nodes />\r\n      </_nodes>\r\n
    \   </BehaviorTree>\r\n    <BehaviorTree id=\"19\" _removeIfClosed=\"False\">\r\n
    \     <_rootList />\r\n      <_nodes>\r\n        <nodes />\r\n      </_nodes>\r\n
    \   </BehaviorTree>\r\n  </editorInfo>\r\n</BehaviorBricks>"
  subslist: []
  _guid: 8b7df8ec421087540bc367cfb2ede9a5
