%YAML 1.1
%TAG !u! tag:unity3d.com,2011:
--- !u!114 &11400000
MonoBehaviour:
  m_ObjectHideFlags: 0
  m_PrefabParentObject: {fileID: 0}
  m_PrefabInternal: {fileID: 0}
  m_GameObject: {fileID: 0}
  m_Enabled: 1
  m_EditorHideFlags: 0
  m_Script: {fileID: 1268376496, guid: 34a7c8ca992f915438a96c2077353778, type: 3}
  m_Name: EnemyPatrolTree
  m_EditorClassIdentifier: 
  brickName: Assets/BehaviorTree/EnemyPatrolTree.asset
  xml: "\uFEFF<?xml version=\"1.0\" encoding=\"utf-8\"?>\r\n<BehaviorBricks xmlns:ref=\"urn:padaone\"
    version=\"1.0\">\r\n  <BehaviorTree id=\"0\" />\r\n  <runtimeInfo>\r\n    <BehaviorTree
    id=\"0\" guid=\"d378ca206869e3e4aa1e02cfabcaaf8b\" nextId=\"42\">\r\n      <root>\r\n
    \       <SelectorNode id=\"1\" />\r\n      </root>\r\n      <inputParams />\r\n
    \     <outputParams />\r\n      <localParams />\r\n    </BehaviorTree>\r\n    <SelectorNode
    id=\"1\">\r\n      <children>\r\n        <elem>\r\n          <DecoratorGuard id=\"40\"
    />\r\n        </elem>\r\n        <elem>\r\n          <ActionNode id=\"32\" />\r\n
    \       </elem>\r\n      </children>\r\n      <inputParams />\r\n      <outputParams
    />\r\n      <localParams />\r\n    </SelectorNode>\r\n    <DecoratorGuard id=\"40\">\r\n
    \     <guard>\r\n        <ConditionEvalNode id=\"41\" />\r\n      </guard>\r\n
    \     <child>\r\n        <ActionNode id=\"39\" />\r\n      </child>\r\n      <inputParams
    />\r\n      <outputParams />\r\n      <localParams />\r\n    </DecoratorGuard>\r\n
    \   <ActionNode id=\"32\" action=\"Custom/Movement/PatrolPath\">\r\n      <inputParams>\r\n
    \       <inputValues>\r\n          <entry name=\"PointsToPatrol\" type=\"System.Collections.Generic.List`1[[UnityEngine.Vector2,
    UnityEngine, Version=0.0.0.0, Culture=neutral, PublicKeyToken=null]]\" isBlackboard=\"False\"
    />\r\n        </inputValues>\r\n      </inputParams>\r\n      <outputParams />\r\n
    \     <localParams />\r\n    </ActionNode>\r\n    <ConditionEvalNode id=\"41\"
    policy=\"WAIT_UNTIL_FALSE_AND_FAIL\" name=\"Custom/DistanceAndLOS/AllyVisibleInThreatRange\">\r\n
    \     <inputParams />\r\n      <outputParams />\r\n      <localParams />\r\n    </ConditionEvalNode>\r\n
    \   <ActionNode id=\"39\" action=\"Custom/Other/SwitchTreeAttack\">\r\n      <inputParams
    />\r\n      <outputParams />\r\n      <localParams />\r\n    </ActionNode>\r\n
    \ </runtimeInfo>\r\n  <editorInfo>\r\n    <BehaviorTree id=\"0\" _name=\"EnemyPatrolTree\"
    _description=\"\" _removeIfClosed=\"False\">\r\n      <_rootList>\r\n        <elem>\r\n
    \         <SelectorNode id=\"1\" />\r\n        </elem>\r\n      </_rootList>\r\n
    \     <_nodes>\r\n        <nodes>\r\n          <SelectorNode id=\"1\" />\r\n          <ActionNode
    id=\"32\" />\r\n          <ActionNode id=\"39\" />\r\n          <DecoratorGuard
    id=\"40\" />\r\n        </nodes>\r\n      </_nodes>\r\n      <_selectedNode>\r\n
    \       <ActionNode id=\"32\" />\r\n      </_selectedNode>\r\n    </BehaviorTree>\r\n
    \   <SelectorNode id=\"1\">\r\n      <_data>\r\n        <data selected=\"False\"
    position=\"347 28\" name=\"Selector\" description=\"Executes all its children
    until one of them is successful\" cardinality=\"-1\" hasParent=\"False\">\r\n
    \         <BehaviorTree id=\"0\" />\r\n          <SelectorNode id=\"1\" />\r\n
    \       </data>\r\n      </_data>\r\n    </SelectorNode>\r\n    <DecoratorGuard
    id=\"40\">\r\n      <_data>\r\n        <data selected=\"False\" position=\"278
    179\" name=\"Custom/DistanceAndLOS/AllyVisibleInThreatRange\" description=\"checks
    if any allies (including twig) are visible and within the minions threatRange\"
    cardinality=\"1\" hasParent=\"True\">\r\n          <BehaviorTree id=\"0\" />\r\n
    \         <DecoratorGuard id=\"40\" />\r\n          <SelectorNode id=\"1\" />\r\n
    \       </data>\r\n      </_data>\r\n    </DecoratorGuard>\r\n    <ActionNode
    id=\"32\">\r\n      <_data>\r\n        <data selected=\"True\" position=\"552
    194\" name=\"Custom/Movement/PatrolPath\" description=\"Patrols between the points
    specified in patrolPoints.\" cardinality=\"0\" hasParent=\"True\">\r\n          <BehaviorTree
    id=\"0\" />\r\n          <ActionNode id=\"32\" />\r\n          <SelectorNode id=\"1\"
    />\r\n        </data>\r\n      </_data>\r\n    </ActionNode>\r\n    <ConditionEvalNode
    id=\"41\">\r\n      <_data>\r\n        <data selected=\"False\" position=\"0 0\"
    name=\"DecoratorGuard\" description=\"Description\" cardinality=\"1\" hasParent=\"False\">\r\n
    \         <BehaviorTree id=\"36\" />\r\n          <ConditionEvalNode id=\"41\"
    />\r\n        </data>\r\n      </_data>\r\n    </ConditionEvalNode>\r\n    <ActionNode
    id=\"39\">\r\n      <_data>\r\n        <data selected=\"False\" position=\"265
    316\" name=\"Custom/Other/SwitchTreeAttack\" description=\"switches to the monster
    attack tree\" cardinality=\"0\" hasParent=\"True\">\r\n          <BehaviorTree
    id=\"0\" />\r\n          <ActionNode id=\"39\" />\r\n          <DecoratorGuard
    id=\"40\" />\r\n        </data>\r\n      </_data>\r\n    </ActionNode>\r\n  </editorInfo>\r\n
    \ <runtimeInfo>\r\n    <BehaviorTree id=\"36\" nextId=\"1\">\r\n      <inputParams
    />\r\n      <outputParams />\r\n      <localParams />\r\n    </BehaviorTree>\r\n
    \ </runtimeInfo>\r\n  <editorInfo>\r\n    <BehaviorTree id=\"36\" _removeIfClosed=\"False\">\r\n
    \     <_rootList />\r\n      <_nodes>\r\n        <nodes />\r\n      </_nodes>\r\n
    \   </BehaviorTree>\r\n  </editorInfo>\r\n</BehaviorBricks>"
  subslist: []
  _guid: d378ca206869e3e4aa1e02cfabcaaf8b
