# Blender v2.78 (sub 0) OBJ File: ''
# www.blender.org
mtllib Thuja_BushTree_s_02.mtl
o Thuja_BushTree_s_02
v -0.291463 2.338980 -0.037609
v -0.229948 2.375060 -0.168067
v -0.371897 1.850766 -0.236438
v -0.606156 0.893650 -0.090605
v -0.459797 0.318133 -0.240834
v -0.497658 0.239149 0.114861
v -0.433433 0.884491 -0.444656
v -0.437201 1.757746 0.092467
v -0.526645 0.677582 0.401543
v -0.306421 1.457212 0.411836
v -0.139682 1.691744 -0.444768
v -0.138891 2.361256 -0.230418
v 0.001350 2.375015 -0.202107
v 0.212378 1.473795 -0.460233
v 0.190210 2.218719 -0.163095
v 0.400203 1.487542 -0.307704
v 0.133649 0.544220 -0.641387
v 0.247373 0.133438 -0.474847
v -0.129471 0.213710 -0.504704
v 0.561241 0.584057 -0.367237
v -0.223632 0.802040 -0.602883
v 0.435675 1.626272 -0.038732
v 0.189121 2.311806 0.022130
v 0.410048 1.538329 0.204488
v 0.127055 2.130974 0.216009
v 0.291012 1.416927 0.419076
v 0.661172 0.576725 0.128021
v 0.376852 0.051352 0.247241
v 0.549699 0.146145 -0.061560
v 0.398865 0.557879 0.567054
v 0.012316 1.408296 0.492147
v -0.017841 2.342867 0.154115
v -0.103343 0.424430 0.677030
v -0.240144 0.137808 0.529460
v 0.101154 0.071558 0.548938
v -0.430397 0.159497 0.403555
v -0.124640 -0.052420 0.007810
v -0.083710 -0.000935 -0.293742
v 0.298832 -0.004685 -0.125749
v -0.115469 -0.037813 0.321840
v 0.014103 2.544415 -0.030061
v -0.154144 2.539017 -0.079279
v -0.205086 2.348929 0.088954
v -0.200953 2.488501 -0.115803
v -0.272282 0.115033 -0.272544
v -0.109263 -0.050641 0.169529
v 0.091274 1.974972 -0.335125
v 0.099322 2.444562 -0.092754
v 0.288499 0.070765 -0.315739
v 0.351056 1.466907 0.333666
v 0.303208 1.831832 -0.244140
v -0.174774 0.025420 0.445887
v 0.438202 1.597495 0.085515
v -0.310261 0.259704 -0.385395
v 0.462116 0.210269 -0.265957
v -0.118189 -0.028311 -0.153171
v 0.197572 0.927856 0.579408
v 0.123306 -0.032643 0.291812
v 0.149930 0.458596 0.660145
v -0.394946 1.608932 0.266813
v -0.180053 2.365111 -0.208086
v -0.034841 0.881345 0.612607
v -0.264031 1.964674 0.235605
v 0.299637 1.978190 0.098478
v 0.457483 1.011118 0.388317
v -0.303129 0.051157 0.364264
v -0.499026 0.288496 -0.068757
v -0.173153 2.492732 -0.000212
v -0.349963 0.153459 0.463184
v 0.084149 2.420493 0.073198
v -0.355208 2.114854 0.008092
v -0.090573 2.504246 0.029435
v 0.544967 1.088048 -0.189682
v 0.019417 -0.008113 0.437441
v -0.047032 2.062200 -0.334128
v -0.001437 1.094937 -0.580133
v -0.332807 0.546118 0.570425
v 0.362709 0.542279 -0.545730
v -0.085254 2.369143 -0.222141
v -0.586878 0.528842 0.018495
v -0.152335 1.416247 0.472933
v -0.503492 1.381317 -0.183102
v -0.237384 0.906009 0.570626
v 0.055903 2.263142 0.185016
v 0.411598 0.290401 -0.447618
v -0.423478 1.821656 -0.079745
v 0.347785 1.053897 0.498414
v -0.187072 0.236629 0.614567
v 0.192911 2.304990 -0.064364
v -0.538086 1.332288 0.012621
v 0.222407 0.281468 -0.574579
v -0.325400 2.072960 0.113682
v 0.648417 0.594539 -0.117911
v -0.325236 0.103726 -0.117043
v 0.434784 0.251053 0.429946
v -0.191408 1.144132 -0.556970
v -0.260919 2.356519 0.025939
v 0.564075 0.268920 0.217351
v 0.199833 1.904071 -0.312981
v 0.453595 0.074829 -0.087895
v 0.256858 0.234454 0.582494
v 0.194535 0.987027 -0.567066
v -0.264420 2.383602 -0.103929
v -0.112602 0.079024 -0.403084
v -0.332274 0.067781 0.052347
v 0.097182 2.312690 -0.189852
v 0.095777 -0.034390 -0.212966
v 0.583063 0.296360 -0.191759
v 0.560688 0.552966 0.355927
v -0.074380 2.513651 -0.130032
v 0.099171 -0.062971 -0.042837
v -0.386955 0.353861 0.508615
v -0.275090 1.792209 -0.352424
v 0.553952 1.050713 0.195521
v 0.310789 2.020057 0.000643
v 0.003232 2.498683 0.050758
v 0.207564 1.764548 0.323761
v 0.246722 0.059403 0.428536
v -0.200852 2.104246 -0.295837
v 0.333740 -0.012857 0.055366
v 0.158334 2.257316 0.115276
v 0.089065 0.035108 -0.384607
v -0.307912 1.306699 -0.466433
v 0.575702 1.092443 0.027845
v -0.117221 2.347927 0.130076
v -0.558824 0.452406 0.248221
v 0.132627 -0.046799 0.129996
v -0.471576 0.566217 -0.353488
v 0.261967 1.910711 0.200295
v -0.032021 1.917566 0.324573
v -0.493951 0.351457 0.409500
v -0.183046 0.503266 -0.576310
v -0.075672 0.077512 0.551386
v 0.485383 1.120638 -0.345966
v -0.512538 1.225258 0.244739
v 0.023047 0.194527 0.642802
v -0.070047 0.684295 -0.630388
v -0.135662 2.138945 -0.314331
v -0.540275 0.909845 -0.283156
v -0.075844 2.555438 -0.051264
v -0.143407 2.476807 -0.157405
v 0.396468 0.988694 -0.466901
v 0.068258 0.132712 -0.508422
v 0.422665 1.554742 -0.193018
v 0.045012 1.568969 -0.474519
v -0.417084 1.369042 -0.350459
v 0.175752 1.403753 0.464073
v -0.161113 1.938105 0.291657
v 0.013433 0.316735 -0.600138
v -0.568810 0.578322 -0.179880
v -0.315864 0.054800 0.214423
v 0.067011 1.854918 0.343139
v -0.594287 0.816475 0.152227
v -0.465948 0.196317 0.288233
v 0.623877 0.298543 0.010903
v 0.307497 1.988184 -0.101224
v -0.285080 2.160994 -0.211938
v 0.011717 2.509981 -0.108754
v -0.424240 1.053939 0.435988
v -0.334541 2.149800 -0.119533
v -0.317501 0.849979 -0.540924
v 0.497024 0.094113 0.077829
v -0.313848 0.503927 -0.485305
v -0.225576 2.470818 -0.047024
v 0.333494 1.462817 -0.385349
v 0.100225 2.466696 -0.010986
vt 0.6706 0.6037
vt 0.6695 0.6047
vt 0.6678 0.5968
vt 0.6671 0.5494
vt 0.6650 0.5411
vt 0.6684 0.5390
vt 0.6649 0.5899
vt 0.6623 0.5696
vt 0.6660 0.5696
vt 0.6633 0.5494
vt 0.6722 0.5858
vt 0.6746 0.5644
vt 0.6763 0.5784
vt 0.6720 0.5462
vt 0.6565 0.5841
vt 0.6610 0.5944
vt 0.6604 0.5967
vt 0.6624 0.5949
vt 0.7311 0.5844
vt 0.7253 0.5983
vt 0.7283 0.5786
vt 0.7255 0.5728
vt 0.7212 0.5888
vt 0.7226 0.5733
vt 0.7311 0.5355
vt 0.7262 0.5311
vt 0.7295 0.5280
vt 0.7228 0.5568
vt 0.7283 0.5541
vt 0.7257 0.5382
vt 0.6581 0.5667
vt 0.6607 0.5870
vt 0.6463 0.5364
vt 0.6497 0.5303
vt 0.6505 0.5423
vt 0.7130 0.5819
vt 0.7149 0.5933
vt 0.7130 0.5949
vt 0.7107 0.5798
vt 0.7084 0.5777
vt 0.7081 0.5907
vt 0.7053 0.5748
vt 0.7099 0.5413
vt 0.7083 0.5340
vt 0.7111 0.5355
vt 0.7041 0.5588
vt 0.7092 0.5595
vt 0.7049 0.5406
vt 0.7166 0.5614
vt 0.7163 0.5778
vt 0.7150 0.5411
vt 0.6946 0.5733
vt 0.7012 0.5885
vt 0.7014 0.5931
vt 0.6908 0.5741
vt 0.6893 0.5320
vt 0.6903 0.5267
vt 0.6942 0.5283
vt 0.6805 0.5711
vt 0.6787 0.5570
vt 0.6838 0.5507
vt 0.6872 0.5302
vt 0.6821 0.5366
vt 0.6842 0.5265
vt 0.6973 0.5566
vt 0.6983 0.5725
vt 0.6946 0.5360
vt 0.6762 0.5254
vt 0.6766 0.5342
vt 0.6730 0.5271
vt 0.6658 0.5127
vt 0.6643 0.5228
vt 0.6618 0.5146
vt 0.7197 0.5150
vt 0.7204 0.5209
vt 0.7164 0.5193
vt 0.7132 0.5235
vt 0.7167 0.5322
vt 0.7127 0.5267
vt 0.7097 0.5127
vt 0.7082 0.5197
vt 0.7057 0.5143
vt 0.7067 0.5267
vt 0.7033 0.5333
vt 0.7030 0.5257
vt 0.7083 0.6128
vt 0.7081 0.6082
vt 0.7106 0.6103
vt 0.7149 0.6181
vt 0.7159 0.6114
vt 0.7172 0.6152
vt 0.6695 0.6089
vt 0.6689 0.6073
vt 0.6701 0.6063
vt 0.6643 0.6092
vt 0.6649 0.6070
vt 0.6669 0.6091
vt 0.6707 0.6132
vt 0.6719 0.6091
vt 0.6733 0.6109
vt 0.6714 0.5947
vt 0.6719 0.6044
vt 0.6727 0.5954
vt 0.6686 0.5878
vt 0.6697 0.5676
vt 0.7225 0.5925
vt 0.7311 0.5599
vt 0.6514 0.5603
vt 0.6556 0.5662
vt 0.6547 0.5482
vt 0.6539 0.5362
vt 0.6572 0.5488
vt 0.7107 0.5928
vt 0.7114 0.5616
vt 0.6782 0.5899
vt 0.6768 0.5881
vt 0.6919 0.5526
vt 0.6701 0.5127
vt 0.6678 0.5207
vt 0.7017 0.5160
vt 0.7004 0.5203
vt 0.6965 0.5187
vt 0.6812 0.5228
vt 0.6791 0.5329
vt 0.6787 0.5241
vt 0.6628 0.5328
vt 0.6612 0.5411
vt 0.6580 0.5286
vt 0.7147 0.5138
vt 0.7114 0.5181
vt 0.7238 0.5178
vt 0.7172 0.5251
vt 0.7042 0.5214
vt 0.7099 0.5251
vt 0.7116 0.6155
vt 0.7140 0.6129
vt 0.6675 0.6112
vt 0.6701 0.6111
vt 0.6675 0.6069
vt 0.6714 0.6070
vt 0.6745 0.5127
vt 0.6779 0.5178
vt 0.6753 0.5191
vt 0.6721 0.5207
vt 0.6579 0.5166
vt 0.6603 0.5247
vt 0.6556 0.5204
vt 0.6532 0.5243
vt 0.6697 0.5287
vt 0.6732 0.6051
vt 0.6669 0.6053
vt 0.6684 0.6058
vt 0.6655 0.6048
vt 0.7149 0.6063
vt 0.7169 0.6048
vt 0.7130 0.6078
vt 0.7095 0.5282
vt 0.7123 0.5298
vt 0.6992 0.5247
vt 0.7207 0.5338
vt 0.7202 0.5409
vt 0.7212 0.5267
vt 0.7246 0.5236
vt 0.7279 0.5205
vt 0.6564 0.5368
vt 0.6596 0.5493
vt 0.6662 0.5308
vt 0.6770 0.5430
vt 0.6952 0.5230
vt 0.6913 0.5214
vt 0.6999 0.5399
vt 0.6881 0.5534
vt 0.6869 0.5748
vt 0.6746 0.6069
vt 0.6760 0.6087
vt 0.7049 0.5877
vt 0.7078 0.6036
vt 0.7021 0.5718
vt 0.7010 0.5559
vt 0.7104 0.6057
vt 0.7183 0.5893
vt 0.7197 0.5738
vt 0.7199 0.5574
vt 0.7182 0.6085
vt 0.7195 0.6123
vt 0.6666 0.5978
vt 0.6995 0.5323
vt 0.7163 0.5353
vt 0.6733 0.5358
vt 0.6976 0.5938
vn -0.9301 0.3581 0.0819
vn -0.8733 0.3918 -0.2896
vn -0.9268 0.2695 -0.2616
vn -0.9904 0.0575 -0.1255
vn -0.9383 -0.1653 -0.3038
vn -0.9831 -0.1797 -0.0335
vn -0.8340 0.2380 -0.4978
vn -0.7732 0.1880 -0.6056
vn -0.9358 0.1893 -0.2973
vn -0.8934 0.0546 -0.4459
vn -0.9394 0.2515 0.2330
vn -0.9073 0.1869 0.3767
vn -0.7728 0.2707 0.5740
vn -0.9838 0.0458 0.1733
vn -0.1995 0.2573 -0.9455
vn -0.1651 0.3244 -0.9314
vn 0.1220 0.3156 -0.9410
vn -0.4822 0.2849 -0.8285
vn 0.1192 0.2512 -0.9606
vn 0.3738 0.2431 -0.8951
vn 0.5345 0.3298 -0.7782
vn 0.6107 0.2577 -0.7488
vn 0.1523 -0.0341 -0.9877
vn 0.3064 -0.3333 -0.8916
vn -0.1414 -0.3078 -0.9409
vn 0.5869 0.1497 -0.7957
vn 0.2999 0.1558 -0.9411
vn 0.5398 -0.0324 -0.8412
vn -0.5401 0.1963 -0.8184
vn -0.5549 0.2443 -0.7952
vn -0.1214 -0.0006 -0.9926
vn 0.9564 0.2801 -0.0827
vn 0.9081 0.3299 -0.2580
vn 0.9366 0.3456 0.0576
vn 0.9364 0.2857 0.2037
vn 0.8493 0.2866 0.4433
vn 0.7236 0.3402 0.6005
vn 0.7462 0.2939 0.5974
vn 0.9819 -0.0013 0.1893
vn 0.8556 -0.3818 0.3494
vn 0.9531 -0.3017 0.0235
vn 0.8010 0.1971 0.5653
vn 0.9190 0.2098 0.3338
vn 0.8613 -0.0295 0.5073
vn 0.9514 0.1976 -0.2360
vn 0.9194 0.2781 -0.2781
vn 0.9810 0.0192 -0.1931
vn 0.0330 0.2667 0.9632
vn 0.1790 0.3314 0.9263
vn -0.0694 0.3461 0.9356
vn -0.1992 0.2658 0.9432
vn -0.1817 -0.0274 0.9830
vn -0.3813 -0.3140 0.8695
vn 0.0478 -0.3722 0.9269
vn -0.4953 0.2697 0.8258
vn -0.6669 0.1797 0.7232
vn -0.3424 0.1695 0.9241
vn -0.5316 0.0130 0.8469
vn 0.2262 0.1866 0.9560
vn 0.2490 0.2745 0.9288
vn 0.2178 -0.0112 0.9759
vn -0.7317 -0.5445 0.4101
vn -0.8419 -0.2053 0.4991
vn -0.8417 -0.5356 0.0681
vn -0.2936 -0.9544 -0.0545
vn -0.6529 -0.7235 -0.2242
vn -0.3344 -0.9204 -0.2025
vn -0.2694 -0.8853 -0.3791
vn 0.0846 -0.8627 -0.4986
vn 0.1045 -0.9558 -0.2747
vn 0.3916 -0.8844 -0.2539
vn 0.6874 -0.5571 -0.4660
vn 0.5675 -0.7682 -0.2965
vn 0.1416 -0.9849 0.0996
vn -0.2153 -0.9754 0.0472
vn 0.5421 -0.7774 0.3192
vn 0.7172 -0.4060 0.5664
vn 0.4546 -0.7536 0.4748
vn -0.0013 0.4880 0.8729
vn 0.2717 0.4329 0.8596
vn 0.5278 0.5568 0.6414
vn 0.3592 0.9285 0.0945
vn 0.6917 0.5801 -0.4301
vn 0.3811 0.7218 -0.5777
vn -0.3812 0.9146 -0.1349
vn -0.6277 0.6363 -0.4486
vn -0.7812 0.6017 0.1665
vn 0.2799 0.4546 -0.8456
vn 0.1194 0.4471 -0.8865
vn 0.0694 0.7333 -0.6763
vn -0.2098 0.7224 0.6589
vn 0.1730 0.7224 0.6694
vn -0.9472 0.2845 0.1477
vn -0.7678 0.4238 0.4805
vn -0.7926 0.3230 0.5172
vn -0.9649 0.2288 -0.1290
vn -0.9820 0.1858 0.0344
vn 0.2970 0.3293 -0.8963
vn 0.0406 0.1735 -0.9840
vn -0.2656 0.1765 -0.9478
vn -0.3637 0.0139 -0.9314
vn -0.4249 -0.1955 -0.8839
vn -0.5832 0.0168 -0.8121
vn 0.8542 0.3452 0.3887
vn 0.9764 0.2151 0.0183
vn -0.2784 0.3497 0.8945
vn -0.5453 0.3456 0.7637
vn -0.0363 0.1841 0.9822
vn -0.6236 -0.7767 -0.0886
vn -0.1992 -0.9627 0.1831
vn 0.0594 -0.9107 0.4087
vn -0.3081 -0.8196 0.4831
vn -0.4462 -0.5313 0.7202
vn -0.6135 -0.1707 0.7710
vn -0.5309 -0.4971 0.6864
vn -0.7989 -0.4327 -0.4179
vn -0.7802 -0.1814 -0.5986
vn -0.6425 -0.4412 -0.6265
vn 0.0729 -0.9958 -0.0554
vn -0.3694 -0.7096 -0.6000
vn 0.4905 -0.7795 -0.3896
vn 0.2025 -0.9598 0.1944
vn 0.3781 -0.9240 0.0572
vn 0.7316 0.6638 0.1555
vn -0.0476 0.9981 0.0393
vn -0.2054 0.6057 -0.7687
vn -0.4814 0.6874 0.5439
vn -0.5183 -0.8212 0.2387
vn -0.5753 -0.8179 0.0079
vn -0.6171 -0.6830 -0.3908
vn -0.4210 -0.4595 -0.7820
vn -0.8610 -0.5071 -0.0384
vn -0.5165 0.4502 0.7284
vn -0.4694 0.3922 -0.7911
vn -0.6708 0.3819 -0.6357
vn -0.1705 0.4229 -0.8900
vn 0.8762 0.4405 -0.1954
vn 0.7452 0.3847 -0.5448
vn 0.8532 0.4532 0.2583
vn 0.7063 -0.6925 0.1468
vn 0.7733 -0.6018 -0.1996
vn 0.2272 -0.7012 0.6758
vn 0.6981 -0.3820 -0.6056
vn 0.8366 -0.0374 -0.5466
vn 0.3990 -0.6635 -0.6329
vn -0.0368 -0.6347 -0.7719
vn -0.6181 -0.2225 -0.7539
vn -0.7329 0.0272 -0.6798
vn -0.8596 -0.4744 -0.1899
vn -0.8385 0.0330 0.5439
vn -0.1636 -0.6821 0.7127
vn 0.5962 -0.0002 0.8028
vn -0.2769 0.4690 0.8387
vn 0.4959 0.3359 0.8008
vn 0.4776 0.3745 0.7948
vn 0.5248 0.2925 0.7994
vn 0.5425 0.2218 0.8103
vn 0.6733 0.4165 0.6109
vn 0.7846 0.3229 -0.5294
vn 0.8093 0.2782 -0.5174
vn 0.8286 0.1996 -0.5230
vn 0.4980 0.4235 -0.7567
vn -0.7315 0.2933 -0.6155
vn 0.4687 -0.3679 0.8031
vn 0.8367 -0.3537 -0.4181
vn -0.9694 -0.1783 0.1689
usemtl None
s 1
f 1/1/1 103/2/2 160/3/3
f 4/4/4 150/5/5 80/6/6
f 3/7/7 146/8/8 82/9/9
f 4/4/4 139/10/10 150/5/5
f 8/11/11 135/12/12 60/13/13
f 4/4/4 80/6/6 153/14/14
f 11/15/15 138/16/16 75/17/17
f 11/15/15 119/18/18 138/16/16
f 11/19/15 75/20/17 145/21/19
f 14/22/20 99/23/21 165/24/22
f 17/25/23 91/26/24 149/27/25
f 14/22/20 142/28/26 102/29/27
f 17/25/23 78/30/28 91/26/24
f 11/15/15 123/31/29 113/32/30
f 17/33/23 149/34/25 137/35/31
f 22/36/32 156/37/33 115/38/34
f 22/36/32 115/38/34 53/39/35
f 24/40/36 129/41/37 50/42/38
f 27/43/39 98/44/40 155/45/41
f 24/40/36 65/46/42 114/47/43
f 27/43/39 109/48/44 98/44/40
f 22/36/32 73/49/45 144/50/46
f 27/43/39 155/45/41 93/51/47
f 31/52/48 152/53/49 130/54/50
f 31/52/48 130/54/50 81/55/51
f 33/56/52 88/57/53 136/58/54
f 10/59/55 159/60/56 83/61/57
f 33/62/52 77/63/58 88/64/53
f 31/52/48 57/65/59 147/66/60
f 33/56/52 136/58/54 59/67/61
f 36/68/62 131/69/63 154/70/64
f 37/71/65 94/72/66 56/73/67
f 38/74/68 122/75/69 107/76/70
f 39/77/71 55/78/72 100/79/73
f 37/80/65 127/81/74 46/82/75
f 28/83/76 95/84/77 118/85/78
f 32/86/79 84/87/80 70/88/81
f 41/89/82 48/90/83 158/91/84
f 42/92/85 44/93/86 164/94/87
f 13/95/88 79/96/89 110/97/90
f 41/98/82 72/99/91 116/100/92
f 1/1/1 71/101/93 97/102/94
f 8/11/11 60/13/13 92/103/95
f 8/11/11 71/101/93 86/104/96
f 8/11/11 86/104/96 90/105/97
f 8/11/11 90/105/97 135/12/12
f 11/15/15 113/32/30 119/18/18
f 14/22/20 47/106/98 99/23/21
f 11/19/15 145/21/19 76/107/99
f 14/22/20 165/24/22 142/28/26
f 11/15/15 76/108/99 96/109/100
f 11/15/15 96/109/100 123/31/29
f 21/110/101 132/111/102 161/112/103
f 22/36/32 144/50/46 156/37/33
f 24/40/36 64/113/104 129/41/37
f 22/36/32 53/39/35 124/114/105
f 24/40/36 50/42/38 65/46/42
f 22/36/32 124/114/105 73/49/45
f 31/52/48 147/66/60 152/53/49
f 10/59/55 148/115/106 63/116/107
f 31/52/48 81/55/51 62/117/108
f 31/52/48 62/117/108 57/65/59
f 37/71/65 46/118/75 105/119/109
f 40/120/110 74/121/111 52/122/112
f 34/123/113 112/124/114 69/125/115
f 37/71/65 105/119/109 94/72/66
f 5/126/116 128/127/117 54/128/118
f 37/80/65 56/129/67 111/130/119
f 38/74/68 104/131/120 122/75/69
f 39/77/71 49/132/121 55/78/72
f 37/80/65 111/130/119 127/81/74
f 40/120/110 58/133/122 74/121/111
f 39/77/71 100/79/73 120/134/123
f 41/89/82 116/135/92 166/136/124
f 41/89/82 166/136/124 48/90/83
f 41/98/82 158/137/84 140/138/125
f 42/92/85 141/139/126 44/93/86
f 41/98/82 140/138/125 72/99/91
f 42/92/85 164/94/87 68/140/127
f 40/141/110 52/142/112 66/143/128
f 40/141/110 66/143/128 151/144/129
f 38/145/68 45/146/130 104/147/120
f 104/147/120 54/128/118 19/148/131
f 104/147/120 45/146/130 54/128/118
f 45/146/130 5/126/116 54/128/118
f 151/144/129 154/70/64 6/149/132
f 151/144/129 66/143/128 154/70/64
f 66/143/128 36/68/62 154/70/64
f 66/143/128 69/125/115 36/68/62
f 66/143/128 52/142/112 69/125/115
f 52/142/112 34/123/113 69/125/115
f 68/140/127 97/102/94 43/150/133
f 68/140/127 164/94/87 97/102/94
f 164/94/87 1/1/1 97/102/94
f 72/99/91 68/140/127 43/150/133
f 72/99/91 140/138/125 68/140/127
f 140/138/125 42/92/85 68/140/127
f 44/93/86 61/151/134 2/152/135
f 44/93/86 141/139/126 61/151/134
f 141/139/126 12/153/136 61/151/134
f 140/138/125 110/97/90 42/92/85
f 140/138/125 158/137/84 110/97/90
f 158/137/84 13/95/88 110/97/90
f 48/90/83 89/154/137 15/155/138
f 48/90/83 166/136/124 89/154/137
f 166/136/124 23/156/139 89/154/137
f 166/136/124 70/88/81 23/156/139
f 166/136/124 116/135/92 70/88/81
f 116/135/92 32/86/79 70/88/81
f 120/134/123 162/157/140 28/83/76
f 120/134/123 100/79/73 162/157/140
f 100/79/73 29/158/141 162/157/140
f 74/121/111 118/85/78 35/159/142
f 74/121/111 58/133/122 118/85/78
f 58/133/122 28/83/76 118/85/78
f 127/81/74 120/134/123 28/83/76
f 127/81/74 111/130/119 120/134/123
f 111/130/119 39/77/71 120/134/123
f 55/78/72 85/160/143 20/161/144
f 55/78/72 49/132/121 85/160/143
f 49/132/121 18/162/145 85/160/143
f 122/75/69 143/163/146 18/162/145
f 122/75/69 104/131/120 143/163/146
f 104/131/120 19/164/131 143/163/146
f 111/130/119 107/76/70 39/77/71
f 111/130/119 56/129/67 107/76/70
f 56/129/67 38/74/68 107/76/70
f 54/128/118 163/165/147 19/148/131
f 54/128/118 128/127/117 163/165/147
f 128/127/117 7/166/148 163/165/147
f 94/72/66 67/167/149 5/126/116
f 94/72/66 105/119/109 67/167/149
f 105/119/109 6/149/132 67/167/149
f 69/125/115 131/69/63 36/68/62
f 69/125/115 112/124/114 131/69/63
f 112/124/114 9/168/150 131/69/63
f 52/122/112 133/169/151 34/170/113
f 52/122/112 74/121/111 133/169/151
f 74/121/111 35/159/142 133/169/151
f 105/119/109 151/144/129 6/149/132
f 105/119/109 46/118/75 151/144/129
f 46/118/75 40/141/110 151/144/129
f 57/65/59 59/67/61 30/171/152
f 57/65/59 62/117/108 59/67/61
f 62/117/108 33/56/52 59/67/61
f 62/117/108 83/172/57 33/56/52
f 62/117/108 81/55/51 83/172/57
f 81/55/51 10/173/55 83/172/57
f 63/116/107 125/174/153 43/150/133
f 63/116/107 148/115/106 125/174/153
f 148/115/106 32/175/79 125/174/153
f 152/53/49 117/176/154 25/177/155
f 152/53/49 147/66/60 117/176/154
f 147/66/60 26/178/156 117/176/154
f 73/49/45 93/51/47 20/161/144
f 73/49/45 124/114/105 93/51/47
f 124/114/105 27/43/39 93/51/47
f 65/46/42 87/179/157 30/171/152
f 65/46/42 50/42/38 87/179/157
f 50/42/38 26/178/156 87/179/157
f 124/114/105 114/47/43 27/43/39
f 124/114/105 53/39/35 114/47/43
f 53/39/35 24/40/36 114/47/43
f 129/41/37 121/180/158 25/177/155
f 129/41/37 64/113/104 121/180/158
f 64/113/104 23/156/139 121/180/158
f 156/37/33 51/181/159 15/155/138
f 156/37/33 144/50/46 51/181/159
f 144/50/46 16/182/160 51/181/159
f 161/112/103 163/165/147 7/166/148
f 161/112/103 132/111/102 163/165/147
f 132/111/102 19/148/131 163/165/147
f 123/31/29 161/112/103 7/166/148
f 123/31/29 96/109/100 161/112/103
f 96/109/100 21/110/101 161/112/103
f 96/109/100 137/35/31 21/110/101
f 96/109/100 76/108/99 137/35/31
f 76/108/99 17/33/23 137/35/31
f 142/28/26 134/183/161 20/161/144
f 142/28/26 165/24/22 134/183/161
f 165/24/22 16/182/160 134/183/161
f 76/107/99 102/29/27 17/25/23
f 76/107/99 145/21/19 102/29/27
f 145/21/19 14/22/20 102/29/27
f 99/23/21 106/184/162 15/155/138
f 99/23/21 47/106/98 106/184/162
f 47/106/98 13/185/88 106/184/162
f 119/18/18 157/186/163 2/152/135
f 119/18/18 113/32/30 157/186/163
f 113/32/30 3/7/7 157/186/163
f 135/12/12 153/14/14 9/168/150
f 135/12/12 90/105/97 153/14/14
f 90/105/97 4/4/4 153/14/14
f 90/105/97 82/9/9 4/4/4
f 90/105/97 86/104/96 82/9/9
f 86/104/96 3/7/7 82/9/9
f 86/104/96 160/3/3 3/7/7
f 86/104/96 71/101/93 160/3/3
f 71/101/93 1/1/1 160/3/3
f 92/103/95 63/116/107 43/150/133
f 92/103/95 60/13/13 63/116/107
f 60/13/13 10/59/55 63/116/107
f 97/102/94 92/103/95 43/150/133
f 97/102/94 71/101/93 92/103/95
f 71/101/93 8/11/11 92/103/95
f 116/100/92 125/174/153 32/175/79
f 116/100/92 72/99/91 125/174/153
f 72/99/91 43/150/133 125/174/153
f 110/97/90 141/139/126 42/92/85
f 110/97/90 79/96/89 141/139/126
f 79/96/89 12/153/136 141/139/126
f 164/94/87 103/2/2 1/1/1
f 164/94/87 44/93/86 103/2/2
f 44/93/86 2/152/135 103/2/2
f 158/91/84 106/184/162 13/185/88
f 158/91/84 48/90/83 106/184/162
f 48/90/83 15/155/138 106/184/162
f 70/88/81 121/180/158 23/156/139
f 70/88/81 84/87/80 121/180/158
f 84/87/80 25/177/155 121/180/158
f 118/85/78 101/187/164 35/159/142
f 118/85/78 95/84/77 101/187/164
f 95/84/77 30/171/152 101/187/164
f 46/82/75 58/133/122 40/120/110
f 46/82/75 127/81/74 58/133/122
f 127/81/74 28/83/76 58/133/122
f 100/79/73 108/188/165 29/158/141
f 100/79/73 55/78/72 108/188/165
f 55/78/72 20/161/144 108/188/165
f 107/76/70 49/132/121 39/77/71
f 107/76/70 122/75/69 49/132/121
f 122/75/69 18/162/145 49/132/121
f 56/73/67 45/146/130 38/145/68
f 56/73/67 94/72/66 45/146/130
f 94/72/66 5/126/116 45/146/130
f 154/70/64 126/189/166 6/149/132
f 154/70/64 131/69/63 126/189/166
f 131/69/63 9/168/150 126/189/166
f 59/67/61 101/187/164 30/171/152
f 59/67/61 136/58/54 101/187/164
f 136/58/54 35/159/142 101/187/164
f 147/66/60 87/179/157 26/178/156
f 147/66/60 57/65/59 87/179/157
f 57/65/59 30/171/152 87/179/157
f 88/64/53 112/124/114 34/123/113
f 88/64/53 77/63/58 112/124/114
f 77/63/58 9/168/150 112/124/114
f 83/61/57 77/63/58 33/62/52
f 83/61/57 159/60/56 77/63/58
f 159/60/56 9/168/150 77/63/58
f 136/58/54 133/169/151 35/159/142
f 136/58/54 88/57/53 133/169/151
f 88/57/53 34/170/113 133/169/151
f 81/55/51 148/190/106 10/173/55
f 81/55/51 130/54/50 148/190/106
f 130/54/50 32/86/79 148/190/106
f 130/54/50 84/87/80 32/86/79
f 130/54/50 152/53/49 84/87/80
f 152/53/49 25/177/155 84/87/80
f 93/51/47 108/188/165 20/161/144
f 93/51/47 155/45/41 108/188/165
f 155/45/41 29/158/141 108/188/165
f 144/50/46 134/183/161 16/182/160
f 144/50/46 73/49/45 134/183/161
f 73/49/45 20/161/144 134/183/161
f 98/44/40 95/84/77 28/83/76
f 98/44/40 109/48/44 95/84/77
f 109/48/44 30/171/152 95/84/77
f 114/47/43 109/48/44 27/43/39
f 114/47/43 65/46/42 109/48/44
f 65/46/42 30/171/152 109/48/44
f 155/45/41 162/157/140 29/158/141
f 155/45/41 98/44/40 162/157/140
f 98/44/40 28/83/76 162/157/140
f 50/42/38 117/176/154 26/178/156
f 50/42/38 129/41/37 117/176/154
f 129/41/37 25/177/155 117/176/154
f 53/39/35 64/113/104 24/40/36
f 53/39/35 115/38/34 64/113/104
f 115/38/34 23/156/139 64/113/104
f 115/38/34 89/154/137 23/156/139
f 115/38/34 156/37/33 89/154/137
f 156/37/33 15/155/138 89/154/137
f 137/35/31 132/111/102 21/110/101
f 137/35/31 149/34/25 132/111/102
f 149/34/25 19/148/131 132/111/102
f 113/32/30 146/8/8 3/7/7
f 113/32/30 123/31/29 146/8/8
f 123/31/29 7/166/148 146/8/8
f 91/26/24 85/160/143 18/162/145
f 91/26/24 78/30/28 85/160/143
f 78/30/28 20/161/144 85/160/143
f 102/29/27 78/30/28 17/25/23
f 102/29/27 142/28/26 78/30/28
f 142/28/26 20/161/144 78/30/28
f 149/27/25 143/163/146 19/164/131
f 149/27/25 91/26/24 143/163/146
f 91/26/24 18/162/145 143/163/146
f 165/24/22 51/181/159 16/182/160
f 165/24/22 99/23/21 51/181/159
f 99/23/21 15/155/138 51/181/159
f 145/21/19 47/106/98 14/22/20
f 145/21/19 75/20/17 47/106/98
f 75/20/17 13/185/88 47/106/98
f 138/16/16 61/151/134 12/153/136
f 138/16/16 119/18/18 61/151/134
f 119/18/18 2/152/135 61/151/134
f 75/17/17 79/96/89 13/95/88
f 75/17/17 138/16/16 79/96/89
f 138/16/16 12/153/136 79/96/89
f 153/14/14 126/189/166 9/168/150
f 153/14/14 80/6/6 126/189/166
f 80/6/6 6/149/132 126/189/166
f 60/13/13 159/60/56 10/59/55
f 60/13/13 135/12/12 159/60/56
f 135/12/12 9/168/150 159/60/56
f 150/5/5 128/127/117 5/126/116
f 150/5/5 139/10/10 128/127/117
f 139/10/10 7/166/148 128/127/117
f 82/9/9 139/10/10 4/4/4
f 82/9/9 146/8/8 139/10/10
f 146/8/8 7/166/148 139/10/10
f 80/6/6 67/167/149 6/149/132
f 80/6/6 150/5/5 67/167/149
f 150/5/5 5/126/116 67/167/149
f 160/3/3 157/186/163 3/7/7
f 160/3/3 103/2/2 157/186/163
f 103/2/2 2/152/135 157/186/163
