# Blender v2.78 (sub 0) OBJ File: ''
# www.blender.org
mtllib Thuja_BushTree_s_06.mtl
o Thuja_BushTree_s_06
v -0.858651 0.802367 0.000000
v -0.817947 0.802367 0.350269
v -0.797022 1.151485 0.349118
v -0.817947 1.152636 0.000000
v -0.646414 1.448781 0.333374
v -0.650387 1.452754 0.000000
v -0.650387 0.802367 0.650387
v -0.646414 1.135741 0.646414
v -0.579404 1.381770 0.579404
v -0.797022 1.151485 -0.349118
v -0.817947 0.802367 -0.350268
v -0.646414 1.135741 -0.646414
v -0.650387 0.802367 -0.650386
v -0.646414 1.448781 -0.333374
v -0.579404 1.381771 -0.579403
v -0.797022 0.453250 -0.349118
v -0.817947 0.452099 0.000000
v -0.646414 0.155953 -0.333374
v -0.650387 0.151980 0.000000
v -0.646414 0.468993 -0.646414
v -0.579404 0.222964 -0.579404
v -0.797022 0.453249 0.349118
v -0.646414 0.468993 0.646414
v -0.646414 0.155953 0.333374
v -0.579404 0.222963 0.579404
v 0.000000 0.802367 -0.858651
v -0.350269 0.802367 -0.817947
v -0.349118 1.151485 -0.797021
v 0.000000 1.152636 -0.817947
v -0.333374 1.448781 -0.646414
v 0.000000 1.452754 -0.650386
v 0.349118 1.151485 -0.797022
v 0.350269 0.802367 -0.817947
v 0.646414 1.135741 -0.646414
v 0.650387 0.802367 -0.650386
v 0.333374 1.448781 -0.646414
v 0.579404 1.381771 -0.579403
v 0.349118 0.453250 -0.797022
v 0.000000 0.452099 -0.817947
v 0.333374 0.155953 -0.646414
v 0.000000 0.151980 -0.650387
v 0.646414 0.468993 -0.646414
v 0.579404 0.222964 -0.579404
v -0.349118 0.453250 -0.797022
v -0.333374 0.155953 -0.646414
v 0.858651 0.802367 0.000000
v 0.817947 0.802367 -0.350268
v 0.797022 1.151485 -0.349118
v 0.817947 1.152636 0.000000
v 0.646414 1.448781 -0.333374
v 0.650387 1.452754 0.000000
v 0.797022 1.151485 0.349118
v 0.817947 0.802367 0.350269
v 0.646414 1.135741 0.646414
v 0.650387 0.802367 0.650387
v 0.646414 1.448781 0.333374
v 0.579404 1.381770 0.579404
v 0.797022 0.453249 0.349118
v 0.817947 0.452099 0.000000
v 0.646414 0.155953 0.333374
v 0.650387 0.151980 0.000000
v 0.646414 0.468993 0.646414
v 0.579404 0.222963 0.579404
v 0.797022 0.453250 -0.349118
v 0.646414 0.155953 -0.333374
v 0.000000 0.802367 0.858651
v 0.350269 0.802367 0.817947
v 0.349118 1.151485 0.797022
v 0.000000 1.152636 0.817947
v 0.333374 1.448781 0.646414
v 0.000000 1.452754 0.650387
v -0.349118 1.151485 0.797022
v -0.350269 0.802367 0.817947
v -0.333374 1.448781 0.646414
v -0.349118 0.453249 0.797022
v 0.000000 0.452099 0.817947
v -0.333374 0.155953 0.646414
v 0.000000 0.151980 0.650387
v 0.349118 0.453249 0.797022
v 0.333374 0.155953 0.646414
v 0.000000 -0.056284 -0.000000
v 0.000000 -0.015580 0.350269
v -0.349118 0.005345 0.349118
v -0.350269 -0.015580 -0.000000
v -0.349118 0.005345 -0.349118
v 0.000000 -0.015580 -0.350269
v 0.349118 0.005345 -0.349118
v 0.350269 -0.015580 -0.000000
v 0.349118 0.005345 0.349118
v 0.000000 1.661019 0.000000
v 0.000000 1.620314 0.350269
v 0.349118 1.599389 0.349118
v 0.350269 1.620314 0.000000
v 0.349118 1.599389 -0.349118
v 0.000000 1.620314 -0.350268
v -0.349118 1.599389 -0.349118
v -0.350269 1.620314 0.000000
v -0.349118 1.599389 0.349118
v -0.508015 1.540514 0.340398
v -0.177633 0.802367 -0.849484
v -0.177633 -0.047117 -0.000000
v 0.000000 0.980001 -0.849484
v 0.000000 -0.047117 -0.177633
v 0.350541 0.978800 0.815692
v -0.176433 0.451826 -0.815692
v 0.815692 0.978800 0.350541
v 0.815692 0.625934 -0.350541
v -0.350541 0.625934 -0.815692
v -0.738147 0.294353 0.340398
v -0.171156 1.454434 -0.652066
v -0.508015 0.461969 0.738147
v 0.652066 1.454434 -0.171156
v 0.340398 0.064220 0.508015
v 0.652066 0.631211 -0.652066
v 0.000000 1.312430 -0.747632
v -0.652066 0.631211 0.652067
v -0.340398 1.540514 -0.508014
v 0.176433 1.618059 0.350541
v 0.747633 1.312430 0.000000
v 0.508015 0.461969 0.738147
v 0.350541 0.625934 0.815692
v 0.176433 0.451826 0.815692
v 0.849484 0.802367 0.177633
v -0.340398 0.294353 -0.738147
v -0.171156 0.150301 -0.652066
v 0.000000 -0.047117 0.177633
v -0.350541 0.625934 0.815692
v 0.747633 0.292304 0.000000
v 0.815692 0.625934 0.350541
v -0.350541 0.978800 0.815692
v 0.615006 0.187361 0.475581
v -0.475581 1.417373 -0.615006
v -0.652066 1.454434 -0.171156
v -0.652066 1.454434 0.171157
v 0.615006 0.326786 -0.615006
v 0.350541 0.625934 -0.815692
v 0.350541 0.978801 -0.815692
v 0.652066 0.150301 0.171157
v -0.815692 0.451826 0.176433
v -0.652066 0.973523 0.652067
v 0.340398 1.540514 0.508015
v 0.176433 -0.013325 -0.350541
v 0.615006 0.187361 -0.475581
v -0.508015 0.461969 -0.738147
v -0.747633 0.802367 -0.510063
v -0.615006 1.277948 -0.615006
v 0.510063 0.802367 0.747633
v 0.815692 0.451826 0.176433
v -0.652066 0.150301 0.171157
v 0.849484 0.802367 -0.177633
v -0.176433 1.618059 0.350541
v -0.510063 0.802367 0.747633
v 0.849484 0.980001 0.000000
v -0.652066 0.973524 -0.652066
v -0.747633 1.312430 0.000000
v -0.340398 1.540514 0.508015
v 0.000000 0.054734 0.510063
v 0.171156 1.454433 0.652067
v 0.652066 0.150301 -0.171156
v -0.815692 1.152908 0.176434
v -0.508015 0.064220 -0.340398
v -0.815692 0.978801 -0.350541
v -0.738147 1.142765 0.508015
v 0.615006 0.326786 0.615006
v -0.350541 -0.013325 -0.176433
v 0.652066 0.631211 0.652067
v 0.747633 0.802367 -0.510063
v -0.849484 0.980001 0.000000
v -0.176433 1.618059 -0.350541
v 0.475581 1.417373 0.615006
v -0.849484 0.624734 0.000000
v -0.340398 1.310382 -0.738147
v 0.815692 1.152908 -0.176433
v -0.350541 0.978801 -0.815692
v -0.350541 1.618059 -0.176433
v 0.350541 1.618059 -0.176433
v -0.340398 1.310382 0.738147
v 0.000000 1.312430 0.747633
v 0.849484 0.624734 0.000000
v 0.475581 0.187361 -0.615006
v -0.615006 1.417373 -0.475581
v 0.176433 1.152908 0.815692
v -0.849484 0.802367 0.177633
v 0.176433 -0.013325 0.350541
v 0.000000 0.054734 -0.510063
v 0.738147 1.142765 0.508015
v 0.176433 0.451826 -0.815692
v 0.508015 1.540514 -0.340398
v -0.176433 0.451826 0.815692
v 0.738147 1.310382 -0.340398
v 0.738147 0.294353 -0.340398
v 0.508015 0.064220 0.340398
v 0.000000 0.980000 0.849484
v 0.508015 1.540514 0.340398
v -0.475581 1.417373 0.615006
v 0.000000 1.651852 -0.177633
v -0.177633 0.802367 0.849484
v 0.738147 1.310382 0.340398
v 0.000000 0.292304 -0.747632
v 0.000000 0.624734 -0.849484
v -0.738147 0.461969 0.508015
v 0.340398 0.064220 -0.508015
v 0.176433 1.152909 -0.815692
v -0.815692 0.451826 -0.176433
v -0.615006 1.417373 0.475581
v -0.508015 1.540514 -0.340398
v 0.000000 1.550000 -0.510062
v 0.652066 1.454434 0.171157
v 0.171156 0.150301 -0.652066
v -0.510063 1.550000 0.000000
v 0.177633 1.651852 0.000000
v 0.475581 0.187361 0.615006
v -0.510063 0.802367 -0.747632
v -0.615006 0.326786 0.615006
v -0.849484 0.802367 -0.177633
v 0.000000 1.550000 0.510063
v 0.815692 1.152908 0.176434
v -0.177633 1.651852 0.000000
v 0.000000 0.292304 0.747633
v 0.508015 1.142765 0.738147
v 0.738147 0.461969 -0.508015
v -0.815692 0.625934 0.350541
v -0.615006 0.187361 0.475581
v -0.738147 0.294353 -0.340398
v -0.508015 0.064220 0.340398
v -0.176433 -0.013325 0.350541
v 0.475581 1.417373 -0.615006
v -0.738147 1.310382 -0.340398
v 0.000000 0.624734 0.849484
v 0.652066 0.973524 -0.652066
v -0.747633 0.802367 0.510063
v -0.340398 0.064220 0.508015
v 0.340398 0.294353 0.738147
v 0.171156 0.150300 0.652066
v 0.738147 0.294353 0.340398
v 0.615006 1.277948 -0.615006
v 0.508015 1.142766 -0.738147
v -0.738147 0.461969 -0.508015
v -0.615006 1.277948 0.615006
v -0.171156 1.454433 0.652067
v 0.177633 0.802367 0.849484
v 0.738147 0.461969 0.508015
v 0.738147 1.142766 -0.508014
v 0.510063 0.802367 -0.747632
v -0.615006 0.326786 -0.615006
v 0.176433 1.618059 -0.350541
v -0.508015 1.142765 0.738147
v 0.815692 0.451826 -0.176433
v -0.652066 0.631211 -0.652066
v -0.738147 1.310382 0.340398
v 0.510063 0.054734 0.000000
v -0.171156 0.150300 0.652066
v -0.340398 0.064220 -0.508015
v -0.176433 1.152908 0.815692
v -0.652066 0.150301 -0.171156
v -0.815692 0.625934 -0.350541
v 0.350541 -0.013325 0.176433
v 0.340398 1.310382 0.738147
v 0.652066 0.973523 0.652067
v 0.340398 1.310382 -0.738147
v -0.615006 0.187361 -0.475581
v 0.340398 1.540514 -0.508014
v 0.615006 1.277948 0.615006
v 0.508015 0.461969 -0.738147
v -0.747633 0.292304 0.000000
v 0.350541 -0.013325 -0.176433
v 0.177633 -0.047117 -0.000000
v -0.510063 0.054734 0.000000
v 0.747633 0.802367 0.510063
v 0.177633 0.802367 -0.849484
v 0.000000 1.651852 0.177633
v 0.615006 1.417373 -0.475581
v -0.738147 1.142766 -0.508014
v 0.171156 1.454434 -0.652066
v -0.815692 0.978800 0.350541
v -0.176433 -0.013325 -0.350541
v -0.350541 1.618059 0.176434
v 0.350541 1.618059 0.176434
v -0.508015 1.142766 -0.738147
v -0.350541 -0.013325 0.176433
v -0.340398 0.294353 0.738147
v 0.815692 0.978801 -0.350541
v -0.475581 0.187361 -0.615006
v 0.340398 0.294353 -0.738147
v -0.176433 1.152909 -0.815692
v 0.508015 0.064220 -0.340398
v -0.475581 0.187361 0.615006
v 0.615006 1.417373 0.475581
v 0.510063 1.550000 0.000000
v -0.815692 1.152908 -0.176433
v -0.489541 1.493971 0.489541
v -0.511296 1.551194 0.173371
v -0.173371 1.551194 0.511296
v -0.177457 1.644651 0.177458
v -0.489541 1.493971 -0.489541
v -0.173371 1.551194 -0.511295
v -0.511296 1.551194 -0.173371
v -0.177457 1.644651 -0.177457
v 0.489541 1.493971 -0.489541
v 0.511296 1.551194 -0.173371
v 0.173371 1.551194 -0.511295
v 0.177457 1.644651 -0.177457
v 0.489541 1.493971 0.489541
v 0.173371 1.551194 0.511296
v 0.511296 1.551194 0.173371
v 0.177457 1.644651 0.177458
v 0.489541 0.110763 0.489541
v 0.511296 0.053540 0.173371
v 0.173371 0.053540 0.511296
v 0.177457 -0.039917 0.177457
v 0.489541 0.110763 -0.489541
v 0.173371 0.053540 -0.511296
v 0.511296 0.053540 -0.173371
v 0.177457 -0.039917 -0.177457
v -0.489541 0.110763 -0.489541
v -0.511296 0.053540 -0.173371
v -0.173371 0.053540 -0.511296
v -0.177457 -0.039917 -0.177457
v -0.489541 0.110763 0.489541
v -0.173371 0.053540 0.511296
v -0.511296 0.053540 0.173371
v -0.177457 -0.039917 0.177457
v 0.489541 0.312826 0.691604
v 0.173371 0.291071 0.748827
v 0.511296 0.628996 0.748827
v 0.177457 0.624910 0.842284
v -0.489541 0.312826 0.691604
v -0.511296 0.628996 0.748827
v -0.173371 0.291071 0.748827
v -0.177457 0.624910 0.842284
v -0.489541 1.291908 0.691604
v -0.173371 1.313663 0.748827
v -0.511296 0.975738 0.748827
v -0.177457 0.979824 0.842284
v 0.489541 1.291908 0.691604
v 0.511296 0.975738 0.748827
v 0.173371 1.313663 0.748827
v 0.177457 0.979824 0.842284
v 0.691604 0.312827 -0.489541
v 0.748827 0.291072 -0.173371
v 0.748827 0.628996 -0.511296
v 0.842284 0.624910 -0.177457
v 0.691604 0.312826 0.489541
v 0.748827 0.628996 0.511296
v 0.748827 0.291071 0.173371
v 0.842284 0.624910 0.177457
v 0.691604 1.291908 0.489541
v 0.748827 1.313663 0.173371
v 0.748827 0.975738 0.511296
v 0.842284 0.979824 0.177457
v 0.691604 1.291908 -0.489541
v 0.748827 0.975738 -0.511295
v 0.748827 1.313663 -0.173371
v 0.842284 0.979824 -0.177457
v -0.489541 0.312827 -0.691604
v -0.173371 0.291072 -0.748827
v -0.511296 0.628996 -0.748827
v -0.177457 0.624910 -0.842284
v 0.489541 0.312827 -0.691604
v 0.511296 0.628996 -0.748827
v 0.173371 0.291072 -0.748827
v 0.177457 0.624910 -0.842284
v 0.489541 1.291908 -0.691603
v 0.173371 1.313663 -0.748827
v 0.511296 0.975738 -0.748827
v 0.177457 0.979825 -0.842284
v -0.489541 1.291908 -0.691603
v -0.511296 0.975738 -0.748827
v -0.173371 1.313663 -0.748827
v -0.177457 0.979824 -0.842284
v -0.691604 0.312826 0.489541
v -0.748827 0.291071 0.173371
v -0.748827 0.628996 0.511296
v -0.842284 0.624910 0.177457
v -0.691604 0.312827 -0.489541
v -0.748827 0.628996 -0.511296
v -0.748827 0.291072 -0.173371
v -0.842284 0.624910 -0.177457
v -0.691604 1.291908 -0.489541
v -0.748827 1.313663 -0.173371
v -0.748827 0.975738 -0.511295
v -0.842284 0.979824 -0.177457
v -0.691604 1.291908 0.489541
v -0.748827 0.975738 0.511296
v -0.748827 1.313663 0.173371
v -0.842284 0.979824 0.177457
vt 0.5587 0.5351
vt 0.5567 0.5337
vt 0.5582 0.5317
vt 0.5602 0.5331
vt 0.5616 0.5311
vt 0.5596 0.5297
vt 0.5610 0.5277
vt 0.5631 0.5290
vt 0.5547 0.5322
vt 0.5527 0.5307
vt 0.5543 0.5288
vt 0.5562 0.5303
vt 0.5577 0.5286
vt 0.5558 0.5274
vt 0.5573 0.5260
vt 0.5591 0.5268
vt 0.5627 0.5379
vt 0.5641 0.5360
vt 0.5660 0.5374
vt 0.5646 0.5394
vt 0.5667 0.5408
vt 0.5680 0.5387
vt 0.5700 0.5401
vt 0.5687 0.5422
vt 0.5655 0.5339
vt 0.5670 0.5319
vt 0.5689 0.5335
vt 0.5674 0.5354
vt 0.5691 0.5369
vt 0.5703 0.5350
vt 0.5717 0.5365
vt 0.5709 0.5383
vt 0.5599 0.5419
vt 0.5619 0.5433
vt 0.5604 0.5452
vt 0.5584 0.5439
vt 0.5570 0.5459
vt 0.5590 0.5472
vt 0.5576 0.5492
vt 0.5555 0.5479
vt 0.5638 0.5447
vt 0.5658 0.5462
vt 0.5642 0.5481
vt 0.5623 0.5466
vt 0.5609 0.5483
vt 0.5627 0.5495
vt 0.5613 0.5509
vt 0.5595 0.5501
vt 0.5559 0.5391
vt 0.5545 0.5411
vt 0.5525 0.5396
vt 0.5539 0.5376
vt 0.5519 0.5362
vt 0.5505 0.5382
vt 0.5485 0.5368
vt 0.5498 0.5347
vt 0.5530 0.5430
vt 0.5515 0.5450
vt 0.5496 0.5434
vt 0.5511 0.5415
vt 0.5494 0.5401
vt 0.5482 0.5419
vt 0.5468 0.5405
vt 0.5476 0.5387
vt 0.5776 0.5467
vt 0.5739 0.5450
vt 0.5753 0.5420
vt 0.5795 0.5430
vt 0.5797 0.5391
vt 0.5757 0.5389
vt 0.5762 0.5357
vt 0.5799 0.5352
vt 0.5713 0.5436
vt 0.5726 0.5410
vt 0.5733 0.5386
vt 0.5739 0.5361
vt 0.5729 0.6036
vt 0.5699 0.6065
vt 0.5677 0.6030
vt 0.5701 0.6006
vt 0.5680 0.5986
vt 0.5660 0.6007
vt 0.5642 0.5985
vt 0.5658 0.5966
vt 0.5663 0.6080
vt 0.5626 0.6094
vt 0.5620 0.6057
vt 0.5648 0.6043
vt 0.5638 0.6021
vt 0.5616 0.6035
vt 0.5613 0.6012
vt 0.5627 0.5998
vt 0.5776 0.5970
vt 0.5739 0.5953
vt 0.5753 0.5923
vt 0.5795 0.5933
vt 0.5797 0.5894
vt 0.5757 0.5892
vt 0.5762 0.5861
vt 0.5799 0.5855
vt 0.5713 0.5940
vt 0.5687 0.5926
vt 0.5700 0.5905
vt 0.5726 0.5914
vt 0.5733 0.5889
vt 0.5709 0.5886
vt 0.5717 0.5868
vt 0.5739 0.5864
vt 0.5729 0.5533
vt 0.5699 0.5562
vt 0.5677 0.5526
vt 0.5701 0.5503
vt 0.5680 0.5483
vt 0.5660 0.5504
vt 0.5663 0.5577
vt 0.5626 0.5591
vt 0.5620 0.5554
vt 0.5648 0.5540
vt 0.5638 0.5518
vt 0.5616 0.5531
vt 0.5599 0.5922
vt 0.5619 0.5936
vt 0.5604 0.5956
vt 0.5584 0.5942
vt 0.5570 0.5962
vt 0.5590 0.5976
vt 0.5576 0.5996
vt 0.5555 0.5983
vt 0.5638 0.5951
vt 0.5623 0.5971
vt 0.5609 0.5987
vt 0.5595 0.6004
vt 0.5559 0.5894
vt 0.5545 0.5914
vt 0.5525 0.5899
vt 0.5539 0.5879
vt 0.5519 0.5865
vt 0.5505 0.5885
vt 0.5485 0.5871
vt 0.5498 0.5850
vt 0.5530 0.5934
vt 0.5515 0.5954
vt 0.5496 0.5938
vt 0.5511 0.5919
vt 0.5494 0.5904
vt 0.5482 0.5923
vt 0.5468 0.5908
vt 0.5476 0.5890
vt 0.5587 0.5854
vt 0.5567 0.5840
vt 0.5582 0.5820
vt 0.5602 0.5834
vt 0.5616 0.5814
vt 0.5596 0.5800
vt 0.5610 0.5781
vt 0.5631 0.5794
vt 0.5547 0.5825
vt 0.5527 0.5811
vt 0.5543 0.5791
vt 0.5562 0.5806
vt 0.5577 0.5789
vt 0.5558 0.5777
vt 0.5573 0.5764
vt 0.5591 0.5773
vt 0.5627 0.5882
vt 0.5641 0.5863
vt 0.5660 0.5877
vt 0.5646 0.5897
vt 0.5667 0.5911
vt 0.5680 0.5891
vt 0.5655 0.5842
vt 0.5670 0.5822
vt 0.5689 0.5838
vt 0.5674 0.5857
vt 0.5691 0.5872
vt 0.5703 0.5853
vt 0.5409 0.5806
vt 0.5447 0.5823
vt 0.5432 0.5853
vt 0.5391 0.5842
vt 0.5389 0.5882
vt 0.5428 0.5884
vt 0.5424 0.5915
vt 0.5387 0.5921
vt 0.5473 0.5837
vt 0.5459 0.5862
vt 0.5452 0.5887
vt 0.5446 0.5911
vt 0.5457 0.5236
vt 0.5486 0.5207
vt 0.5509 0.5243
vt 0.5485 0.5266
vt 0.5506 0.5286
vt 0.5526 0.5265
vt 0.5523 0.5193
vt 0.5560 0.5179
vt 0.5565 0.5216
vt 0.5537 0.5229
vt 0.5547 0.5252
vt 0.5569 0.5238
vt 0.5409 0.5302
vt 0.5447 0.5319
vt 0.5432 0.5350
vt 0.5391 0.5339
vt 0.5389 0.5379
vt 0.5428 0.5381
vt 0.5424 0.5412
vt 0.5387 0.5418
vt 0.5473 0.5333
vt 0.5459 0.5359
vt 0.5452 0.5384
vt 0.5446 0.5408
vt 0.5457 0.5740
vt 0.5486 0.5711
vt 0.5509 0.5747
vt 0.5485 0.5770
vt 0.5506 0.5790
vt 0.5526 0.5769
vt 0.5523 0.5696
vt 0.5560 0.5682
vt 0.5565 0.5719
vt 0.5537 0.5733
vt 0.5547 0.5755
vt 0.5569 0.5741
vt 0.5445 0.5521
vt 0.5415 0.5491
vt 0.5451 0.5469
vt 0.5474 0.5493
vt 0.5495 0.5471
vt 0.5473 0.5451
vt 0.5401 0.5455
vt 0.5437 0.5440
vt 0.5460 0.5430
vt 0.5511 0.5568
vt 0.5528 0.5531
vt 0.5558 0.5545
vt 0.5547 0.5587
vt 0.5587 0.5589
vt 0.5589 0.5549
vt 0.5541 0.5505
vt 0.5567 0.5518
vt 0.5592 0.5525
vt 0.5741 0.5752
vt 0.5770 0.5781
vt 0.5734 0.5804
vt 0.5711 0.5780
vt 0.5691 0.5801
vt 0.5712 0.5821
vt 0.5785 0.5818
vt 0.5748 0.5832
vt 0.5725 0.5843
vt 0.5675 0.5705
vt 0.5658 0.5742
vt 0.5628 0.5727
vt 0.5638 0.5686
vt 0.5599 0.5684
vt 0.5597 0.5723
vt 0.5644 0.5768
vt 0.5619 0.5754
vt 0.5594 0.5748
vt 0.5445 0.6024
vt 0.5415 0.5995
vt 0.5451 0.5972
vt 0.5474 0.5996
vt 0.5495 0.5975
vt 0.5473 0.5955
vt 0.5401 0.5958
vt 0.5437 0.5943
vt 0.5460 0.5933
vt 0.5511 0.6071
vt 0.5528 0.6035
vt 0.5558 0.6049
vt 0.5547 0.6090
vt 0.5587 0.6092
vt 0.5589 0.6053
vt 0.5541 0.6008
vt 0.5567 0.6022
vt 0.5592 0.6028
vt 0.5741 0.5249
vt 0.5770 0.5278
vt 0.5734 0.5301
vt 0.5711 0.5277
vt 0.5691 0.5298
vt 0.5712 0.5318
vt 0.5785 0.5315
vt 0.5748 0.5329
vt 0.5725 0.5339
vt 0.5675 0.5201
vt 0.5658 0.5239
vt 0.5628 0.5224
vt 0.5638 0.5183
vt 0.5599 0.5181
vt 0.5597 0.5220
vt 0.5644 0.5265
vt 0.5619 0.5251
vt 0.5594 0.5244
vt 0.5688 0.5253
vt 0.5669 0.5279
vt 0.5651 0.5304
vt 0.5602 0.5142
vt 0.5554 0.5142
vt 0.5649 0.5142
vt 0.5692 0.5164
vt 0.5736 0.5186
vt 0.5712 0.5220
vt 0.5806 0.5255
vt 0.5821 0.5301
vt 0.5836 0.5346
vt 0.5771 0.5221
vt 0.5498 0.6020
vt 0.5516 0.5994
vt 0.5534 0.5969
vt 0.5584 0.6131
vt 0.5632 0.6131
vt 0.5537 0.6131
vt 0.5494 0.6108
vt 0.5450 0.6086
vt 0.5474 0.6053
vt 0.5380 0.6018
vt 0.5365 0.5972
vt 0.5350 0.5927
vt 0.5415 0.6052
vt 0.5688 0.5756
vt 0.5669 0.5782
vt 0.5651 0.5807
vt 0.5602 0.5645
vt 0.5554 0.5645
vt 0.5649 0.5645
vt 0.5692 0.5667
vt 0.5736 0.5690
vt 0.5712 0.5723
vt 0.5806 0.5758
vt 0.5821 0.5804
vt 0.5836 0.5849
vt 0.5771 0.5724
vt 0.5498 0.5517
vt 0.5516 0.5491
vt 0.5534 0.5466
vt 0.5584 0.5628
vt 0.5632 0.5628
vt 0.5537 0.5628
vt 0.5494 0.5605
vt 0.5450 0.5583
vt 0.5474 0.5550
vt 0.5380 0.5514
vt 0.5365 0.5469
vt 0.5350 0.5424
vt 0.5415 0.5548
vt 0.5463 0.5675
vt 0.5509 0.5660
vt 0.5487 0.5811
vt 0.5512 0.5830
vt 0.5461 0.5793
vt 0.5428 0.5769
vt 0.5394 0.5745
vt 0.5429 0.5710
vt 0.5461 0.5289
vt 0.5487 0.5308
vt 0.5512 0.5326
vt 0.5350 0.5376
vt 0.5350 0.5328
vt 0.5372 0.5285
vt 0.5394 0.5241
vt 0.5428 0.5265
vt 0.5463 0.5172
vt 0.5509 0.5157
vt 0.5429 0.5207
vt 0.5350 0.5879
vt 0.5350 0.5832
vt 0.5372 0.5789
vt 0.5622 0.5848
vt 0.5637 0.5827
vt 0.5653 0.5932
vt 0.5674 0.5947
vt 0.5633 0.5917
vt 0.5613 0.5903
vt 0.5593 0.5888
vt 0.5608 0.5868
vt 0.5553 0.5859
vt 0.5532 0.5845
vt 0.5573 0.5874
vt 0.5564 0.5928
vt 0.5549 0.5949
vt 0.5579 0.5908
vt 0.5722 0.5598
vt 0.5677 0.5613
vt 0.5699 0.5461
vt 0.5674 0.5443
vt 0.5725 0.5480
vt 0.5758 0.5504
vt 0.5791 0.5528
vt 0.5756 0.5563
vt 0.5725 0.5983
vt 0.5699 0.5965
vt 0.5836 0.5897
vt 0.5836 0.5944
vt 0.5813 0.5987
vt 0.5791 0.6031
vt 0.5758 0.6007
vt 0.5722 0.6101
vt 0.5677 0.6116
vt 0.5756 0.6066
vt 0.5836 0.5394
vt 0.5836 0.5441
vt 0.5813 0.5484
vt 0.5564 0.5425
vt 0.5549 0.5446
vt 0.5532 0.5341
vt 0.5553 0.5356
vt 0.5573 0.5371
vt 0.5593 0.5385
vt 0.5579 0.5405
vt 0.5633 0.5414
vt 0.5653 0.5429
vt 0.5613 0.5400
vt 0.5622 0.5345
vt 0.5637 0.5324
vt 0.5608 0.5365
vn -0.9915 0.0922 0.0922
vn -0.9621 0.0611 0.2658
vn -0.9448 0.2316 0.2316
vn -0.9621 0.2658 0.0611
vn -0.8794 0.4749 0.0328
vn -0.8699 0.4531 0.1946
vn -0.6958 0.6958 0.1780
vn -0.7069 0.7069 0.0223
vn -0.8794 0.0328 0.4749
vn -0.7069 0.0223 0.7069
vn -0.6958 0.1780 0.6958
vn -0.8699 0.1946 0.4531
vn -0.8155 0.4093 0.4093
vn -0.6527 0.3848 0.6527
vn -0.5774 0.5774 0.5774
vn -0.6527 0.6527 0.3848
vn -0.9915 0.0922 -0.0922
vn -0.9621 0.2658 -0.0611
vn -0.9448 0.2316 -0.2316
vn -0.9621 0.0611 -0.2658
vn -0.8794 0.0328 -0.4749
vn -0.8699 0.1946 -0.4531
vn -0.6958 0.1780 -0.6958
vn -0.7069 0.0223 -0.7069
vn -0.8794 0.4749 -0.0328
vn -0.7069 0.7069 -0.0223
vn -0.6958 0.6958 -0.1780
vn -0.8699 0.4531 -0.1946
vn -0.8155 0.4093 -0.4093
vn -0.6527 0.6527 -0.3848
vn -0.5774 0.5774 -0.5774
vn -0.6527 0.3848 -0.6527
vn -0.9915 -0.0922 -0.0922
vn -0.9621 -0.0611 -0.2658
vn -0.9448 -0.2316 -0.2316
vn -0.9621 -0.2658 -0.0611
vn -0.8794 -0.4749 -0.0328
vn -0.8699 -0.4531 -0.1946
vn -0.6958 -0.6958 -0.1780
vn -0.7069 -0.7069 -0.0223
vn -0.8794 -0.0328 -0.4749
vn -0.7069 -0.0223 -0.7069
vn -0.6958 -0.1780 -0.6958
vn -0.8699 -0.1946 -0.4531
vn -0.8155 -0.4093 -0.4093
vn -0.6527 -0.3848 -0.6527
vn -0.5774 -0.5773 -0.5774
vn -0.6527 -0.6527 -0.3848
vn -0.9915 -0.0922 0.0922
vn -0.9621 -0.2658 0.0611
vn -0.9448 -0.2316 0.2316
vn -0.9621 -0.0611 0.2658
vn -0.8794 -0.0328 0.4749
vn -0.8699 -0.1946 0.4531
vn -0.6958 -0.1780 0.6958
vn -0.7069 -0.0223 0.7069
vn -0.8794 -0.4749 0.0328
vn -0.7069 -0.7069 0.0223
vn -0.6958 -0.6958 0.1780
vn -0.8699 -0.4531 0.1946
vn -0.8155 -0.4093 0.4093
vn -0.6527 -0.6527 0.3848
vn -0.5774 -0.5774 0.5774
vn -0.6527 -0.3848 0.6527
vn -0.0922 0.0922 -0.9915
vn -0.2658 0.0611 -0.9621
vn -0.2316 0.2316 -0.9448
vn -0.0611 0.2658 -0.9621
vn -0.0328 0.4749 -0.8794
vn -0.1946 0.4531 -0.8699
vn -0.1780 0.6958 -0.6958
vn -0.0223 0.7069 -0.7069
vn -0.4749 0.0328 -0.8794
vn -0.4531 0.1946 -0.8699
vn -0.4093 0.4093 -0.8155
vn -0.3848 0.6527 -0.6527
vn 0.0922 0.0922 -0.9915
vn 0.0611 0.2658 -0.9621
vn 0.2316 0.2316 -0.9448
vn 0.2658 0.0611 -0.9621
vn 0.4749 0.0328 -0.8794
vn 0.4531 0.1946 -0.8699
vn 0.6958 0.1780 -0.6958
vn 0.7069 0.0223 -0.7069
vn 0.0328 0.4749 -0.8794
vn 0.0223 0.7069 -0.7069
vn 0.1780 0.6958 -0.6958
vn 0.1946 0.4531 -0.8699
vn 0.4093 0.4093 -0.8155
vn 0.3848 0.6527 -0.6527
vn 0.5773 0.5774 -0.5774
vn 0.6527 0.3848 -0.6527
vn 0.0922 -0.0922 -0.9915
vn 0.2658 -0.0611 -0.9621
vn 0.2316 -0.2316 -0.9448
vn 0.0611 -0.2658 -0.9621
vn 0.0328 -0.4749 -0.8794
vn 0.1946 -0.4531 -0.8699
vn 0.1780 -0.6958 -0.6958
vn 0.0223 -0.7069 -0.7069
vn 0.4749 -0.0328 -0.8794
vn 0.7069 -0.0223 -0.7069
vn 0.6958 -0.1780 -0.6958
vn 0.4531 -0.1946 -0.8699
vn 0.4093 -0.4093 -0.8155
vn 0.6527 -0.3848 -0.6527
vn 0.5774 -0.5773 -0.5774
vn 0.3848 -0.6527 -0.6527
vn -0.0922 -0.0922 -0.9915
vn -0.0611 -0.2658 -0.9621
vn -0.2316 -0.2316 -0.9448
vn -0.2658 -0.0611 -0.9621
vn -0.4749 -0.0328 -0.8794
vn -0.4531 -0.1946 -0.8699
vn -0.0328 -0.4749 -0.8794
vn -0.0223 -0.7069 -0.7069
vn -0.1780 -0.6958 -0.6958
vn -0.1946 -0.4531 -0.8699
vn -0.4093 -0.4093 -0.8155
vn -0.3848 -0.6527 -0.6527
vn 0.9915 0.0922 -0.0922
vn 0.9621 0.0611 -0.2658
vn 0.9448 0.2316 -0.2316
vn 0.9621 0.2658 -0.0611
vn 0.8794 0.4749 -0.0328
vn 0.8699 0.4531 -0.1946
vn 0.6958 0.6958 -0.1780
vn 0.7069 0.7069 -0.0223
vn 0.8794 0.0328 -0.4749
vn 0.8699 0.1946 -0.4531
vn 0.8155 0.4093 -0.4093
vn 0.6527 0.6527 -0.3848
vn 0.9915 0.0922 0.0922
vn 0.9621 0.2658 0.0611
vn 0.9448 0.2316 0.2316
vn 0.9621 0.0611 0.2658
vn 0.8794 0.0328 0.4749
vn 0.8699 0.1946 0.4531
vn 0.6958 0.1780 0.6958
vn 0.7069 0.0223 0.7069
vn 0.8794 0.4749 0.0328
vn 0.7069 0.7069 0.0223
vn 0.6958 0.6958 0.1780
vn 0.8699 0.4531 0.1946
vn 0.8155 0.4093 0.4093
vn 0.6527 0.6527 0.3848
vn 0.5774 0.5774 0.5774
vn 0.6527 0.3848 0.6527
vn 0.9915 -0.0922 0.0922
vn 0.9621 -0.0611 0.2658
vn 0.9448 -0.2316 0.2316
vn 0.9621 -0.2658 0.0611
vn 0.8794 -0.4749 0.0328
vn 0.8699 -0.4531 0.1946
vn 0.6958 -0.6958 0.1780
vn 0.7069 -0.7069 0.0223
vn 0.8794 -0.0328 0.4749
vn 0.7069 -0.0223 0.7069
vn 0.6958 -0.1780 0.6958
vn 0.8699 -0.1946 0.4531
vn 0.8155 -0.4093 0.4093
vn 0.6527 -0.3848 0.6527
vn 0.5774 -0.5773 0.5774
vn 0.6527 -0.6527 0.3848
vn 0.9915 -0.0922 -0.0922
vn 0.9621 -0.2658 -0.0611
vn 0.9448 -0.2316 -0.2316
vn 0.9621 -0.0611 -0.2658
vn 0.8794 -0.0328 -0.4749
vn 0.8699 -0.1946 -0.4531
vn 0.8794 -0.4749 -0.0328
vn 0.7069 -0.7069 -0.0223
vn 0.6958 -0.6958 -0.1780
vn 0.8699 -0.4531 -0.1946
vn 0.8155 -0.4093 -0.4093
vn 0.6527 -0.6527 -0.3848
vn 0.0922 0.0922 0.9915
vn 0.2658 0.0611 0.9621
vn 0.2316 0.2316 0.9448
vn 0.0611 0.2658 0.9621
vn 0.0328 0.4749 0.8794
vn 0.1946 0.4531 0.8699
vn 0.1780 0.6958 0.6958
vn 0.0223 0.7069 0.7069
vn 0.4749 0.0328 0.8794
vn 0.4531 0.1946 0.8699
vn 0.4093 0.4093 0.8155
vn 0.3848 0.6527 0.6527
vn -0.0922 0.0922 0.9915
vn -0.0611 0.2658 0.9621
vn -0.2316 0.2316 0.9448
vn -0.2658 0.0611 0.9621
vn -0.4749 0.0328 0.8794
vn -0.4531 0.1946 0.8699
vn -0.0328 0.4749 0.8794
vn -0.0223 0.7069 0.7069
vn -0.1780 0.6958 0.6958
vn -0.1946 0.4531 0.8699
vn -0.4093 0.4093 0.8155
vn -0.3848 0.6527 0.6527
vn -0.0922 -0.0922 0.9915
vn -0.2658 -0.0611 0.9621
vn -0.2316 -0.2316 0.9448
vn -0.0611 -0.2658 0.9621
vn -0.0328 -0.4749 0.8794
vn -0.1946 -0.4531 0.8699
vn -0.1780 -0.6958 0.6958
vn -0.0223 -0.7069 0.7069
vn -0.4749 -0.0328 0.8794
vn -0.4531 -0.1946 0.8699
vn -0.4093 -0.4093 0.8155
vn -0.3848 -0.6527 0.6527
vn 0.0922 -0.0922 0.9915
vn 0.0611 -0.2658 0.9621
vn 0.2316 -0.2316 0.9448
vn 0.2658 -0.0611 0.9621
vn 0.4749 -0.0328 0.8794
vn 0.4531 -0.1946 0.8699
vn 0.0328 -0.4749 0.8794
vn 0.0223 -0.7069 0.7069
vn 0.1780 -0.6958 0.6958
vn 0.1946 -0.4531 0.8699
vn 0.4093 -0.4093 0.8155
vn 0.3848 -0.6527 0.6527
vn -0.0922 -0.9915 0.0922
vn -0.0611 -0.9621 0.2658
vn -0.2316 -0.9448 0.2316
vn -0.2658 -0.9621 0.0611
vn -0.4749 -0.8794 0.0328
vn -0.4531 -0.8699 0.1946
vn -0.0328 -0.8794 0.4749
vn -0.1946 -0.8699 0.4531
vn -0.4093 -0.8155 0.4093
vn -0.0922 -0.9915 -0.0922
vn -0.2658 -0.9621 -0.0611
vn -0.2316 -0.9448 -0.2316
vn -0.0611 -0.9621 -0.2658
vn -0.0328 -0.8794 -0.4749
vn -0.1946 -0.8699 -0.4531
vn -0.4749 -0.8794 -0.0328
vn -0.4531 -0.8699 -0.1946
vn -0.4093 -0.8155 -0.4093
vn 0.0922 -0.9915 -0.0922
vn 0.0611 -0.9621 -0.2658
vn 0.2316 -0.9448 -0.2316
vn 0.2658 -0.9621 -0.0611
vn 0.4749 -0.8794 -0.0328
vn 0.4531 -0.8699 -0.1946
vn 0.0328 -0.8794 -0.4749
vn 0.1946 -0.8699 -0.4531
vn 0.4093 -0.8155 -0.4093
vn 0.0922 -0.9915 0.0922
vn 0.2658 -0.9621 0.0611
vn 0.2316 -0.9448 0.2316
vn 0.0611 -0.9621 0.2658
vn 0.0328 -0.8794 0.4749
vn 0.1946 -0.8699 0.4531
vn 0.4749 -0.8794 0.0328
vn 0.4531 -0.8699 0.1946
vn 0.4093 -0.8155 0.4093
vn 0.0922 0.9915 0.0922
vn 0.0611 0.9621 0.2658
vn 0.2316 0.9448 0.2316
vn 0.2658 0.9621 0.0611
vn 0.4749 0.8794 0.0328
vn 0.4531 0.8699 0.1946
vn 0.0328 0.8794 0.4749
vn 0.1946 0.8699 0.4531
vn 0.4093 0.8155 0.4093
vn 0.0922 0.9915 -0.0922
vn 0.2658 0.9621 -0.0611
vn 0.2316 0.9448 -0.2316
vn 0.0611 0.9621 -0.2658
vn 0.0328 0.8794 -0.4749
vn 0.1946 0.8699 -0.4531
vn 0.4749 0.8794 -0.0328
vn 0.4531 0.8699 -0.1946
vn 0.4093 0.8155 -0.4093
vn -0.0922 0.9915 -0.0922
vn -0.0611 0.9621 -0.2658
vn -0.2316 0.9448 -0.2316
vn -0.2658 0.9621 -0.0611
vn -0.4749 0.8794 -0.0328
vn -0.4531 0.8699 -0.1946
vn -0.0328 0.8794 -0.4749
vn -0.1946 0.8699 -0.4531
vn -0.4093 0.8155 -0.4093
vn -0.0922 0.9915 0.0922
vn -0.2658 0.9621 0.0611
vn -0.2316 0.9448 0.2316
vn -0.0611 0.9621 0.2658
vn -0.0328 0.8794 0.4749
vn -0.1946 0.8699 0.4531
vn -0.4749 0.8794 0.0328
vn -0.4531 0.8699 0.1946
vn -0.4093 0.8155 0.4093
vn -0.2813 0.9596 -0.0000
vn -0.4830 0.8756 -0.0000
vn -0.7071 0.7071 -0.0000
vn -0.0000 0.8756 0.4830
vn -0.0000 0.7071 0.7071
vn -0.0000 0.9596 0.2813
vn -0.0000 0.9944 0.1061
vn 0.0000 1.0000 0.0000
vn -0.1061 0.9944 0.0000
vn 0.0000 0.9596 -0.2813
vn 0.0000 0.8756 -0.4829
vn 0.0000 0.7071 -0.7071
vn -0.0000 0.9944 -0.1061
vn 0.2813 0.9596 0.0000
vn 0.4830 0.8756 0.0000
vn 0.7071 0.7071 0.0000
vn 0.1061 0.9944 -0.0000
vn 0.2813 -0.9596 -0.0000
vn 0.4829 -0.8756 -0.0000
vn 0.7071 -0.7071 -0.0000
vn -0.0000 -0.8756 0.4829
vn -0.0000 -0.7071 0.7071
vn -0.0000 -0.9596 0.2813
vn 0.0000 -0.9944 0.1061
vn 0.0000 -1.0000 -0.0000
vn 0.1061 -0.9944 -0.0000
vn 0.0000 -0.9596 -0.2813
vn 0.0000 -0.8756 -0.4829
vn 0.0000 -0.7071 -0.7071
vn 0.0000 -0.9944 -0.1061
vn -0.2813 -0.9596 -0.0000
vn -0.4829 -0.8756 -0.0000
vn -0.7071 -0.7071 -0.0000
vn -0.1061 -0.9944 -0.0000
vn -0.0000 -0.2813 0.9596
vn -0.0000 -0.4829 0.8756
vn 0.4829 -0.0000 0.8756
vn 0.7071 -0.0000 0.7071
vn 0.2813 -0.0000 0.9596
vn 0.1061 -0.0000 0.9944
vn -0.0000 -0.0000 1.0000
vn -0.0000 -0.1061 0.9944
vn -0.2813 -0.0000 0.9596
vn -0.4829 -0.0000 0.8756
vn -0.7071 -0.0000 0.7071
vn -0.1061 -0.0000 0.9944
vn 0.0000 0.2813 0.9596
vn -0.0000 0.4829 0.8756
vn 0.0000 0.1060 0.9944
vn 0.9596 -0.2813 -0.0000
vn 0.8756 -0.4829 -0.0000
vn 0.8756 0.0000 -0.4829
vn 0.7071 0.0000 -0.7071
vn 0.9596 0.0000 -0.2813
vn 0.9944 0.0000 -0.1061
vn 1.0000 -0.0000 -0.0000
vn 0.9944 -0.1061 -0.0000
vn 0.9596 -0.0000 0.2813
vn 0.8756 -0.0000 0.4829
vn 0.9944 -0.0000 0.1061
vn 0.9596 0.2813 -0.0000
vn 0.8756 0.4829 0.0000
vn 0.9944 0.1060 0.0000
vn 0.0000 -0.2813 -0.9596
vn 0.0000 -0.4829 -0.8756
vn -0.4829 0.0000 -0.8756
vn -0.7071 0.0000 -0.7071
vn -0.2813 0.0000 -0.9596
vn -0.1061 0.0000 -0.9944
vn 0.0000 0.0000 -1.0000
vn 0.0000 -0.1061 -0.9944
vn 0.2813 0.0000 -0.9596
vn 0.4829 0.0000 -0.8756
vn 0.1061 0.0000 -0.9944
vn -0.0000 0.2813 -0.9596
vn -0.0000 0.4830 -0.8756
vn -0.0000 0.1061 -0.9944
vn -0.9596 -0.2813 -0.0000
vn -0.8756 -0.4829 -0.0000
vn -0.8756 -0.0000 0.4829
vn -0.9596 0.0000 0.2813
vn -0.9944 -0.0000 0.1061
vn -1.0000 -0.0000 0.0000
vn -0.9944 -0.1060 -0.0000
vn -0.9596 -0.0000 -0.2813
vn -0.8756 0.0000 -0.4829
vn -0.9944 0.0000 -0.1061
vn -0.9596 0.2813 0.0000
vn -0.8756 0.4829 -0.0000
vn -0.9944 0.1060 -0.0000
usemtl None
s 1
f 386/1/1 275/2/2 3/3/3 160/4/4
f 385/5/5 250/6/6 5/7/7 134/8/8
f 384/9/9 140/10/10 8/11/11 163/12/12
f 383/13/13 239/14/14 9/15/15 205/16/16
f 382/17/17 290/18/18 10/19/19 162/20/20
f 381/21/21 273/22/22 12/23/23 154/24/24
f 380/25/25 133/26/26 14/27/27 228/28/28
f 379/29/29 181/30/30 15/31/31 146/32/32
f 378/33/33 256/34/34 16/35/35 204/36/36
f 377/37/37 224/38/38 18/39/39 255/40/40
f 376/41/41 249/42/42 20/43/43 238/44/44
f 375/45/45 245/46/46 21/47/47 261/48/48
f 374/49/49 139/50/50 22/51/51 222/52/52
f 373/53/53 201/54/54 23/55/55 116/56/56
f 372/57/57 149/58/58 24/59/59 109/60/60
f 371/61/61 223/62/62 25/63/63 214/64/64
f 370/65/65 174/66/66 28/67/67 285/68/68
f 369/69/69 172/70/70 30/71/71 110/72/72
f 368/73/73 154/24/24 12/23/23 279/74/74
f 367/75/75 146/32/32 15/31/31 132/76/76
f 366/77/77 203/78/78 32/79/79 137/80/80
f 365/81/81 237/82/82 34/83/83 230/84/84
f 364/85/85 274/86/86 36/87/87 260/88/88
f 363/89/89 227/90/90 37/91/91 236/92/92
f 362/93/93 136/94/94 38/95/95 187/96/96
f 361/97/97 284/98/98 40/99/99 209/100/100
f 360/101/101 114/102/102 42/103/103 264/104/104
f 359/105/105 135/106/106 43/107/107 180/108/108
f 358/109/109 105/110/110 44/111/111 108/112/112
f 357/113/113 144/114/114 20/43/43 249/42/42
f 356/115/115 125/116/116 45/117/117 124/118/118
f 355/119/119 283/120/120 21/47/47 245/46/46
f 354/121/121 282/122/122 48/123/123 173/124/124
f 353/125/125 190/126/126 50/127/127 112/128/128
f 352/129/129 230/84/84 34/83/83 243/130/130
f 351/131/131 236/92/92 37/91/91 272/132/132
f 350/133/133 217/134/134 52/135/135 106/136/136
f 349/137/137 186/138/138 54/139/139 259/140/140
f 348/141/141 208/142/142 56/143/143 198/144/144
f 347/145/145 288/146/146 57/147/147 263/148/148
f 346/149/149 129/150/150 58/151/151 148/152/152
f 345/153/153 235/154/154 60/155/155 138/156/156
f 344/157/157 166/158/158 62/159/159 242/160/160
f 343/161/161 164/162/162 63/163/163 131/164/164
f 342/165/165 248/166/166 64/167/167 107/168/168
f 341/169/169 221/170/170 42/103/103 114/102/102
f 340/171/171 159/172/172 65/173/173 191/174/174
f 339/175/175 143/176/176 43/107/107 135/106/106
f 338/177/177 104/178/178 68/179/179 182/180/180
f 337/181/181 258/182/182 70/183/183 158/184/184
f 336/185/185 259/140/140 54/139/139 220/186/186
f 335/187/187 263/148/148 57/147/147 170/188/188
f 334/189/189 254/190/190 72/191/191 130/192/192
f 333/193/193 247/194/194 8/11/11 140/10/10
f 332/195/195 240/196/196 74/197/197 177/198/198
f 331/199/199 195/200/200 9/15/15 239/14/14
f 330/201/201 127/202/202 75/203/203 189/204/204
f 329/205/205 281/206/206 77/207/207 252/208/208
f 328/209/209 116/56/56 23/55/55 111/210/210
f 327/211/211 214/64/64 25/63/63 287/212/212
f 326/213/213 122/214/214 79/215/215 121/216/216
f 325/217/217 120/218/218 62/159/159 166/158/158
f 324/219/219 234/220/220 80/221/221 233/222/222
f 323/223/223 212/224/224 63/163/163 164/162/162
f 322/225/225 226/226/226 83/227/227 280/228/228
f 321/229/229 225/230/230 24/59/59 149/58/58
f 320/231/231 252/208/208 77/207/207 232/232/232
f 319/233/233 287/212/212 25/63/63 223/62/62
f 318/234/234 165/235/235 85/236/236 276/237/237
f 317/238/238 253/239/239 45/117/117 125/116/116
f 316/240/240 255/40/40 18/39/39 161/241/241
f 315/242/242 261/48/48 21/47/47 283/120/120
f 314/243/243 142/244/244 87/245/245 266/246/246
f 313/247/247 286/248/248 65/173/173 159/172/172
f 312/249/249 209/100/100 40/99/99 202/250/250
f 311/251/251 180/108/108 43/107/107 143/176/176
f 310/252/252 257/253/253 89/254/254 184/255/255
f 309/256/256 113/257/257 80/221/221 234/220/220
f 308/258/258 138/156/156 60/155/155 192/259/259
f 307/260/260 131/164/164 63/163/163 212/224/224
f 306/261/261 118/262/262 92/263/263 278/264/264
f 305/265/265 194/266/266 56/143/143 208/142/142
f 304/267/267 158/184/184 70/183/183 141/268/268
f 303/269/269 170/188/188 57/147/147 288/146/146
f 302/270/270 176/271/271 94/272/272 246/273/273
f 301/274/274 262/275/275 36/87/87 274/86/86
f 300/276/276 112/128/128 50/127/127 188/277/277
f 299/278/278 272/132/132 37/91/91 227/90/90
f 298/279/279 169/280/280 96/281/281 175/282/282
f 297/283/283 206/284/284 14/27/27 133/26/26
f 296/285/285 110/72/72 30/71/71 117/286/286
f 295/287/287 132/76/76 15/31/31 181/30/30
f 294/288/288 277/289/289 98/290/290 151/291/291
f 293/292/292 156/293/293 74/197/197 240/196/196
f 292/294/294 134/8/8 5/7/7 99/295/295
f 291/296/296 205/16/16 9/15/15 195/200/200
f 156/293/293 291/296/296 195/200/200 74/197/197
f 98/290/290 99/295/295 291/296/296 156/293/293
f 99/295/295 5/7/7 205/16/16 291/296/296
f 277/289/289 292/294/294 99/295/295 98/290/290
f 97/297/297 210/298/298 292/294/294 277/289/289
f 210/298/298 6/299/299 134/8/8 292/294/294
f 216/300/300 293/292/292 240/196/196 71/301/301
f 91/302/302 151/291/291 293/292/292 216/300/300
f 151/291/291 98/290/290 156/293/293 293/292/292
f 271/303/303 294/288/288 151/291/291 91/302/302
f 90/304/304 218/305/305 294/288/288 271/303/303
f 218/305/305 97/297/297 277/289/289 294/288/288
f 206/284/284 295/287/287 181/30/30 14/27/27
f 96/281/281 117/286/286 295/287/287 206/284/284
f 117/286/286 30/71/71 132/76/76 295/287/287
f 169/280/280 296/285/285 117/286/286 96/281/281
f 95/306/306 207/307/307 296/285/285 169/280/280
f 207/307/307 31/308/308 110/72/72 296/285/285
f 210/298/298 297/283/283 133/26/26 6/299/299
f 97/297/297 175/282/282 297/283/283 210/298/298
f 175/282/282 96/281/281 206/284/284 297/283/283
f 218/305/305 298/279/279 175/282/282 97/297/297
f 90/304/304 196/309/309 298/279/279 218/305/305
f 196/309/309 95/306/306 169/280/280 298/279/279
f 262/275/275 299/278/278 227/90/90 36/87/87
f 94/272/272 188/277/277 299/278/278 262/275/275
f 188/277/277 50/127/127 272/132/132 299/278/278
f 176/271/271 300/276/276 188/277/277 94/272/272
f 93/310/310 289/311/311 300/276/276 176/271/271
f 289/311/311 51/312/312 112/128/128 300/276/276
f 207/313/307 301/274/274 274/86/86 31/314/308
f 95/315/306 246/273/273 301/274/274 207/313/307
f 246/273/273 94/272/272 262/275/275 301/274/274
f 196/316/309 302/270/270 246/273/273 95/315/306
f 90/317/304 211/318/313 302/270/270 196/316/309
f 211/318/313 93/310/310 176/271/271 302/270/270
f 194/266/266 303/269/269 288/146/146 56/143/143
f 92/263/263 141/268/268 303/269/269 194/266/266
f 141/268/268 70/183/183 170/188/188 303/269/269
f 118/262/262 304/267/267 141/268/268 92/263/263
f 91/319/302 216/320/300 304/267/267 118/262/262
f 216/320/300 71/321/301 158/184/184 304/267/267
f 289/311/311 305/265/265 208/142/142 51/312/312
f 93/310/310 278/264/264 305/265/265 289/311/311
f 278/264/264 92/263/263 194/266/266 305/265/265
f 211/318/313 306/261/261 278/264/264 93/310/310
f 90/317/304 271/322/303 306/261/261 211/318/313
f 271/322/303 91/319/302 118/262/262 306/261/261
f 113/257/257 307/260/260 212/224/224 80/221/221
f 89/254/254 192/259/259 307/260/260 113/257/257
f 192/259/259 60/155/155 131/164/164 307/260/260
f 257/253/253 308/258/258 192/259/259 89/254/254
f 88/323/314 251/324/315 308/258/258 257/253/253
f 251/324/315 61/325/316 138/156/156 308/258/258
f 157/326/317 309/256/256 234/220/220 78/327/318
f 82/328/319 184/255/255 309/256/256 157/326/317
f 184/255/255 89/254/254 113/257/257 309/256/256
f 126/329/320 310/252/252 184/255/255 82/328/319
f 81/330/321 267/331/322 310/252/252 126/329/320
f 267/331/322 88/323/314 257/253/253 310/252/252
f 286/248/248 311/251/251 143/176/176 65/173/173
f 87/245/245 202/250/250 311/251/251 286/248/248
f 202/250/250 40/99/99 180/108/108 311/251/251
f 142/244/244 312/249/249 202/250/250 87/245/245
f 86/332/323 185/333/324 312/249/249 142/244/244
f 185/333/324 41/334/325 209/100/100 312/249/249
f 251/324/315 313/247/247 159/172/172 61/325/316
f 88/323/314 266/246/246 313/247/247 251/324/315
f 266/246/246 87/245/245 286/248/248 313/247/247
f 267/331/322 314/243/243 266/246/246 88/323/314
f 81/330/321 103/335/326 314/243/243 267/331/322
f 103/335/326 86/332/323 142/244/244 314/243/243
f 253/239/239 315/242/242 283/120/120 45/117/117
f 85/236/236 161/241/241 315/242/242 253/239/239
f 161/241/241 18/39/39 261/48/48 315/242/242
f 165/235/235 316/240/240 161/241/241 85/236/236
f 84/336/327 268/337/328 316/240/240 165/235/235
f 268/337/328 19/338/329 255/40/40 316/240/240
f 185/339/324 317/238/238 125/116/116 41/340/325
f 86/341/323 276/237/237 317/238/238 185/339/324
f 276/237/237 85/236/236 253/239/239 317/238/238
f 103/342/326 318/234/234 276/237/237 86/341/323
f 81/343/321 101/344/330 318/234/234 103/342/326
f 101/344/330 84/336/327 165/235/235 318/234/234
f 225/230/230 319/233/233 223/62/62 24/59/59
f 83/227/227 232/232/232 319/233/233 225/230/230
f 232/232/232 77/207/207 287/212/212 319/233/233
f 226/226/226 320/231/231 232/232/232 83/227/227
f 82/345/319 157/346/317 320/231/231 226/226/226
f 157/346/317 78/347/318 252/208/208 320/231/231
f 268/337/328 321/229/229 149/58/58 19/338/329
f 84/336/327 280/228/228 321/229/229 268/337/328
f 280/228/228 83/227/227 225/230/230 321/229/229
f 101/344/330 322/225/225 280/228/228 84/336/327
f 81/343/321 126/348/320 322/225/225 101/344/330
f 126/348/320 82/345/319 226/226/226 322/225/225
f 120/218/218 323/223/223 164/162/162 62/159/159
f 79/215/215 233/222/222 323/223/223 120/218/218
f 233/222/222 80/221/221 212/224/224 323/223/223
f 122/214/214 324/219/219 233/222/222 79/215/215
f 76/349/331 219/350/332 324/219/219 122/214/214
f 219/350/332 78/327/318 234/220/220 324/219/219
f 147/351/333 325/217/217 166/158/158 55/352/334
f 67/353/335 121/216/216 325/217/217 147/351/333
f 121/216/216 79/215/215 120/218/218 325/217/217
f 241/354/336 326/213/213 121/216/216 67/353/335
f 66/355/337 229/356/338 326/213/213 241/354/336
f 229/356/338 76/349/331 122/214/214 326/213/213
f 281/206/206 327/211/211 287/212/212 77/207/207
f 75/203/203 111/210/210 327/211/211 281/206/206
f 111/210/210 23/55/55 214/64/64 327/211/211
f 127/202/202 328/209/209 111/210/210 75/203/203
f 73/357/339 152/358/340 328/209/209 127/202/202
f 152/358/340 7/359/341 116/56/56 328/209/209
f 219/360/332 329/205/205 252/208/208 78/347/318
f 76/361/331 189/204/204 329/205/205 219/360/332
f 189/204/204 75/203/203 281/206/206 329/205/205
f 229/362/338 330/201/201 189/204/204 76/361/331
f 66/363/337 197/364/342 330/201/201 229/362/338
f 197/364/342 73/357/339 127/202/202 330/201/201
f 247/194/194 331/199/199 239/14/14 8/11/11
f 72/191/191 177/198/198 331/199/199 247/194/194
f 177/198/198 74/197/197 195/200/200 331/199/199
f 254/190/190 332/195/195 177/198/198 72/191/191
f 69/365/343 178/366/344 332/195/195 254/190/190
f 178/366/344 71/301/301 240/196/196 332/195/195
f 152/358/340 333/193/193 140/10/10 7/359/341
f 73/357/339 130/192/192 333/193/193 152/358/340
f 130/192/192 72/191/191 247/194/194 333/193/193
f 197/364/342 334/189/189 130/192/192 73/357/339
f 66/363/337 193/367/345 334/189/189 197/364/342
f 193/367/345 69/365/343 254/190/190 334/189/189
f 258/182/182 335/187/187 170/188/188 70/183/183
f 68/179/179 220/186/186 335/187/187 258/182/182
f 220/186/186 54/139/139 263/148/148 335/187/187
f 104/178/178 336/185/185 220/186/186 68/179/179
f 67/353/335 147/351/333 336/185/185 104/178/178
f 147/351/333 55/352/334 259/140/140 336/185/185
f 178/368/344 337/181/181 158/184/184 71/321/301
f 69/369/343 182/180/180 337/181/181 178/368/344
f 182/180/180 68/179/179 258/182/182 337/181/181
f 193/370/345 338/177/177 182/180/180 69/369/343
f 66/355/337 241/354/336 338/177/177 193/370/345
f 241/354/336 67/353/335 104/178/178 338/177/177
f 221/170/170 339/175/175 135/106/106 42/103/103
f 64/167/167 191/174/174 339/175/175 221/170/170
f 191/174/174 65/173/173 143/176/176 339/175/175
f 248/166/166 340/171/171 191/174/174 64/167/167
f 59/371/346 128/372/347 340/171/171 248/166/166
f 128/372/347 61/325/316 159/172/172 340/171/171
f 167/373/348 341/169/169 114/102/102 35/374/349
f 47/375/350 107/168/168 341/169/169 167/373/348
f 107/168/168 64/167/167 221/170/170 341/169/169
f 150/376/351 342/165/165 107/168/168 47/375/350
f 46/377/352 179/378/353 342/165/165 150/376/351
f 179/378/353 59/371/346 248/166/166 342/165/165
f 235/154/154 343/161/161 131/164/164 60/155/155
f 58/151/151 242/160/160 343/161/161 235/154/154
f 242/160/160 62/159/159 164/162/162 343/161/161
f 129/150/150 344/157/157 242/160/160 58/151/151
f 53/379/354 269/380/355 344/157/157 129/150/150
f 269/380/355 55/352/334 166/158/158 344/157/157
f 128/372/347 345/153/153 138/156/156 61/325/316
f 59/371/346 148/152/152 345/153/153 128/372/347
f 148/152/152 58/151/151 235/154/154 345/153/153
f 179/378/353 346/149/149 148/152/152 59/371/346
f 46/377/352 123/381/356 346/149/149 179/378/353
f 123/381/356 53/379/354 129/150/150 346/149/149
f 186/138/138 347/145/145 263/148/148 54/139/139
f 52/135/135 198/144/144 347/145/145 186/138/138
f 198/144/144 56/143/143 288/146/146 347/145/145
f 217/134/134 348/141/141 198/144/144 52/135/135
f 49/382/357 119/383/358 348/141/141 217/134/134
f 119/383/358 51/312/312 208/142/142 348/141/141
f 269/380/355 349/137/137 259/140/140 55/352/334
f 53/379/354 106/136/136 349/137/137 269/380/355
f 106/136/136 52/135/135 186/138/138 349/137/137
f 123/381/356 350/133/133 106/136/136 53/379/354
f 46/377/352 153/384/359 350/133/133 123/381/356
f 153/384/359 49/382/357 217/134/134 350/133/133
f 190/126/126 351/131/131 272/132/132 50/127/127
f 48/123/123 243/130/130 351/131/131 190/126/126
f 243/130/130 34/83/83 236/92/92 351/131/131
f 282/122/122 352/129/129 243/130/130 48/123/123
f 47/375/350 167/373/348 352/129/129 282/122/122
f 167/373/348 35/374/349 230/84/84 352/129/129
f 119/383/358 353/125/125 112/128/128 51/312/312
f 49/382/357 173/124/124 353/125/125 119/383/358
f 173/124/124 48/123/123 190/126/126 353/125/125
f 153/384/359 354/121/121 173/124/124 49/382/357
f 46/377/352 150/376/351 354/121/121 153/384/359
f 150/376/351 47/375/350 282/122/122 354/121/121
f 144/114/114 355/119/119 245/46/46 20/43/43
f 44/111/111 124/118/118 355/119/119 144/114/114
f 124/118/118 45/117/117 283/120/120 355/119/119
f 105/110/110 356/115/115 124/118/118 44/111/111
f 39/385/360 199/386/361 356/115/115 105/110/110
f 199/386/361 41/340/325 125/116/116 356/115/115
f 213/387/362 357/113/113 249/42/42 13/388/363
f 27/389/364 108/112/112 357/113/113 213/387/362
f 108/112/112 44/111/111 144/114/114 357/113/113
f 100/390/365 358/109/109 108/112/112 27/389/364
f 26/391/366 200/392/367 358/109/109 100/390/365
f 200/392/367 39/385/360 105/110/110 358/109/109
f 284/98/98 359/105/105 180/108/108 40/99/99
f 38/95/95 264/104/104 359/105/105 284/98/98
f 264/104/104 42/103/103 135/106/106 359/105/105
f 136/94/94 360/101/101 264/104/104 38/95/95
f 33/393/368 244/394/369 360/101/101 136/94/94
f 244/394/369 35/374/349 114/102/102 360/101/101
f 199/395/361 361/97/97 209/100/100 41/334/325
f 39/396/360 187/96/96 361/97/97 199/395/361
f 187/96/96 38/95/95 284/98/98 361/97/97
f 200/397/367 362/93/93 187/96/96 39/396/360
f 26/398/366 270/399/370 362/93/93 200/397/367
f 270/399/370 33/393/368 136/94/94 362/93/93
f 237/82/82 363/89/89 236/92/92 34/83/83
f 32/79/79 260/88/88 363/89/89 237/82/82
f 260/88/88 36/87/87 227/90/90 363/89/89
f 203/78/78 364/85/85 260/88/88 32/79/79
f 29/400/371 115/401/372 364/85/85 203/78/78
f 115/401/372 31/314/308 274/86/86 364/85/85
f 244/394/369 365/81/81 230/84/84 35/374/349
f 33/393/368 137/80/80 365/81/81 244/394/369
f 137/80/80 32/79/79 237/82/82 365/81/81
f 270/399/370 366/77/77 137/80/80 33/393/368
f 26/398/366 102/402/373 366/77/77 270/399/370
f 102/402/373 29/400/371 203/78/78 366/77/77
f 172/70/70 367/75/75 132/76/76 30/71/71
f 28/67/67 279/74/74 367/75/75 172/70/70
f 279/74/74 12/23/23 146/32/32 367/75/75
f 174/66/66 368/73/73 279/74/74 28/67/67
f 27/389/364 213/387/362 368/73/73 174/66/66
f 213/387/362 13/388/363 154/24/24 368/73/73
f 115/403/372 369/69/69 110/72/72 31/308/308
f 29/404/371 285/68/68 369/69/69 115/403/372
f 285/68/68 28/67/67 172/70/70 369/69/69
f 102/405/373 370/65/65 285/68/68 29/404/371
f 26/391/366 100/390/365 370/65/65 102/405/373
f 100/390/365 27/389/364 174/66/66 370/65/65
f 201/54/54 371/61/61 214/64/64 23/55/55
f 22/51/51 109/60/60 371/61/61 201/54/54
f 109/60/60 24/59/59 223/62/62 371/61/61
f 139/50/50 372/57/57 109/60/60 22/51/51
f 17/406/374 265/407/375 372/57/57 139/50/50
f 265/407/375 19/338/329 149/58/58 372/57/57
f 231/408/376 373/53/53 116/56/56 7/359/341
f 2/409/377 222/52/52 373/53/53 231/408/376
f 222/52/52 22/51/51 201/54/54 373/53/53
f 183/410/378 374/49/49 222/52/52 2/409/377
f 1/411/379 171/412/380 374/49/49 183/410/378
f 171/412/380 17/406/374 139/50/50 374/49/49
f 224/38/38 375/45/45 261/48/48 18/39/39
f 16/35/35 238/44/44 375/45/45 224/38/38
f 238/44/44 20/43/43 245/46/46 375/45/45
f 256/34/34 376/41/41 238/44/44 16/35/35
f 11/413/381 145/414/382 376/41/41 256/34/34
f 145/414/382 13/388/363 249/42/42 376/41/41
f 265/407/375 377/37/37 255/40/40 19/338/329
f 17/406/374 204/36/36 377/37/37 265/407/375
f 204/36/36 16/35/35 224/38/38 377/37/37
f 171/412/380 378/33/33 204/36/36 17/406/374
f 1/411/379 215/415/383 378/33/33 171/412/380
f 215/415/383 11/413/381 256/34/34 378/33/33
f 273/22/22 379/29/29 146/32/32 12/23/23
f 10/19/19 228/28/28 379/29/29 273/22/22
f 228/28/28 14/27/27 181/30/30 379/29/29
f 290/18/18 380/25/25 228/28/28 10/19/19
f 4/416/384 155/417/385 380/25/25 290/18/18
f 155/417/385 6/299/299 133/26/26 380/25/25
f 145/414/382 381/21/21 154/24/24 13/388/363
f 11/413/381 162/20/20 381/21/21 145/414/382
f 162/20/20 10/19/19 273/22/22 381/21/21
f 215/415/383 382/17/17 162/20/20 11/413/381
f 1/411/379 168/418/386 382/17/17 215/415/383
f 168/418/386 4/416/384 290/18/18 382/17/17
f 250/6/6 383/13/13 205/16/16 5/7/7
f 3/3/3 163/12/12 383/13/13 250/6/6
f 163/12/12 8/11/11 239/14/14 383/13/13
f 275/2/2 384/9/9 163/12/12 3/3/3
f 2/409/377 231/408/376 384/9/9 275/2/2
f 231/408/376 7/359/341 140/10/10 384/9/9
f 155/417/385 385/5/5 134/8/8 6/299/299
f 4/416/384 160/4/4 385/5/5 155/417/385
f 160/4/4 3/3/3 250/6/6 385/5/5
f 168/418/386 386/1/1 160/4/4 4/416/384
f 1/411/379 183/410/378 386/1/1 168/418/386
f 183/410/378 2/409/377 275/2/2 386/1/1
