# Blender v2.78 (sub 0) OBJ File: ''
# www.blender.org
mtllib Thuja_Tree_m_01.mtl
o Thuja_Tree_m_01
v -0.441315 2.010161 -0.133635
v -0.420992 2.101328 0.190598
v -0.325273 3.146595 -0.007871
v -0.462298 1.111524 -0.083871
v -0.341962 0.848861 -0.165955
v -0.380548 0.830993 0.052640
v -0.282061 1.170182 -0.380578
v -0.388375 1.129936 0.266280
v -0.127168 2.189510 -0.438441
v -0.171952 3.404451 -0.224930
v 0.150185 3.442712 -0.217022
v -0.081255 1.105543 0.466737
v -0.077747 0.824511 0.366111
v 0.258556 1.089669 0.389182
v 0.051387 3.906357 0.103184
v 0.158866 3.238901 0.257354
v 0.260120 3.583540 0.049894
v 0.104727 0.989171 -0.428029
v -0.125500 0.696983 0.105706
v -0.087924 0.738049 -0.239899
v 0.280681 0.755306 -0.070523
v 0.108843 4.014553 -0.021923
v -0.086152 3.933075 -0.078135
v -0.145645 3.458926 0.181017
v 0.264444 0.777263 0.182170
v 0.402539 1.177976 -0.261899
v -0.073893 0.837207 -0.388180
v 0.103502 2.049866 0.448589
v -0.278853 1.920901 0.387320
v 0.378122 2.126595 0.273784
v 0.441586 2.322074 -0.097048
v 0.453414 1.122835 0.085858
v 0.296489 1.993689 -0.369963
v 0.057090 0.010324 0.078577
v 0.050128 0.780329 0.068995
v -0.050128 0.780329 0.068995
v -0.057090 0.010324 0.078577
v -0.092373 0.010324 -0.030014
v -0.081108 0.780329 -0.026354
v 0.000000 0.780329 -0.085282
v 0.000000 0.010324 -0.097126
v 0.092373 0.010324 -0.030014
v 0.081108 0.780329 -0.026354
v -0.361963 2.028463 0.294204
v 0.129785 3.823911 -0.105677
v 0.093828 0.906486 0.389139
v -0.152610 0.951972 -0.394570
v 0.278646 1.062812 -0.350089
v -0.261588 3.303621 -0.120115
v 0.140262 2.687421 0.353162
v -0.282604 0.768385 0.083576
v 0.099065 3.633096 0.177231
v -0.345500 1.497761 0.350246
v 0.336417 1.552429 0.343722
v -0.084596 0.010324 0.027487
v 0.084596 0.010324 0.027487
v 0.377163 1.101259 0.248908
v 0.428680 2.244804 0.092797
v -0.246041 0.748848 -0.041827
v 0.391610 0.892330 0.003336
v -0.025322 2.788960 0.331195
v -0.011509 1.551510 -0.459840
v 0.194919 1.524144 0.438965
v -0.045747 0.780329 -0.062966
v 0.270175 2.718425 0.280607
v -0.388104 0.929181 0.150000
v -0.310784 2.757766 -0.198922
v 0.382401 2.192809 -0.248212
v -0.128450 3.788796 0.043343
v -0.241078 1.099352 0.393328
v -0.365323 0.829340 -0.049523
v 0.089563 0.395326 -0.029101
v 0.356669 0.922682 -0.176068
v 0.000000 0.780329 0.077830
v 0.094169 0.786118 0.280971
v 0.177533 3.870546 0.003760
v -0.210181 3.600693 -0.045706
v -0.450749 1.541794 0.072947
v -0.097648 0.696434 -0.071288
v -0.425795 1.614339 0.230470
v 0.272901 0.894376 0.286218
v 0.096936 2.110698 -0.419962
v 0.229891 3.558067 -0.085233
v -0.086466 0.932005 0.424860
v -0.430456 0.948418 -0.002375
v -0.106624 0.759044 0.251489
v 0.374185 0.896830 0.141633
v 0.030969 0.797395 -0.331697
v 0.074021 0.780329 0.024051
v -0.023119 3.970003 0.021171
v -0.022749 3.472605 -0.241721
v 0.442736 1.153068 -0.095891
v 0.208127 1.479259 -0.418950
v -0.125392 3.713819 -0.156814
v 0.018604 2.851498 -0.347703
v -0.448746 1.137069 0.079958
v -0.461838 1.474339 -0.105600
v 0.357551 2.991453 -0.017214
v 0.231288 2.683788 -0.306136
v -0.082424 0.801242 -0.337887
v 0.315374 2.930683 -0.166841
v 0.256105 2.068635 0.382773
v -0.185896 1.478139 0.438412
v 0.045747 0.780329 -0.062966
v -0.449282 2.028205 0.049900
v -0.089563 0.395326 -0.029101
v 0.023548 3.790880 -0.155216
v -0.052283 0.010324 -0.071961
v -0.201188 0.910310 -0.321023
v 0.283256 0.756042 0.067127
v -0.095429 1.108288 -0.437547
v -0.011928 0.869531 -0.411324
v 0.156251 3.807730 0.087798
v -0.226016 0.792494 -0.201960
v 0.024746 4.003704 -0.055126
v 0.219627 3.419128 0.166165
v -0.218895 2.648509 0.300010
v 0.000000 0.395326 -0.094172
v 0.432647 1.589243 0.187586
v -0.074021 0.780329 0.024051
v -0.325773 0.979230 -0.275833
v -0.304773 2.780571 0.192346
v -0.233158 0.920994 0.335632
v -0.055353 0.395326 0.076187
v -0.301295 2.137688 -0.314263
v 0.467436 1.681787 -0.004600
v -0.219260 1.635319 -0.422657
v 0.092741 0.695396 0.019640
v 0.055353 0.395326 0.076187
v 0.086390 0.714490 0.152248
v 0.000000 0.010324 0.088949
v -0.252555 3.345462 0.080757
v 0.090676 0.722563 -0.154808
v 0.085882 1.085462 0.448376
v -0.378793 1.588076 -0.279071
v -0.399186 1.171715 -0.235042
v 0.052283 0.010324 -0.071961
v 0.207322 0.827935 -0.262224
v 0.440849 1.690686 -0.187764
v -0.411441 0.966564 -0.141949
v 0.361506 1.558053 -0.329084
v -0.037827 3.776191 0.134488
v 0.081811 3.994877 0.036361
v -0.382667 2.634746 0.086481
v 0.019303 3.386057 0.234791
v -0.159324 2.851015 -0.329821
v -0.393957 2.622359 -0.064357
v 0.334609 2.884109 0.158164
v 0.014797 1.507687 0.474057
v -0.269418 0.856662 0.210269
v -0.096945 2.022743 0.426547
v 0.049015 0.395326 -0.067463
v -0.079308 0.395326 0.025769
v 0.079308 0.395326 0.025769
v -0.049015 0.395326 -0.067463
v 0.000000 0.395326 0.083390
vt 0.8382 0.5512
vt 0.8435 0.5518
vt 0.8391 0.5686
vt 0.8416 0.5269
vt 0.8404 0.5233
vt 0.8435 0.5233
vt 0.8350 0.5391
vt 0.8399 0.5390
vt 0.8367 0.5270
vt 0.8450 0.5387
vt 0.8468 0.5266
vt 0.8231 0.5563
vt 0.8273 0.5767
vt 0.8224 0.5791
vt 0.7691 0.5260
vt 0.7713 0.5217
vt 0.7746 0.5283
vt 0.7885 0.6144
vt 0.7867 0.6040
vt 0.7909 0.6095
vt 0.8224 0.5360
vt 0.8274 0.5416
vt 0.7837 0.5103
vt 0.7911 0.5103
vt 0.7880 0.5166
vt 0.8340 0.6142
vt 0.8346 0.6112
vt 0.8372 0.6133
vt 0.8352 0.6081
vt 0.8376 0.5971
vt 0.8400 0.6046
vt 0.8404 0.6123
vt 0.8378 0.6102
vt 0.8426 0.6067
vt 0.8285 0.6050
vt 0.8334 0.6026
vt 0.8279 0.6080
vt 0.7940 0.6178
vt 0.7937 0.6113
vt 0.7984 0.6096
vt 0.7836 0.6106
vt 0.7912 0.6161
vt 0.7735 0.5174
vt 0.7786 0.5138
vt 0.7799 0.5208
vt 0.7850 0.5173
vt 0.7923 0.5230
vt 0.8001 0.5224
vt 0.7957 0.5275
vt 0.7985 0.5103
vt 0.8019 0.5118
vt 0.8031 0.5161
vt 0.8345 0.5111
vt 0.8368 0.5154
vt 0.8332 0.5191
vt 0.8483 0.5103
vt 0.8468 0.5150
vt 0.8437 0.5150
vt 0.8531 0.5125
vt 0.8501 0.5183
vt 0.7743 0.5575
vt 0.7717 0.5418
vt 0.7772 0.5440
vt 0.7674 0.5567
vt 0.7793 0.5582
vt 0.7795 0.5755
vt 0.7963 0.5653
vt 0.7929 0.5487
vt 0.7976 0.5487
vt 0.7903 0.5621
vt 0.8007 0.5601
vt 0.7996 0.5834
vt 0.7933 0.6047
vt 0.7948 0.5850
vt 0.7981 0.6030
vt 0.8194 0.5609
vt 0.8122 0.5579
vt 0.8136 0.5414
vt 0.8306 0.5537
vt 0.8489 0.5524
vt 0.8528 0.5511
vt 0.8469 0.5768
vt 0.8400 0.5860
vt 0.8444 0.5692
vt 0.8424 0.5936
vt 0.7863 0.5242
vt 0.7832 0.5274
vt 0.7954 0.5166
vt 0.8319 0.5129
vt 0.8414 0.5107
vt 0.8627 0.5217
vt 0.8573 0.5240
vt 0.8603 0.5182
vt 0.8566 0.5499
vt 0.8542 0.5381
vt 0.8597 0.5358
vt 0.7765 0.5821
vt 0.7787 0.6067
vt 0.7817 0.6001
vt 0.7895 0.5321
vt 0.7909 0.5275
vt 0.7943 0.5321
vt 0.7848 0.5314
vt 0.7879 0.5282
vt 0.7869 0.5455
vt 0.7843 0.5589
vt 0.7888 0.5818
vt 0.7846 0.5762
vt 0.8218 0.5158
vt 0.8255 0.5152
vt 0.8268 0.5214
vt 0.8078 0.5219
vt 0.8064 0.5384
vt 0.8034 0.5270
vt 0.8112 0.5811
vt 0.8504 0.5394
vt 0.8348 0.5741
vt 0.3089 0.8126
vt 0.3089 0.8581
vt 0.3034 0.8581
vt 0.3030 0.8126
vt 0.2850 0.8131
vt 0.2869 0.8585
vt 0.2814 0.8588
vt 0.2790 0.8133
vt 0.3209 0.8127
vt 0.3199 0.8582
vt 0.3144 0.8581
vt 0.3149 0.8126
vt 0.2970 0.8127
vt 0.2979 0.8582
vt 0.2924 0.8583
vt 0.2910 0.8128
vt 0.3328 0.8131
vt 0.3309 0.8585
vt 0.3254 0.8583
vt 0.3268 0.8128
vt 0.3347 0.7675
vt 0.3283 0.7673
vt 0.3411 0.7678
vt 0.3388 0.8133
vt 0.3364 0.8588
vt 0.2961 0.7672
vt 0.2896 0.7673
vt 0.3025 0.7670
vt 0.3219 0.7672
vt 0.3154 0.7670
vt 0.2832 0.7675
vt 0.2767 0.7678
vt 0.3090 0.7670
vt 0.8357 0.5915
vt 0.8315 0.5970
vt 0.8519 0.5263
vt 0.8040 0.5782
vt 0.8050 0.5549
vt 0.8029 0.6014
vt 0.8020 0.5435
vt 0.7990 0.5321
vt 0.8305 0.5209
vt 0.8318 0.5270
vt 0.8293 0.5147
vt 0.7890 0.5991
vt 0.7848 0.5935
vt 0.7893 0.5236
vt 0.7822 0.5447
vt 0.7801 0.5306
vt 0.7696 0.5813
vt 0.7606 0.5559
vt 0.8549 0.5205
vt 0.8579 0.5147
vt 0.8486 0.5230
vt 0.8453 0.5197
vt 0.8391 0.5197
vt 0.7768 0.5240
vt 0.8448 0.6011
vt 0.8507 0.5755
vt 0.7649 0.5410
vt 0.8422 0.5197
vt 0.8354 0.5234
vt 0.8066 0.5176
vt 0.8054 0.5133
vt 0.8218 0.6018
vt 0.8267 0.5994
vn -0.9473 0.0629 -0.3140
vn -0.9970 0.0475 0.0612
vn -0.9745 0.1218 -0.1884
vn -0.9813 -0.1039 -0.1620
vn -0.8814 -0.3054 -0.3603
vn -0.9547 -0.2969 0.0215
vn -0.8033 0.0226 -0.5951
vn -0.9821 0.0077 -0.1882
vn -0.8490 -0.0855 -0.5214
vn -0.9931 -0.0042 0.1171
vn -0.9760 -0.0780 0.2032
vn -0.2553 0.0928 -0.9624
vn -0.4166 0.1469 -0.8971
vn 0.1012 0.1499 -0.9835
vn -0.1587 -0.1250 0.9794
vn -0.1781 -0.3643 0.9141
vn 0.2109 -0.1689 0.9628
vn 0.0346 0.4772 0.8781
vn 0.2446 0.2588 0.9344
vn 0.6524 0.3378 0.6784
vn 0.0092 0.0013 -1.0000
vn -0.4451 0.0172 -0.8953
vn -0.2407 -0.9444 0.2242
vn -0.1679 -0.9742 -0.1509
vn 0.1547 -0.9880 0.0044
vn 0.4990 0.8506 -0.1657
vn -0.1334 0.8738 -0.4677
vn 0.2146 0.7748 0.5946
vn -0.6570 0.6272 -0.4182
vn -0.9540 0.2885 -0.0816
vn -0.8172 0.3879 0.4263
vn -0.5235 0.7284 0.4420
vn -0.3677 0.3403 0.8654
vn 0.0836 0.3411 -0.9363
vn -0.5738 0.3218 -0.7531
vn 0.5868 0.3363 -0.7366
vn 0.9201 0.3911 0.0225
vn -0.1628 -0.6826 0.7124
vn -0.2734 -0.8371 0.4738
vn 0.2120 -0.7703 0.6015
vn 0.1417 -0.9396 0.3117
vn 0.5624 -0.7970 -0.2204
vn 0.4895 -0.6373 -0.5952
vn 0.8018 -0.4230 -0.4221
vn -0.2177 -0.8777 -0.4270
vn -0.3329 -0.7425 -0.5813
vn 0.2244 -0.7519 -0.6199
vn -0.4639 -0.7376 -0.4907
vn -0.5594 -0.4911 -0.6678
vn -0.5184 -0.8070 0.2828
vn -0.4511 -0.8815 -0.1397
vn -0.6014 -0.6084 0.5179
vn 0.1359 0.0928 0.9864
vn 0.0082 0.0150 0.9999
vn 0.3815 -0.0018 0.9244
vn -0.1970 0.1039 0.9749
vn 0.5218 0.0772 0.8496
vn 0.2180 0.1472 0.9648
vn 0.9786 0.1022 -0.1787
vn 0.9997 0.0109 0.0212
vn 0.9433 0.0142 -0.3317
vn 0.9744 0.0807 0.2100
vn 0.8194 0.0976 -0.5648
vn 0.8359 0.1611 -0.5248
vn 0.9500 0.2432 0.1959
vn 0.9862 0.1531 -0.0633
vn 0.8646 0.2161 -0.4536
vn 0.2033 0.0830 -0.9756
vn -0.7138 0.0876 -0.6948
vn -0.9264 0.0944 0.3645
vn -0.7614 0.0989 0.6407
vn -0.7901 0.1658 0.5902
vn -0.9826 0.1832 0.0289
vn -0.9568 0.1362 0.2569
vn -0.8795 0.2328 0.4151
vn 0.5113 -0.7462 0.4264
vn 0.5878 -0.4630 0.6634
vn 0.1972 -0.9297 -0.3111
vn -0.5426 -0.1637 0.8239
vn -0.4957 0.0796 0.8648
vn -0.6822 -0.0155 0.7310
vn -0.3379 0.0083 0.9411
vn -0.1533 0.1585 0.9754
vn -0.5442 0.2382 0.8044
vn -0.0900 0.1965 0.9764
vn 0.9764 -0.1408 0.1639
vn 0.8986 -0.4356 -0.0535
vn 0.9750 -0.1416 -0.1715
vn 0.8362 -0.1573 0.5254
vn 0.8490 -0.4209 0.3195
vn 0.9328 0.0005 0.3604
vn 0.8266 0.0755 0.5578
vn 0.8958 0.1425 0.4210
vn 0.6377 0.1397 0.7575
vn 0.2856 -0.2602 -0.9223
vn 0.0866 -0.4513 -0.8882
vn -0.1651 -0.0914 -0.9820
vn 0.3561 -0.0175 -0.9343
vn 0.5866 -0.2486 -0.7707
vn -0.9275 0.0026 0.3739
vn -0.8098 0.1293 -0.5723
vn -0.0000 0.0141 0.9999
vn 0.0000 0.0176 0.9998
vn -0.5877 0.0196 0.8089
vn -0.5877 0.0157 0.8089
vn -0.5877 0.0141 -0.8089
vn -0.5877 0.0176 -0.8089
vn -0.0000 0.0196 -0.9998
vn -0.0000 0.0157 -0.9999
vn 0.9510 0.0141 0.3090
vn 0.9509 0.0176 0.3090
vn 0.5877 0.0196 0.8089
vn 0.5877 0.0157 0.8089
vn -0.9510 0.0141 0.3090
vn -0.9509 0.0176 0.3090
vn -0.9509 0.0196 -0.3090
vn -0.9509 0.0157 -0.3090
vn 0.5877 0.0141 -0.8089
vn 0.5877 0.0176 -0.8089
vn 0.9509 0.0196 -0.3090
vn 0.9509 0.0157 -0.3090
vn 0.5878 0.0107 -0.8090
vn 0.9510 0.0119 -0.3090
vn 0.0000 0.0119 -0.9999
vn -0.9510 0.0107 0.3090
vn -0.9510 0.0119 -0.3090
vn -0.5877 0.0119 0.8090
vn 0.9510 0.0107 0.3090
vn 0.5877 0.0119 0.8090
vn -0.5878 0.0107 -0.8090
vn -0.0000 0.0107 0.9999
vn -0.8963 0.1952 -0.3982
vn -0.5640 0.2185 -0.7964
vn -0.8302 -0.1658 0.5323
vn 0.5167 0.1393 -0.8448
vn 0.5416 0.0690 -0.8378
vn 0.4895 0.2087 -0.8467
vn 0.7110 -0.0045 -0.7032
vn 0.8410 -0.1427 -0.5219
vn -0.4658 -0.3150 -0.8269
vn -0.5723 -0.1166 -0.8117
vn -0.2601 -0.6257 -0.7354
vn 0.6874 0.2124 0.6945
vn 0.3450 0.1873 0.9197
vn 0.5662 -0.8163 0.1146
vn 0.7216 -0.0063 0.6922
vn 0.5560 -0.1884 0.8096
vn -0.4800 0.1551 0.8635
vn -0.6099 -0.4629 0.6432
vn -0.7975 -0.3837 0.4655
vn -0.7570 -0.6260 0.1872
vn -0.6613 -0.6027 -0.4466
vn 0.2711 -0.4716 0.8391
vn -0.7303 -0.6625 -0.1663
vn -0.6573 -0.3414 -0.6718
vn -0.0182 0.2190 -0.9756
usemtl None
s 1
f 1/1/1 105/2/2 147/3/3
f 4/4/4 140/5/5 85/6/6
f 1/1/1 135/7/7 97/8/8
f 4/4/4 136/9/9 140/5/5
f 1/1/1 78/10/10 105/2/2
f 4/4/4 85/6/6 96/11/11
f 9/12/12 146/13/13 95/14/14
f 12/15/15 84/16/16 134/17/17
f 15/18/18 52/19/19 113/20/20
f 1/1/1 97/8/8 78/10/10
f 9/12/12 62/21/21 127/22/22
f 19/23/23 79/24/24 128/25/25
f 22/26/26 115/27/27 143/28/28
f 23/29/29 77/30/30 69/31/31
f 15/32/18 90/33/32 142/34/33
f 23/29/29 107/35/34 94/36/35
f 22/26/26 45/37/36 115/27/27
f 22/38/26 76/39/37 45/40/36
f 15/18/18 142/41/33 52/19/19
f 22/38/26 143/42/28 76/39/37
f 13/43/38 86/44/39 75/45/40
f 19/23/23 128/25/25 130/46/41
f 21/47/42 138/48/43 73/49/44
f 20/50/45 100/51/46 88/52/47
f 20/53/45 114/54/48 109/55/49
f 19/56/23 51/57/50 59/58/51
f 19/56/23 86/59/39 150/60/52
f 28/61/53 149/62/54 63/63/55
f 28/61/53 151/64/56 149/62/54
f 28/61/53 102/65/57 50/66/58
f 31/67/59 126/68/60 139/69/61
f 31/67/59 58/70/62 126/68/60
f 31/67/59 68/71/63 101/72/64
f 17/73/65 98/74/66 83/75/67
f 9/76/12 82/77/68 62/78/21
f 1/1/1 125/79/69 135/7/7
f 2/80/70 44/81/71 122/82/72
f 3/83/73 144/84/74 132/85/75
f 23/29/29 94/36/35 77/30/30
f 25/86/76 81/87/77 75/45/40
f 20/50/45 88/52/47 133/88/78
f 20/53/45 109/55/49 100/89/46
f 19/56/23 59/58/51 79/90/24
f 19/56/23 150/60/52 51/57/50
f 28/61/53 63/63/55 102/65/57
f 12/91/15 70/92/79 84/93/16
f 29/94/80 53/95/81 103/96/82
f 28/61/53 61/97/83 151/64/56
f 24/98/84 61/97/83 145/99/85
f 32/100/86 60/101/87 92/102/88
f 31/67/59 139/69/61 68/71/63
f 32/100/86 57/103/89 87/104/90
f 32/100/86 119/105/91 57/103/89
f 32/100/86 87/104/90 60/101/87
f 30/106/92 148/107/93 65/108/94
f 31/67/59 98/74/66 58/70/62
f 18/109/95 112/110/96 111/111/97
f 18/112/95 93/113/98 48/114/99
f 9/76/12 95/115/14 82/77/68
f 2/80/70 80/116/100 44/81/71
f 1/1/1 67/117/101 125/79/69
f 1/1/1 147/3/3 67/117/101
f 156/118/102 74/119/103 36/120/104 124/121/105
f 155/122/106 64/123/107 40/124/108 118/125/109
f 154/126/110 89/127/111 35/128/112 129/129/113
f 153/130/114 120/131/115 39/132/116 106/133/117
f 152/134/118 104/135/119 43/136/120 72/137/121
f 137/138/122 152/134/118 72/137/121 42/139/123
f 41/140/124 118/141/109 152/134/118 137/138/122
f 118/141/109 40/142/108 104/135/119 152/134/118
f 55/143/125 153/130/114 106/133/117 38/144/126
f 37/145/127 124/121/105 153/130/114 55/143/125
f 124/121/105 36/120/104 120/131/115 153/130/114
f 56/146/128 154/126/110 129/129/113 34/147/129
f 42/139/123 72/137/121 154/126/110 56/146/128
f 72/137/121 43/136/120 89/127/111 154/126/110
f 108/148/130 155/122/106 118/125/109 41/149/124
f 38/144/126 106/133/117 155/122/106 108/148/130
f 106/133/117 39/132/116 64/123/107 155/122/106
f 131/150/131 156/118/102 124/121/105 37/145/127
f 34/147/129 129/129/113 156/118/102 131/150/131
f 129/129/113 35/128/112 74/119/103 156/118/102
f 67/117/101 49/151/132 10/152/133
f 67/117/101 147/3/3 49/151/132
f 147/3/3 3/83/73 49/151/132
f 125/79/69 146/13/13 9/12/12
f 125/79/69 67/117/101 146/13/13
f 67/117/101 10/152/133 146/13/13
f 44/81/71 53/95/81 29/94/80
f 44/81/71 80/116/100 53/95/81
f 80/116/100 8/153/134 53/95/81
f 82/77/68 99/154/135 33/155/136
f 82/77/68 95/115/14 99/154/135
f 95/115/14 11/156/137 99/154/135
f 48/114/99 141/157/138 26/158/139
f 48/114/99 93/113/98 141/157/138
f 93/113/98 33/155/136 141/157/138
f 111/111/97 47/159/140 7/160/141
f 111/111/97 112/110/96 47/159/140
f 112/110/96 27/161/142 47/159/140
f 58/70/62 148/107/93 30/106/92
f 58/70/62 98/74/66 148/107/93
f 98/74/66 17/73/65 148/107/93
f 65/108/94 116/162/143 16/163/144
f 65/108/94 148/107/93 116/162/143
f 148/107/93 17/73/65 116/162/143
f 60/101/87 110/164/145 21/47/42
f 60/101/87 87/104/90 110/164/145
f 87/104/90 25/86/76 110/164/145
f 57/103/89 54/165/146 14/166/147
f 57/103/89 119/105/91 54/165/146
f 119/105/91 30/106/92 54/165/146
f 87/104/90 81/87/77 25/86/76
f 87/104/90 57/103/89 81/87/77
f 57/103/89 14/166/147 81/87/77
f 68/71/63 141/157/138 33/155/136
f 68/71/63 139/69/61 141/157/138
f 139/69/61 26/158/139 141/157/138
f 92/102/88 73/49/44 26/158/139
f 92/102/88 60/101/87 73/49/44
f 60/101/87 21/47/42 73/49/44
f 145/99/85 50/66/58 16/163/144
f 145/99/85 61/97/83 50/66/58
f 61/97/83 28/61/53 50/66/58
f 151/64/56 117/167/148 29/168/80
f 151/64/56 61/97/83 117/167/148
f 61/97/83 24/98/84 117/167/148
f 103/96/82 70/92/79 12/91/15
f 103/96/82 53/95/81 70/92/79
f 53/95/81 8/153/134 70/92/79
f 84/93/16 123/169/149 13/170/38
f 84/93/16 70/92/79 123/169/149
f 70/92/79 8/153/134 123/169/149
f 102/65/57 54/165/146 30/106/92
f 102/65/57 63/63/55 54/165/146
f 63/63/55 14/166/147 54/165/146
f 51/57/50 66/171/150 6/172/151
f 51/57/50 150/60/52 66/171/150
f 150/60/52 8/153/134 66/171/150
f 79/90/24 114/54/48 20/53/45
f 79/90/24 59/58/51 114/54/48
f 59/58/51 5/173/152 114/54/48
f 100/89/46 47/159/140 27/161/142
f 100/89/46 109/55/49 47/159/140
f 109/55/49 7/160/141 47/159/140
f 133/88/78 138/48/43 21/47/42
f 133/88/78 88/52/47 138/48/43
f 88/52/47 18/112/95 138/48/43
f 75/45/40 46/174/153 13/43/38
f 75/45/40 81/87/77 46/174/153
f 81/87/77 14/166/147 46/174/153
f 77/30/30 49/151/132 3/83/73
f 77/30/30 94/36/35 49/151/132
f 94/36/35 10/152/133 49/151/132
f 132/85/75 122/82/72 24/175/84
f 132/85/75 144/84/74 122/82/72
f 144/84/74 2/80/70 122/82/72
f 122/82/72 117/176/148 24/175/84
f 122/82/72 44/81/71 117/176/148
f 44/81/71 29/94/80 117/176/148
f 135/7/7 127/22/22 7/160/141
f 135/7/7 125/79/69 127/22/22
f 125/79/69 9/12/12 127/22/22
f 62/78/21 93/113/98 18/112/95
f 62/78/21 82/77/68 93/113/98
f 82/77/68 33/155/136 93/113/98
f 83/75/67 101/72/64 11/156/137
f 83/75/67 98/74/66 101/72/64
f 98/74/66 31/67/59 101/72/64
f 101/72/64 99/154/135 11/156/137
f 101/72/64 68/71/63 99/154/135
f 68/71/63 33/155/136 99/154/135
f 126/68/60 119/105/91 32/100/86
f 126/68/60 58/70/62 119/105/91
f 58/70/62 30/106/92 119/105/91
f 139/69/61 92/102/88 26/158/139
f 139/69/61 126/68/60 92/102/88
f 126/68/60 32/100/86 92/102/88
f 50/66/58 65/108/94 16/163/144
f 50/66/58 102/65/57 65/108/94
f 102/65/57 30/106/92 65/108/94
f 149/62/54 103/177/82 12/15/15
f 149/62/54 151/64/56 103/177/82
f 151/64/56 29/168/80 103/177/82
f 63/63/55 134/17/17 14/166/147
f 63/63/55 149/62/54 134/17/17
f 149/62/54 12/15/15 134/17/17
f 150/60/52 123/169/149 8/153/134
f 150/60/52 86/59/39 123/169/149
f 86/59/39 13/170/38 123/169/149
f 59/58/51 71/178/154 5/173/152
f 59/58/51 51/57/50 71/178/154
f 51/57/50 6/172/151 71/178/154
f 109/55/49 121/179/155 7/160/141
f 109/55/49 114/54/48 121/179/155
f 114/54/48 5/173/152 121/179/155
f 88/52/47 112/180/96 18/112/95
f 88/52/47 100/51/46 112/180/96
f 100/51/46 27/181/142 112/180/96
f 73/49/44 48/114/99 26/158/139
f 73/49/44 138/48/43 48/114/99
f 138/48/43 18/112/95 48/114/99
f 130/46/41 110/164/145 25/86/76
f 130/46/41 128/25/25 110/164/145
f 128/25/25 21/47/42 110/164/145
f 75/45/40 130/46/41 25/86/76
f 75/45/40 86/44/39 130/46/41
f 86/44/39 19/23/23 130/46/41
f 76/39/37 113/20/20 17/73/65
f 76/39/37 143/42/28 113/20/20
f 143/42/28 15/18/18 113/20/20
f 52/19/19 145/99/85 16/163/144
f 52/19/19 142/41/33 145/99/85
f 142/41/33 24/98/84 145/99/85
f 45/40/36 83/75/67 11/156/137
f 45/40/36 76/39/37 83/75/67
f 76/39/37 17/73/65 83/75/67
f 115/27/27 107/35/34 23/29/29
f 115/27/27 45/37/36 107/35/34
f 45/37/36 11/182/137 107/35/34
f 94/36/35 91/183/156 10/152/133
f 94/36/35 107/35/34 91/183/156
f 107/35/34 11/182/137 91/183/156
f 142/34/33 69/31/31 24/175/84
f 142/34/33 90/33/32 69/31/31
f 90/33/32 23/29/29 69/31/31
f 69/31/31 132/85/75 24/175/84
f 69/31/31 77/30/30 132/85/75
f 77/30/30 3/83/73 132/85/75
f 143/28/28 90/33/32 15/32/18
f 143/28/28 115/27/27 90/33/32
f 115/27/27 23/29/29 90/33/32
f 128/25/25 133/88/78 21/47/42
f 128/25/25 79/24/24 133/88/78
f 79/24/24 20/50/45 133/88/78
f 127/22/22 111/111/97 7/160/141
f 127/22/22 62/21/21 111/111/97
f 62/21/21 18/109/95 111/111/97
f 78/10/10 96/11/11 8/153/134
f 78/10/10 97/8/8 96/11/11
f 97/8/8 4/4/4 96/11/11
f 113/20/20 116/162/143 17/73/65
f 113/20/20 52/19/19 116/162/143
f 52/19/19 16/163/144 116/162/143
f 134/17/17 46/174/153 14/166/147
f 134/17/17 84/16/16 46/174/153
f 84/16/16 13/43/38 46/174/153
f 95/14/14 91/183/156 11/182/137
f 95/14/14 146/13/13 91/183/156
f 146/13/13 10/152/133 91/183/156
f 96/11/11 66/171/150 8/153/134
f 96/11/11 85/6/6 66/171/150
f 85/6/6 6/172/151 66/171/150
f 105/2/2 80/116/100 2/80/70
f 105/2/2 78/10/10 80/116/100
f 78/10/10 8/153/134 80/116/100
f 140/5/5 121/179/155 5/173/152
f 140/5/5 136/9/9 121/179/155
f 136/9/9 7/160/141 121/179/155
f 97/8/8 136/9/9 4/4/4
f 97/8/8 135/7/7 136/9/9
f 135/7/7 7/160/141 136/9/9
f 85/6/6 71/178/154 6/172/151
f 85/6/6 140/5/5 71/178/154
f 140/5/5 5/173/152 71/178/154
f 147/3/3 144/84/74 3/83/73
f 147/3/3 105/2/2 144/84/74
f 105/2/2 2/80/70 144/84/74
