# Blender v2.78 (sub 0) OBJ File: ''
# www.blender.org
mtllib Thuja_Tree_s_06.mtl
o Thuja_Tree_s_06
v 0.055004 0.000998 0.075706
v 0.048725 0.732503 0.067064
v -0.048725 0.732503 0.067064
v -0.055004 0.000998 0.075706
v -0.088998 0.000998 -0.028917
v -0.078838 0.732503 -0.025616
v 0.000000 0.732503 -0.082896
v 0.000000 0.000998 -0.093578
v 0.088998 0.000998 -0.028917
v 0.078838 0.732503 -0.025616
v -0.863547 1.348603 0.000000
v -0.821100 1.348603 0.351566
v -0.804980 1.699005 0.350402
v -0.821100 1.700169 0.000000
v -0.652855 2.001459 0.334806
v -0.653467 2.002071 0.000000
v -0.653467 1.348603 0.653468
v -0.652855 1.683409 0.652856
v -0.582560 1.931164 0.582561
v -0.804980 1.699005 -0.350400
v -0.821100 1.348604 -0.351564
v -0.652855 1.683410 -0.652855
v -0.653467 1.348603 -0.653467
v -0.652855 2.001459 -0.334805
v -0.582560 1.931164 -0.582560
v -0.804980 0.998203 -0.350400
v -0.821100 0.997039 0.000000
v -0.652855 0.695748 -0.334806
v -0.653467 0.695136 0.000000
v -0.652855 1.013798 -0.652855
v -0.582560 0.766043 -0.582560
v -0.804980 0.998203 0.350401
v -0.652855 1.013798 0.652855
v -0.652855 0.695748 0.334806
v -0.582560 0.766043 0.582561
v 0.000000 1.348604 -0.863546
v -0.351565 1.348604 -0.821099
v -0.350401 1.699005 -0.804979
v 0.000000 1.700169 -0.821099
v -0.334806 2.001459 -0.652855
v 0.000000 2.002071 -0.653467
v 0.350401 1.699005 -0.804979
v 0.351565 1.348604 -0.821099
v 0.652855 1.683410 -0.652855
v 0.653467 1.348603 -0.653467
v 0.334806 2.001459 -0.652855
v 0.582560 1.931164 -0.582560
v 0.350401 0.998203 -0.804980
v 0.000000 0.997039 -0.821099
v 0.334806 0.695748 -0.652855
v 0.000000 0.695136 -0.653467
v 0.652855 1.013798 -0.652855
v 0.582560 0.766043 -0.582560
v -0.350401 0.998203 -0.804980
v -0.334806 0.695749 -0.652855
v 0.863547 1.348603 0.000000
v 0.821100 1.348604 -0.351564
v 0.804980 1.699005 -0.350400
v 0.821100 1.700169 0.000000
v 0.652855 2.001459 -0.334805
v 0.653467 2.002071 0.000000
v 0.804980 1.699005 0.350402
v 0.821100 1.348604 0.351566
v 0.652855 1.683409 0.652856
v 0.653467 1.348603 0.653468
v 0.652855 2.001459 0.334806
v 0.582560 1.931164 0.582561
v 0.804980 0.998203 0.350401
v 0.821100 0.997039 0.000000
v 0.652855 0.695748 0.334806
v 0.653467 0.695136 0.000000
v 0.652855 1.013798 0.652855
v 0.582560 0.766043 0.582561
v 0.804980 0.998203 -0.350400
v 0.652855 0.695748 -0.334806
v 0.000000 1.348603 0.863548
v 0.351565 1.348604 0.821101
v 0.350401 1.699005 0.804980
v 0.000000 1.700169 0.821101
v 0.334806 2.001459 0.652856
v 0.000000 2.002071 0.653468
v -0.350401 1.699004 0.804980
v -0.351565 1.348604 0.821101
v -0.334806 2.001459 0.652855
v -0.350401 0.998203 0.804980
v 0.000000 0.997039 0.821100
v -0.334806 0.695748 0.652855
v 0.000000 0.695136 0.653468
v 0.350401 0.998203 0.804980
v 0.334806 0.695748 0.652855
v 0.000000 0.485057 0.000000
v 0.000000 0.527504 0.351565
v -0.350401 0.543624 0.350401
v -0.351565 0.527504 0.000000
v -0.350401 0.543624 -0.350400
v 0.000000 0.527504 -0.351564
v 0.350401 0.543624 -0.350400
v 0.351565 0.527504 0.000000
v 0.350401 0.543624 0.350401
v 0.000000 2.212151 0.000000
v 0.000000 2.169704 0.351566
v 0.350401 2.153584 0.350402
v 0.351565 2.169704 0.000000
v 0.350401 2.153584 -0.350400
v 0.000000 2.169704 -0.351564
v -0.350401 2.153584 -0.350400
v -0.351565 2.169704 0.000000
v -0.350401 2.153584 0.350402
v -0.509346 1.006639 0.741289
v 0.619287 0.875468 -0.619287
v -0.655922 2.004525 -0.170768
v 0.473135 0.729316 -0.619287
v 0.170768 2.004525 -0.655922
v 0.000000 0.838757 -0.747423
v 0.509346 1.690569 -0.741289
v 0.341965 1.857949 0.741289
v 0.176612 1.700225 -0.819220
v 0.741289 1.006639 0.509346
v -0.819220 1.171992 0.351622
v 0.509346 1.690569 0.741289
v 0.176612 0.996982 0.819221
v 0.351621 1.525215 0.819221
v 0.655922 2.004526 -0.170768
v -0.341965 0.839258 0.741289
v -0.850745 1.526268 0.000000
v -0.741289 0.839258 0.341965
v 0.000000 2.096027 -0.509846
v 0.000000 0.601180 -0.509846
v -0.341965 1.857949 -0.741289
v 0.741289 1.006639 -0.509345
v 0.351621 0.529384 0.176612
v -0.747423 1.858450 0.000000
v 0.087446 0.366750 -0.028413
v -0.473135 0.729316 -0.619287
v 0.045910 0.732503 -0.063191
v 0.655922 1.519372 0.655922
v -0.619287 1.821739 -0.619287
v -0.819220 1.700225 0.176612
v 0.170768 2.004526 0.655922
v -0.351621 1.525216 -0.819220
v -0.747423 1.348604 -0.509846
v 0.509346 2.089892 0.341965
v -0.473135 1.967891 -0.619287
v -0.176612 2.167824 0.351622
v 0.747423 1.348604 -0.509846
v -0.619287 1.967891 -0.473135
v -0.087446 0.366750 -0.028413
v -0.509847 0.601180 0.000000
v -0.619287 1.967891 0.473135
v -0.819220 1.525215 -0.351621
v -0.074285 0.732503 0.024137
v -0.176612 0.529384 0.351622
v 0.341965 0.607314 0.509346
v 0.176612 0.529384 0.351622
v 0.655922 0.692681 -0.170768
v -0.351621 2.167824 0.176612
v -0.655922 0.692681 -0.170768
v 0.509346 1.006639 0.741289
v -0.176612 0.996983 -0.819220
v 0.619287 1.821739 -0.619287
v 0.054045 0.366750 0.074386
v 0.819220 1.700225 0.176612
v -0.509346 2.089892 0.341965
v 0.351621 2.167824 -0.176611
v 0.619287 0.729316 -0.473135
v 0.509847 1.348604 -0.747423
v 0.619287 0.875468 0.619287
v -0.850745 1.170940 0.000000
v 0.341965 0.607315 -0.509345
v 0.177664 1.348604 -0.850745
v 0.351621 1.525216 -0.819220
v 0.177664 1.348604 0.850747
v 0.741289 1.857949 -0.341964
v 0.341965 2.089892 0.509346
v -0.741289 1.006639 0.509346
v 0.170768 0.692681 0.655922
v -0.170768 0.692681 0.655922
v 0.473135 1.967891 -0.619287
v -0.509346 1.690569 -0.741289
v 0.741289 1.690569 0.509346
v -0.747423 1.348603 0.509847
v -0.509346 2.089892 -0.341964
v 0.619287 0.729316 0.473135
v 0.850745 1.170940 0.000000
v -0.819220 1.525215 0.351622
v 0.747423 0.838757 0.000000
v -0.170768 2.004525 0.655922
v 0.819220 0.996983 0.176612
v 0.819220 1.525215 -0.351621
v -0.341965 0.607315 -0.509345
v 0.000000 1.170939 0.850747
v -0.509847 1.348603 0.747424
v -0.176612 1.700225 -0.819220
v 0.341965 0.839258 -0.741289
v -0.741289 1.857949 0.341965
v 0.000000 0.497858 -0.177664
v 0.655922 2.004525 0.170769
v -0.509346 1.006639 -0.741289
v 0.000000 1.858451 -0.747423
v 0.000000 0.497858 0.177665
v 0.000000 1.526268 -0.850745
v -0.341965 2.089892 -0.509345
v 0.850745 1.526268 0.000000
v -0.509346 0.607314 0.341965
v -0.741289 1.690569 -0.509345
v 0.655922 1.177835 -0.655922
v -0.619287 0.729316 0.473135
v -0.473135 0.729316 0.619287
v 0.850745 1.348603 0.177665
v -0.741289 1.006639 -0.509345
v 0.052120 0.000998 -0.071736
v 0.177664 0.497858 0.000000
v -0.176612 0.529384 -0.351621
v -0.341965 0.839258 -0.741289
v 0.176612 2.167824 -0.351621
v -0.084331 0.000998 0.027401
v 0.000000 2.199349 -0.177664
v -0.819220 0.996983 0.176612
v -0.341965 0.607314 0.509346
v 0.000000 2.096027 0.509847
v 0.473135 1.967891 0.619288
v -0.509847 1.348604 -0.747423
v -0.509847 2.096027 0.000000
v 0.509346 0.607314 0.341965
v 0.619287 1.967891 -0.473135
v 0.170768 0.692682 -0.655922
v 0.341965 1.857949 -0.741289
v -0.655922 1.177835 0.655922
v 0.000000 2.199349 0.177665
v 0.351621 1.171992 -0.819220
v 0.741289 0.839258 0.341965
v 0.747423 1.858450 0.000000
v 0.741289 1.690569 -0.509345
v 0.819220 1.171992 -0.351621
v -0.655922 0.692681 0.170769
v -0.177664 1.348603 0.850747
v 0.655922 1.177835 0.655922
v 0.819220 1.700225 -0.176611
v -0.351621 1.171992 0.819221
v -0.850745 1.348604 0.177665
v -0.473135 1.967891 0.619288
v 0.819220 1.525215 0.351622
v 0.176612 0.529384 -0.351621
v 0.351621 1.171992 0.819221
v 0.747423 1.348603 0.509847
v -0.341965 2.089892 0.509346
v -0.509346 1.690569 0.741289
v 0.074285 0.732503 0.024137
v -0.655922 1.519372 -0.655922
v -0.655922 2.004526 0.170769
v 0.509847 2.096027 0.000000
v -0.351621 1.525215 0.819221
v 0.619287 1.821739 0.619288
v -0.052120 0.000998 -0.071736
v 0.509346 0.607315 -0.341965
v -0.351621 0.529384 -0.176611
v 0.000000 0.366751 -0.091946
v -0.176612 2.167824 -0.351621
v -0.619287 0.729316 -0.473135
v -0.619287 1.821739 0.619288
v -0.054045 0.366750 0.074386
v -0.747423 0.838757 0.000000
v 0.000000 0.000998 0.088671
v 0.509847 0.601180 0.000000
v 0.000000 1.526268 0.850747
v 0.509847 1.348603 0.747424
v -0.819220 0.996983 -0.176611
v 0.176612 1.700225 0.819221
v -0.850745 1.348603 -0.177664
v 0.176612 2.167824 0.351622
v -0.619287 0.875468 -0.619287
v 0.000000 1.858450 0.747424
v 0.655922 1.519372 -0.655922
v 0.741289 0.839258 -0.341965
v 0.000000 0.838757 0.747424
v 0.000000 1.170940 -0.850745
v 0.655922 0.692681 0.170769
v 0.000000 0.601180 0.509847
v -0.509346 0.607315 -0.341965
v -0.176612 0.996982 0.819221
v -0.341965 1.857949 0.741289
v -0.176612 1.700225 0.819221
v 0.341965 2.089892 -0.509345
v 0.351621 0.529384 -0.176611
v -0.177664 0.497858 0.000000
v 0.176612 0.996983 -0.819220
v 0.741289 1.857949 0.341965
v -0.819220 1.171992 -0.351621
v 0.509346 1.006639 -0.741289
v -0.170768 2.004526 -0.655922
v -0.655922 1.177835 -0.655922
v 0.084331 0.000998 0.027401
v 0.509346 2.089892 -0.341964
v -0.045910 0.732503 -0.063191
v -0.177664 2.199349 0.000000
v -0.177664 1.348604 -0.850745
v 0.619287 1.967891 0.473135
v -0.351621 1.171992 -0.819220
v 0.819220 1.171992 0.351622
v -0.619287 0.875468 0.619287
v -0.741289 1.857949 -0.341964
v 0.341965 0.839258 0.741289
v -0.351621 0.529384 0.176612
v -0.819220 1.700225 -0.176611
v -0.351621 2.167824 -0.176611
v 0.177664 2.199349 0.000000
v -0.655922 1.519372 0.655922
v -0.170768 0.692682 -0.655922
v 0.000000 0.732503 0.078108
v 0.819220 0.996983 -0.176611
v 0.850745 1.348604 -0.177664
v -0.741289 1.690569 0.509346
v 0.351621 2.167824 0.176612
v -0.741289 0.839258 -0.341965
v 0.473135 0.729316 0.619287
v -0.489541 2.040207 0.489541
v -0.511296 2.097430 0.173371
v -0.173371 2.097430 0.511296
v -0.177457 2.190888 0.177458
v -0.489541 2.040207 -0.489540
v -0.173371 2.097430 -0.511295
v -0.511296 2.097430 -0.173370
v -0.177457 2.190888 -0.177457
v 0.489541 2.040207 -0.489540
v 0.511296 2.097430 -0.173370
v 0.173371 2.097430 -0.511295
v 0.177457 2.190888 -0.177457
v 0.489541 2.040207 0.489541
v 0.173371 2.097430 0.511296
v 0.511296 2.097430 0.173371
v 0.177457 2.190888 0.177458
v 0.489541 0.657000 0.489541
v 0.511296 0.599777 0.173371
v 0.173371 0.599777 0.511296
v 0.177457 0.506320 0.177458
v 0.489541 0.657000 -0.489540
v 0.173371 0.599777 -0.511295
v 0.511296 0.599777 -0.173371
v 0.177457 0.506320 -0.177457
v -0.489541 0.657000 -0.489540
v -0.511296 0.599777 -0.173371
v -0.173371 0.599777 -0.511295
v -0.177457 0.506320 -0.177457
v -0.489541 0.657000 0.489541
v -0.173371 0.599777 0.511296
v -0.511296 0.599777 0.173371
v -0.177457 0.506320 0.177458
v 0.489541 0.859063 0.691604
v 0.173371 0.837308 0.748827
v 0.511296 1.175233 0.748827
v 0.177457 1.171146 0.842285
v -0.489541 0.859063 0.691604
v -0.511296 1.175233 0.748827
v -0.173371 0.837308 0.748827
v -0.177457 1.171146 0.842285
v -0.489541 1.838144 0.691604
v -0.173371 1.859899 0.748827
v -0.511296 1.521974 0.748827
v -0.177457 1.526061 0.842285
v 0.489541 1.838144 0.691604
v 0.511296 1.521974 0.748827
v 0.173371 1.859899 0.748827
v 0.177457 1.526061 0.842285
v 0.691604 0.859063 -0.489540
v 0.748827 0.837308 -0.173371
v 0.748827 1.175233 -0.511295
v 0.842284 1.171147 -0.177457
v 0.691604 0.859063 0.489541
v 0.748827 1.175233 0.511296
v 0.748827 0.837308 0.173371
v 0.842284 1.171147 0.177458
v 0.691604 1.838144 0.489541
v 0.748827 1.859899 0.173371
v 0.748827 1.521974 0.511296
v 0.842284 1.526061 0.177458
v 0.691604 1.838144 -0.489540
v 0.748827 1.521975 -0.511295
v 0.748827 1.859900 -0.173370
v 0.842284 1.526061 -0.177457
v -0.489541 0.859063 -0.691604
v -0.173371 0.837308 -0.748827
v -0.511296 1.175233 -0.748827
v -0.177457 1.171147 -0.842284
v 0.489541 0.859063 -0.691604
v 0.511296 1.175233 -0.748827
v 0.173371 0.837308 -0.748827
v 0.177457 1.171147 -0.842284
v 0.489541 1.838144 -0.691603
v 0.173371 1.859899 -0.748826
v 0.511296 1.521974 -0.748827
v 0.177457 1.526061 -0.842284
v -0.489541 1.838144 -0.691603
v -0.511296 1.521975 -0.748827
v -0.173371 1.859900 -0.748826
v -0.177457 1.526061 -0.842284
v -0.691604 0.859063 0.489541
v -0.748827 0.837308 0.173371
v -0.748827 1.175233 0.511296
v -0.842284 1.171147 0.177458
v -0.691604 0.859063 -0.489540
v -0.748827 1.175233 -0.511295
v -0.748827 0.837308 -0.173371
v -0.842284 1.171147 -0.177457
v -0.691604 1.838144 -0.489540
v -0.748827 1.859899 -0.173370
v -0.748827 1.521974 -0.511295
v -0.842284 1.526061 -0.177457
v -0.691604 1.838144 0.489541
v -0.748827 1.521974 0.511296
v -0.748827 1.859900 0.173371
v -0.842284 1.526061 0.177458
v 0.049015 0.366750 -0.067463
v -0.079308 0.366750 0.025769
v 0.079308 0.366750 0.025769
v -0.049015 0.366750 -0.067463
v 0.000000 0.366750 0.083390
vt 0.3089 0.8126
vt 0.3089 0.8581
vt 0.3034 0.8581
vt 0.3030 0.8126
vt 0.2850 0.8131
vt 0.2869 0.8585
vt 0.2814 0.8588
vt 0.2790 0.8133
vt 0.3209 0.8127
vt 0.3199 0.8582
vt 0.3144 0.8581
vt 0.3149 0.8126
vt 0.2970 0.8127
vt 0.2979 0.8582
vt 0.2924 0.8583
vt 0.2910 0.8128
vt 0.3328 0.8131
vt 0.3309 0.8585
vt 0.3254 0.8583
vt 0.3268 0.8128
vt 0.5587 0.5351
vt 0.5567 0.5337
vt 0.5582 0.5317
vt 0.5602 0.5331
vt 0.5616 0.5311
vt 0.5596 0.5297
vt 0.5610 0.5277
vt 0.5631 0.5290
vt 0.5547 0.5322
vt 0.5527 0.5307
vt 0.5543 0.5288
vt 0.5562 0.5303
vt 0.5577 0.5286
vt 0.5558 0.5274
vt 0.5573 0.5260
vt 0.5591 0.5268
vt 0.5627 0.5379
vt 0.5641 0.5360
vt 0.5660 0.5374
vt 0.5646 0.5394
vt 0.5667 0.5408
vt 0.5680 0.5387
vt 0.5700 0.5401
vt 0.5687 0.5422
vt 0.5655 0.5339
vt 0.5670 0.5319
vt 0.5689 0.5335
vt 0.5674 0.5354
vt 0.5691 0.5369
vt 0.5703 0.5350
vt 0.5717 0.5365
vt 0.5709 0.5383
vt 0.5599 0.5419
vt 0.5619 0.5433
vt 0.5604 0.5452
vt 0.5584 0.5439
vt 0.5570 0.5459
vt 0.5590 0.5472
vt 0.5576 0.5492
vt 0.5555 0.5479
vt 0.5638 0.5447
vt 0.5658 0.5462
vt 0.5642 0.5481
vt 0.5623 0.5466
vt 0.5609 0.5483
vt 0.5627 0.5495
vt 0.5613 0.5509
vt 0.5595 0.5501
vt 0.5559 0.5391
vt 0.5545 0.5411
vt 0.5525 0.5396
vt 0.5539 0.5376
vt 0.5519 0.5362
vt 0.5505 0.5382
vt 0.5485 0.5368
vt 0.5498 0.5347
vt 0.5530 0.5430
vt 0.5515 0.5450
vt 0.5496 0.5434
vt 0.5511 0.5415
vt 0.5494 0.5401
vt 0.5482 0.5419
vt 0.5468 0.5405
vt 0.5476 0.5387
vt 0.5776 0.5467
vt 0.5739 0.5450
vt 0.5753 0.5420
vt 0.5795 0.5430
vt 0.5797 0.5391
vt 0.5757 0.5389
vt 0.5762 0.5357
vt 0.5799 0.5352
vt 0.5713 0.5436
vt 0.5726 0.5410
vt 0.5733 0.5386
vt 0.5739 0.5361
vt 0.5729 0.6036
vt 0.5699 0.6065
vt 0.5677 0.6030
vt 0.5701 0.6006
vt 0.5680 0.5986
vt 0.5660 0.6007
vt 0.5642 0.5985
vt 0.5658 0.5966
vt 0.5663 0.6080
vt 0.5626 0.6094
vt 0.5620 0.6057
vt 0.5648 0.6043
vt 0.5638 0.6021
vt 0.5616 0.6035
vt 0.5613 0.6012
vt 0.5627 0.5998
vt 0.5776 0.5970
vt 0.5739 0.5953
vt 0.5753 0.5923
vt 0.5795 0.5933
vt 0.5797 0.5894
vt 0.5757 0.5892
vt 0.5762 0.5861
vt 0.5799 0.5855
vt 0.5713 0.5940
vt 0.5687 0.5926
vt 0.5700 0.5905
vt 0.5726 0.5914
vt 0.5733 0.5889
vt 0.5709 0.5886
vt 0.5717 0.5868
vt 0.5739 0.5864
vt 0.5729 0.5533
vt 0.5699 0.5562
vt 0.5677 0.5526
vt 0.5701 0.5503
vt 0.5680 0.5483
vt 0.5660 0.5504
vt 0.5663 0.5577
vt 0.5626 0.5591
vt 0.5620 0.5554
vt 0.5648 0.5540
vt 0.5638 0.5518
vt 0.5616 0.5531
vt 0.5599 0.5922
vt 0.5619 0.5936
vt 0.5604 0.5956
vt 0.5584 0.5942
vt 0.5570 0.5962
vt 0.5590 0.5976
vt 0.5576 0.5996
vt 0.5555 0.5983
vt 0.5638 0.5951
vt 0.5623 0.5971
vt 0.5609 0.5987
vt 0.5595 0.6004
vt 0.5559 0.5894
vt 0.5545 0.5914
vt 0.5525 0.5899
vt 0.5539 0.5879
vt 0.5519 0.5865
vt 0.5505 0.5885
vt 0.5485 0.5871
vt 0.5498 0.5850
vt 0.5530 0.5934
vt 0.5515 0.5954
vt 0.5496 0.5938
vt 0.5511 0.5919
vt 0.5494 0.5904
vt 0.5482 0.5923
vt 0.5468 0.5908
vt 0.5476 0.5890
vt 0.5587 0.5854
vt 0.5567 0.5840
vt 0.5582 0.5820
vt 0.5602 0.5834
vt 0.5616 0.5814
vt 0.5596 0.5800
vt 0.5610 0.5781
vt 0.5631 0.5794
vt 0.5547 0.5825
vt 0.5527 0.5811
vt 0.5543 0.5791
vt 0.5562 0.5806
vt 0.5577 0.5789
vt 0.5558 0.5777
vt 0.5573 0.5764
vt 0.5591 0.5773
vt 0.5627 0.5882
vt 0.5641 0.5863
vt 0.5660 0.5877
vt 0.5646 0.5897
vt 0.5667 0.5911
vt 0.5680 0.5891
vt 0.5655 0.5842
vt 0.5670 0.5822
vt 0.5689 0.5838
vt 0.5674 0.5857
vt 0.5691 0.5872
vt 0.5703 0.5853
vt 0.5409 0.5806
vt 0.5447 0.5823
vt 0.5432 0.5853
vt 0.5391 0.5842
vt 0.5389 0.5882
vt 0.5428 0.5884
vt 0.5424 0.5915
vt 0.5387 0.5921
vt 0.5473 0.5837
vt 0.5459 0.5862
vt 0.5452 0.5887
vt 0.5446 0.5911
vt 0.5457 0.5236
vt 0.5486 0.5207
vt 0.5509 0.5243
vt 0.5485 0.5266
vt 0.5506 0.5286
vt 0.5526 0.5265
vt 0.5523 0.5193
vt 0.5560 0.5179
vt 0.5565 0.5216
vt 0.5537 0.5229
vt 0.5547 0.5252
vt 0.5569 0.5238
vt 0.5409 0.5302
vt 0.5447 0.5319
vt 0.5432 0.5350
vt 0.5391 0.5339
vt 0.5389 0.5379
vt 0.5428 0.5381
vt 0.5424 0.5412
vt 0.5387 0.5418
vt 0.5473 0.5333
vt 0.5459 0.5359
vt 0.5452 0.5384
vt 0.5446 0.5408
vt 0.5457 0.5740
vt 0.5486 0.5711
vt 0.5509 0.5747
vt 0.5485 0.5770
vt 0.5506 0.5790
vt 0.5526 0.5769
vt 0.5523 0.5696
vt 0.5560 0.5682
vt 0.5565 0.5719
vt 0.5537 0.5733
vt 0.5547 0.5755
vt 0.5569 0.5741
vt 0.5445 0.5521
vt 0.5415 0.5491
vt 0.5451 0.5469
vt 0.5474 0.5493
vt 0.5495 0.5471
vt 0.5473 0.5451
vt 0.5401 0.5455
vt 0.5437 0.5440
vt 0.5460 0.5430
vt 0.5511 0.5568
vt 0.5528 0.5531
vt 0.5558 0.5545
vt 0.5547 0.5587
vt 0.5587 0.5589
vt 0.5589 0.5549
vt 0.5541 0.5505
vt 0.5567 0.5518
vt 0.5592 0.5525
vt 0.5741 0.5752
vt 0.5770 0.5781
vt 0.5734 0.5804
vt 0.5711 0.5780
vt 0.5691 0.5801
vt 0.5712 0.5821
vt 0.5785 0.5818
vt 0.5748 0.5832
vt 0.5725 0.5843
vt 0.5675 0.5705
vt 0.5658 0.5742
vt 0.5628 0.5727
vt 0.5638 0.5686
vt 0.5599 0.5684
vt 0.5597 0.5723
vt 0.5644 0.5768
vt 0.5619 0.5754
vt 0.5594 0.5748
vt 0.5445 0.6024
vt 0.5415 0.5995
vt 0.5451 0.5972
vt 0.5474 0.5996
vt 0.5495 0.5975
vt 0.5473 0.5955
vt 0.5401 0.5958
vt 0.5437 0.5943
vt 0.5460 0.5933
vt 0.5511 0.6071
vt 0.5528 0.6035
vt 0.5558 0.6049
vt 0.5547 0.6090
vt 0.5587 0.6092
vt 0.5589 0.6053
vt 0.5541 0.6008
vt 0.5567 0.6022
vt 0.5592 0.6028
vt 0.5741 0.5249
vt 0.5770 0.5278
vt 0.5734 0.5301
vt 0.5711 0.5277
vt 0.5691 0.5298
vt 0.5712 0.5318
vt 0.5785 0.5315
vt 0.5748 0.5329
vt 0.5725 0.5339
vt 0.5675 0.5201
vt 0.5658 0.5239
vt 0.5628 0.5224
vt 0.5638 0.5183
vt 0.5599 0.5181
vt 0.5597 0.5220
vt 0.5644 0.5265
vt 0.5619 0.5251
vt 0.5594 0.5244
vt 0.5688 0.5253
vt 0.5669 0.5279
vt 0.5651 0.5304
vt 0.5602 0.5142
vt 0.5554 0.5142
vt 0.5649 0.5142
vt 0.5692 0.5164
vt 0.5736 0.5186
vt 0.5712 0.5220
vt 0.5806 0.5255
vt 0.5821 0.5301
vt 0.5836 0.5346
vt 0.5771 0.5221
vt 0.5498 0.6020
vt 0.5516 0.5994
vt 0.5534 0.5969
vt 0.5584 0.6131
vt 0.5632 0.6131
vt 0.5537 0.6131
vt 0.5494 0.6108
vt 0.5450 0.6086
vt 0.5474 0.6053
vt 0.5380 0.6018
vt 0.5365 0.5972
vt 0.5350 0.5927
vt 0.5415 0.6052
vt 0.5688 0.5756
vt 0.5669 0.5782
vt 0.5651 0.5807
vt 0.5602 0.5645
vt 0.5554 0.5645
vt 0.5649 0.5645
vt 0.5692 0.5667
vt 0.5736 0.5690
vt 0.5712 0.5723
vt 0.5806 0.5758
vt 0.5821 0.5804
vt 0.5836 0.5849
vt 0.5771 0.5724
vt 0.5498 0.5517
vt 0.5516 0.5491
vt 0.5534 0.5466
vt 0.5584 0.5628
vt 0.5632 0.5628
vt 0.5537 0.5628
vt 0.5494 0.5605
vt 0.5450 0.5583
vt 0.5474 0.5550
vt 0.5380 0.5514
vt 0.5365 0.5469
vt 0.5350 0.5424
vt 0.5415 0.5548
vt 0.5463 0.5675
vt 0.5509 0.5660
vt 0.5487 0.5811
vt 0.5512 0.5830
vt 0.5461 0.5793
vt 0.5428 0.5769
vt 0.5394 0.5745
vt 0.5429 0.5710
vt 0.5461 0.5289
vt 0.5487 0.5308
vt 0.5512 0.5326
vt 0.5350 0.5376
vt 0.5350 0.5328
vt 0.5372 0.5285
vt 0.5394 0.5241
vt 0.5428 0.5265
vt 0.5463 0.5172
vt 0.5509 0.5157
vt 0.5429 0.5207
vt 0.5350 0.5879
vt 0.5350 0.5832
vt 0.5372 0.5789
vt 0.5622 0.5848
vt 0.5637 0.5827
vt 0.5653 0.5932
vt 0.5674 0.5947
vt 0.5633 0.5917
vt 0.5613 0.5903
vt 0.5593 0.5888
vt 0.5608 0.5868
vt 0.5553 0.5859
vt 0.5532 0.5845
vt 0.5573 0.5874
vt 0.5564 0.5928
vt 0.5549 0.5949
vt 0.5579 0.5908
vt 0.5722 0.5598
vt 0.5677 0.5613
vt 0.5699 0.5461
vt 0.5674 0.5443
vt 0.5725 0.5480
vt 0.5758 0.5504
vt 0.5791 0.5528
vt 0.5756 0.5563
vt 0.5725 0.5983
vt 0.5699 0.5965
vt 0.5836 0.5897
vt 0.5836 0.5944
vt 0.5813 0.5987
vt 0.5791 0.6031
vt 0.5758 0.6007
vt 0.5722 0.6101
vt 0.5677 0.6116
vt 0.5756 0.6066
vt 0.5836 0.5394
vt 0.5836 0.5441
vt 0.5813 0.5484
vt 0.5564 0.5425
vt 0.5549 0.5446
vt 0.5532 0.5341
vt 0.5553 0.5356
vt 0.5573 0.5371
vt 0.5593 0.5385
vt 0.5579 0.5405
vt 0.5633 0.5414
vt 0.5653 0.5429
vt 0.5613 0.5400
vt 0.5622 0.5345
vt 0.5637 0.5324
vt 0.5608 0.5365
vt 0.3347 0.7675
vt 0.3283 0.7673
vt 0.3411 0.7678
vt 0.3388 0.8133
vt 0.3364 0.8588
vt 0.2961 0.7672
vt 0.2896 0.7673
vt 0.3025 0.7670
vt 0.3219 0.7672
vt 0.3154 0.7670
vt 0.2832 0.7675
vt 0.2767 0.7678
vt 0.3090 0.7670
vn 0.0000 0.0140 0.9999
vn 0.0000 0.0186 0.9998
vn -0.5877 0.0202 0.8089
vn -0.5877 0.0151 0.8089
vn -0.5877 0.0140 -0.8089
vn -0.5877 0.0186 -0.8089
vn 0.0000 0.0202 -0.9998
vn 0.0000 0.0151 -0.9999
vn 0.9510 0.0140 0.3090
vn 0.9509 0.0186 0.3090
vn 0.5877 0.0202 0.8089
vn 0.5877 0.0151 0.8089
vn -0.9510 0.0140 0.3090
vn -0.9509 0.0186 0.3090
vn -0.9509 0.0202 -0.3090
vn -0.9509 0.0151 -0.3090
vn 0.5877 0.0140 -0.8089
vn 0.5877 0.0186 -0.8089
vn 0.9509 0.0202 -0.3090
vn 0.9509 0.0151 -0.3090
vn -0.9925 0.0864 0.0864
vn -0.9624 0.0499 0.2669
vn -0.9448 0.2317 0.2317
vn -0.9624 0.2669 0.0499
vn -0.8818 0.4712 0.0203
vn -0.8714 0.4500 0.1953
vn -0.6956 0.6956 0.1795
vn -0.7071 0.7071 0.0097
vn -0.8818 0.0203 0.4712
vn -0.7071 0.0097 0.7071
vn -0.6956 0.1795 0.6956
vn -0.8714 0.1953 0.4500
vn -0.8163 0.4084 0.4084
vn -0.6507 0.3913 0.6507
vn -0.5774 0.5773 0.5774
vn -0.6507 0.6507 0.3913
vn -0.9925 0.0864 -0.0864
vn -0.9624 0.2669 -0.0499
vn -0.9448 0.2317 -0.2317
vn -0.9624 0.0499 -0.2669
vn -0.8818 0.0203 -0.4712
vn -0.8714 0.1953 -0.4500
vn -0.6956 0.1795 -0.6956
vn -0.7071 0.0097 -0.7071
vn -0.8818 0.4712 -0.0203
vn -0.7071 0.7071 -0.0097
vn -0.6956 0.6956 -0.1795
vn -0.8714 0.4500 -0.1953
vn -0.8163 0.4084 -0.4084
vn -0.6507 0.6507 -0.3913
vn -0.5774 0.5774 -0.5773
vn -0.6507 0.3913 -0.6507
vn -0.9925 -0.0864 -0.0864
vn -0.9624 -0.0499 -0.2669
vn -0.9448 -0.2317 -0.2317
vn -0.9624 -0.2669 -0.0499
vn -0.8818 -0.4712 -0.0203
vn -0.8714 -0.4500 -0.1953
vn -0.6956 -0.6956 -0.1795
vn -0.7071 -0.7071 -0.0097
vn -0.8818 -0.0203 -0.4712
vn -0.7071 -0.0097 -0.7071
vn -0.6956 -0.1795 -0.6956
vn -0.8714 -0.1953 -0.4500
vn -0.8163 -0.4084 -0.4084
vn -0.6507 -0.3913 -0.6507
vn -0.5774 -0.5773 -0.5774
vn -0.6507 -0.6507 -0.3913
vn -0.9925 -0.0864 0.0864
vn -0.9624 -0.2669 0.0499
vn -0.9448 -0.2317 0.2317
vn -0.9624 -0.0499 0.2669
vn -0.8818 -0.0203 0.4712
vn -0.8714 -0.1953 0.4500
vn -0.6956 -0.1795 0.6956
vn -0.7071 -0.0097 0.7071
vn -0.8818 -0.4712 0.0203
vn -0.7071 -0.7071 0.0097
vn -0.6956 -0.6956 0.1795
vn -0.8714 -0.4500 0.1953
vn -0.8163 -0.4084 0.4084
vn -0.6507 -0.6507 0.3913
vn -0.5774 -0.5774 0.5774
vn -0.6507 -0.3913 0.6507
vn -0.0864 0.0864 -0.9925
vn -0.2669 0.0499 -0.9624
vn -0.2317 0.2317 -0.9448
vn -0.0499 0.2669 -0.9624
vn -0.0203 0.4712 -0.8818
vn -0.1953 0.4500 -0.8714
vn -0.1795 0.6956 -0.6956
vn -0.0097 0.7071 -0.7071
vn -0.4712 0.0203 -0.8818
vn -0.4500 0.1953 -0.8714
vn -0.4084 0.4084 -0.8163
vn -0.3913 0.6507 -0.6507
vn 0.0864 0.0864 -0.9925
vn 0.0499 0.2669 -0.9624
vn 0.2317 0.2317 -0.9448
vn 0.2669 0.0499 -0.9624
vn 0.4712 0.0203 -0.8818
vn 0.4500 0.1953 -0.8714
vn 0.6956 0.1795 -0.6956
vn 0.7071 0.0097 -0.7071
vn 0.0203 0.4712 -0.8818
vn 0.0097 0.7071 -0.7071
vn 0.1795 0.6956 -0.6956
vn 0.1953 0.4500 -0.8714
vn 0.4084 0.4084 -0.8163
vn 0.3913 0.6507 -0.6507
vn 0.5774 0.5774 -0.5774
vn 0.6507 0.3913 -0.6507
vn 0.0864 -0.0864 -0.9925
vn 0.2669 -0.0499 -0.9624
vn 0.2317 -0.2317 -0.9448
vn 0.0499 -0.2669 -0.9624
vn 0.0203 -0.4712 -0.8818
vn 0.1953 -0.4500 -0.8714
vn 0.1795 -0.6956 -0.6956
vn 0.0097 -0.7071 -0.7071
vn 0.4712 -0.0203 -0.8818
vn 0.7071 -0.0097 -0.7071
vn 0.6956 -0.1795 -0.6956
vn 0.4500 -0.1953 -0.8714
vn 0.4084 -0.4084 -0.8163
vn 0.6507 -0.3913 -0.6507
vn 0.5774 -0.5774 -0.5774
vn 0.3913 -0.6507 -0.6507
vn -0.0864 -0.0864 -0.9925
vn -0.0499 -0.2669 -0.9624
vn -0.2317 -0.2317 -0.9448
vn -0.2669 -0.0499 -0.9624
vn -0.4712 -0.0203 -0.8818
vn -0.4500 -0.1953 -0.8714
vn -0.0203 -0.4712 -0.8818
vn -0.0097 -0.7071 -0.7071
vn -0.1795 -0.6956 -0.6956
vn -0.1953 -0.4500 -0.8714
vn -0.4084 -0.4084 -0.8163
vn -0.3913 -0.6507 -0.6507
vn 0.9925 0.0864 -0.0864
vn 0.9624 0.0499 -0.2669
vn 0.9448 0.2317 -0.2317
vn 0.9624 0.2669 -0.0499
vn 0.8818 0.4712 -0.0203
vn 0.8714 0.4500 -0.1953
vn 0.6956 0.6956 -0.1795
vn 0.7071 0.7071 -0.0097
vn 0.8818 0.0203 -0.4712
vn 0.8714 0.1953 -0.4500
vn 0.8163 0.4084 -0.4084
vn 0.6507 0.6507 -0.3913
vn 0.9925 0.0864 0.0864
vn 0.9624 0.2669 0.0499
vn 0.9448 0.2317 0.2317
vn 0.9624 0.0499 0.2669
vn 0.8818 0.0203 0.4712
vn 0.8714 0.1953 0.4500
vn 0.6956 0.1795 0.6956
vn 0.7071 0.0097 0.7071
vn 0.8818 0.4712 0.0203
vn 0.7071 0.7071 0.0097
vn 0.6956 0.6956 0.1795
vn 0.8714 0.4500 0.1953
vn 0.8163 0.4084 0.4084
vn 0.6507 0.6507 0.3913
vn 0.5774 0.5774 0.5774
vn 0.6507 0.3913 0.6507
vn 0.9925 -0.0864 0.0864
vn 0.9624 -0.0499 0.2669
vn 0.9448 -0.2317 0.2317
vn 0.9624 -0.2669 0.0499
vn 0.8818 -0.4712 0.0203
vn 0.8714 -0.4500 0.1953
vn 0.6956 -0.6956 0.1795
vn 0.7071 -0.7071 0.0097
vn 0.8818 -0.0203 0.4712
vn 0.7071 -0.0097 0.7071
vn 0.6956 -0.1795 0.6956
vn 0.8714 -0.1953 0.4500
vn 0.8163 -0.4084 0.4084
vn 0.6507 -0.3913 0.6507
vn 0.5774 -0.5774 0.5774
vn 0.6507 -0.6507 0.3913
vn 0.9925 -0.0864 -0.0864
vn 0.9624 -0.2669 -0.0499
vn 0.9448 -0.2317 -0.2317
vn 0.9624 -0.0499 -0.2669
vn 0.8818 -0.0203 -0.4712
vn 0.8714 -0.1953 -0.4500
vn 0.8818 -0.4712 -0.0203
vn 0.7071 -0.7071 -0.0097
vn 0.6956 -0.6956 -0.1795
vn 0.8714 -0.4500 -0.1953
vn 0.8163 -0.4084 -0.4084
vn 0.6507 -0.6507 -0.3913
vn 0.0864 0.0864 0.9925
vn 0.2669 0.0499 0.9624
vn 0.2317 0.2317 0.9448
vn 0.0499 0.2669 0.9624
vn 0.0203 0.4712 0.8818
vn 0.1953 0.4500 0.8714
vn 0.1795 0.6956 0.6956
vn 0.0097 0.7071 0.7071
vn 0.4712 0.0203 0.8818
vn 0.4500 0.1953 0.8714
vn 0.4084 0.4084 0.8163
vn 0.3913 0.6507 0.6507
vn -0.0864 0.0864 0.9925
vn -0.0499 0.2669 0.9624
vn -0.2317 0.2317 0.9448
vn -0.2669 0.0499 0.9624
vn -0.4712 0.0203 0.8818
vn -0.4500 0.1953 0.8714
vn -0.0203 0.4712 0.8818
vn -0.0097 0.7071 0.7071
vn -0.1795 0.6956 0.6956
vn -0.1953 0.4500 0.8714
vn -0.4084 0.4084 0.8163
vn -0.3913 0.6507 0.6507
vn -0.0864 -0.0864 0.9925
vn -0.2669 -0.0499 0.9624
vn -0.2317 -0.2317 0.9448
vn -0.0499 -0.2669 0.9624
vn -0.0203 -0.4712 0.8818
vn -0.1953 -0.4500 0.8714
vn -0.1795 -0.6956 0.6956
vn -0.0097 -0.7071 0.7071
vn -0.4712 -0.0203 0.8818
vn -0.4500 -0.1953 0.8714
vn -0.4084 -0.4084 0.8163
vn -0.3913 -0.6507 0.6507
vn 0.0864 -0.0864 0.9925
vn 0.0499 -0.2669 0.9624
vn 0.2317 -0.2317 0.9448
vn 0.2669 -0.0499 0.9624
vn 0.4712 -0.0203 0.8818
vn 0.4500 -0.1953 0.8714
vn 0.0203 -0.4712 0.8818
vn 0.0097 -0.7071 0.7071
vn 0.1795 -0.6956 0.6956
vn 0.1953 -0.4500 0.8714
vn 0.4084 -0.4084 0.8163
vn 0.3913 -0.6507 0.6507
vn -0.0864 -0.9925 0.0864
vn -0.0499 -0.9624 0.2669
vn -0.2317 -0.9448 0.2317
vn -0.2669 -0.9624 0.0499
vn -0.4712 -0.8818 0.0203
vn -0.4500 -0.8714 0.1953
vn -0.0203 -0.8818 0.4712
vn -0.1953 -0.8714 0.4500
vn -0.4084 -0.8163 0.4084
vn -0.0864 -0.9925 -0.0864
vn -0.2669 -0.9624 -0.0499
vn -0.2317 -0.9448 -0.2317
vn -0.0499 -0.9624 -0.2669
vn -0.0203 -0.8818 -0.4712
vn -0.1953 -0.8714 -0.4500
vn -0.4712 -0.8818 -0.0203
vn -0.4500 -0.8714 -0.1953
vn -0.4084 -0.8163 -0.4084
vn 0.0864 -0.9925 -0.0864
vn 0.0499 -0.9624 -0.2669
vn 0.2317 -0.9448 -0.2317
vn 0.2669 -0.9624 -0.0499
vn 0.4712 -0.8818 -0.0203
vn 0.4500 -0.8714 -0.1953
vn 0.0203 -0.8818 -0.4712
vn 0.1953 -0.8714 -0.4500
vn 0.4084 -0.8163 -0.4084
vn 0.0864 -0.9925 0.0864
vn 0.2669 -0.9624 0.0499
vn 0.2317 -0.9448 0.2317
vn 0.0499 -0.9624 0.2669
vn 0.0203 -0.8818 0.4712
vn 0.1953 -0.8714 0.4500
vn 0.4712 -0.8818 0.0203
vn 0.4500 -0.8714 0.1953
vn 0.4084 -0.8163 0.4084
vn 0.0864 0.9925 0.0864
vn 0.0499 0.9624 0.2669
vn 0.2317 0.9448 0.2317
vn 0.2669 0.9624 0.0499
vn 0.4712 0.8818 0.0203
vn 0.4500 0.8714 0.1953
vn 0.0203 0.8818 0.4712
vn 0.1953 0.8714 0.4500
vn 0.4084 0.8163 0.4084
vn 0.0864 0.9925 -0.0864
vn 0.2669 0.9624 -0.0499
vn 0.2317 0.9448 -0.2317
vn 0.0499 0.9624 -0.2669
vn 0.0203 0.8818 -0.4712
vn 0.1953 0.8714 -0.4500
vn 0.4712 0.8818 -0.0203
vn 0.4500 0.8714 -0.1953
vn 0.4084 0.8163 -0.4084
vn -0.0864 0.9925 -0.0864
vn -0.0499 0.9624 -0.2669
vn -0.2317 0.9448 -0.2317
vn -0.2669 0.9624 -0.0499
vn -0.4712 0.8818 -0.0203
vn -0.4500 0.8714 -0.1953
vn -0.0203 0.8818 -0.4712
vn -0.1953 0.8714 -0.4500
vn -0.4084 0.8163 -0.4084
vn -0.0864 0.9925 0.0864
vn -0.2669 0.9624 0.0499
vn -0.2317 0.9448 0.2317
vn -0.0499 0.9624 0.2669
vn -0.0203 0.8818 0.4712
vn -0.1953 0.8714 0.4500
vn -0.4712 0.8818 0.0203
vn -0.4500 0.8714 0.1953
vn -0.4084 0.8163 0.4084
vn -0.2837 0.9589 -0.0000
vn -0.4795 0.8775 -0.0000
vn -0.7071 0.7071 -0.0000
vn -0.0000 0.8775 0.4795
vn -0.0000 0.7071 0.7071
vn -0.0000 0.9589 0.2837
vn -0.0000 0.9945 0.1048
vn -0.0000 1.0000 -0.0000
vn -0.1048 0.9945 -0.0000
vn -0.0000 0.9589 -0.2837
vn 0.0000 0.8775 -0.4795
vn 0.0000 0.7071 -0.7071
vn -0.0000 0.9945 -0.1048
vn 0.2837 0.9589 0.0000
vn 0.4795 0.8775 0.0000
vn 0.7071 0.7071 0.0000
vn 0.1048 0.9945 0.0000
vn 0.2837 -0.9589 -0.0000
vn 0.4795 -0.8775 0.0000
vn 0.7071 -0.7071 0.0000
vn 0.0000 -0.8775 0.4795
vn 0.0000 -0.7071 0.7071
vn 0.0000 -0.9589 0.2837
vn 0.0000 -0.9945 0.1048
vn 0.0000 -1.0000 -0.0000
vn 0.1048 -0.9945 -0.0000
vn 0.0000 -0.9589 -0.2837
vn -0.0000 -0.8775 -0.4795
vn -0.0000 -0.7071 -0.7071
vn 0.0000 -0.9945 -0.1048
vn -0.2837 -0.9589 -0.0000
vn -0.4795 -0.8775 -0.0000
vn -0.7071 -0.7071 -0.0000
vn -0.1048 -0.9945 -0.0000
vn -0.0000 -0.2837 0.9589
vn 0.0000 -0.4795 0.8775
vn 0.4795 -0.0000 0.8775
vn 0.7071 -0.0000 0.7071
vn 0.2837 -0.0000 0.9589
vn 0.1048 -0.0000 0.9945
vn -0.0000 -0.0000 1.0000
vn 0.0000 -0.1048 0.9945
vn -0.2837 -0.0000 0.9589
vn -0.4795 -0.0000 0.8775
vn -0.7071 -0.0000 0.7071
vn -0.1048 -0.0000 0.9945
vn 0.0000 0.2837 0.9589
vn -0.0000 0.4795 0.8775
vn -0.0000 0.1048 0.9945
vn 0.9589 -0.2837 -0.0000
vn 0.8775 -0.4795 0.0000
vn 0.8775 0.0000 -0.4795
vn 0.7071 0.0000 -0.7071
vn 0.9589 -0.0000 -0.2837
vn 0.9945 0.0000 -0.1048
vn 1.0000 -0.0000 -0.0000
vn 0.9945 -0.1048 -0.0000
vn 0.9589 -0.0000 0.2837
vn 0.8775 -0.0000 0.4795
vn 0.9945 -0.0000 0.1048
vn 0.9589 0.2837 0.0000
vn 0.8775 0.4795 0.0000
vn 0.9945 0.1048 -0.0000
vn 0.0000 -0.2837 -0.9589
vn 0.0000 -0.4795 -0.8775
vn -0.4795 0.0000 -0.8775
vn -0.7071 0.0000 -0.7071
vn -0.2837 0.0000 -0.9589
vn -0.1048 0.0000 -0.9945
vn 0.0000 0.0000 -1.0000
vn 0.0000 -0.1048 -0.9945
vn 0.2837 0.0000 -0.9589
vn 0.4795 0.0000 -0.8775
vn 0.1048 0.0000 -0.9945
vn -0.0000 0.2837 -0.9589
vn 0.0000 0.4795 -0.8775
vn 0.0000 0.1048 -0.9945
vn -0.9589 -0.2837 -0.0000
vn -0.8775 -0.4795 -0.0000
vn -0.8775 -0.0000 0.4795
vn -0.9589 -0.0000 0.2837
vn -0.9945 -0.0000 0.1048
vn -1.0000 -0.0000 -0.0000
vn -0.9945 -0.1048 -0.0000
vn -0.9589 0.0000 -0.2837
vn -0.8775 0.0000 -0.4795
vn -0.9945 0.0000 -0.1048
vn -0.9589 0.2837 -0.0000
vn -0.8775 0.4795 -0.0000
vn -0.9945 0.1048 -0.0000
vn 0.5878 0.0093 -0.8090
vn 0.9510 0.0100 -0.3090
vn -0.0000 0.0100 -0.9999
vn -0.9510 0.0093 0.3090
vn -0.9510 0.0100 -0.3090
vn -0.5878 0.0100 0.8090
vn 0.9510 0.0093 0.3090
vn 0.5878 0.0100 0.8090
vn -0.5878 0.0093 -0.8090
vn 0.0000 0.0093 1.0000
usemtl None
s 1
f 416/1/1 309/2/2 3/3/3 261/4/4
f 415/5/5 294/6/6 7/7/7 257/8/8
f 414/9/9 248/10/10 2/11/11 161/12/12
f 413/13/13 151/14/14 6/15/15 147/16/16
f 412/17/17 135/18/18 10/19/19 133/20/20
f 411/21/21 185/22/22 13/23/23 138/24/24
f 410/25/25 195/26/26 15/27/27 250/28/28
f 409/29/29 307/30/30 18/31/31 312/32/32
f 408/33/33 260/34/34 19/35/35 149/36/36
f 407/37/37 304/38/38 20/39/39 150/40/40
f 406/41/41 205/42/42 22/43/43 249/44/44
f 405/45/45 111/46/46 24/47/47 301/48/48
f 404/49/49 146/50/50 25/51/51 137/52/52
f 403/53/53 288/54/54 26/55/55 267/56/56
f 402/57/57 314/58/58 28/59/59 157/60/60
f 401/61/61 291/62/62 30/63/63 210/64/64
f 400/65/65 271/66/66 31/67/67 259/68/68
f 399/69/69 218/70/70 32/71/71 119/72/72
f 398/73/73 175/74/74 33/75/75 228/76/76
f 397/77/77 235/78/78 34/79/79 126/80/80
f 396/81/81 207/82/82 35/83/83 300/84/84
f 395/85/85 140/86/86 38/87/87 193/88/88
f 394/89/89 129/90/90 40/91/91 290/92/92
f 393/93/93 249/44/44 22/43/43 179/94/94
f 392/95/95 137/52/52 25/51/51 143/96/96
f 391/97/97 117/98/98 42/99/99 171/100/100
f 390/101/101 115/102/102 44/103/103 273/104/104
f 389/105/105 113/106/106 46/107/107 227/108/108
f 388/109/109 178/110/110 47/111/111 160/112/112
f 387/113/113 230/114/114 48/115/115 286/116/116
f 386/117/117 194/118/118 50/119/119 226/120/120
f 385/121/121 206/122/122 52/123/123 289/124/124
f 384/125/125 110/126/126 53/127/127 112/128/128
f 383/129/129 159/130/130 54/131/131 298/132/132
f 382/133/133 198/134/134 30/63/63 291/62/62
f 381/135/135 308/136/136 55/137/137 214/138/138
f 380/139/139 134/140/140 31/67/67 271/66/66
f 379/141/141 189/142/142 58/143/143 238/144/144
f 378/145/145 173/146/146 60/147/147 123/148/148
f 377/149/149 273/104/104 44/103/103 233/150/150
f 376/151/151 160/112/112 47/111/111 225/152/152
f 375/153/153 162/154/154 62/155/155 242/156/156
f 374/157/157 180/158/158 64/159/159 136/160/160
f 373/161/161 197/162/162 66/163/163 287/164/164
f 372/165/165 297/166/166 67/167/167 253/168/168
f 371/169/169 299/170/170 68/171/171 188/172/172
f 370/173/173 231/174/174 70/175/175 277/176/176
f 369/177/177 237/178/178 72/179/179 118/180/180
f 368/181/181 167/182/182 73/183/183 183/184/184
f 367/185/185 310/186/186 74/187/187 234/188/188
f 366/189/189 130/190/190 52/123/123 206/122/122
f 365/191/191 155/192/192 75/193/193 274/194/194
f 364/195/195 165/196/196 53/127/127 110/126/126
f 363/197/197 122/198/198 78/199/199 268/200/200
f 362/201/201 116/202/202 80/203/203 139/204/204
f 361/205/205 136/160/160 64/159/159 120/206/206
f 360/207/207 253/168/168 67/167/167 221/208/208
f 359/209/209 282/210/210 82/211/211 252/212/212
f 358/213/213 247/214/214 18/31/31 307/30/30
f 357/215/215 187/216/216 84/217/217 281/218/218
f 356/219/219 241/220/220 19/35/35 260/34/34
f 355/221/221 239/222/222 85/223/223 280/224/224
f 354/225/225 124/226/226 87/227/227 177/228/228
f 353/229/229 228/76/76 33/75/75 109/230/230
f 352/231/231 300/84/84 35/83/83 208/232/232
f 351/233/233 121/234/234 89/235/235 244/236/236
f 350/237/237 158/238/238 72/179/179 237/178/178
f 349/239/239 176/240/240 90/241/241 302/242/242
f 348/243/243 315/244/244 73/183/183 167/182/182
f 347/245/245 152/246/246 93/247/247 303/248/248
f 346/249/249 204/250/250 34/79/79 235/78/78
f 345/251/251 177/228/228 87/227/227 219/252/252
f 344/253/253 208/232/232 35/83/83 207/82/82
f 343/254/254 256/255/255 95/256/256 213/257/257
f 342/258/258 190/259/259 55/137/137 308/136/136
f 341/260/260 157/60/60 28/59/59 279/261/261
f 340/262/262 259/68/68 31/67/67 134/140/140
f 339/263/263 243/264/264 97/265/265 284/266/266
f 338/267/267 255/268/268 75/193/193 155/192/192
f 337/269/269 226/120/120 50/119/119 169/270/270
f 336/271/271 112/128/128 53/127/127 165/196/196
f 335/272/272 131/273/273 99/274/274 154/275/275
f 334/276/276 153/277/277 90/241/241 176/240/240
f 333/278/278 277/176/176 70/175/175 224/279/279
f 332/280/280 183/184/184 73/183/183 315/244/244
f 331/281/281 270/282/282 102/283/283 313/284/284
f 330/285/285 142/286/286 66/163/163 197/162/162
f 329/287/287 139/204/204 80/203/203 174/288/288
f 328/289/289 221/208/208 67/167/167 297/166/166
f 327/290/290 164/291/291 104/292/292 215/293/293
f 326/294/294 283/295/295 46/107/107 113/106/106
f 325/296/296 123/148/148 60/147/147 293/297/297
f 324/298/298 225/152/152 47/111/111 178/110/110
f 323/299/299 258/300/300 106/301/301 305/302/302
f 322/303/303 182/304/304 24/47/47 111/46/46
f 321/305/305 290/92/92 40/91/91 202/306/306
f 320/307/307 143/96/96 25/51/51 146/50/50
f 319/308/308 156/309/309 108/310/310 144/311/311
f 318/312/312 246/313/313 84/217/217 187/216/216
f 317/314/314 250/28/28 15/27/27 163/315/315
f 316/316/316 149/36/36 19/35/35 241/220/220
f 246/313/313 316/316/316 241/220/220 84/217/217
f 108/310/310 163/315/315 316/316/316 246/313/313
f 163/315/315 15/27/27 149/36/36 316/316/316
f 156/309/309 317/314/314 163/315/315 108/310/310
f 107/317/317 223/318/318 317/314/314 156/309/309
f 223/318/318 16/319/319 250/28/28 317/314/314
f 220/320/320 318/312/312 187/216/216 81/321/321
f 101/322/322 144/311/311 318/312/312 220/320/320
f 144/311/311 108/310/310 246/313/313 318/312/312
f 229/323/323 319/308/308 144/311/311 101/322/322
f 100/324/324 295/325/325 319/308/308 229/323/323
f 295/325/325 107/317/317 156/309/309 319/308/308
f 182/304/304 320/307/307 146/50/50 24/47/47
f 106/301/301 202/306/306 320/307/307 182/304/304
f 202/306/306 40/91/91 143/96/96 320/307/307
f 258/300/300 321/305/305 202/306/306 106/301/301
f 105/326/326 127/327/327 321/305/305 258/300/300
f 127/327/327 41/328/328 290/92/92 321/305/305
f 223/318/318 322/303/303 111/46/46 16/319/319
f 107/317/317 305/302/302 322/303/303 223/318/318
f 305/302/302 106/301/301 182/304/304 322/303/303
f 295/325/325 323/299/299 305/302/302 107/317/317
f 100/324/324 217/329/329 323/299/299 295/325/325
f 217/329/329 105/326/326 258/300/300 323/299/299
f 283/295/295 324/298/298 178/110/110 46/107/107
f 104/292/292 293/297/297 324/298/298 283/295/295
f 293/297/297 60/147/147 225/152/152 324/298/298
f 164/291/291 325/296/296 293/297/297 104/292/292
f 103/330/330 251/331/331 325/296/296 164/291/291
f 251/331/331 61/332/332 123/148/148 325/296/296
f 127/333/327 326/294/294 113/106/106 41/334/328
f 105/335/326 215/293/293 326/294/294 127/333/327
f 215/293/293 104/292/292 283/295/295 326/294/294
f 217/336/329 327/290/290 215/293/293 105/335/326
f 100/337/324 306/338/333 327/290/290 217/336/329
f 306/338/333 103/330/330 164/291/291 327/290/290
f 142/286/286 328/289/289 297/166/166 66/163/163
f 102/283/283 174/288/288 328/289/289 142/286/286
f 174/288/288 80/203/203 221/208/208 328/289/289
f 270/282/282 329/287/287 174/288/288 102/283/283
f 101/339/322 220/340/320 329/287/287 270/282/282
f 220/340/320 81/341/321 139/204/204 329/287/287
f 251/331/331 330/285/285 197/162/162 61/332/332
f 103/330/330 313/284/284 330/285/285 251/331/331
f 313/284/284 102/283/283 142/286/286 330/285/285
f 306/338/333 331/281/281 313/284/284 103/330/330
f 100/337/324 229/342/323 331/281/281 306/338/333
f 229/342/323 101/339/322 270/282/282 331/281/281
f 153/277/277 332/280/280 315/244/244 90/241/241
f 99/274/274 224/279/279 332/280/280 153/277/277
f 224/279/279 70/175/175 183/184/184 332/280/280
f 131/273/273 333/278/278 224/279/279 99/274/274
f 98/343/334 264/344/335 333/278/278 131/273/273
f 264/344/335 71/345/336 277/176/176 333/278/278
f 278/346/337 334/276/276 176/240/240 88/347/338
f 92/348/339 154/275/275 334/276/276 278/346/337
f 154/275/275 99/274/274 153/277/277 334/276/276
f 200/349/340 335/272/272 154/275/275 92/348/339
f 91/350/341 212/351/342 335/272/272 200/349/340
f 212/351/342 98/343/334 131/273/273 335/272/272
f 255/268/268 336/271/271 165/196/196 75/193/193
f 97/265/265 169/270/270 336/271/271 255/268/268
f 169/270/270 50/119/119 112/128/128 336/271/271
f 243/264/264 337/269/269 169/270/270 97/265/265
f 96/352/343 128/353/344 337/269/269 243/264/264
f 128/353/344 51/354/345 226/120/120 337/269/269
f 264/344/335 338/267/267 155/192/192 71/345/336
f 98/343/334 284/266/266 338/267/267 264/344/335
f 284/266/266 97/265/265 255/268/268 338/267/267
f 212/351/342 339/263/263 284/266/266 98/343/334
f 91/350/341 196/355/346 339/263/263 212/351/342
f 196/355/346 96/352/343 243/264/264 339/263/263
f 190/259/259 340/262/262 134/140/140 55/137/137
f 95/256/256 279/261/261 340/262/262 190/259/259
f 279/261/261 28/59/59 259/68/68 340/262/262
f 256/255/255 341/260/260 279/261/261 95/256/256
f 94/356/347 148/357/348 341/260/260 256/255/255
f 148/357/348 29/358/349 157/60/60 341/260/260
f 128/359/344 342/258/258 308/136/136 51/360/345
f 96/361/343 213/257/257 342/258/258 128/359/344
f 213/257/257 95/256/256 190/259/259 342/258/258
f 196/362/346 343/254/254 213/257/257 96/361/343
f 91/363/341 285/364/350 343/254/254 196/362/346
f 285/364/350 94/356/347 256/255/255 343/254/254
f 204/250/250 344/253/253 207/82/82 34/79/79
f 93/247/247 219/252/252 344/253/253 204/250/250
f 219/252/252 87/227/227 208/232/232 344/253/253
f 152/246/246 345/251/251 219/252/252 93/247/247
f 92/365/339 278/366/337 345/251/251 152/246/246
f 278/366/337 88/367/338 177/228/228 345/251/251
f 148/357/348 346/249/249 235/78/78 29/358/349
f 94/356/347 303/248/248 346/249/249 148/357/348
f 303/248/248 93/247/247 204/250/250 346/249/249
f 285/364/350 347/245/245 303/248/248 94/356/347
f 91/363/341 200/368/340 347/245/245 285/364/350
f 200/368/340 92/365/339 152/246/246 347/245/245
f 158/238/238 348/243/243 167/182/182 72/179/179
f 89/235/235 302/242/242 348/243/243 158/238/238
f 302/242/242 90/241/241 315/244/244 348/243/243
f 121/234/234 349/239/239 302/242/242 89/235/235
f 86/369/351 275/370/352 349/239/239 121/234/234
f 275/370/352 88/347/338 176/240/240 349/239/239
f 266/371/353 350/237/237 237/178/178 65/372/354
f 77/373/355 244/236/236 350/237/237 266/371/353
f 244/236/236 89/235/235 158/238/238 350/237/237
f 172/374/356 351/233/233 244/236/236 77/373/355
f 76/375/357 191/376/358 351/233/233 172/374/356
f 191/376/358 86/369/351 121/234/234 351/233/233
f 124/226/226 352/231/231 208/232/232 87/227/227
f 85/223/223 109/230/230 352/231/231 124/226/226
f 109/230/230 33/75/75 300/84/84 352/231/231
f 239/222/222 353/229/229 109/230/230 85/223/223
f 83/377/359 192/378/360 353/229/229 239/222/222
f 192/378/360 17/379/361 228/76/76 353/229/229
f 275/380/352 354/225/225 177/228/228 88/367/338
f 86/381/351 280/224/224 354/225/225 275/380/352
f 280/224/224 85/223/223 124/226/226 354/225/225
f 191/382/358 355/221/221 280/224/224 86/381/351
f 76/383/357 236/384/362 355/221/221 191/382/358
f 236/384/362 83/377/359 239/222/222 355/221/221
f 247/214/214 356/219/219 260/34/34 18/31/31
f 82/211/211 281/218/218 356/219/219 247/214/214
f 281/218/218 84/217/217 241/220/220 356/219/219
f 282/210/210 357/215/215 281/218/218 82/211/211
f 79/385/363 272/386/364 357/215/215 282/210/210
f 272/386/364 81/321/321 187/216/216 357/215/215
f 192/378/360 358/213/213 307/30/30 17/379/361
f 83/377/359 252/212/212 358/213/213 192/378/360
f 252/212/212 82/211/211 247/214/214 358/213/213
f 236/384/362 359/209/209 252/212/212 83/377/359
f 76/383/357 265/387/365 359/209/209 236/384/362
f 265/387/365 79/385/363 282/210/210 359/209/209
f 116/202/202 360/207/207 221/208/208 80/203/203
f 78/199/199 120/206/206 360/207/207 116/202/202
f 120/206/206 64/159/159 253/168/168 360/207/207
f 122/198/198 361/205/205 120/206/206 78/199/199
f 77/373/355 266/371/353 361/205/205 122/198/198
f 266/371/353 65/372/354 136/160/160 361/205/205
f 272/388/364 362/201/201 139/204/204 81/341/321
f 79/389/363 268/200/200 362/201/201 272/388/364
f 268/200/200 78/199/199 116/202/202 362/201/201
f 265/390/365 363/197/197 268/200/200 79/389/363
f 76/375/357 172/374/356 363/197/197 265/390/365
f 172/374/356 77/373/355 122/198/198 363/197/197
f 130/190/190 364/195/195 110/126/126 52/123/123
f 74/187/187 274/194/194 364/195/195 130/190/190
f 274/194/194 75/193/193 165/196/196 364/195/195
f 310/186/186 365/191/191 274/194/194 74/187/187
f 69/391/366 186/392/367 365/191/191 310/186/186
f 186/392/367 71/345/336 155/192/192 365/191/191
f 145/393/368 366/189/189 206/122/122 45/394/369
f 57/395/370 234/188/188 366/189/189 145/393/368
f 234/188/188 74/187/187 130/190/190 366/189/189
f 311/396/371 367/185/185 234/188/188 57/395/370
f 56/397/372 184/398/373 367/185/185 311/396/371
f 184/398/373 69/391/366 310/186/186 367/185/185
f 231/174/174 368/181/181 183/184/184 70/175/175
f 68/171/171 118/180/180 368/181/181 231/174/174
f 118/180/180 72/179/179 167/182/182 368/181/181
f 299/170/170 369/177/177 118/180/180 68/171/171
f 63/399/374 245/400/375 369/177/177 299/170/170
f 245/400/375 65/372/354 237/178/178 369/177/177
f 186/392/367 370/173/173 277/176/176 71/345/336
f 69/391/366 188/172/172 370/173/173 186/392/367
f 188/172/172 68/171/171 231/174/174 370/173/173
f 184/398/373 371/169/169 188/172/172 69/391/366
f 56/397/372 209/401/376 371/169/169 184/398/373
f 209/401/376 63/399/374 299/170/170 371/169/169
f 180/158/158 372/165/165 253/168/168 64/159/159
f 62/155/155 287/164/164 372/165/165 180/158/158
f 287/164/164 66/163/163 297/166/166 372/165/165
f 162/154/154 373/161/161 287/164/164 62/155/155
f 59/402/377 232/403/378 373/161/161 162/154/154
f 232/403/378 61/332/332 197/162/162 373/161/161
f 245/400/375 374/157/157 136/160/160 65/372/354
f 63/399/374 242/156/156 374/157/157 245/400/375
f 242/156/156 62/155/155 180/158/158 374/157/157
f 209/401/376 375/153/153 242/156/156 63/399/374
f 56/397/372 203/404/379 375/153/153 209/401/376
f 203/404/379 59/402/377 162/154/154 375/153/153
f 173/146/146 376/151/151 225/152/152 60/147/147
f 58/143/143 233/150/150 376/151/151 173/146/146
f 233/150/150 44/103/103 160/112/112 376/151/151
f 189/142/142 377/149/149 233/150/150 58/143/143
f 57/395/370 145/393/368 377/149/149 189/142/142
f 145/393/368 45/394/369 273/104/104 377/149/149
f 232/403/378 378/145/145 123/148/148 61/332/332
f 59/402/377 238/144/144 378/145/145 232/403/378
f 238/144/144 58/143/143 173/146/146 378/145/145
f 203/404/379 379/141/141 238/144/144 59/402/377
f 56/397/372 311/396/371 379/141/141 203/404/379
f 311/396/371 57/395/370 189/142/142 379/141/141
f 198/134/134 380/139/139 271/66/66 30/63/63
f 54/131/131 214/138/138 380/139/139 198/134/134
f 214/138/138 55/137/137 134/140/140 380/139/139
f 159/130/130 381/135/135 214/138/138 54/131/131
f 49/405/380 114/406/381 381/135/135 159/130/130
f 114/406/381 51/360/345 308/136/136 381/135/135
f 222/407/382 382/133/133 291/62/62 23/408/383
f 37/409/384 298/132/132 382/133/133 222/407/382
f 298/132/132 54/131/131 198/134/134 382/133/133
f 296/410/385 383/129/129 298/132/132 37/409/384
f 36/411/386 276/412/387 383/129/129 296/410/385
f 276/412/387 49/405/380 159/130/130 383/129/129
f 194/118/118 384/125/125 112/128/128 50/119/119
f 48/115/115 289/124/124 384/125/125 194/118/118
f 289/124/124 52/123/123 110/126/126 384/125/125
f 230/114/114 385/121/121 289/124/124 48/115/115
f 43/413/388 166/414/389 385/121/121 230/114/114
f 166/414/389 45/394/369 206/122/122 385/121/121
f 114/415/381 386/117/117 226/120/120 51/354/345
f 49/416/380 286/116/116 386/117/117 114/415/381
f 286/116/116 48/115/115 194/118/118 386/117/117
f 276/417/387 387/113/113 286/116/116 49/416/380
f 36/418/386 170/419/390 387/113/113 276/417/387
f 170/419/390 43/413/388 230/114/114 387/113/113
f 115/102/102 388/109/109 160/112/112 44/103/103
f 42/99/99 227/108/108 388/109/109 115/102/102
f 227/108/108 46/107/107 178/110/110 388/109/109
f 117/98/98 389/105/105 227/108/108 42/99/99
f 39/420/391 199/421/392 389/105/105 117/98/98
f 199/421/392 41/334/328 113/106/106 389/105/105
f 166/414/389 390/101/101 273/104/104 45/394/369
f 43/413/388 171/100/100 390/101/101 166/414/389
f 171/100/100 42/99/99 115/102/102 390/101/101
f 170/419/390 391/97/97 171/100/100 43/413/388
f 36/418/386 201/422/393 391/97/97 170/419/390
f 201/422/393 39/420/391 117/98/98 391/97/97
f 129/90/90 392/95/95 143/96/96 40/91/91
f 38/87/87 179/94/94 392/95/95 129/90/90
f 179/94/94 22/43/43 137/52/52 392/95/95
f 140/86/86 393/93/93 179/94/94 38/87/87
f 37/409/384 222/407/382 393/93/93 140/86/86
f 222/407/382 23/408/383 249/44/44 393/93/93
f 199/423/392 394/89/89 290/92/92 41/328/328
f 39/424/391 193/88/88 394/89/89 199/423/392
f 193/88/88 38/87/87 129/90/90 394/89/89
f 201/425/393 395/85/85 193/88/88 39/424/391
f 36/411/386 296/410/385 395/85/85 201/425/393
f 296/410/385 37/409/384 140/86/86 395/85/85
f 175/74/74 396/81/81 300/84/84 33/75/75
f 32/71/71 126/80/80 396/81/81 175/74/74
f 126/80/80 34/79/79 207/82/82 396/81/81
f 218/70/70 397/77/77 126/80/80 32/71/71
f 27/426/394 262/427/395 397/77/77 218/70/70
f 262/427/395 29/358/349 235/78/78 397/77/77
f 181/428/396 398/73/73 228/76/76 17/379/361
f 12/429/397 119/72/72 398/73/73 181/428/396
f 119/72/72 32/71/71 175/74/74 398/73/73
f 240/430/398 399/69/69 119/72/72 12/429/397
f 11/431/399 168/432/400 399/69/69 240/430/398
f 168/432/400 27/426/394 218/70/70 399/69/69
f 314/58/58 400/65/65 259/68/68 28/59/59
f 26/55/55 210/64/64 400/65/65 314/58/58
f 210/64/64 30/63/63 271/66/66 400/65/65
f 288/54/54 401/61/61 210/64/64 26/55/55
f 21/433/401 141/434/402 401/61/61 288/54/54
f 141/434/402 23/408/383 291/62/62 401/61/61
f 262/427/395 402/57/57 157/60/60 29/358/349
f 27/426/394 267/56/56 402/57/57 262/427/395
f 267/56/56 26/55/55 314/58/58 402/57/57
f 168/432/400 403/53/53 267/56/56 27/426/394
f 11/431/399 269/435/403 403/53/53 168/432/400
f 269/435/403 21/433/401 288/54/54 403/53/53
f 205/42/42 404/49/49 137/52/52 22/43/43
f 20/39/39 301/48/48 404/49/49 205/42/42
f 301/48/48 24/47/47 146/50/50 404/49/49
f 304/38/38 405/45/45 301/48/48 20/39/39
f 14/436/404 132/437/405 405/45/45 304/38/38
f 132/437/405 16/319/319 111/46/46 405/45/45
f 141/434/402 406/41/41 249/44/44 23/408/383
f 21/433/401 150/40/40 406/41/41 141/434/402
f 150/40/40 20/39/39 205/42/42 406/41/41
f 269/435/403 407/37/37 150/40/40 21/433/401
f 11/431/399 125/438/406 407/37/37 269/435/403
f 125/438/406 14/436/404 304/38/38 407/37/37
f 195/26/26 408/33/33 149/36/36 15/27/27
f 13/23/23 312/32/32 408/33/33 195/26/26
f 312/32/32 18/31/31 260/34/34 408/33/33
f 185/22/22 409/29/29 312/32/32 13/23/23
f 12/429/397 181/428/396 409/29/29 185/22/22
f 181/428/396 17/379/361 307/30/30 409/29/29
f 132/437/405 410/25/25 250/28/28 16/319/319
f 14/436/404 138/24/24 410/25/25 132/437/405
f 138/24/24 13/23/23 195/26/26 410/25/25
f 125/438/406 411/21/21 138/24/24 14/436/404
f 11/431/399 240/430/398 411/21/21 125/438/406
f 240/430/398 12/429/397 185/22/22 411/21/21
f 211/439/407 412/17/17 133/20/20 9/440/408
f 8/441/409 257/442/8 412/17/17 211/439/407
f 257/442/8 7/443/7 135/18/18 412/17/17
f 216/444/410 413/13/13 147/16/16 5/445/411
f 4/446/412 261/4/4 413/13/13 216/444/410
f 261/4/4 3/3/3 151/14/14 413/13/13
f 292/447/413 414/9/9 161/12/12 1/448/414
f 9/440/408 133/20/20 414/9/9 292/447/413
f 133/20/20 10/19/19 248/10/10 414/9/9
f 254/449/415 415/5/5 257/8/8 8/450/409
f 5/445/411 147/16/16 415/5/5 254/449/415
f 147/16/16 6/15/15 294/6/6 415/5/5
f 263/451/416 416/1/1 261/4/4 4/446/412
f 1/448/414 161/12/12 416/1/1 263/451/416
f 161/12/12 2/11/11 309/2/2 416/1/1
