# Blender v2.78 (sub 0) OBJ File: ''
# www.blender.org
mtllib Apple_Tree_NoLeaves_s_02.mtl
o Apple_Tree_NoLeaves_s_02
v 0.001600 0.028827 -0.049453
v 0.018259 0.377810 -0.035657
v 0.054560 0.377788 0.000624
v 0.051009 0.028827 -0.000045
v 0.001600 0.028827 0.049364
v 0.018280 0.377816 0.036926
v -0.018021 0.377838 0.000645
v -0.047809 0.028827 -0.000045
v 0.022241 0.715608 0.019545
v -0.005531 0.716024 0.047632
v -0.005844 0.715936 -0.008231
v -0.033616 0.716352 0.019856
v -0.002565 1.006671 -0.009024
v 0.039657 0.991359 0.029243
v 0.001439 0.999836 0.066578
v -0.041954 0.991848 0.033813
v 0.010194 1.062261 0.026850
v -0.065824 1.160905 0.096644
v -0.076761 1.145690 0.118466
v -0.097355 1.137343 0.100985
v -0.084949 1.149311 0.078870
v 0.187775 1.090029 0.051399
v -0.251827 1.281519 0.228113
v -0.265035 1.290203 0.188172
v -0.244585 1.312135 0.206725
v -0.233528 1.290247 0.234275
v 0.194789 1.101628 0.020274
v 0.433036 1.295905 0.016005
v 0.437212 1.288333 0.043891
v 0.181608 1.118054 0.041686
v 0.411243 1.301212 0.032401
v 0.047803 1.036589 -0.007491
v 0.093802 1.288270 -0.179727
v 0.065864 1.301000 -0.164436
v 0.446907 1.332694 0.032382
v 0.614886 1.421286 0.052318
v 0.611733 1.421389 0.033351
v 0.784019 1.660657 0.015091
v 0.602652 1.431302 0.045699
v -0.276263 1.560696 0.493914
v -0.280115 1.534974 0.493119
v -0.276680 1.325962 0.227381
v -0.291432 1.559870 0.497199
v -0.354503 1.465156 0.093725
v -0.339077 1.460870 0.083172
v -0.423753 1.675804 0.035653
v -0.353347 1.452992 0.079815
v -0.243315 1.801569 0.651179
v 0.065285 1.280853 -0.190242
v 0.095916 1.620853 -0.322369
v 0.076110 1.624131 -0.315206
v 0.080376 1.619548 -0.333569
v 0.042598 1.900453 -0.372693
v 0.404863 1.429193 -0.031384
v 0.398496 1.416199 -0.044379
v 0.395581 1.687265 -0.092837
v 0.392196 1.421247 -0.033118
v 0.059491 1.774838 -0.349274
v 0.018251 0.988571 0.008611
v -0.311615 1.367715 0.137204
v -0.263725 1.429849 0.352503
v -0.173870 1.219208 0.137580
v 0.061589 1.773262 -0.357360
v 0.023824 1.021986 -0.011534
v -0.027062 0.991962 0.053011
v 0.704815 1.547492 0.024873
v 0.042565 1.013212 0.012349
v 0.300417 1.207312 0.038865
v -0.244094 1.295469 0.244512
v 0.406680 1.356271 0.000951
v 0.084370 1.638766 -0.321561
v 0.068195 1.773663 -0.352268
v -0.359031 1.470589 0.083497
v 0.706241 1.547554 0.033262
v 0.421304 1.291391 0.040321
v 0.188149 1.107269 0.048616
v -0.027655 0.028827 0.029210
v -0.260539 1.691221 0.582967
v 0.074207 1.459347 -0.243522
v -0.024478 0.549932 0.009948
v -0.350731 1.475171 0.085449
v -0.257380 1.277024 0.204688
v 0.010549 0.190071 0.044168
v 0.416669 1.348680 -0.013563
v 0.033632 1.140387 -0.099788
v -0.284085 1.432152 0.361841
v -0.266142 1.329930 0.221986
v -0.038257 1.074422 0.090614
v -0.005475 0.859498 0.056589
v 0.067387 1.153321 -0.091576
v 0.006867 0.549761 0.041131
v -0.285294 1.567401 0.511034
v -0.027655 0.028827 -0.029299
v -0.033913 0.190071 -0.000294
v 0.080483 1.283456 -0.186365
v -0.087864 1.140700 0.111081
v -0.042086 1.076252 0.035730
v -0.005857 0.859390 -0.005939
v -0.267509 1.303292 0.232725
v -0.391596 1.571870 0.053969
v -0.275258 1.304251 0.205053
v 0.398811 1.563806 -0.064886
v 0.063627 1.291118 -0.177203
v 0.036599 1.171751 -0.069082
v -0.350059 1.468096 0.077359
v 0.055010 0.190071 -0.000294
v 0.080840 1.295549 -0.170837
v 0.431360 1.319082 0.033272
v 0.038714 0.377802 0.021069
v -0.028400 1.102262 0.063391
v 0.009906 0.715744 0.003928
v 0.030854 0.028827 -0.029299
v -0.000813 1.047731 0.004868
v 0.313063 1.194090 0.019670
v -0.282362 1.574799 0.504771
v 0.032201 0.994566 0.050049
v 0.114548 1.058434 0.011229
v 0.010549 0.190071 -0.044756
v 0.700252 1.551327 0.030319
v 0.187575 1.110750 0.029647
v 0.422324 1.369860 0.001747
v 0.395855 1.558472 -0.070647
v 0.447823 1.313703 0.040348
v 0.616414 1.438720 0.037564
v 0.006347 1.037050 0.054837
v -0.261959 1.400709 0.354677
v -0.234237 1.299631 0.224701
v 0.075395 1.638076 -0.328168
v 0.086953 1.636274 -0.332284
v -0.392099 1.577159 0.060017
v 0.447339 1.322621 0.022309
v -0.262678 1.685816 0.587684
v -0.293126 1.377921 0.141553
v 0.006703 0.549715 -0.021398
v -0.276058 1.568223 0.509380
v -0.002165 0.377827 0.021080
v 0.076381 1.447658 -0.265912
v 0.197065 1.097360 0.034592
v 0.618271 1.438705 0.048655
v 0.523439 1.352339 0.026827
v 0.316362 1.189859 0.047270
v -0.313112 1.383474 0.155226
v 0.520143 1.371734 0.041762
v -0.252539 1.296525 0.186255
v -0.152357 1.230098 0.148892
v 0.623809 1.433137 0.041441
v -0.267121 1.690596 0.584018
v -0.173996 1.205635 0.159002
v -0.002176 0.377824 -0.019800
v 0.098603 1.451646 -0.254463
v -0.065155 1.068684 0.064180
v 0.104318 1.039891 0.043207
v -0.092421 1.142753 0.088827
v 0.025595 0.858990 0.025136
v -0.021459 0.716166 0.004105
v -0.070023 1.153872 0.108656
v 0.038048 0.549544 0.009785
v 0.401719 1.436238 -0.041379
v -0.074580 1.155925 0.086402
v 0.398110 1.439142 -0.034828
v -0.036927 0.859897 0.025515
v 0.030854 0.028827 0.029210
v 0.035125 1.055086 0.005238
v -0.021282 0.716216 0.035473
v 0.089424 1.041227 0.058441
v 0.038704 0.377799 -0.019810
v 0.394329 1.431716 -0.042432
v -0.385391 1.575296 0.055428
v 0.413365 1.294244 0.021872
v 0.010084 0.715794 0.035297
v 0.090895 1.078732 0.038018
v -0.027522 0.992019 0.014316
v 0.526772 1.350730 0.049438
v 0.435420 1.286628 0.031213
v 0.393248 1.560590 -0.065745
v -0.155721 1.214737 0.169552
v -0.269312 1.397393 0.353722
v 0.073695 1.453629 -0.254735
v -0.010899 0.549834 -0.007726
v 0.410944 1.351284 -0.006858
v 0.414353 1.364052 0.002371
v 0.420376 1.359475 -0.006378
v 0.523458 1.361841 0.046887
v 0.088403 1.448987 -0.261330
v 0.087092 1.456034 -0.247832
v 0.032903 1.156257 -0.083945
v 0.051463 1.145146 -0.097506
v 0.102582 1.070105 0.022952
v -0.301634 1.372087 0.138292
v -0.313683 1.375435 0.146535
v -0.302537 1.381588 0.149156
v -0.278942 1.420695 0.364500
v -0.274320 1.432261 0.356528
v -0.262387 1.421670 0.359878
v 0.525446 1.350149 0.037884
v 0.521449 1.362812 0.033256
v 0.308069 1.198893 0.044672
v 0.053252 1.164055 -0.078995
v 0.115608 1.050532 0.024846
v 0.306080 1.201445 0.028033
v 0.092015 1.062922 0.050446
v -0.034186 1.090393 0.047774
v 0.315693 1.190923 0.033100
v -0.152762 1.223059 0.159924
v -0.164971 1.209258 0.165627
v -0.163002 1.225582 0.141886
v -0.175210 1.211780 0.147589
v -0.052763 1.070417 0.079183
v -0.054923 1.071450 0.048219
v -0.032026 1.089360 0.078738
v -0.023410 0.859669 0.007794
v 0.012078 0.859218 0.042857
v -0.023195 0.859730 0.043071
v 0.011863 0.859157 0.007580
v -0.010807 0.549860 0.027551
v 0.024377 0.549616 -0.007818
v 0.024469 0.549641 0.027459
v -0.014535 0.190071 -0.025378
v 0.035633 0.190071 0.024790
v -0.014535 0.190071 0.024790
v 0.035633 0.190071 -0.025378
vt 0.4270 0.7821
vt 0.4247 0.8005
vt 0.4220 0.8002
vt 0.4236 0.7817
vt 0.4132 0.7814
vt 0.4139 0.8002
vt 0.4111 0.8003
vt 0.4098 0.7814
vt 0.4201 0.7815
vt 0.4193 0.8002
vt 0.4166 0.8002
vt 0.4167 0.7814
vt 0.4064 0.7818
vt 0.4084 0.8004
vt 0.4057 0.8006
vt 0.4029 0.7822
vt 0.4185 0.8250
vt 0.4177 0.8498
vt 0.4161 0.8499
vt 0.4164 0.8250
vt 0.4228 0.8252
vt 0.4209 0.8499
vt 0.4193 0.8498
vt 0.4207 0.8250
vt 0.4141 0.8251
vt 0.4144 0.8500
vt 0.4128 0.8500
vt 0.4119 0.8252
vt 0.4205 0.8577
vt 0.4220 0.8577
vt 0.4215 0.8655
vt 0.4201 0.8655
vt 0.4148 0.8579
vt 0.4165 0.8578
vt 0.4170 0.8657
vt 0.4153 0.8658
vt 0.4178 0.8577
vt 0.4190 0.8576
vt 0.4188 0.8654
vt 0.4179 0.8656
vt 0.4114 0.8579
vt 0.4132 0.8579
vt 0.4135 0.8659
vt 0.4117 0.8659
vt 0.4391 0.7694
vt 0.4405 0.7701
vt 0.4403 0.7747
vt 0.4392 0.7748
vt 0.4451 0.7697
vt 0.4464 0.7706
vt 0.4446 0.7758
vt 0.4435 0.7755
vt 0.4182 0.8658
vt 0.4362 0.7693
vt 0.4377 0.7687
vt 0.4381 0.7749
vt 0.4370 0.7751
vt 0.4430 0.7842
vt 0.4441 0.7844
vt 0.4437 0.7931
vt 0.4426 0.7929
vt 0.4408 0.7839
vt 0.4419 0.7839
vt 0.4414 0.7927
vt 0.4403 0.7928
vt 0.4365 0.7838
vt 0.4374 0.7839
vt 0.4368 0.7928
vt 0.4360 0.7926
vt 0.4386 0.7838
vt 0.4398 0.7838
vt 0.4392 0.7929
vt 0.4380 0.7929
vt 0.4194 0.8659
vt 0.4194 0.8659
vt 0.4195 0.8660
vt 0.4195 0.8660
vt 0.4421 0.7695
vt 0.4437 0.7689
vt 0.4425 0.7752
vt 0.4414 0.7750
vt 0.4185 0.8659
vt 0.4195 0.8658
vt 0.4194 0.8658
vt 0.4194 0.8659
vt 0.4194 0.8659
vt 0.4195 0.8660
vt 0.4195 0.8660
vt 0.4191 0.8659
vt 0.4192 0.8662
vt 0.4194 0.8659
vt 0.4194 0.8659
vt 0.4554 0.7760
vt 0.4574 0.7763
vt 0.4568 0.7883
vt 0.4552 0.7882
vt 0.4195 0.8660
vt 0.4195 0.8660
vt 0.4195 0.8659
vt 0.4195 0.8659
vt 0.4195 0.8660
vt 0.4195 0.8660
vt 0.4195 0.8660
vt 0.4195 0.8660
vt 0.4195 0.8660
vt 0.4195 0.8660
vt 0.4195 0.8660
vt 0.4195 0.8660
vt 0.4195 0.8660
vt 0.4195 0.8660
vt 0.4195 0.8660
vt 0.4195 0.8660
vt 0.4195 0.8660
vt 0.4195 0.8660
vt 0.4367 0.8084
vt 0.4377 0.8085
vt 0.4362 0.8241
vt 0.4355 0.8239
vt 0.4412 0.7939
vt 0.4385 0.8090
vt 0.4393 0.8096
vt 0.4376 0.8242
vt 0.4369 0.8241
vt 0.4352 0.7924
vt 0.4349 0.8080
vt 0.4632 0.7790
vt 0.4641 0.7788
vt 0.4626 0.7908
vt 0.4403 0.8091
vt 0.4414 0.8086
vt 0.4391 0.8240
vt 0.4383 0.8241
vt 0.4648 0.7707
vt 0.4660 0.7706
vt 0.4650 0.7787
vt 0.4626 0.7707
vt 0.4636 0.7709
vt 0.4624 0.7788
vt 0.4669 0.7708
vt 0.4678 0.7710
vt 0.4666 0.7789
vt 0.4658 0.7788
vt 0.4616 0.7785
vt 0.4618 0.7905
vt 0.4635 0.7907
vt 0.4347 0.8236
vt 0.4341 0.8408
vt 0.4355 0.8411
vt 0.4348 0.8411
vt 0.4190 0.8664
vt 0.4189 0.8659
vt 0.4202 0.8659
vt 0.4190 0.8661
vt 0.4187 0.8661
vt 0.4194 0.8658
vt 0.4194 0.8658
vt 0.4590 0.7757
vt 0.4606 0.7752
vt 0.4596 0.7879
vt 0.4582 0.7881
vt 0.4515 0.7755
vt 0.4534 0.7758
vt 0.4536 0.7881
vt 0.4521 0.7880
vt 0.4549 0.8024
vt 0.4546 0.8167
vt 0.4536 0.8165
vt 0.4536 0.8023
vt 0.4574 0.8025
vt 0.4566 0.8169
vt 0.4557 0.8168
vt 0.4563 0.8025
vt 0.4539 0.8306
vt 0.4550 0.8308
vt 0.4518 0.8168
vt 0.4527 0.8167
vt 0.4530 0.8308
vt 0.4731 0.7721
vt 0.4740 0.7720
vt 0.4718 0.7865
vt 0.4195 0.8660
vt 0.4195 0.8660
vt 0.4744 0.7674
vt 0.4755 0.7671
vt 0.4749 0.7718
vt 0.4724 0.7674
vt 0.4733 0.7678
vt 0.4725 0.7719
vt 0.4707 0.7671
vt 0.4715 0.7672
vt 0.4718 0.7717
vt 0.4711 0.7717
vt 0.4711 0.7862
vt 0.4705 0.7716
vt 0.4705 0.7862
vt 0.4098 0.8252
vt 0.4112 0.8500
vt 0.4095 0.8499
vt 0.4076 0.8253
vt 0.4524 0.8023
vt 0.4513 0.8023
vt 0.4507 0.7878
vt 0.4705 0.8008
vt 0.4699 0.7671
vt 0.4692 0.7625
vt 0.4703 0.7625
vt 0.4713 0.7626
vt 0.4724 0.7630
vt 0.4734 0.7634
vt 0.4748 0.7630
vt 0.4762 0.7625
vt 0.4195 0.8660
vt 0.4195 0.8660
vt 0.4727 0.7863
vt 0.4542 0.8448
vt 0.4559 0.8309
vt 0.4575 0.8169
vt 0.4586 0.8024
vt 0.4495 0.7752
vt 0.4483 0.7625
vt 0.4508 0.7630
vt 0.4533 0.7635
vt 0.4580 0.7642
vt 0.4597 0.7634
vt 0.4615 0.7625
vt 0.4185 0.8663
vt 0.4180 0.8663
vt 0.4334 0.8580
vt 0.4363 0.8410
vt 0.4643 0.7908
vt 0.4620 0.8026
vt 0.4669 0.7625
vt 0.4680 0.7628
vt 0.4691 0.7631
vt 0.4616 0.7705
vt 0.4616 0.7625
vt 0.4629 0.7626
vt 0.4641 0.7627
vt 0.4655 0.7626
vt 0.4410 0.7950
vt 0.4424 0.7940
vt 0.4358 0.8082
vt 0.4401 0.7940
vt 0.4195 0.8660
vt 0.4195 0.8660
vt 0.4557 0.7638
vt 0.4191 0.8656
vt 0.4194 0.8659
vt 0.4175 0.8660
vt 0.4408 0.7655
vt 0.4429 0.7641
vt 0.4450 0.7626
vt 0.4194 0.8659
vt 0.4356 0.7838
vt 0.4359 0.7752
vt 0.4347 0.7698
vt 0.4334 0.7644
vt 0.4353 0.7635
vt 0.4372 0.7625
vt 0.4466 0.7639
vt 0.4483 0.7653
vt 0.4390 0.7640
vt 0.4097 0.8579
vt 0.4099 0.8659
vt 0.4226 0.8500
vt 0.4273 0.8008
vt 0.4250 0.8254
vt 0.4043 0.7631
vt 0.4002 0.7637
vt 0.4085 0.7625
vt 0.4209 0.7628
vt 0.4168 0.7625
vt 0.4251 0.7632
vt 0.4126 0.7625
vt 0.4293 0.7636
vt 0.4334 0.7640
vt 0.4304 0.7824
vn 0.7075 -0.0001 -0.7067
vn 0.7067 0.0583 -0.7051
vn 0.9988 0.0487 -0.0093
vn 1.0000 -0.0077 -0.0013
vn -0.7051 0.0656 0.7061
vn -0.7054 -0.0008 0.7088
vn -0.9997 0.0246 -0.0089
vn -0.9960 0.0888 -0.0011
vn 0.7078 -0.0026 0.7064
vn 0.7107 0.0177 0.7033
vn 0.0220 0.0078 0.9997
vn 0.0031 0.0387 0.9992
vn -0.7048 0.0680 -0.7061
vn -0.7039 0.0409 -0.7091
vn 0.0198 0.0655 -0.9977
vn 0.0030 0.0419 -0.9991
vn 0.7090 0.0303 0.7046
vn 0.7086 -0.0097 0.7055
vn -0.0094 -0.0521 0.9986
vn 0.0050 -0.0312 0.9995
vn 0.7014 0.1092 -0.7044
vn 0.7015 0.0601 -0.7101
vn 0.9993 0.0367 -0.0003
vn 0.9954 0.0955 -0.0016
vn -0.7036 -0.0701 0.7071
vn -0.7037 -0.0623 0.7078
vn -0.9992 -0.0380 0.0090
vn -0.9989 -0.0462 0.0006
vn 0.6921 -0.0136 -0.7217
vn -0.0197 0.0014 -0.9998
vn -0.2971 -0.1555 -0.9421
vn 0.6231 -0.2401 -0.7444
vn -0.6794 -0.0556 0.7316
vn 0.0012 -0.0791 0.9969
vn 0.0595 -0.1364 0.9889
vn -0.6084 -0.2486 0.7537
vn 0.7093 -0.0836 0.7000
vn 0.9958 -0.0672 -0.0623
vn 0.8331 -0.5323 -0.1504
vn 0.5790 -0.4356 0.6892
vn -0.7218 0.0077 -0.6921
vn -0.9995 -0.0326 0.0011
vn -0.9874 -0.1510 -0.0467
vn -0.7382 0.0143 -0.6745
vn 0.7868 0.2492 0.5647
vn 0.7638 0.6377 -0.0995
vn 0.7038 0.7012 -0.1137
vn 0.7650 0.3419 0.5457
vn -0.7794 -0.0274 -0.6259
vn -0.9296 -0.3679 0.0226
vn -0.7551 -0.6479 0.0997
vn -0.7831 -0.2714 -0.5596
vn 0.2450 -0.2525 0.9361
vn -0.5032 -0.4952 0.7083
vn 0.2305 -0.2002 0.9523
vn 0.3800 -0.1737 0.9085
vn -0.3143 -0.6434 0.6980
vn -0.7257 -0.6105 -0.3173
vn -0.5060 -0.8166 0.2778
vn -0.4983 -0.7348 0.4603
vn -0.7380 -0.6747 -0.0121
vn 0.0859 0.6538 -0.7517
vn -0.5133 0.0120 -0.8581
vn -0.6395 -0.5098 -0.5755
vn 0.2907 0.2785 -0.9154
vn -0.0527 -0.6832 0.7283
vn 0.5206 -0.1257 0.8445
vn 0.6982 -0.1767 0.6938
vn 0.0903 -0.7104 0.6979
vn 0.7440 0.4963 0.4474
vn 0.5662 0.8009 -0.1949
vn 0.7451 0.6066 -0.2773
vn 0.9003 0.4009 0.1696
vn 0.6094 -0.7669 -0.2012
vn 0.1709 -0.2449 -0.9544
vn 0.2893 -0.4994 -0.8167
vn 0.5916 -0.7742 -0.2252
vn 0.1529 0.6566 -0.7386
vn -0.4838 0.2817 -0.8286
vn -0.3370 0.3211 -0.8850
vn 0.2223 0.6642 -0.7137
vn -0.1497 0.4629 0.8737
vn 0.4082 -0.5425 0.7342
vn -0.1727 0.3268 0.9292
vn -0.4572 0.5381 -0.7081
vn -0.6022 0.7645 0.2301
vn -0.7610 0.4275 0.4880
vn -0.6384 0.1827 -0.7477
vn 0.4956 -0.7849 -0.3719
vn 0.2738 -0.1337 -0.9524
vn 0.2153 -0.2306 -0.9489
vn 0.5662 -0.7976 -0.2080
vn 0.6782 0.3463 0.6481
vn 0.9747 -0.2137 -0.0647
vn 0.9900 -0.1299 -0.0551
vn 0.5838 0.3495 0.7329
vn -0.2287 0.2893 0.9295
vn -0.3408 0.3864 0.8570
vn -0.1980 0.2906 0.9361
vn 0.4148 -0.4905 0.7664
vn 0.3536 -0.4931 0.7949
vn 0.4578 -0.4915 0.7408
vn 0.7705 -0.6235 -0.1325
vn 0.5619 -0.2625 0.7845
vn 0.3696 -0.3841 -0.8461
vn -0.5381 0.4067 -0.7383
vn 0.2527 -0.2437 -0.9364
vn -0.2715 0.5303 -0.8032
vn -0.5511 0.8000 0.2372
vn -0.6114 0.7398 0.2808
vn 0.5997 -0.7846 -0.1571
vn 0.3452 -0.3210 -0.8819
vn -0.2289 0.3022 0.9254
vn -0.7578 0.6301 0.1694
vn 0.9948 0.0645 0.0794
vn 0.6543 0.6145 -0.4407
vn 0.7061 0.5252 -0.4749
vn 0.9883 -0.1388 0.0637
vn -0.8860 -0.4431 0.1367
vn -0.1683 0.7426 -0.6482
vn -0.9679 0.1684 -0.1867
vn -0.9824 0.1285 -0.1356
vn -0.2168 0.5890 -0.7785
vn -0.3119 -0.7051 0.6369
vn -0.5183 0.2635 0.8136
vn 0.5833 0.4663 0.6651
vn -0.3888 0.1246 0.9129
vn -0.8530 -0.4072 0.3264
vn 0.0956 -0.6661 0.7397
vn -0.6220 -0.3781 0.6857
vn 0.5008 0.7372 0.4536
vn 0.8762 0.3566 -0.3242
vn 0.8763 0.1829 -0.4456
vn -0.9210 -0.3508 0.1693
vn -0.5725 0.3750 0.7292
vn -0.9485 -0.2804 0.1477
vn 0.4481 -0.3025 -0.8413
vn -0.4693 -0.6417 -0.6066
vn -0.4674 -0.5746 -0.6719
vn 0.3025 -0.1594 -0.9397
vn -0.6054 -0.3233 -0.7274
vn 0.9084 0.3139 -0.2760
vn 0.2076 -0.5019 0.8397
vn -0.9304 0.3173 -0.1836
vn 0.7330 0.2973 -0.6118
vn 0.6498 -0.3117 -0.6932
vn 0.5365 -0.6287 -0.5630
vn 0.3920 -0.5748 -0.7183
vn -0.1459 0.7191 -0.6794
vn -0.2672 0.9474 0.1764
vn -0.4812 0.8537 0.1992
vn -0.3517 0.6146 -0.7060
vn 0.3883 -0.5687 -0.7251
vn -0.5437 -0.3654 -0.7556
vn -0.4980 -0.3593 -0.7893
vn 0.4248 -0.4738 -0.7714
vn -0.9767 0.2022 -0.0712
vn -0.3447 0.6408 0.6859
vn -0.4437 0.4992 0.7443
vn -0.9921 0.0989 -0.0770
vn 0.4724 0.3511 0.8084
vn 0.3825 0.2651 0.8851
vn -0.5987 0.2865 0.7480
vn -0.5428 0.3616 0.7580
vn 0.4815 -0.3484 -0.8042
vn 0.5849 -0.0890 -0.8062
vn 0.9982 0.0222 -0.0554
vn 0.9988 -0.0219 -0.0437
vn -0.6658 0.0771 0.7422
vn 0.9701 0.2159 0.1105
vn -0.2995 -0.3102 -0.9023
vn -0.9721 -0.1307 -0.1945
vn -0.3169 -0.1603 -0.9348
vn 0.7663 0.4131 0.4920
vn 0.9118 -0.0386 -0.4089
vn 0.7593 0.1771 0.6262
vn -0.2532 0.2844 0.9247
vn 0.3666 -0.5253 0.7679
vn 0.8661 0.0704 -0.4949
vn 0.0994 -0.3812 -0.9191
vn -0.0766 -0.3806 -0.9216
vn -0.3680 0.3995 0.8396
vn 0.6643 0.5746 0.4781
vn -0.2859 0.2469 0.9259
vn -0.8138 -0.3630 -0.4538
vn -0.9434 0.0547 0.3270
vn -0.9713 -0.0626 0.2293
vn -0.8807 -0.1400 -0.4526
vn -0.9166 0.1069 0.3853
vn 0.0140 -0.1657 -0.9861
vn -0.7087 0.0093 -0.7054
vn -0.7132 0.0055 -0.7009
vn -0.0202 0.0466 -0.9987
vn -0.0029 0.0809 -0.9967
vn -0.9959 0.0000 -0.0903
vn -0.4169 -0.3332 -0.8457
vn -0.0031 0.9795 -0.2013
vn -0.1078 0.8772 0.4678
vn 0.3588 0.3287 -0.8737
vn -0.2444 0.2808 0.9281
vn -0.1578 0.9756 -0.1526
vn -0.7274 0.4576 -0.5114
vn 0.0959 0.9758 0.1964
vn 0.5291 0.8480 0.0319
vn 0.1515 0.8513 0.5024
vn -0.3132 0.9301 -0.1918
vn -0.9666 0.1976 0.1634
vn 0.2115 0.9634 -0.1647
vn -0.8239 -0.4757 0.3082
vn 0.7276 -0.4182 0.5438
vn 0.5793 0.8085 -0.1033
vn 0.5381 -0.8383 0.0881
vn 0.3824 0.4043 0.8308
vn -0.7082 0.0690 -0.7026
vn -0.0207 0.0372 -0.9991
vn -0.9957 0.0928 0.0006
vn 0.7043 -0.0071 0.7099
vn -0.0206 0.0403 0.9990
vn 0.9998 -0.0178 0.0006
vn -0.7079 0.0711 0.7027
vn 0.7044 -0.0093 -0.7097
usemtl None
s 1
f 221/1/1 166/2/2 3/3/3 106/4/4
f 220/5/5 136/6/6 7/7/7 94/8/8
f 219/9/9 109/10/10 6/11/11 83/12/12
f 218/13/13 149/14/14 2/15/15 118/16/16
f 217/17/17 170/18/18 10/19/19 91/20/20
f 216/21/21 111/22/22 9/23/23 157/24/24
f 215/25/25 164/26/26 12/27/27 80/28/28
f 214/29/29 98/30/30 13/31/31 59/32/32
f 213/33/33 89/34/34 15/35/35 65/36/36
f 212/37/37 154/38/38 14/39/39 116/40/40
f 211/41/41 161/42/42 16/43/43 172/44/44
f 210/45/45 110/46/46 18/47/47 156/48/48
f 209/49/49 151/50/50 20/51/51 153/52/52
f 15/35/35 116/40/40 165/53/53
f 208/54/54 88/55/55 19/56/56 96/57/57
f 207/58/58 148/59/59 23/60/60 82/61/61
f 206/62/62 62/63/63 24/64/64 144/65/65
f 205/66/66 176/67/67 26/68/68 69/69/69
f 204/70/70 145/71/71 25/72/72 127/73/73
f 203/74/74 114/75/75 28/76/76 174/77/77
f 202/78/78 97/79/79 21/80/80 159/81/81
f 201/82/82 165/53/53 22/83/83 76/84/84
f 200/85/85 68/86/86 31/87/87 169/88/88
f 199/89/89 117/90/90 27/91/91 138/92/92
f 198/93/93 90/94/94 33/95/95 107/96/96
f 31/87/87 75/97/97 108/98/98
f 197/99/99 141/100/100 29/101/101 75/97/97
f 36/102/102 146/103/103 74/104/104
f 37/105/105 124/106/106 66/107/107
f 196/108/108 143/109/109 39/110/110 124/106/106
f 195/111/111 140/112/112 37/105/105 146/103/103
f 39/110/110 139/113/113 119/114/114
f 194/115/115 61/116/116 40/117/117 135/118/118
f 24/64/64 82/61/61 101/119/119
f 193/120/120 86/121/121 43/122/122 115/123/123
f 23/124/60 69/69/69 177/125/124
f 44/126/125 81/127/126 130/128/127
f 192/129/128 177/130/124 41/131/129 92/132/130
f 191/133/131 133/134/132 45/135/133 81/127/126
f 190/136/134 142/137/135 44/126/125 73/138/136
f 189/139/137 60/140/138 47/141/139 105/142/140
f 47/143/139 73/138/136 100/144/141
f 45/135/133 105/142/140 168/145/142
f 41/146/129 135/118/118 132/147/143
f 43/122/122 92/132/130 147/148/144
f 40/117/117 115/123/123 78/149/145
f 32/150/146 67/151/147 64/152/148
f 188/153/149 171/154/150 30/155/151 120/156/152
f 187/157/153 85/158/154 49/159/155 95/160/156
f 186/161/157 104/162/158 34/163/159 103/164/160
f 185/165/161 71/166/162 51/167/163 79/168/164
f 184/169/165 129/170/166 50/171/167 150/172/168
f 51/167/163 71/166/162 58/173/169
f 50/171/167 129/170/166 72/174/170
f 52/175/171 128/176/172 63/177/173
f 54/178/174 158/179/175 102/180/176
f 183/181/177 173/182/178 36/102/102 139/113/113
f 182/183/179 84/184/180 55/185/181 158/179/175
f 181/186/182 121/187/183 54/178/174 160/188/184
f 180/189/185 70/190/186 57/191/187 167/192/188
f 57/191/187 160/188/184 175/193/189
f 55/194/181 167/192/188 122/195/190
f 179/196/191 155/197/192 11/198/193 134/199/194
f 178/200/195 128/176/172 52/175/171 137/201/196
f 103/164/160 178/200/195 137/201/196 49/202/155
f 34/163/159 79/168/164 178/200/195 103/164/160
f 79/168/164 51/167/163 128/176/172 178/200/195
f 149/14/14 179/196/191 134/199/194 2/15/15
f 7/7/7 80/28/28 179/196/191 149/14/14
f 80/28/28 12/27/27 155/197/192 179/196/191
f 122/195/190 175/193/189 56/203/197
f 122/195/190 167/192/188 175/193/189
f 167/192/188 57/191/187 175/193/189
f 175/193/189 102/180/176 56/203/197
f 175/193/189 160/188/184 102/180/176
f 160/188/184 54/178/174 102/180/176
f 84/204/180 180/189/185 167/192/188 55/194/181
f 28/205/76 169/206/88 180/189/185 84/204/180
f 169/206/88 31/207/87 70/190/186 180/189/185
f 70/190/186 181/186/182 160/188/184 57/191/187
f 31/207/87 108/208/98 181/186/182 70/190/186
f 108/208/98 35/209/198 121/187/183 181/186/182
f 121/187/183 182/183/179 158/179/175 54/178/174
f 35/209/198 131/210/199 182/183/179 121/187/183
f 131/210/199 28/211/76 84/184/180 182/183/179
f 143/109/109 183/181/177 139/113/113 39/110/110
f 35/212/198 123/213/200 183/181/177 143/109/109
f 123/213/200 29/101/101 173/182/178 183/181/177
f 102/180/176 122/214/190 56/203/197
f 102/180/176 158/179/175 122/214/190
f 158/179/175 55/185/181 122/214/190
f 63/177/173 58/173/169 53/215/201
f 63/177/173 128/176/172 58/173/169
f 128/176/172 51/167/163 58/173/169
f 72/174/170 63/216/173 53/215/201
f 72/174/170 129/170/166 63/216/173
f 129/170/166 52/217/171 63/216/173
f 58/173/169 72/174/170 53/215/201
f 58/173/169 71/166/162 72/174/170
f 71/166/162 50/171/167 72/174/170
f 95/160/156 184/169/165 150/172/168 33/95/95
f 49/159/155 137/218/196 184/169/165 95/160/156
f 137/218/196 52/217/171 129/170/166 184/169/165
f 107/96/96 185/165/161 79/168/164 34/163/159
f 33/95/95 150/172/168 185/165/161 107/96/96
f 150/172/168 50/171/167 71/166/162 185/165/161
f 85/219/154 186/161/157 103/164/160 49/202/155
f 13/220/31 113/221/202 186/161/157 85/219/154
f 113/221/202 17/222/203 104/162/158 186/161/157
f 90/94/94 187/157/153 95/160/156 33/95/95
f 32/223/146 64/224/148 187/157/153 90/94/94
f 64/224/148 13/225/31 85/158/154 187/157/153
f 117/90/90 188/153/149 120/156/152 27/91/91
f 32/150/146 163/226/204 188/153/149 117/90/90
f 163/226/204 17/227/203 171/154/150 188/153/149
f 64/152/148 59/32/32 13/31/31
f 64/152/148 67/151/147 59/32/32
f 67/151/147 14/39/39 59/32/32
f 78/149/145 147/148/144 48/228/205
f 78/149/145 115/123/123 147/148/144
f 115/123/123 43/122/122 147/148/144
f 147/148/144 132/229/143 48/228/205
f 147/148/144 92/132/130 132/229/143
f 92/132/130 41/131/129 132/229/143
f 132/147/143 78/149/145 48/228/205
f 132/147/143 135/118/118 78/149/145
f 135/118/118 40/117/117 78/149/145
f 168/145/142 100/230/141 46/231/206
f 168/145/142 105/142/140 100/230/141
f 105/142/140 47/141/139 100/230/141
f 100/144/141 130/128/127 46/231/206
f 100/144/141 73/138/136 130/128/127
f 73/138/136 44/126/125 130/128/127
f 133/134/132 189/139/137 105/142/140 45/135/133
f 25/232/72 144/233/65 189/139/137 133/134/132
f 144/233/65 24/234/64 60/140/138 189/139/137
f 60/235/138 190/136/134 73/138/136 47/143/139
f 24/236/64 101/237/119 190/136/134 60/235/138
f 101/237/119 42/238/207 142/137/135 190/136/134
f 142/137/135 191/133/131 81/127/126 44/126/125
f 42/238/207 87/239/208 191/133/131 142/137/135
f 87/239/208 25/232/72 133/134/132 191/133/131
f 86/121/121 192/129/128 92/132/130 43/122/122
f 42/240/207 99/241/209 192/129/128 86/121/121
f 99/241/209 23/60/60 177/130/124 192/129/128
f 130/128/127 168/145/142 46/231/206
f 130/128/127 81/127/126 168/145/142
f 81/127/126 45/135/133 168/145/142
f 177/125/124 126/242/210 41/146/129
f 177/125/124 69/69/69 126/242/210
f 69/69/69 26/68/68 126/242/210
f 61/116/116 193/120/120 115/123/123 40/117/117
f 25/72/72 87/243/208 193/120/120 61/116/116
f 87/243/208 42/240/207 86/121/121 193/120/120
f 101/119/119 99/241/209 42/240/207
f 101/119/119 82/61/61 99/241/209
f 82/61/61 23/60/60 99/241/209
f 126/242/210 194/115/115 135/118/118 41/146/129
f 26/68/68 127/73/73 194/115/115 126/242/210
f 127/73/73 25/72/72 61/116/116 194/115/115
f 119/114/114 74/104/104 38/244/211
f 119/114/114 139/113/113 74/104/104
f 139/113/113 36/102/102 74/104/104
f 173/182/178 195/111/111 146/103/103 36/102/102
f 29/101/101 174/77/77 195/111/111 173/182/178
f 174/77/77 28/76/76 140/112/112 195/111/111
f 140/112/112 196/108/108 124/106/106 37/105/105
f 28/76/76 131/245/199 196/108/108 140/112/112
f 131/245/199 35/212/198 143/109/109 196/108/108
f 66/107/107 119/114/114 38/244/211
f 66/107/107 124/106/106 119/114/114
f 124/106/106 39/110/110 119/114/114
f 74/104/104 66/107/107 38/244/211
f 74/104/104 146/103/103 66/107/107
f 146/103/103 37/105/105 66/107/107
f 68/86/86 197/99/99 75/97/97 31/87/87
f 30/155/151 76/84/84 197/99/99 68/86/86
f 76/84/84 22/83/83 141/100/100 197/99/99
f 108/98/98 123/213/200 35/212/198
f 108/98/98 75/97/97 123/213/200
f 75/97/97 29/101/101 123/213/200
f 104/162/158 198/93/93 107/96/96 34/163/159
f 17/222/203 163/246/204 198/93/93 104/162/158
f 163/246/204 32/223/146 90/94/94 198/93/93
f 152/247/212 199/89/89 138/92/92 22/248/83
f 14/39/39 67/151/147 199/89/89 152/247/212
f 67/151/147 32/150/146 117/90/90 199/89/89
f 114/75/75 200/85/85 169/88/88 28/76/76
f 27/91/91 120/156/152 200/85/85 114/75/75
f 120/156/152 30/155/151 68/86/86 200/85/85
f 171/154/150 201/82/82 76/84/84 30/155/151
f 17/227/203 125/249/213 201/82/82 171/154/150
f 125/249/213 15/35/35 165/53/53 201/82/82
f 110/46/46 202/78/78 159/81/81 18/47/47
f 17/250/203 113/251/202 202/78/78 110/46/46
f 113/251/202 13/252/31 97/79/79 202/78/78
f 141/253/100 203/74/74 174/77/77 29/101/101
f 22/248/83 138/92/92 203/74/74 141/253/100
f 138/92/92 27/91/91 114/75/75 203/74/74
f 176/67/67 204/70/70 127/73/73 26/68/68
f 19/56/56 156/48/48 204/70/70 176/67/67
f 156/48/48 18/47/47 145/71/71 204/70/70
f 148/254/59 205/66/66 69/69/69 23/124/60
f 20/255/51 96/57/57 205/66/66 148/254/59
f 96/57/57 19/56/56 176/67/67 205/66/66
f 145/71/71 206/62/62 144/65/65 25/72/72
f 18/47/47 159/81/81 206/62/62 145/71/71
f 159/81/81 21/80/80 62/63/63 206/62/62
f 62/63/63 207/58/58 82/61/61 24/64/64
f 21/80/80 153/52/52 207/58/58 62/63/63
f 153/52/52 20/51/51 148/59/59 207/58/58
f 151/256/50 208/54/54 96/57/57 20/255/51
f 16/257/43 65/258/36 208/54/54 151/256/50
f 65/258/36 15/259/35 88/55/55 208/54/54
f 165/53/53 152/247/212 22/83/83
f 165/53/53 116/40/40 152/247/212
f 116/40/40 14/39/39 152/247/212
f 97/79/79 209/49/49 153/52/52 21/80/80
f 13/252/31 172/260/44 209/49/49 97/79/79
f 172/260/44 16/261/43 151/50/50 209/49/49
f 88/55/55 210/45/45 156/48/48 19/56/56
f 15/259/35 125/262/213 210/45/45 88/55/55
f 125/262/213 17/250/203 110/46/46 210/45/45
f 98/263/30 211/41/41 172/44/44 13/264/31
f 11/198/193 155/197/192 211/41/41 98/263/30
f 155/197/192 12/27/27 161/42/42 211/41/41
f 89/34/34 212/37/37 116/40/40 15/35/35
f 10/19/19 170/18/18 212/37/37 89/34/34
f 170/18/18 9/23/23 154/38/38 212/37/37
f 161/42/42 213/33/33 65/36/36 16/43/43
f 12/27/27 164/26/26 213/33/33 161/42/42
f 164/26/26 10/19/19 89/34/34 213/33/33
f 154/38/38 214/29/29 59/32/32 14/39/39
f 9/23/23 111/22/22 214/29/29 154/38/38
f 111/22/22 11/265/193 98/30/30 214/29/29
f 136/6/6 215/25/25 80/28/28 7/7/7
f 6/11/11 91/20/20 215/25/25 136/6/6
f 91/20/20 10/19/19 164/26/26 215/25/25
f 166/2/2 216/21/21 157/24/24 3/3/3
f 2/266/15 134/267/194 216/21/21 166/2/2
f 134/267/194 11/265/193 111/22/22 216/21/21
f 109/10/10 217/17/17 91/20/20 6/11/11
f 3/3/3 157/24/24 217/17/17 109/10/10
f 157/24/24 9/23/23 170/18/18 217/17/17
f 93/268/214 218/13/13 118/16/16 1/269/215
f 8/270/216 94/8/8 218/13/13 93/268/214
f 94/8/8 7/7/7 149/14/14 218/13/13
f 162/271/217 219/9/9 83/12/12 5/272/218
f 4/273/219 106/4/4 219/9/9 162/271/217
f 106/4/4 3/3/3 109/10/10 219/9/9
f 77/274/220 220/5/5 94/8/8 8/270/216
f 5/272/218 83/12/12 220/5/5 77/274/220
f 83/12/12 6/11/11 136/6/6 220/5/5
f 112/275/221 221/1/1 106/4/4 4/273/219
f 1/276/215 118/277/16 221/1/1 112/275/221
f 118/277/16 2/266/15 166/2/2 221/1/1
