# Blender v2.78 (sub 0) OBJ File: ''
# www.blender.org
mtllib Apple_Tree_s_04.mtl
o Apple_Tree_s_04
v 0.201419 2.454281 0.361659
v 0.306677 2.149463 0.153658
v 0.114741 2.472199 -0.213732
v -0.220378 2.698009 -0.252554
v -0.083364 2.720139 0.226657
v -0.334845 2.901391 0.218138
v 0.020636 2.496728 0.750514
v -0.259681 2.463360 0.983561
v -0.027585 2.137077 0.986717
v -0.423930 2.737205 0.686744
v 0.292325 1.889890 0.670671
v 0.329245 1.842982 0.146668
v -0.928116 2.795014 0.032503
v -0.554412 2.737238 -0.389823
v -0.876126 2.581703 -0.475028
v -0.609301 2.870822 0.145952
v -1.177344 2.506738 -0.048470
v -1.061640 2.110184 -0.591862
v -1.349349 2.238685 -0.141900
v -1.078519 2.602530 0.556510
v -1.095763 2.300674 0.819217
v -0.823174 2.585392 0.899129
v -1.367342 1.984803 0.360472
v -0.736585 2.784454 0.583371
v -1.205888 1.565301 -0.281618
v -0.830553 1.646070 -0.699712
v -0.946473 1.213522 -0.237941
v -0.409155 1.329780 -0.577308
v -0.672121 1.050327 -0.174673
v -1.191812 1.290380 0.332110
v -0.808372 1.318132 0.798248
v -1.219637 1.529564 0.734065
v -0.596853 1.011735 0.301056
v -1.313995 1.935995 -0.216752
v -0.026072 1.177262 -0.138068
v 0.034280 1.545485 -0.590190
v 0.235056 1.529786 0.020709
v 0.130976 2.039516 -0.498624
v 0.013536 1.214481 0.439208
v 0.018842 1.447392 0.816480
v -0.305284 1.196382 0.742693
v -0.376365 1.014583 -0.167062
v -0.217578 1.607462 0.983817
v -0.438813 1.941647 1.106638
v -0.663223 2.306525 1.040687
v -0.972359 1.794842 0.941846
v -0.308824 1.719996 -0.775742
v -0.521970 2.039151 -0.831089
v -0.692122 2.374896 -0.696418
v -0.225262 2.422295 -0.603862
v 0.049479 0.034780 -0.006243
v 0.063310 0.289847 0.005857
v 0.038397 0.289041 0.044950
v 0.015127 0.035005 0.044313
v -0.034323 0.035155 0.008533
v 0.001555 0.287816 0.016779
v 0.026391 0.288688 -0.022301
v -0.000078 0.034947 -0.042003
v -0.011721 0.578905 0.024412
v -0.042360 0.573889 0.002823
v 0.009188 0.584426 -0.006554
v -0.021441 0.579436 -0.028145
v -0.109458 0.883118 0.017487
v -0.130567 0.851189 0.064821
v -0.174858 0.854528 0.034849
v -0.150252 0.849197 -0.014939
v -0.154478 0.931435 0.041733
v -0.263858 1.002572 -0.025388
v -0.281316 0.982142 -0.031684
v -0.267169 0.979155 -0.054167
v -0.247652 0.994900 -0.045956
v -0.155404 0.951508 0.211078
v -0.418943 1.070763 -0.167727
v -0.405557 1.087700 -0.176992
v -0.410649 1.096082 -0.156718
v -0.423368 1.077471 -0.151154
v -0.129430 0.974325 0.217933
v -0.131067 1.162829 0.406798
v -0.149722 1.152670 0.414762
v -0.153957 0.981396 0.211097
v -0.149053 1.162131 0.403689
v -0.110565 0.916978 0.070515
v -0.013070 1.157292 0.089692
v -0.033154 1.165529 0.070136
v -0.008158 1.152876 0.064549
v 0.054567 0.289536 0.028307
v -0.683666 2.841763 0.384367
v -1.230599 1.985330 -0.398636
v -0.754375 2.470429 0.968790
v -1.235747 1.431695 0.576431
v -1.047135 1.591140 -0.521295
v -0.411757 1.077992 -0.175102
v -0.532489 2.848708 0.431685
v -0.106033 0.714729 0.013124
v -0.129988 1.075092 0.321865
v -0.021731 1.159630 0.063526
v -0.190545 2.060191 -0.734819
v 0.276783 1.916831 -0.127305
v -0.049821 0.728619 0.002851
v -0.808467 2.048946 1.032214
v -0.124793 0.882965 0.066615
v -0.276115 0.978915 -0.043846
v -0.452169 0.983989 0.032230
v -0.424812 2.813836 -0.088275
v -0.234456 1.074320 -0.159888
v -0.589857 2.826915 -0.138181
v -0.194427 2.576922 -0.448439
v 0.328193 1.980919 0.157529
v -0.181967 2.648257 0.718586
v -0.151977 0.850577 0.067622
v -0.025109 0.035101 -0.022397
v 0.141678 1.603062 0.782686
v -0.133880 0.928816 0.022802
v -0.753828 2.799852 -0.198013
v -0.151577 1.077544 0.317857
v 0.224228 1.761038 -0.263979
v -0.450205 2.887422 0.192038
v -1.237448 2.167290 0.650413
v -1.143171 1.800516 -0.494673
v -0.011469 0.431086 0.008989
v -0.210246 2.054286 1.071968
v -1.304977 2.319396 0.184577
v -0.225619 2.759169 0.474492
v -0.139606 0.966180 0.222536
v -1.385477 2.163057 0.060908
v -0.166136 0.844772 0.000093
v -0.230090 2.829531 0.216578
v -0.180113 0.936541 -0.011365
v -1.124617 2.441461 0.706297
v 0.030201 0.034816 -0.032150
v 0.040212 0.034842 0.024698
v -1.288741 2.336574 -0.104501
v -0.625683 1.614755 0.994485
v 0.028756 0.145241 0.047732
v -1.128230 1.628258 0.822253
v -0.580987 1.153792 -0.367732
v 0.274222 2.294274 0.271874
v -0.362508 1.134465 -0.356183
v -1.101886 1.363972 -0.271293
v 0.259324 2.122874 -0.157827
v -0.936645 1.118147 0.335504
v -0.113952 1.647375 -0.712764
v -0.138387 1.164069 0.403543
v 0.010292 0.434174 -0.024521
v -0.062729 1.520332 0.899492
v -0.476320 2.400398 -0.679902
v -0.350497 1.030935 -0.114261
v -0.025625 1.162509 0.082430
v -0.274071 0.992777 -0.026305
v 0.014317 0.144984 -0.033904
v -0.098793 1.873187 -0.713539
v -0.955199 1.851616 -0.685888
v 0.128526 2.036175 0.882131
v -0.446882 1.083997 0.575121
v 0.190953 2.241840 0.747719
v -0.004031 0.582540 -0.020400
v -0.343247 2.228363 -0.744400
v 0.294012 1.645081 0.368462
v -0.905900 2.710916 -0.251961
v -0.166150 1.160102 0.604375
v 0.276036 2.233151 0.541418
v -0.130161 0.854423 -0.006832
v -0.085969 1.053842 0.053304
v 0.132594 1.323521 -0.071522
v -1.302298 1.692833 0.606498
v -0.180322 0.899154 0.041828
v -0.540289 1.217008 0.765517
v -0.954445 2.607568 0.772748
v -0.037388 2.640252 0.511427
v -0.560257 1.681682 -0.780457
v -0.163484 1.243814 -0.409083
v 0.136505 2.472066 0.558504
v -0.361046 1.542170 -0.728835
v -1.160205 2.558509 0.262053
v -0.133936 2.318733 0.998132
v -0.015098 0.035127 0.034450
v -0.794673 2.478131 -0.610166
v -1.014696 2.727368 0.306680
v -0.151560 0.898358 0.125953
v -0.847975 2.809146 0.336198
v -0.125735 2.721539 -0.045890
v -0.417501 1.088016 -0.151193
v -0.423029 1.071372 -0.157906
v -0.707855 1.830177 1.051042
v -0.717051 1.275019 -0.458424
v 0.171935 2.486346 0.090947
v -0.639041 2.652378 0.845386
v -0.156772 0.936816 0.120228
v -0.902751 2.279196 0.963316
v -0.140261 0.979698 0.213285
v -0.047412 2.257822 -0.600651
v -1.339313 2.090570 -0.176595
v -0.359058 1.036708 -0.095307
v 0.001788 0.582207 0.011040
v -0.345332 1.753516 1.056607
v -1.371128 1.941000 0.004252
v -1.275291 1.789089 -0.247486
v -1.072702 1.407316 0.768773
v -0.166120 0.896883 0.116226
v -0.007026 1.153558 0.078422
v -0.206970 0.922128 -0.027881
v -0.376118 2.721099 -0.340338
v 0.350846 1.846861 0.375673
v -0.106568 0.902140 0.045375
v -0.326278 2.595507 0.876360
v -0.403015 1.870786 -0.811500
v -0.768825 2.852862 0.087634
v -0.208158 0.952589 0.007124
v -0.018634 2.443638 -0.449794
v 0.096724 1.763708 -0.568530
v -0.374345 2.859896 0.406163
v -0.700986 1.854916 -0.806304
v -0.057911 1.042656 0.076160
v 0.041068 1.349451 0.672562
v -1.328574 1.708330 0.036193
v -1.248759 2.347996 0.471444
v -0.152219 1.063428 0.330522
v -0.527680 1.026376 -0.166810
v -0.806347 2.053935 -0.773577
v -0.326987 2.236284 1.076159
v -0.151758 1.437096 -0.623249
v 0.032127 1.359499 -0.389654
v -0.287013 2.826462 0.007520
v -0.125156 2.513877 0.887135
v 0.017493 0.288393 0.034861
v -1.244947 2.207387 -0.341980
v -0.851586 1.076687 0.057967
v -0.047867 2.589534 -0.273758
v -0.775971 1.108921 -0.199649
v -0.897297 1.551636 0.918799
v 0.147445 2.288121 -0.372063
v -0.343728 1.055389 -0.094969
v -0.017055 0.144961 0.013719
v -0.670648 1.003316 0.020680
v -0.905227 1.414024 -0.501883
v -0.034955 0.576121 -0.014771
v -1.212109 1.880666 0.716630
v -0.138915 1.157258 0.412012
v 0.060242 0.145220 0.000089
v -1.029480 1.238859 0.578505
v -0.152541 1.156303 0.409693
v -0.551983 2.127275 1.099460
v -0.406229 1.094636 -0.168389
v -0.253882 1.000469 -0.034752
v -0.746898 1.119801 0.576096
v -0.296758 1.366159 0.883957
v -1.059705 2.060580 0.869800
v -0.072588 0.721313 0.036640
v -0.255926 0.986607 -0.052292
v -0.029136 0.575788 0.016669
v -0.124914 0.926467 0.135992
v -1.060296 2.680376 -0.002998
v -0.630288 2.213750 -0.779209
v -0.227801 0.921879 0.000668
v 0.197565 1.510120 0.556609
v 0.165608 1.364780 0.251656
v -0.731252 2.676466 -0.446542
v 0.341309 2.053965 0.418910
v -0.083251 0.722046 -0.020667
v -0.113333 0.852084 0.039594
v 0.063958 1.758266 0.896205
v -0.253697 1.069059 0.377095
v -0.766292 2.700881 0.767256
v -1.029383 2.556861 -0.296749
v -0.009097 1.161607 0.156831
v 0.302180 1.729398 0.099441
v -0.053352 1.033746 0.044864
v -0.119338 1.316123 0.793624
v -1.329167 1.589148 0.337248
v 0.042492 0.437159 -0.000680
v -0.963018 2.462645 0.884551
v -0.538893 2.541750 0.921600
v -0.157994 0.970613 0.216862
v -0.090067 1.884958 1.005280
v 0.157466 1.538398 -0.329372
v 0.035495 2.313490 0.892390
v 0.020705 0.434124 0.032835
v -0.602767 2.564121 -0.575948
v -0.257424 1.047350 0.108793
v -0.900474 2.722747 0.589705
v -0.970332 2.382017 -0.549028
v -0.855007 2.255603 -0.701968
v -0.443151 2.401692 1.021391
v 0.030575 2.616254 -0.012525
v 0.076135 2.600696 0.287367
v -0.499428 1.449648 0.931678
v -0.126588 0.934312 0.064531
v -1.238333 1.419057 0.024629
v -0.386031 2.590362 -0.527490
v -1.081087 1.209936 0.039676
v -1.137778 2.359199 -0.350172
v 0.233539 2.312912 -0.050650
v 0.010259 0.288161 -0.005665
v -0.604208 2.778277 0.646772
v -0.334650 1.048319 -0.116793
v -0.635216 1.481407 -0.664779
v 0.047334 0.289303 -0.012218
v 0.028682 0.435989 -0.016124
v -0.071041 1.043928 0.045902
v -0.052066 1.036363 0.061359
v -0.139028 0.934528 0.127567
v -0.154472 1.069944 0.324463
v -0.074124 1.049953 0.067066
v -0.133656 0.915487 0.139620
v -0.139439 1.077833 0.318608
v -0.165298 0.920348 0.121760
v -0.191691 0.946937 -0.000913
v -0.139873 1.068287 0.327173
v -0.352321 1.046724 -0.092995
v -0.356417 1.031926 -0.104669
v -0.337550 1.053750 -0.105997
v -0.341646 1.038952 -0.117671
v -0.219830 0.919631 -0.014815
v -0.190972 0.928504 -0.022096
v -0.220549 0.938065 0.006369
v -0.064142 0.726101 -0.012461
v -0.091705 0.717252 0.028435
v -0.098158 0.717696 -0.006244
v -0.057689 0.725658 0.022219
v -0.003973 0.432313 -0.010273
v 0.034983 0.435959 0.018584
v 0.002329 0.432283 0.024436
v 0.040584 0.145102 -0.021916
v 0.002546 0.145101 0.035734
v -0.006192 0.144946 -0.013668
v 0.049322 0.145257 0.027486
vt 0.5866 0.1872
vt 0.5889 0.1859
vt 0.5893 0.1894
vt 0.5920 0.1916
vt 0.5910 0.1940
vt 0.5886 0.1919
vt 0.5852 0.1921
vt 0.5876 0.1943
vt 0.5840 0.1937
vt 0.5815 0.1859
vt 0.5791 0.1859
vt 0.5806 0.1832
vt 0.5812 0.1919
vt 0.5834 0.1890
vt 0.5793 0.1887
vt 0.5868 0.1829
vt 0.5912 0.1846
vt 0.5890 0.1815
vt 0.5926 0.1827
vt 0.5842 0.1822
vt 0.5784 0.2072
vt 0.5835 0.2045
vt 0.5843 0.2085
vt 0.5809 0.1997
vt 0.5854 0.1980
vt 0.5848 0.2007
vt 0.5467 0.1669
vt 0.5524 0.1693
vt 0.5465 0.1708
vt 0.5462 0.1748
vt 0.5501 0.1784
vt 0.5463 0.1773
vt 0.5347 0.1732
vt 0.5343 0.1769
vt 0.5302 0.1752
vt 0.5436 0.1789
vt 0.5404 0.1740
vt 0.5378 0.1781
vt 0.5763 0.2014
vt 0.5797 0.2034
vt 0.5791 0.1956
vt 0.5818 0.1975
vt 0.5667 0.2012
vt 0.5669 0.1966
vt 0.5705 0.1984
vt 0.5486 0.1883
vt 0.5513 0.1851
vt 0.5520 0.1886
vt 0.5488 0.1905
vt 0.5489 0.1928
vt 0.5530 0.1952
vt 0.5489 0.1948
vt 0.5425 0.1911
vt 0.5399 0.1929
vt 0.5403 0.1900
vt 0.5461 0.1960
vt 0.5457 0.1919
vt 0.5429 0.1952
vt 0.5447 0.1857
vt 0.5480 0.1860
vt 0.5474 0.1838
vt 0.5441 0.1834
vt 0.5469 0.1819
vt 0.5417 0.1871
vt 0.5517 0.2071
vt 0.5544 0.2024
vt 0.5574 0.2063
vt 0.5522 0.2113
vt 0.5991 0.1766
vt 0.5988 0.1834
vt 0.5965 0.1787
vt 0.5399 0.2109
vt 0.5354 0.2105
vt 0.5381 0.2069
vt 0.5930 0.1775
vt 0.5947 0.1717
vt 0.5904 0.1669
vt 0.5886 0.1727
vt 0.5870 0.1686
vt 0.5475 0.2032
vt 0.5509 0.2040
vt 0.5501 0.2008
vt 0.5467 0.2000
vt 0.5495 0.1988
vt 0.5416 0.2050
vt 0.5760 0.1693
vt 0.5814 0.1739
vt 0.5778 0.1749
vt 0.5700 0.1765
vt 0.5733 0.1812
vt 0.5683 0.1808
vt 0.5667 0.1851
vt 0.5719 0.1883
vt 0.5669 0.1885
vt 0.5228 0.1846
vt 0.5283 0.1826
vt 0.5282 0.1867
vt 0.5335 0.1888
vt 0.5372 0.1860
vt 0.5358 0.1889
vt 0.5228 0.1943
vt 0.5301 0.1945
vt 0.5252 0.1981
vt 0.5373 0.1947
vt 0.5403 0.1970
vt 0.5368 0.1988
vt 0.5649 0.1956
vt 0.5609 0.1966
vt 0.5602 0.1922
vt 0.5654 0.1862
vt 0.5597 0.1840
vt 0.5640 0.1819
vt 0.5626 0.1776
vt 0.5583 0.1797
vt 0.5603 0.1747
vt 0.5954 0.1975
vt 0.5927 0.1970
vt 0.5937 0.1946
vt 0.5976 0.2084
vt 0.5932 0.2051
vt 0.5965 0.2030
vt 0.6054 0.2033
vt 0.6020 0.1968
vt 0.6072 0.1995
vt 0.5916 0.1881
vt 0.5953 0.1909
vt 0.5949 0.1874
vt 0.5859 0.1896
vt 0.5840 0.1865
vt 0.5521 0.1733
vt 0.5407 0.1700
vt 0.5725 0.2042
vt 0.5776 0.1977
vt 0.5743 0.1956
vt 0.5707 0.1938
vt 0.5757 0.1936
vt 0.5507 0.1829
vt 0.5522 0.1908
vt 0.5455 0.1897
vt 0.5536 0.1992
vt 0.6029 0.1818
vt 0.5458 0.2090
vt 0.5730 0.1729
vt 0.5748 0.1785
vt 0.5276 0.2019
vt 0.5319 0.2024
vt 0.5293 0.2060
vt 0.5798 0.1698
vt 0.5717 0.1855
vt 0.5228 0.1894
vt 0.5282 0.1916
vt 0.5243 0.1810
vt 0.5337 0.1847
vt 0.5324 0.1983
vt 0.5354 0.1918
vt 0.5652 0.1909
vt 0.5604 0.1875
vt 0.5640 0.2006
vt 0.6015 0.2059
vt 0.6004 0.2004
vt 0.5940 0.2091
vt 0.5920 0.1997
vt 0.6091 0.1956
vt 0.6038 0.1929
vt 0.6079 0.1913
vt 0.5969 0.1939
vt 0.4270 0.7821
vt 0.4247 0.8005
vt 0.4220 0.8002
vt 0.4236 0.7817
vt 0.4132 0.7814
vt 0.4139 0.8002
vt 0.4111 0.8003
vt 0.4098 0.7814
vt 0.4201 0.7815
vt 0.4193 0.8002
vt 0.4166 0.8002
vt 0.4167 0.7814
vt 0.4064 0.7818
vt 0.4084 0.8004
vt 0.4057 0.8006
vt 0.4029 0.7822
vt 0.4185 0.8250
vt 0.4177 0.8498
vt 0.4161 0.8499
vt 0.4164 0.8250
vt 0.4228 0.8252
vt 0.4209 0.8499
vt 0.4193 0.8498
vt 0.4207 0.8250
vt 0.4141 0.8251
vt 0.4144 0.8500
vt 0.4128 0.8500
vt 0.4119 0.8252
vt 0.4205 0.8577
vt 0.4220 0.8577
vt 0.4215 0.8655
vt 0.4201 0.8655
vt 0.4148 0.8579
vt 0.4165 0.8578
vt 0.4170 0.8657
vt 0.4153 0.8658
vt 0.4178 0.8577
vt 0.4190 0.8576
vt 0.4188 0.8654
vt 0.4179 0.8656
vt 0.4114 0.8579
vt 0.4132 0.8579
vt 0.4135 0.8659
vt 0.4117 0.8659
vt 0.4391 0.7694
vt 0.4405 0.7701
vt 0.4403 0.7747
vt 0.4392 0.7748
vt 0.4451 0.7697
vt 0.4464 0.7706
vt 0.4446 0.7758
vt 0.4435 0.7755
vt 0.4182 0.8658
vt 0.4362 0.7693
vt 0.4377 0.7687
vt 0.4381 0.7749
vt 0.4370 0.7751
vt 0.4430 0.7842
vt 0.4441 0.7844
vt 0.4437 0.7931
vt 0.4426 0.7929
vt 0.4408 0.7839
vt 0.4419 0.7839
vt 0.4414 0.7927
vt 0.4403 0.7928
vt 0.4365 0.7838
vt 0.4374 0.7839
vt 0.4368 0.7928
vt 0.4360 0.7926
vt 0.4386 0.7838
vt 0.4398 0.7838
vt 0.4392 0.7929
vt 0.4380 0.7929
vt 0.4194 0.8659
vt 0.4194 0.8659
vt 0.4195 0.8660
vt 0.4195 0.8660
vt 0.4421 0.7695
vt 0.4437 0.7689
vt 0.4425 0.7752
vt 0.4414 0.7750
vt 0.4185 0.8659
vt 0.4195 0.8658
vt 0.4194 0.8658
vt 0.4194 0.8659
vt 0.4194 0.8659
vt 0.4195 0.8660
vt 0.4195 0.8660
vt 0.4191 0.8659
vt 0.4192 0.8662
vt 0.4194 0.8659
vt 0.4194 0.8659
vt 0.4554 0.7760
vt 0.4574 0.7763
vt 0.4568 0.7883
vt 0.4552 0.7882
vt 0.4195 0.8659
vt 0.4195 0.8659
vt 0.4195 0.8660
vt 0.4195 0.8660
vt 0.4190 0.8664
vt 0.4189 0.8659
vt 0.4202 0.8659
vt 0.4190 0.8661
vt 0.4187 0.8661
vt 0.4194 0.8658
vt 0.4194 0.8658
vt 0.4590 0.7757
vt 0.4606 0.7752
vt 0.4596 0.7879
vt 0.4582 0.7881
vt 0.4515 0.7755
vt 0.4534 0.7758
vt 0.4536 0.7881
vt 0.4521 0.7880
vt 0.4098 0.8252
vt 0.4112 0.8500
vt 0.4095 0.8499
vt 0.4076 0.8253
vt 0.4495 0.7752
vt 0.4507 0.7878
vt 0.4483 0.7625
vt 0.4508 0.7630
vt 0.4533 0.7635
vt 0.4580 0.7642
vt 0.4597 0.7634
vt 0.4615 0.7625
vt 0.4185 0.8663
vt 0.4180 0.8663
vt 0.4557 0.7638
vt 0.4191 0.8656
vt 0.4194 0.8659
vt 0.4175 0.8660
vt 0.4408 0.7655
vt 0.4429 0.7641
vt 0.4450 0.7626
vt 0.4194 0.8659
vt 0.4356 0.7838
vt 0.4352 0.7924
vt 0.4359 0.7752
vt 0.4347 0.7698
vt 0.4334 0.7644
vt 0.4353 0.7635
vt 0.4372 0.7625
vt 0.4466 0.7639
vt 0.4483 0.7653
vt 0.4390 0.7640
vt 0.4097 0.8579
vt 0.4099 0.8659
vt 0.4226 0.8500
vt 0.4273 0.8008
vt 0.4250 0.8254
vt 0.4043 0.7631
vt 0.4002 0.7637
vt 0.4085 0.7625
vt 0.4209 0.7628
vt 0.4168 0.7625
vt 0.4251 0.7632
vt 0.4126 0.7625
vt 0.4293 0.7636
vt 0.4334 0.7640
vt 0.4304 0.7824
vt 0.5985 0.1902
vt 0.6027 0.1886
vt 0.6068 0.1870
vt 0.5893 0.1991
vt 0.5900 0.1964
vt 0.5887 0.2018
vt 0.5895 0.2058
vt 0.5903 0.2098
vt 0.5547 0.1854
vt 0.5540 0.1819
vt 0.5555 0.1889
vt 0.5600 0.2016
vt 0.5570 0.1976
vt 0.5630 0.2055
vt 0.5377 0.1918
vt 0.5381 0.1889
vt 0.5363 0.2029
vt 0.5374 0.1819
vt 0.5409 0.1831
vt 0.5339 0.1806
vt 0.5299 0.1790
vt 0.5258 0.1773
vt 0.5769 0.1887
vt 0.5772 0.1916
vt 0.5766 0.1859
vt 0.5782 0.1832
vt 0.5797 0.1805
vt 0.5853 0.1744
vt 0.5869 0.1785
vt 0.5836 0.1703
vt 0.5337 0.2065
vt 0.5310 0.2101
vt 0.5432 0.1992
vt 0.5904 0.1797
vt 0.5940 0.1808
vt 0.5463 0.2131
vt 0.5527 0.2154
vt 0.5530 0.1972
vt 0.5489 0.1968
vt 0.5461 0.1980
vt 0.5562 0.1933
vt 0.5502 0.1809
vt 0.5464 0.1799
vt 0.5721 0.1918
vt 0.5671 0.1920
vt 0.5437 0.1815
vt 0.5560 0.1768
vt 0.5580 0.1718
vt 0.5863 0.1958
vt 0.5827 0.1953
vt 0.5799 0.1935
vt 0.5962 0.1855
vt 0.5397 0.2011
vt 0.5395 0.1860
vt 0.5833 0.1795
vt 0.5579 0.2104
vn 0.8331 0.5451 0.0938
vn 0.9385 0.3448 -0.0187
vn 0.8197 0.5643 -0.0979
vn 0.7605 0.5728 -0.3057
vn 0.5535 0.7436 -0.3751
vn 0.6435 0.7498 -0.1540
vn 0.5810 0.8130 0.0390
vn 0.5272 0.8234 -0.2098
vn 0.5609 0.8265 0.0477
vn 0.6373 0.6312 0.4421
vn 0.4406 0.6292 0.6403
vn 0.6296 0.3557 0.6907
vn 0.4414 0.8504 0.2865
vn 0.5594 0.7939 0.2382
vn 0.3836 0.8255 0.4139
vn 0.9159 0.3210 0.2410
vn 0.9732 0.2032 -0.1077
vn 0.9851 0.1437 0.0947
vn 0.9894 0.0685 -0.1278
vn 0.8141 0.3136 0.4887
vn -0.4793 0.8701 -0.1146
vn -0.2201 0.9215 -0.3201
vn -0.5143 0.7645 -0.3886
vn -0.0704 0.9963 -0.0483
vn 0.1466 0.9487 -0.2803
vn 0.0418 0.9693 -0.2425
vn -0.7176 0.6766 -0.1651
vn -0.7993 0.5690 -0.1931
vn -0.7220 0.4844 -0.4941
vn -0.8026 0.5598 -0.2061
vn -0.7254 0.6383 0.2577
vn -0.7965 0.4124 0.4422
vn -0.5592 0.6685 0.4903
vn -0.9015 0.4246 0.0836
vn -0.8211 0.5679 0.0577
vn -0.9020 0.3679 0.2260
vn -0.3493 0.9258 0.1448
vn -0.2097 0.9762 -0.0552
vn -0.0505 0.9681 0.2453
vn -0.0693 0.9951 -0.0702
vn -0.4472 0.8437 0.2969
vn -0.8539 -0.3308 -0.4019
vn -0.7738 -0.1573 -0.6136
vn -0.6453 -0.3780 -0.6639
vn -0.6914 -0.5741 -0.4385
vn -0.4848 -0.7624 -0.4286
vn -0.2721 -0.6999 -0.6603
vn -0.3888 -0.8287 -0.4025
vn -0.7553 -0.6515 0.0718
vn -0.4818 -0.7787 0.4020
vn -0.8148 -0.5045 0.2855
vn -0.4205 -0.9032 -0.0866
vn -0.6355 -0.7560 -0.1570
vn -0.4258 -0.8951 0.1324
vn -0.9661 -0.2183 -0.1379
vn -0.9127 -0.1999 -0.3565
vn -0.9318 -0.1227 -0.3417
vn -0.9855 -0.1254 -0.1141
vn -0.9431 -0.0100 -0.3323
vn -0.9661 -0.2553 0.0374
vn 0.5682 -0.7892 -0.2331
vn 0.3609 -0.7522 -0.5513
vn 0.6550 -0.6109 -0.4447
vn 0.8175 -0.5544 -0.1560
vn 0.9337 -0.3345 -0.1276
vn 0.9436 -0.1177 -0.3095
vn 0.9645 -0.2201 -0.1459
vn 0.6330 -0.7477 0.2007
vn 0.6689 -0.6262 0.4007
vn 0.3831 -0.8444 0.3744
vn 0.9363 -0.3395 0.0903
vn 0.8380 -0.5427 0.0574
vn 0.8533 -0.4485 0.2659
vn 0.3315 -0.9430 0.0291
vn 0.4023 -0.8792 -0.2553
vn 0.1792 -0.9375 -0.2982
vn 0.1107 -0.9938 0.0036
vn -0.0911 -0.9281 -0.3611
vn 0.2842 -0.9455 0.1588
vn 0.2286 -0.3287 0.9164
vn 0.5815 -0.1789 0.7936
vn 0.4122 -0.1463 0.8993
vn 0.0203 -0.1096 0.9938
vn 0.1296 0.2166 0.9676
vn -0.1162 0.1085 0.9873
vn -0.1784 0.2794 0.9435
vn 0.0179 0.6056 0.7956
vn -0.1580 0.3893 0.9075
vn -0.4591 0.1472 0.8761
vn -0.3842 0.0302 0.9227
vn -0.5073 -0.0784 0.8582
vn -0.8013 0.0581 0.5954
vn -0.6037 -0.1092 0.7897
vn -0.1147 -0.3714 0.9214
vn 0.1154 -0.2717 0.9554
vn -0.2269 -0.6382 0.7357
vn -0.2374 -0.8711 0.4300
vn -0.0873 -0.7160 0.6926
vn 0.1874 -0.1710 -0.9673
vn 0.0682 -0.4456 -0.8926
vn -0.0839 -0.3168 -0.9448
vn 0.0387 0.1137 -0.9928
vn -0.3811 0.1029 -0.9188
vn -0.0897 0.3281 -0.9404
vn -0.1340 0.4706 -0.8721
vn -0.4385 0.3185 -0.8404
vn -0.3197 0.5479 -0.7731
vn 0.3458 0.5220 -0.7797
vn 0.4064 0.7125 -0.5720
vn 0.5895 0.5604 -0.5818
vn -0.0203 0.6441 -0.7647
vn 0.1065 0.5057 -0.8561
vn 0.4106 0.1663 -0.8965
vn 0.1568 -0.0627 -0.9856
vn 0.9212 0.3433 -0.1830
vn 0.8221 0.3346 -0.4606
vn 0.9527 0.1414 -0.2690
vn 0.6659 0.7435 0.0614
vn 0.7468 0.6038 0.2788
vn -0.7033 0.5751 -0.4180
vn -0.6205 0.7767 0.1081
vn -0.1577 0.9736 0.1649
vn -0.2117 0.9312 0.2966
vn -0.2102 0.8424 0.4962
vn -0.0008 0.9137 0.4065
vn -0.8398 -0.0227 -0.5425
vn -0.4387 -0.5919 -0.6762
vn -0.8754 -0.4492 -0.1785
vn 0.1371 -0.8054 -0.5766
vn 0.8914 -0.3150 -0.3259
vn 0.5871 -0.8093 0.0178
vn 0.2870 0.0032 0.9579
vn 0.1146 -0.5329 0.8384
vn 0.3917 -0.3553 0.8487
vn -0.0317 0.4453 0.8948
vn -0.2267 -0.1778 0.9576
vn -0.6558 0.0362 0.7541
vn -0.0570 -0.4729 0.8793
vn -0.2951 -0.3678 0.8818
vn -0.2294 -0.1356 -0.9638
vn 0.3945 -0.2113 -0.8943
vn 0.2424 0.3444 -0.9070
vn 0.2057 0.6869 -0.6971
vn 0.4829 0.0588 -0.8737
vn 0.5565 0.3235 -0.7652
vn 0.8318 -0.0650 0.5512
vn 0.8361 0.0564 0.5457
vn 0.2021 0.0544 0.9779
vn 0.1790 -0.0135 0.9838
vn -0.8239 0.1479 -0.5471
vn -0.8361 0.0136 -0.5484
vn -0.1428 0.0311 -0.9893
vn -0.1649 0.1034 -0.9809
vn -0.5877 0.0673 0.8062
vn -0.5884 0.0314 0.8079
vn -0.9807 0.0243 0.1942
vn -0.9738 0.1412 0.1781
vn 0.5974 0.0143 -0.8018
vn 0.6065 0.0402 -0.7940
vn 0.9858 0.0580 -0.1574
vn 0.9844 -0.0435 -0.1707
vn -0.5845 -0.0425 0.8103
vn -0.5440 -0.1879 0.8178
vn -0.9359 -0.3146 0.1585
vn -0.9741 -0.1386 0.1786
vn 0.8170 0.1785 0.5483
vn 0.7934 0.2452 0.5571
vn 0.2034 0.0570 0.9774
vn 0.1818 0.0999 0.9782
vn -0.8181 -0.1458 -0.5562
vn -0.7779 -0.2464 -0.5780
vn -0.1369 -0.0283 -0.9902
vn -0.1526 -0.0460 -0.9872
vn 0.7805 0.2649 0.5662
vn 0.9062 0.3833 -0.1783
vn 0.8608 0.1659 -0.4811
vn 0.8569 0.1101 0.5036
vn -0.7695 -0.3400 -0.5407
vn -0.8779 -0.4513 0.1603
vn -0.8600 -0.4577 0.2258
vn -0.7469 -0.4908 -0.4485
vn -0.4792 -0.3497 0.8050
vn 0.2865 -0.0208 0.9578
vn 0.4761 -0.3446 0.8091
vn -0.4212 -0.6244 0.6577
vn 0.4932 0.2656 -0.8284
vn -0.1611 -0.0284 -0.9865
vn -0.1271 -0.1413 -0.9818
vn 0.4639 0.2416 -0.8523
vn -0.5097 0.1001 0.8545
vn 0.0091 0.6792 0.7339
vn 0.0553 0.7189 0.6929
vn -0.4705 0.2021 0.8590
vn 0.4560 0.1324 -0.8801
vn -0.0938 -0.3748 -0.9224
vn -0.0649 -0.6637 -0.7452
vn 0.4591 -0.1284 -0.8791
vn -0.7646 -0.4904 0.4181
vn -0.6412 -0.6713 -0.3719
vn -0.8095 -0.4536 0.3729
vn -0.7529 -0.4131 0.5123
vn -0.5534 -0.8051 -0.2132
vn 0.3896 -0.4338 -0.8124
vn -0.0927 -0.8383 -0.5372
vn -0.0924 -0.8580 -0.5052
vn 0.3402 -0.5276 -0.7784
vn 0.5486 0.8350 -0.0423
vn 0.7088 0.3013 -0.6378
vn 0.6929 0.1650 -0.7019
vn 0.5928 0.7919 -0.1465
vn -0.5422 -0.8402 0.0076
vn -0.7277 -0.3265 0.6032
vn -0.7163 -0.2553 0.6495
vn -0.5559 -0.8283 0.0699
vn -0.4689 0.3609 0.8062
vn 0.0531 0.8385 0.5424
vn 0.1535 0.8911 0.4271
vn -0.4234 0.4495 0.7866
vn 0.5224 -0.6028 0.6030
vn 0.9922 0.0938 -0.0825
vn 0.9958 0.0680 -0.0610
vn 0.5635 -0.5723 0.5957
vn 0.5174 0.8555 -0.0206
vn 0.6025 0.4520 -0.6578
vn 0.7041 0.5167 -0.4871
vn 0.5526 0.8247 0.1204
vn -0.9786 0.2006 0.0471
vn -0.4698 -0.6929 0.5469
vn -0.9977 0.0641 0.0234
vn 0.2454 0.6950 -0.6759
vn -0.5763 0.5986 -0.5564
vn -0.5797 0.5836 -0.5687
vn 0.2051 0.6879 -0.6962
vn 0.6502 -0.6273 0.4285
vn 0.9857 0.1085 0.1289
vn 0.9984 0.0567 0.0071
vn 0.5097 -0.6570 0.5555
vn -0.5677 0.1882 0.8014
vn 0.2829 -0.1919 0.9398
vn 0.1731 -0.1839 0.9676
vn -0.6105 0.1620 0.7752
vn -0.9997 0.0198 0.0118
vn -0.4357 -0.6302 0.6427
vn -0.3015 -0.6526 0.6952
vn -0.9997 0.0073 0.0230
vn 0.8439 -0.1046 0.5262
vn 0.8138 -0.3641 0.4528
vn 0.9097 -0.3235 0.2602
vn 0.4017 0.8922 -0.2065
vn -0.4975 0.8499 -0.1738
vn -0.5172 0.7181 -0.4656
vn 0.3728 0.7560 -0.5380
vn 0.8961 -0.3771 0.2339
vn 0.7169 -0.1581 -0.6790
vn 0.7154 -0.1663 -0.6787
vn 0.8836 -0.3765 0.2784
vn -0.1659 0.2442 -0.9554
vn -0.8622 0.4777 -0.1685
vn -0.8924 0.4284 -0.1419
vn -0.1364 0.2129 -0.9675
vn 0.5885 0.0803 -0.8045
vn 0.5549 0.1866 -0.8108
vn 0.9379 0.2944 -0.1835
vn 0.9697 0.1713 -0.1743
vn 0.1544 0.5537 -0.8183
vn -0.4724 0.8674 0.1565
vn -0.1943 0.7609 0.6191
vn 0.1848 -0.7904 0.5840
vn -0.8428 0.1235 0.5239
vn 0.5712 0.0078 -0.8208
vn 0.9780 -0.0699 -0.1967
vn -0.2069 0.1168 -0.9714
vn -0.6044 0.0733 0.7933
vn -0.9755 0.1603 0.1504
vn 0.1355 -0.0292 0.9903
vn -0.8200 0.1703 -0.5465
vn 0.8232 -0.0965 0.5594
vn 0.8038 0.1193 -0.5828
vn 0.7853 -0.0518 -0.6169
vn 0.6639 -0.3695 -0.6502
vn 0.2632 0.8667 -0.4238
vn 0.3883 0.8463 -0.3647
vn 0.0502 0.8615 -0.5053
vn -0.2211 0.7756 -0.5913
vn -0.5015 0.6319 -0.5910
vn -0.5725 -0.1161 -0.8116
vn -0.6813 0.1625 -0.7137
vn -0.3901 -0.3769 -0.8401
vn 0.3075 -0.5909 -0.7458
vn 0.0176 -0.6767 -0.7361
vn -0.4660 -0.5679 0.6785
vn -0.7526 -0.2810 0.5955
vn 0.1497 -0.7695 0.6209
vn -0.8762 0.1428 0.4603
vn -0.9809 0.0548 0.1868
vn -0.7222 0.1726 0.6698
vn -0.5597 0.3537 0.7494
vn -0.2666 0.5914 0.7610
vn 0.1123 0.7488 0.6532
vn 0.1629 0.8600 0.4836
vn 0.1838 0.5154 0.8370
vn 0.3942 0.3012 0.8683
vn 0.5042 0.1012 0.8577
vn 0.7496 -0.3211 0.5788
vn 0.9022 -0.0785 0.4241
vn 0.5736 -0.4836 0.6612
vn 0.3778 -0.6477 0.6616
vn -0.0888 -0.9823 0.1650
vn 0.9904 -0.1230 0.0637
vn 0.9862 -0.0854 -0.1416
vn -0.1549 -0.7828 -0.6026
vn -0.2752 -0.8867 -0.3714
vn -0.2559 -0.9640 -0.0728
vn -0.1936 -0.5534 -0.8101
vn -0.7925 0.2938 -0.5345
vn -0.9016 0.3361 -0.2725
vn 0.0560 0.7226 0.6890
vn -0.9804 0.1969 0.0063
vn -0.6321 0.4304 -0.6444
vn 0.3070 0.9142 -0.2647
vn 0.2329 0.9725 0.0060
vn 0.2009 0.9348 0.2929
vn 0.9650 -0.0239 -0.2612
vn 0.0421 -0.9213 0.3865
vn -0.9227 -0.0538 0.3818
vn 0.6922 0.0306 0.7210
usemtl None
s 1
f 1/1/1 137/2/2 186/3/3
f 3/4/4 228/5/5 284/6/6
f 5/7/7 181/8/8 127/9/9
f 7/10/10 224/11/11 276/12/12
f 5/7/7 123/13/13 169/14/14
f 7/10/10 109/15/15 224/11/11
f 1/1/1 161/16/16 137/2/2
f 2/17/17 258/18/18 108/19/19
f 7/10/10 276/12/12 155/20/20
f 13/21/21 114/22/22 159/23/23
f 16/24/24 104/25/25 106/26/26
f 13/27/21 159/28/23 252/29/27
f 17/30/28 291/31/29 132/32/30
f 20/33/31 129/34/32 168/35/33
f 17/30/28 122/36/34 174/37/35
f 20/33/31 216/38/36 129/34/32
f 13/21/21 180/39/37 207/40/38
f 16/24/24 93/41/39 117/42/40
f 20/43/31 168/44/33 280/45/41
f 25/46/42 119/47/43 91/48/44
f 25/46/42 91/48/44 139/49/45
f 27/50/46 185/51/47 229/52/48
f 30/53/49 240/54/50 90/55/51
f 27/50/46 227/56/52 290/57/53
f 30/53/49 141/58/54 240/54/50
f 25/46/42 215/59/55 197/60/56
f 34/61/57 196/62/58 192/63/59
f 30/53/49 90/55/51 269/64/60
f 35/65/61 171/66/62 222/67/63
f 35/65/61 222/67/63 164/68/64
f 37/69/65 116/70/66 266/71/67
f 39/72/68 214/73/69 160/74/70
f 37/69/65 158/75/71 256/76/72
f 39/77/68 255/78/73 214/79/69
f 35/65/61 279/80/74 105/81/75
f 42/82/76 103/83/77 218/84/78
f 39/72/68 160/74/70 262/85/79
f 43/86/80 261/87/81 274/88/82
f 44/89/83 220/90/84 242/91/85
f 45/92/86 272/93/87 89/94/88
f 45/95/86 189/96/89 100/97/90
f 46/98/91 237/99/92 135/100/93
f 44/101/83 133/102/94 195/103/95
f 31/104/96 245/105/97 167/106/98
f 47/107/99 173/108/100 170/109/101
f 48/110/102 219/111/103 253/112/104
f 49/113/105 282/114/106 177/115/107
f 50/116/108 107/117/109 209/118/110
f 49/119/105 278/120/111 146/121/112
f 48/122/102 97/123/113 206/124/114
f 3/4/4 292/125/115 231/126/116
f 2/17/17 108/19/19 140/127/117
f 1/1/1 186/3/3 285/128/118
f 1/1/1 285/128/118 172/129/119
f 5/7/7 127/9/9 123/13/13
f 1/1/1 172/129/119 161/16/16
f 13/21/21 207/40/38 114/22/22
f 16/24/24 117/42/40 104/25/25
f 17/30/28 264/130/120 291/31/29
f 13/27/21 252/29/27 178/131/121
f 17/30/28 132/32/30 122/36/34
f 13/21/21 178/132/121 180/39/37
f 16/24/24 87/133/122 93/41/39
f 24/134/123 263/135/124 294/136/125
f 25/46/42 197/60/56 119/47/43
f 34/61/57 192/63/59 88/137/126
f 27/50/46 235/138/127 185/51/47
f 25/46/42 139/49/45 288/139/128
f 27/50/46 229/52/48 227/56/52
f 25/46/42 288/139/128 215/59/55
f 35/65/61 105/81/75 171/66/62
f 42/82/76 218/84/78 138/140/129
f 37/69/65 275/141/130 116/70/66
f 35/65/61 164/68/64 265/142/131
f 37/69/65 266/71/67 158/75/71
f 35/65/61 265/142/131 279/80/74
f 44/89/83 195/143/95 121/144/132
f 43/145/80 246/146/133 145/147/134
f 43/86/80 145/148/134 261/87/81
f 44/89/83 121/144/132 220/90/84
f 45/92/86 283/149/135 272/93/87
f 44/101/83 242/150/85 184/151/136
f 45/95/86 89/152/88 189/96/89
f 46/98/91 247/153/137 237/99/92
f 44/101/83 184/151/136 133/102/94
f 43/145/80 286/154/138 246/146/133
f 46/98/91 135/100/93 230/155/139
f 48/110/102 206/156/114 212/157/140
f 47/107/99 142/158/141 173/108/100
f 48/110/102 212/157/140 219/111/103
f 48/122/102 253/159/104 157/160/142
f 49/119/105 177/161/107 278/120/111
f 50/116/108 289/162/143 107/117/109
f 48/122/102 157/160/142 97/123/113
f 47/163/99 151/164/144 142/165/141
f 50/116/108 209/118/110 191/166/145
f 326/167/146 86/168/147 53/169/148 134/170/149
f 325/171/150 293/172/151 57/173/152 150/174/153
f 324/175/154 225/176/155 56/177/156 233/178/157
f 323/179/158 297/180/159 52/181/160 239/182/161
f 322/183/162 250/184/163 60/185/164 120/186/165
f 321/187/166 194/188/167 59/189/168 277/190/169
f 320/191/170 236/192/171 62/193/172 144/194/173
f 319/195/174 99/196/175 63/197/176 260/198/177
f 318/199/178 94/200/179 65/201/180 126/202/181
f 317/203/182 248/204/183 64/205/184 110/206/185
f 316/207/186 259/208/187 66/209/188 162/210/189
f 315/211/190 208/212/191 68/213/192 149/214/193
f 314/215/194 201/216/195 70/217/196 249/218/197
f 65/201/180 110/206/185 199/219/198
f 313/220/199 254/221/200 69/222/201 102/223/202
f 312/224/203 147/225/204 73/226/205 92/227/206
f 311/228/207 295/229/208 74/230/209 243/231/210
f 310/232/211 193/233/212 76/234/213 183/235/214
f 309/236/215 232/237/216 75/238/217 182/239/218
f 308/240/219 95/241/220 78/242/221 238/243/222
f 307/244/223 128/245/224 71/246/225 244/247/226
f 306/248/227 199/219/198 72/249/228 273/250/229
f 305/251/230 115/252/231 81/253/232 143/254/233
f 304/255/234 251/256/235 77/257/236 124/258/237
f 303/259/238 213/260/239 83/261/240 148/262/241
f 302/263/242 217/264/243 79/265/244 241/266/245
f 82/267/246 101/268/247 204/269/248
f 301/270/249 188/271/250 80/272/251 190/273/252
f 300/274/253 267/275/254 85/276/255 200/277/256
f 299/278/257 163/279/258 84/280/259 96/281/260
f 298/282/261 156/283/262 61/284/263 270/285/264
f 297/180/159 298/282/261 270/285/264 52/181/160
f 57/173/152 144/194/173 298/282/261 297/180/159
f 144/194/173 62/193/172 156/283/262 298/282/261
f 267/286/254 299/278/257 96/281/260 85/287/255
f 63/288/176 113/289/265 299/278/257 267/286/254
f 113/289/265 67/290/266 163/279/258 299/278/257
f 213/260/239 300/274/253 200/277/256 83/261/240
f 82/291/246 204/292/248 300/274/253 213/260/239
f 204/292/248 63/293/176 267/275/254 300/274/253
f 251/256/235 301/270/249 190/273/252 77/257/236
f 82/267/246 287/294/267 301/270/249 251/256/235
f 287/294/267 67/295/266 188/271/250 301/270/249
f 204/269/248 260/198/177 63/197/176
f 204/269/248 101/268/247 260/198/177
f 101/268/247 64/205/184 260/198/177
f 115/252/231 302/263/242 241/266/245 81/253/232
f 80/272/251 273/250/229 302/263/242 115/252/231
f 273/250/229 72/249/228 217/264/243 302/263/242
f 163/279/258 303/259/238 148/262/241 84/280/259
f 67/290/266 287/296/267 303/259/238 163/279/258
f 287/296/267 82/291/246 213/260/239 303/259/238
f 179/297/268 304/255/234 124/258/237 72/298/228
f 64/205/184 101/268/247 304/255/234 179/297/268
f 101/268/247 82/267/246 251/256/235 304/255/234
f 95/241/220 305/251/230 143/254/233 78/242/221
f 77/257/236 190/273/252 305/251/230 95/241/220
f 190/273/252 80/272/251 115/252/231 305/251/230
f 188/271/250 306/248/227 273/250/229 80/272/251
f 67/295/266 166/299/269 306/248/227 188/271/250
f 166/299/269 65/201/180 199/219/198 306/248/227
f 208/212/191 307/244/223 244/247/226 68/213/192
f 67/300/266 113/301/265 307/244/223 208/212/191
f 113/301/265 63/302/176 128/245/224 307/244/223
f 217/303/243 308/240/219 238/243/222 79/265/244
f 72/298/228 124/258/237 308/240/219 217/303/243
f 124/258/237 77/257/236 95/241/220 308/240/219
f 193/233/212 309/236/215 182/239/218 76/234/213
f 69/222/201 149/214/193 309/236/215 193/233/212
f 149/214/193 68/213/192 232/237/216 309/236/215
f 147/304/204 310/232/211 183/235/214 73/305/205
f 70/306/196 102/223/202 310/232/211 147/304/204
f 102/223/202 69/222/201 193/233/212 310/232/211
f 232/237/216 311/228/207 243/231/210 75/238/217
f 68/213/192 244/247/226 311/228/207 232/237/216
f 244/247/226 71/246/225 295/229/208 311/228/207
f 295/229/208 312/224/203 92/227/206 74/230/209
f 71/246/225 249/218/197 312/224/203 295/229/208
f 249/218/197 70/217/196 147/225/204 312/224/203
f 201/307/195 313/220/199 102/223/202 70/306/196
f 66/308/188 126/309/181 313/220/199 201/307/195
f 126/309/181 65/310/180 254/221/200 313/220/199
f 199/219/198 179/297/268 72/249/228
f 199/219/198 110/206/185 179/297/268
f 110/206/185 64/205/184 179/297/268
f 128/245/224 314/215/194 249/218/197 71/246/225
f 63/302/176 162/311/189 314/215/194 128/245/224
f 162/311/189 66/312/188 201/216/195 314/215/194
f 254/221/200 315/211/190 149/214/193 69/222/201
f 65/310/180 166/313/269 315/211/190 254/221/200
f 166/313/269 67/300/266 208/212/191 315/211/190
f 99/314/175 316/207/186 162/210/189 63/315/176
f 61/284/263 156/283/262 316/207/186 99/314/175
f 156/283/262 62/193/172 259/208/187 316/207/186
f 94/200/179 317/203/182 110/206/185 65/201/180
f 60/185/164 250/184/163 317/203/182 94/200/179
f 250/184/163 59/189/168 248/204/183 317/203/182
f 259/208/187 318/199/178 126/202/181 66/209/188
f 62/193/172 236/192/171 318/199/178 259/208/187
f 236/192/171 60/185/164 94/200/179 318/199/178
f 248/204/183 319/195/174 260/198/177 64/205/184
f 59/189/168 194/188/167 319/195/174 248/204/183
f 194/188/167 61/316/263 99/196/175 319/195/174
f 293/172/151 320/191/170 144/194/173 57/173/152
f 56/177/156 120/186/165 320/191/170 293/172/151
f 120/186/165 60/185/164 236/192/171 320/191/170
f 86/168/147 321/187/166 277/190/169 53/169/148
f 52/317/160 270/318/264 321/187/166 86/168/147
f 270/318/264 61/316/263 194/188/167 321/187/166
f 225/176/155 322/183/162 120/186/165 56/177/156
f 53/169/148 277/190/169 322/183/162 225/176/155
f 277/190/169 59/189/168 250/184/163 322/183/162
f 130/319/270 323/179/158 239/182/161 51/320/271
f 58/321/272 150/174/153 323/179/158 130/319/270
f 150/174/153 57/173/152 297/180/159 323/179/158
f 176/322/273 324/175/154 233/178/157 55/323/274
f 54/324/275 134/170/149 324/175/154 176/322/273
f 134/170/149 53/169/148 225/176/155 324/175/154
f 111/325/276 325/171/150 150/174/153 58/321/272
f 55/323/274 233/178/157 325/171/150 111/325/276
f 233/178/157 56/177/156 293/172/151 325/171/150
f 131/326/277 326/167/146 134/170/149 54/324/275
f 51/327/271 239/328/161 326/167/146 131/326/277
f 239/328/161 52/317/160 86/168/147 326/167/146
f 191/166/145 231/126/116 38/329/278
f 191/166/145 209/118/110 231/126/116
f 209/118/110 3/4/4 231/126/116
f 142/165/141 210/330/279 36/331/280
f 142/165/141 151/164/144 210/330/279
f 151/164/144 38/329/278 210/330/279
f 97/123/113 191/166/145 38/329/278
f 97/123/113 157/160/142 191/166/145
f 157/160/142 50/116/108 191/166/145
f 107/117/109 202/332/281 4/333/282
f 107/117/109 289/162/143 202/332/281
f 289/162/143 14/334/283 202/332/281
f 278/120/111 257/335/284 14/334/283
f 278/120/111 177/161/107 257/335/284
f 177/161/107 15/336/285 257/335/284
f 157/160/142 146/121/112 50/116/108
f 157/160/142 253/159/104 146/121/112
f 253/159/104 49/119/105 146/121/112
f 219/111/103 152/337/286 18/338/287
f 219/111/103 212/157/140 152/337/286
f 212/157/140 26/339/288 152/337/286
f 173/108/100 221/340/289 28/341/290
f 173/108/100 142/158/141 221/340/289
f 142/158/141 36/342/280 221/340/289
f 212/157/140 170/109/101 26/339/288
f 212/157/140 206/156/114 170/109/101
f 206/156/114 47/107/99 170/109/101
f 230/155/139 198/343/291 31/104/96
f 230/155/139 135/100/93 198/343/291
f 135/100/93 32/344/292 198/343/291
f 246/146/133 167/106/98 41/345/293
f 246/146/133 286/154/138 167/106/98
f 286/154/138 31/104/96 167/106/98
f 133/102/94 230/155/139 31/104/96
f 133/102/94 184/151/136 230/155/139
f 184/151/136 46/98/91 230/155/139
f 237/99/92 118/346/294 23/347/295
f 237/99/92 247/153/137 118/346/294
f 247/153/137 21/348/296 118/346/294
f 189/96/89 271/349/297 21/348/296
f 189/96/89 89/152/88 271/349/297
f 89/152/88 22/350/298 271/349/297
f 184/151/136 100/97/90 46/98/91
f 184/151/136 242/150/85 100/97/90
f 242/150/85 45/95/86 100/97/90
f 272/93/87 205/351/299 10/352/300
f 272/93/87 283/149/135 205/351/299
f 283/149/135 8/353/301 205/351/299
f 220/90/84 175/354/302 8/353/301
f 220/90/84 121/144/132 175/354/302
f 121/144/132 9/355/303 175/354/302
f 261/87/81 112/356/304 11/357/305
f 261/87/81 145/148/134 112/356/304
f 145/148/134 40/358/306 112/356/304
f 145/147/134 268/359/307 40/360/306
f 145/147/134 246/146/133 268/359/307
f 246/146/133 41/345/293 268/359/307
f 121/144/132 274/88/82 9/355/303
f 121/144/132 195/143/95 274/88/82
f 195/143/95 43/86/80 274/88/82
f 279/80/74 262/85/79 33/361/308
f 279/80/74 265/142/131 262/85/79
f 265/142/131 39/72/68 262/85/79
f 158/75/71 203/362/309 11/357/305
f 158/75/71 266/71/67 203/362/309
f 266/71/67 12/363/310 203/362/309
f 265/142/131 256/364/72 39/72/68
f 265/142/131 164/68/64 256/364/72
f 164/68/64 37/365/65 256/364/72
f 116/70/66 210/330/279 38/329/278
f 116/70/66 275/141/130 210/330/279
f 275/141/130 36/331/280 210/330/279
f 138/140/129 136/366/311 28/341/290
f 138/140/129 218/84/78 136/366/311
f 218/84/78 29/367/312 136/366/311
f 171/66/62 138/140/129 28/341/290
f 171/66/62 105/81/75 138/140/129
f 105/81/75 42/82/76 138/140/129
f 215/59/55 269/64/60 23/347/295
f 215/59/55 288/139/128 269/64/60
f 288/139/128 30/53/49 269/64/60
f 227/56/52 234/368/313 33/361/308
f 227/56/52 229/52/48 234/368/313
f 229/52/48 29/367/312 234/368/313
f 288/139/128 290/57/53 30/53/49
f 288/139/128 139/49/45 290/57/53
f 139/49/45 27/50/46 290/57/53
f 185/51/47 296/369/314 28/341/290
f 185/51/47 235/138/127 296/369/314
f 235/138/127 26/339/288 296/369/314
f 88/137/126 226/370/315 18/338/287
f 88/137/126 192/63/59 226/370/315
f 192/63/59 19/371/316 226/370/315
f 119/47/43 88/137/126 18/338/287
f 119/47/43 197/60/56 88/137/126
f 197/60/56 34/61/57 88/137/126
f 294/136/125 187/372/317 10/352/300
f 294/136/125 263/135/124 187/372/317
f 263/135/124 22/373/298 187/372/317
f 93/41/39 294/136/125 10/352/300
f 93/41/39 87/133/122 294/136/125
f 87/133/122 24/134/123 294/136/125
f 180/39/37 280/45/41 24/134/123
f 180/39/37 178/132/121 280/45/41
f 178/132/121 20/43/31 280/45/41
f 122/36/34 125/374/318 23/347/295
f 122/36/34 132/32/30 125/374/318
f 132/32/30 19/371/316 125/374/318
f 178/131/121 174/37/35 20/33/31
f 178/131/121 252/29/27 174/37/35
f 252/29/27 17/30/28 174/37/35
f 291/31/29 281/375/319 18/338/287
f 291/31/29 264/130/120 281/375/319
f 264/130/120 15/376/285 281/375/319
f 104/25/25 223/377/320 4/333/282
f 104/25/25 117/42/40 223/377/320
f 117/42/40 6/378/321 223/377/320
f 114/22/22 106/26/26 14/334/283
f 114/22/22 207/40/38 106/26/26
f 207/40/38 16/24/24 106/26/26
f 161/16/16 155/20/20 11/357/305
f 161/16/16 172/129/119 155/20/20
f 172/129/119 7/10/10 155/20/20
f 123/13/13 211/379/322 10/352/300
f 123/13/13 127/9/9 211/379/322
f 127/9/9 6/378/321 211/379/322
f 172/129/119 169/14/14 7/10/10
f 172/129/119 285/128/118 169/14/14
f 285/128/118 5/7/7 169/14/14
f 285/128/118 284/6/6 5/7/7
f 285/128/118 186/3/3 284/6/6
f 186/3/3 3/4/4 284/6/6
f 140/127/117 98/380/323 38/329/278
f 140/127/117 108/19/19 98/380/323
f 108/19/19 12/363/310 98/380/323
f 231/126/116 140/127/117 38/329/278
f 231/126/116 292/125/115 140/127/117
f 292/125/115 2/17/17 140/127/117
f 206/124/114 151/164/144 47/163/99
f 206/124/114 97/123/113 151/164/144
f 97/123/113 38/329/278 151/164/144
f 146/121/112 289/162/143 50/116/108
f 146/121/112 278/120/111 289/162/143
f 278/120/111 14/334/283 289/162/143
f 209/118/110 228/5/5 3/4/4
f 209/118/110 107/117/109 228/5/5
f 107/117/109 4/333/282 228/5/5
f 177/115/107 281/375/319 15/376/285
f 177/115/107 282/114/106 281/375/319
f 282/114/106 18/338/287 281/375/319
f 253/112/104 282/114/106 49/113/105
f 253/112/104 219/111/103 282/114/106
f 219/111/103 18/338/287 282/114/106
f 170/109/101 296/369/314 26/339/288
f 170/109/101 173/108/100 296/369/314
f 173/108/100 28/341/290 296/369/314
f 167/106/98 154/381/324 41/345/293
f 167/106/98 245/105/97 154/381/324
f 245/105/97 33/361/308 154/381/324
f 195/103/95 286/154/138 43/145/80
f 195/103/95 133/102/94 286/154/138
f 133/102/94 31/104/96 286/154/138
f 135/100/93 165/382/325 32/344/292
f 135/100/93 237/99/92 165/382/325
f 237/99/92 23/347/295 165/382/325
f 100/97/90 247/153/137 46/98/91
f 100/97/90 189/96/89 247/153/137
f 189/96/89 21/348/296 247/153/137
f 89/94/88 187/372/317 22/373/298
f 89/94/88 272/93/87 187/372/317
f 272/93/87 10/352/300 187/372/317
f 242/91/85 283/149/135 45/92/86
f 242/91/85 220/90/84 283/149/135
f 220/90/84 8/353/301 283/149/135
f 274/88/82 153/383/326 9/355/303
f 274/88/82 261/87/81 153/383/326
f 261/87/81 11/357/305 153/383/326
f 262/85/79 154/381/324 33/361/308
f 262/85/79 160/74/70 154/381/324
f 160/74/70 41/345/293 154/381/324
f 218/84/78 234/368/313 29/367/312
f 218/84/78 103/83/77 234/368/313
f 103/83/77 33/361/308 234/368/313
f 105/81/75 103/83/77 42/82/76
f 105/81/75 279/80/74 103/83/77
f 279/80/74 33/361/308 103/83/77
f 214/79/69 112/356/304 40/358/306
f 214/79/69 255/78/73 112/356/304
f 255/78/73 11/357/305 112/356/304
f 256/76/72 255/78/73 39/77/68
f 256/76/72 158/75/71 255/78/73
f 158/75/71 11/357/305 255/78/73
f 160/74/70 268/359/307 41/345/293
f 160/74/70 214/73/69 268/359/307
f 214/73/69 40/360/306 268/359/307
f 266/71/67 98/380/323 12/363/310
f 266/71/67 116/70/66 98/380/323
f 116/70/66 38/329/278 98/380/323
f 164/68/64 275/384/130 37/365/65
f 164/68/64 222/67/63 275/384/130
f 222/67/63 36/342/280 275/384/130
f 222/67/63 221/340/289 36/342/280
f 222/67/63 171/66/62 221/340/289
f 171/66/62 28/341/290 221/340/289
f 269/64/60 165/382/325 23/347/295
f 269/64/60 90/55/51 165/382/325
f 90/55/51 32/344/292 165/382/325
f 192/63/59 125/374/318 19/371/316
f 192/63/59 196/62/58 125/374/318
f 196/62/58 23/347/295 125/374/318
f 197/60/56 196/62/58 34/61/57
f 197/60/56 215/59/55 196/62/58
f 215/59/55 23/347/295 196/62/58
f 240/54/50 245/105/97 31/104/96
f 240/54/50 141/58/54 245/105/97
f 141/58/54 33/361/308 245/105/97
f 290/57/53 141/58/54 30/53/49
f 290/57/53 227/56/52 141/58/54
f 227/56/52 33/361/308 141/58/54
f 90/55/51 198/343/291 32/344/292
f 90/55/51 240/54/50 198/343/291
f 240/54/50 31/104/96 198/343/291
f 229/52/48 136/366/311 29/367/312
f 229/52/48 185/51/47 136/366/311
f 185/51/47 28/341/290 136/366/311
f 139/49/45 235/138/127 27/50/46
f 139/49/45 91/48/44 235/138/127
f 91/48/44 26/339/288 235/138/127
f 91/48/44 152/337/286 26/339/288
f 91/48/44 119/47/43 152/337/286
f 119/47/43 18/338/287 152/337/286
f 280/45/41 263/135/124 24/134/123
f 280/45/41 168/44/33 263/135/124
f 168/44/33 22/373/298 263/135/124
f 117/42/40 211/379/322 6/378/321
f 117/42/40 93/41/39 211/379/322
f 93/41/39 10/352/300 211/379/322
f 207/40/38 87/133/122 16/24/24
f 207/40/38 180/39/37 87/133/122
f 180/39/37 24/134/123 87/133/122
f 129/34/32 118/346/294 21/348/296
f 129/34/32 216/38/36 118/346/294
f 216/38/36 23/347/295 118/346/294
f 174/37/35 216/38/36 20/33/31
f 174/37/35 122/36/34 216/38/36
f 122/36/34 23/347/295 216/38/36
f 168/35/33 271/349/297 22/350/298
f 168/35/33 129/34/32 271/349/297
f 129/34/32 21/348/296 271/349/297
f 132/32/30 226/370/315 19/371/316
f 132/32/30 291/31/29 226/370/315
f 291/31/29 18/338/287 226/370/315
f 252/29/27 264/130/120 17/30/28
f 252/29/27 159/28/23 264/130/120
f 159/28/23 15/376/285 264/130/120
f 106/26/26 202/332/281 14/334/283
f 106/26/26 104/25/25 202/332/281
f 104/25/25 4/333/282 202/332/281
f 159/23/23 257/335/284 15/336/285
f 159/23/23 114/22/22 257/335/284
f 114/22/22 14/334/283 257/335/284
f 155/20/20 153/383/326 11/357/305
f 155/20/20 276/12/12 153/383/326
f 276/12/12 9/355/303 153/383/326
f 108/19/19 203/362/309 12/363/310
f 108/19/19 258/18/18 203/362/309
f 258/18/18 11/357/305 203/362/309
f 137/2/2 258/18/18 2/17/17
f 137/2/2 161/16/16 258/18/18
f 161/16/16 11/357/305 258/18/18
f 224/11/11 205/351/299 8/353/301
f 224/11/11 109/15/15 205/351/299
f 109/15/15 10/352/300 205/351/299
f 169/14/14 109/15/15 7/10/10
f 169/14/14 123/13/13 109/15/15
f 123/13/13 10/352/300 109/15/15
f 276/12/12 175/354/302 9/355/303
f 276/12/12 224/11/11 175/354/302
f 224/11/11 8/353/301 175/354/302
f 127/9/9 223/377/320 6/378/321
f 127/9/9 181/8/8 223/377/320
f 181/8/8 4/333/282 223/377/320
f 284/6/6 181/8/8 5/7/7
f 284/6/6 228/5/5 181/8/8
f 228/5/5 4/333/282 181/8/8
f 186/3/3 292/125/115 3/4/4
f 186/3/3 137/2/2 292/125/115
f 137/2/2 2/17/17 292/125/115
