# Blender v2.78 (sub 0) OBJ File: ''
# www.blender.org
mtllib Apple_Tree_m_05.mtl
o Apple_Tree_m_05
v -1.233595 2.545972 -0.188922
v -1.738137 2.397641 0.285152
v -2.329780 2.464621 -0.512286
v -2.254397 3.134596 -1.128693
v -1.304117 2.889743 -0.903706
v -1.162442 3.564099 -1.350591
v -0.398624 3.130594 -0.100116
v 0.194329 3.902910 -0.023641
v 0.071703 3.485387 0.637897
v -0.173240 4.003674 -0.817176
v -0.799278 3.020981 0.936607
v -1.858948 2.654496 0.866025
v -1.210917 5.239301 -1.616316
v -2.331957 4.175983 -1.409886
v -2.425645 5.156819 -1.383390
v -1.141563 4.297962 -1.554314
v -1.362210 5.927984 -1.186328
v -2.783018 6.081047 -0.944687
v -1.566829 6.429237 -0.901320
v -0.106444 5.674162 -0.866243
v 0.327981 5.852180 -0.265679
v 0.428792 5.074974 -0.530931
v -0.638980 6.520672 -0.171562
v -0.165190 4.748269 -1.036083
v -2.239347 6.607432 0.217635
v -3.225274 5.782797 0.023754
v -2.373872 6.515657 0.945700
v -3.410936 5.245079 0.699099
v -2.485953 6.190357 1.315724
v -0.936841 6.995803 1.043333
v -0.100979 6.195190 1.446460
v -0.072478 6.697332 0.799025
v -1.374341 5.936810 1.814145
v -1.879009 6.670547 -0.466864
v -2.669086 4.502578 1.691249
v -3.423045 3.869938 0.717182
v -2.257742 3.286639 1.451167
v -3.009813 2.985405 0.123192
v -1.169532 4.138347 1.931762
v -0.393573 3.961553 1.684503
v -0.432462 4.982314 2.007158
v -2.651244 5.571632 1.440210
v 0.091920 4.531325 1.483601
v 0.417650 4.771544 0.798556
v 0.576831 4.994074 0.032004
v 0.504585 6.080180 0.641581
v -3.612732 4.570093 0.112223
v -3.527739 4.738854 -0.461250
v -3.097063 4.813099 -1.015270
v -3.021219 3.463589 -0.707859
v 0.108495 0.041224 0.158526
v 0.048102 0.428532 0.133797
v -0.128480 0.414342 0.135032
v -0.114889 0.039543 0.158672
v -0.183918 0.039024 -0.053771
v -0.183048 0.409958 -0.033288
v -0.040189 0.421437 -0.138605
v -0.003197 0.040384 -0.185262
v 0.177525 0.041743 -0.054030
v 0.102669 0.432917 -0.035287
v -0.084042 1.207184 0.052361
v -0.127501 1.200961 0.188769
v -0.267431 1.179644 0.191966
v -0.308957 1.165226 0.057077
v -0.196780 1.188800 -0.029071
v -0.420332 2.148712 0.139240
v -0.460917 2.154430 0.250978
v -0.611804 2.176090 0.251704
v -0.621311 2.013225 0.139536
v -0.541752 2.150886 0.076291
v -0.633717 3.193105 0.105465
v -0.593640 3.231965 0.155023
v -0.624018 3.239766 0.228556
v -0.717885 3.258856 0.237866
v -0.656314 2.369435 0.158779
v -0.724494 3.249133 0.164691
v -0.939045 2.541059 0.156299
v -0.953749 2.478110 0.201476
v -0.910502 2.426383 0.107094
v -0.951079 2.381917 0.137195
v -1.540408 2.707909 -0.064389
v -1.517744 2.738195 -0.101991
v -1.502849 2.774228 -0.078351
v -1.522336 2.735177 -0.044090
v -0.040189 0.421437 0.148819
v -0.603820 4.558076 -1.330946
v -2.311554 6.497624 -0.677171
v 0.509326 5.026878 -0.295862
v -0.411402 6.878036 0.896320
v -2.783887 6.273141 0.105779
v -0.954957 2.425303 0.172312
v -0.671907 3.250741 0.241302
v -0.606629 4.168603 -1.259298
v -1.239361 2.672323 0.036134
v -0.948026 2.520025 0.184117
v 0.019939 0.799894 0.005648
v -3.391330 3.842336 -0.221195
v -2.365908 2.710897 0.594925
v -0.522857 2.743111 0.150717
v 0.618568 5.532773 0.366491
v -0.581051 2.033749 0.098176
v -2.121137 5.729792 1.668625
v -1.757393 3.721857 -1.413165
v -2.678582 5.142969 1.561139
v -1.752094 4.227375 -1.547625
v -0.356210 1.644545 0.024099
v -2.677927 3.195547 -0.926546
v -1.786192 2.527455 0.594052
v -0.296530 3.490924 -0.493040
v -0.259548 1.175789 0.004705
v -0.109132 0.039704 -0.140951
v -0.520965 3.588706 1.415383
v -1.791654 4.729175 -1.603112
v -1.266595 2.561492 0.034236
v 0.089041 0.431864 0.053620
v -2.699818 3.050750 0.834726
v -1.147875 3.876623 -1.440907
v -0.018388 6.182972 -0.220230
v -2.627562 6.396537 -0.357795
v 0.277503 4.065816 0.735612
v -0.909131 6.222562 -0.766064
v -0.719078 3.380102 -0.892604
v -1.164044 6.481966 -0.641655
v -0.458492 1.606914 0.101695
v -1.231587 3.252561 -1.166165
v 0.143919 5.817024 -0.546004
v -0.232146 0.767730 0.009335
v -0.003197 0.040384 0.185093
v -1.487219 6.238097 -1.011793
v 0.248821 5.515784 1.164992
v -0.119136 0.191775 0.148376
v 0.193579 6.461008 0.743243
v -2.940837 5.845049 1.025734
v -1.471244 2.436214 0.068558
v -3.044829 5.401711 1.141978
v -2.313550 6.619578 0.616315
v -2.340702 2.532956 0.190937
v -1.100442 6.604459 1.465932
v -0.601671 3.237595 0.194145
v -3.572961 4.158610 0.365769
v -0.922231 2.488431 0.128721
v -0.171268 4.180037 1.610487
v -3.111704 4.186791 -0.873720
v -1.509799 2.757358 -0.058975
v -1.534021 2.717292 -0.049453
v -0.620030 2.046440 0.199335
v -0.015468 0.195405 -0.171423
v -3.445891 3.829493 0.081475
v -3.082919 5.955431 -0.442920
v -0.258443 3.266695 0.777463
v -0.783166 5.450778 1.976105
v -0.542515 2.976700 0.372702
v -0.094964 1.206054 0.123914
v -3.332911 4.035317 -0.556555
v -1.502194 3.118221 1.319677
v -1.860597 5.182601 -1.542861
v -0.252116 1.660583 0.098954
v -0.763441 4.621344 2.026237
v -0.979368 2.693129 0.297707
v -2.494058 3.849626 1.647053
v -0.254270 6.668347 0.429159
v -0.294423 5.604476 1.804025
v 0.251326 5.376147 -0.682418
v -0.797926 3.006333 -0.545295
v -3.514486 5.172915 0.048792
v -3.179326 4.795580 1.183492
v -0.828645 2.800536 -0.140033
v -3.599052 4.888316 0.342530
v -0.701520 5.854706 -1.046980
v 0.143652 3.653640 0.295748
v -0.174604 0.039284 0.060643
v -2.810160 5.013198 -1.225127
v -0.614412 5.486525 -1.281103
v -0.618523 5.022670 -1.358326
v -1.846160 2.913353 -1.042917
v -0.682741 2.813074 0.160660
v -0.668394 2.771337 0.249897
v 0.514080 5.494236 0.779145
v -2.977407 5.962502 0.766557
v -1.746086 2.431470 -0.380432
v -0.106104 0.783812 -0.085512
v 0.235167 4.595640 -0.637187
v 0.534696 5.497503 -0.076396
v -3.091237 3.190919 -0.348273
v -0.771293 2.314859 0.237065
v -0.680906 3.216105 0.127886
v -1.715285 6.563521 -0.698320
v -0.771980 2.217443 0.150959
v 0.272794 4.702194 1.173360
v -1.381838 6.643698 -0.331922
v -0.929162 2.393710 0.116915
v -2.046697 6.635932 -0.198472
v -0.051439 6.590575 1.109168
v -0.133731 1.199217 0.002019
v 0.102739 0.041063 -0.141086
v -0.460412 2.142503 0.096974
v -2.329613 3.619748 -1.273553
v -1.422570 2.746738 0.937281
v -0.606581 3.209646 0.122701
v -0.197466 1.190303 0.202050
v 0.073739 3.941722 -0.380151
v -0.028205 0.793751 0.156627
v -3.578633 4.622099 -0.146307
v -1.168761 4.768345 -1.621420
v -0.524063 2.158728 0.262461
v -2.756554 2.860381 -0.596358
v -3.269138 3.425742 0.466797
v -0.741518 3.738570 -1.186972
v -0.294509 1.660661 0.223660
v -3.439273 5.330683 -0.288189
v -1.507648 2.760463 -0.094958
v -0.692595 3.976037 1.796774
v -1.447584 6.686181 0.102209
v -0.323691 6.099698 -0.590257
v -2.560680 5.896202 1.371041
v -3.282913 5.468632 -0.717221
v 0.351665 4.259895 0.366438
v -3.513236 4.503198 0.700259
v -3.127424 4.131314 1.217703
v -1.655153 3.351720 -1.291485
v -0.054660 3.506481 -0.096443
v -0.169419 0.411010 0.055413
v -2.093760 6.335892 -0.986904
v -0.768000 2.404047 0.168384
v -1.803454 6.434155 1.407959
v -2.370822 2.749162 -0.835363
v -2.441607 6.312954 1.184227
v 0.284848 6.161359 1.057233
v -2.687320 2.620183 -0.225835
v -0.656458 2.330122 0.211499
v -0.616349 2.313308 0.114090
v -0.183207 0.189531 -0.048886
v -2.017146 6.173131 1.552380
v -2.869209 6.174545 0.480320
v 0.070311 6.362935 0.259485
v 0.088201 0.199035 0.147806
v -0.500222 6.714832 1.324795
v 0.545066 4.894745 0.418576
v -0.661915 6.186229 1.701311
v -0.714647 2.273246 0.104815
v -0.117784 4.860768 1.796427
v 0.416305 5.989744 0.150033
v -0.586816 2.721845 0.091360
v 0.152271 0.201278 -0.049830
v 0.039679 0.427881 -0.098656
v -1.236704 2.598476 0.000494
v -1.258849 2.623190 0.073981
v -0.557613 2.748997 0.242784
v -1.260094 5.596756 -1.432812
v -3.338084 4.819227 -0.770684
v -1.003973 3.507755 1.522657
v -1.711556 3.658359 1.737499
v -2.394264 4.702833 -1.430664
v -1.272031 2.586352 0.564752
v -0.299001 1.170454 0.128415
v 0.168210 0.041483 0.060435
v -0.233456 3.723063 1.235372
v -1.273113 4.990579 1.984898
v 0.177389 4.873313 -0.771689
v -1.952771 5.572627 -1.349323
v -1.910672 4.338197 1.902278
v -2.025986 2.893240 1.113365
v -1.531870 2.720397 -0.085436
v -0.385452 4.411053 1.886486
v -0.814479 6.854503 0.474792
v 0.428467 5.470741 -0.407799
v 0.303065 4.489615 -0.378415
v 0.102028 3.935270 1.059801
v -2.933427 3.527605 1.100932
v -0.430848 2.151417 0.197992
v -0.144981 3.243109 0.302594
v -0.426351 1.648914 0.226439
v -2.780535 4.428776 -1.200627
v -2.001349 5.155292 1.852734
v -0.090381 5.200048 -0.976036
v -0.184003 0.773873 0.158938
v -2.627708 5.600109 -1.220046
v -3.061255 5.411446 -1.021891
v 0.388340 4.413595 -0.013038
v -1.855291 2.598849 -0.748332
v -1.286582 2.657430 -0.552964
v 0.061169 5.360065 1.527826
v -0.732688 3.258739 0.205566
v -1.581011 6.862323 0.636230
v -2.743801 3.779779 -1.074979
v -1.667902 6.811138 1.058025
v -2.101710 6.012918 -1.166646
v -2.072768 2.377043 -0.109928
v -0.120058 0.414993 -0.097547
v -0.129845 4.412239 -0.960593
v -3.358616 5.541997 0.351237
v -1.264987 2.588392 0.057391
v -1.248872 2.653972 0.058515
v -0.738543 2.345295 0.131334
v -0.774417 2.259502 0.199278
v -1.235768 2.639349 0.015031
v -0.740899 2.234879 0.121023
v -0.684673 2.797534 0.208663
v -1.251883 2.573768 0.013908
v -0.176684 0.774806 -0.048538
v -0.772062 2.369919 0.209588
v -0.532662 2.746626 0.199075
v -0.638048 2.768330 0.119529
v -0.613799 2.757982 0.254131
v -0.549238 2.727892 0.114019
v -0.413238 1.623098 0.054228
v -0.360913 1.656836 0.235884
v -0.297932 1.654443 0.052759
v -0.452574 1.625703 0.167554
v -0.263020 1.661535 0.164423
v -0.106104 0.783812 0.170826
v -0.035523 0.792817 -0.050600
v -0.220306 0.769241 0.088354
v 0.008098 0.798383 0.084994
v 0.078462 0.198694 -0.124521
v -0.167449 0.190083 0.055088
v 0.136514 0.200726 0.054240
v -0.109398 0.192116 -0.123992
v -0.015468 0.195405 0.165228
vt 0.4646 0.1872
vt 0.4668 0.1859
vt 0.4673 0.1894
vt 0.4700 0.1916
vt 0.4690 0.1940
vt 0.4666 0.1919
vt 0.4632 0.1921
vt 0.4656 0.1943
vt 0.4619 0.1937
vt 0.4595 0.1859
vt 0.4570 0.1859
vt 0.4586 0.1832
vt 0.4592 0.1919
vt 0.4614 0.1890
vt 0.4574 0.1887
vt 0.4647 0.1829
vt 0.4691 0.1846
vt 0.4670 0.1815
vt 0.4706 0.1827
vt 0.4622 0.1822
vt 0.4564 0.2072
vt 0.4615 0.2045
vt 0.4623 0.2085
vt 0.4588 0.1997
vt 0.4634 0.1980
vt 0.4627 0.2007
vt 0.4246 0.1669
vt 0.4302 0.1693
vt 0.4244 0.1708
vt 0.4242 0.1748
vt 0.4281 0.1784
vt 0.4243 0.1773
vt 0.4127 0.1732
vt 0.4123 0.1769
vt 0.4083 0.1752
vt 0.4216 0.1789
vt 0.4184 0.1740
vt 0.4158 0.1781
vt 0.4543 0.2014
vt 0.4576 0.2034
vt 0.4570 0.1956
vt 0.4597 0.1975
vt 0.4447 0.2012
vt 0.4448 0.1966
vt 0.4485 0.1984
vt 0.4266 0.1883
vt 0.4293 0.1851
vt 0.4300 0.1886
vt 0.4267 0.1905
vt 0.4268 0.1928
vt 0.4309 0.1952
vt 0.4269 0.1948
vt 0.4205 0.1911
vt 0.4179 0.1929
vt 0.4183 0.1900
vt 0.4240 0.1960
vt 0.4237 0.1919
vt 0.4209 0.1952
vt 0.4227 0.1857
vt 0.4260 0.1860
vt 0.4254 0.1838
vt 0.4222 0.1834
vt 0.4248 0.1819
vt 0.4197 0.1871
vt 0.4297 0.2071
vt 0.4323 0.2024
vt 0.4353 0.2063
vt 0.4302 0.2113
vt 0.4770 0.1766
vt 0.4767 0.1834
vt 0.4745 0.1787
vt 0.4178 0.2109
vt 0.4134 0.2105
vt 0.4160 0.2069
vt 0.4710 0.1775
vt 0.4727 0.1717
vt 0.4684 0.1669
vt 0.4667 0.1727
vt 0.4649 0.1686
vt 0.4254 0.2032
vt 0.4288 0.2040
vt 0.4280 0.2008
vt 0.4246 0.2000
vt 0.4275 0.1988
vt 0.4195 0.2050
vt 0.4540 0.1693
vt 0.4595 0.1739
vt 0.4558 0.1749
vt 0.4480 0.1765
vt 0.4513 0.1812
vt 0.4464 0.1808
vt 0.4447 0.1851
vt 0.4499 0.1883
vt 0.4448 0.1885
vt 0.4008 0.1846
vt 0.4064 0.1826
vt 0.4061 0.1867
vt 0.4115 0.1888
vt 0.4152 0.1860
vt 0.4138 0.1889
vt 0.4008 0.1943
vt 0.4080 0.1945
vt 0.4032 0.1981
vt 0.4152 0.1947
vt 0.4182 0.1970
vt 0.4147 0.1988
vt 0.4428 0.1956
vt 0.4389 0.1966
vt 0.4381 0.1922
vt 0.4433 0.1862
vt 0.4377 0.1840
vt 0.4419 0.1819
vt 0.4405 0.1776
vt 0.4363 0.1797
vt 0.4382 0.1747
vt 0.4734 0.1975
vt 0.4707 0.1970
vt 0.4717 0.1946
vt 0.4756 0.2084
vt 0.4711 0.2051
vt 0.4745 0.2030
vt 0.4833 0.2033
vt 0.4798 0.1968
vt 0.4852 0.1995
vt 0.4696 0.1881
vt 0.4732 0.1909
vt 0.4728 0.1874
vt 0.4639 0.1896
vt 0.4621 0.1865
vt 0.4301 0.1733
vt 0.4187 0.1700
vt 0.4506 0.2042
vt 0.4556 0.1977
vt 0.4523 0.1956
vt 0.4487 0.1938
vt 0.4538 0.1936
vt 0.4287 0.1829
vt 0.4301 0.1908
vt 0.4236 0.1897
vt 0.4315 0.1992
vt 0.4809 0.1818
vt 0.4237 0.2090
vt 0.4510 0.1729
vt 0.4528 0.1785
vt 0.4056 0.2019
vt 0.4099 0.2024
vt 0.4073 0.2060
vt 0.4577 0.1698
vt 0.4496 0.1855
vt 0.4008 0.1894
vt 0.4061 0.1916
vt 0.4023 0.1810
vt 0.4117 0.1847
vt 0.4104 0.1983
vt 0.4133 0.1918
vt 0.4430 0.1909
vt 0.4384 0.1875
vt 0.4419 0.2006
vt 0.4794 0.2059
vt 0.4783 0.2004
vt 0.4719 0.2091
vt 0.4700 0.1997
vt 0.4871 0.1956
vt 0.4818 0.1929
vt 0.4859 0.1913
vt 0.4749 0.1939
vt 0.4355 0.7714
vt 0.4358 0.7744
vt 0.4342 0.7745
vt 0.4337 0.7716
vt 0.4459 0.7727
vt 0.4448 0.7754
vt 0.4434 0.7749
vt 0.4442 0.7720
vt 0.4391 0.7712
vt 0.4389 0.7743
vt 0.4374 0.7743
vt 0.4373 0.7711
vt 0.4320 0.7719
vt 0.4327 0.7747
vt 0.4312 0.7749
vt 0.4304 0.7722
vt 0.4425 0.7716
vt 0.4419 0.7746
vt 0.4404 0.7744
vt 0.4408 0.7713
vt 0.4385 0.7805
vt 0.4372 0.7804
vt 0.4331 0.7808
vt 0.4317 0.7809
vt 0.4411 0.7807
vt 0.4398 0.7805
vt 0.4358 0.7806
vt 0.4358 0.7867
vt 0.4346 0.7868
vt 0.4344 0.7807
vt 0.4375 0.7943
vt 0.4386 0.7943
vt 0.4380 0.8019
vt 0.4370 0.8019
vt 0.4332 0.7942
vt 0.4343 0.7945
vt 0.4340 0.8021
vt 0.4330 0.8016
vt 0.4396 0.7944
vt 0.4407 0.7946
vt 0.4400 0.8022
vt 0.4390 0.8020
vt 0.4354 0.7944
vt 0.4365 0.7943
vt 0.4360 0.8019
vt 0.4350 0.8020
vt 0.4418 0.7946
vt 0.4430 0.7946
vt 0.4422 0.8017
vt 0.4411 0.8019
vt 0.4383 0.8112
vt 0.4391 0.8112
vt 0.4382 0.8203
vt 0.4376 0.8203
vt 0.4352 0.8111
vt 0.4360 0.8111
vt 0.4360 0.8202
vt 0.4354 0.8202
vt 0.4397 0.8118
vt 0.4404 0.8124
vt 0.4394 0.8205
vt 0.4388 0.8204
vt 0.4368 0.8111
vt 0.4376 0.8111
vt 0.4371 0.8202
vt 0.4365 0.8202
vt 0.4501 0.8045
vt 0.4510 0.8049
vt 0.4510 0.8075
vt 0.4503 0.8074
vt 0.4437 0.7813
vt 0.4426 0.7872
vt 0.4414 0.7869
vt 0.4424 0.7809
vt 0.4528 0.8132
vt 0.4533 0.8135
vt 0.4532 0.8194
vt 0.4528 0.8192
vt 0.4337 0.8116
vt 0.4344 0.8112
vt 0.4348 0.8202
vt 0.4342 0.8203
vt 0.4530 0.8038
vt 0.4538 0.8040
vt 0.4534 0.8076
vt 0.4528 0.8072
vt 0.4518 0.8132
vt 0.4524 0.8129
vt 0.4525 0.8190
vt 0.4520 0.8192
vt 0.4482 0.8042
vt 0.4492 0.8041
vt 0.4496 0.8073
vt 0.4490 0.8075
vt 0.4516 0.8042
vt 0.4522 0.8035
vt 0.4523 0.8068
vt 0.4517 0.8072
vt 0.4507 0.8133
vt 0.4513 0.8134
vt 0.4516 0.8194
vt 0.4512 0.8192
vt 0.4496 0.8134
vt 0.4502 0.8132
vt 0.4507 0.8191
vt 0.4503 0.8194
vt 0.4491 0.8137
vt 0.4499 0.8196
vt 0.4484 0.8078
vt 0.4510 0.8023
vt 0.4516 0.8012
vt 0.4521 0.8002
vt 0.4473 0.8044
vt 0.4463 0.8009
vt 0.4475 0.8009
vt 0.4487 0.8009
vt 0.4532 0.8003
vt 0.4542 0.8004
vt 0.4330 0.8121
vt 0.4336 0.8203
vt 0.4324 0.8039
vt 0.4332 0.8030
vt 0.4462 0.7759
vt 0.4449 0.7817
vt 0.4437 0.7875
vt 0.4499 0.8016
vt 0.4407 0.8032
vt 0.4414 0.8042
vt 0.4369 0.7866
vt 0.4392 0.7866
vt 0.4403 0.7867
vt 0.4322 0.7939
vt 0.4320 0.8010
vt 0.4323 0.7868
vt 0.4334 0.7868
vt 0.4381 0.7866
vt 0.4431 0.7686
vt 0.4412 0.7681
vt 0.4451 0.7691
vt 0.4314 0.7692
vt 0.4295 0.7696
vt 0.4333 0.7687
vt 0.4392 0.7681
vt 0.4372 0.7680
vt 0.4470 0.7700
vt 0.4488 0.7709
vt 0.4475 0.7734
vt 0.4352 0.7684
vt 0.4764 0.1902
vt 0.4806 0.1886
vt 0.4848 0.1870
vt 0.4674 0.1991
vt 0.4680 0.1964
vt 0.4667 0.2018
vt 0.4674 0.2058
vt 0.4682 0.2098
vt 0.4327 0.1854
vt 0.4320 0.1819
vt 0.4334 0.1889
vt 0.4380 0.2016
vt 0.4350 0.1976
vt 0.4409 0.2055
vt 0.4157 0.1918
vt 0.4161 0.1889
vt 0.4142 0.2029
vt 0.4154 0.1819
vt 0.4189 0.1831
vt 0.4119 0.1806
vt 0.4079 0.1790
vt 0.4038 0.1773
vt 0.4548 0.1887
vt 0.4552 0.1916
vt 0.4545 0.1859
vt 0.4560 0.1832
vt 0.4576 0.1805
vt 0.4632 0.1744
vt 0.4649 0.1785
vt 0.4615 0.1703
vt 0.4116 0.2065
vt 0.4090 0.2101
vt 0.4212 0.1992
vt 0.4685 0.1797
vt 0.4720 0.1808
vt 0.4243 0.2131
vt 0.4307 0.2154
vt 0.4309 0.1972
vt 0.4269 0.1968
vt 0.4241 0.1980
vt 0.4342 0.1933
vt 0.4281 0.1809
vt 0.4243 0.1799
vt 0.4501 0.1918
vt 0.4450 0.1920
vt 0.4216 0.1815
vt 0.4340 0.1768
vt 0.4359 0.1718
vt 0.4643 0.1958
vt 0.4606 0.1953
vt 0.4579 0.1935
vt 0.4742 0.1855
vt 0.4177 0.2011
vt 0.4175 0.1860
vt 0.4613 0.1795
vt 0.4358 0.2104
vn 0.4343 -0.8843 -0.1716
vn 0.2845 -0.9586 0.0092
vn 0.1566 -0.9474 -0.2792
vn -0.2958 -0.8887 -0.3502
vn -0.3341 -0.6368 -0.6949
vn 0.0789 -0.7973 -0.5985
vn 0.3490 -0.6796 -0.6452
vn 0.0175 -0.5976 -0.8016
vn 0.3190 -0.5603 -0.7644
vn 0.6427 -0.7198 -0.2623
vn 0.7675 -0.5566 -0.3180
vn 0.6807 -0.7307 -0.0510
vn 0.5785 -0.5553 -0.5974
vn 0.5809 -0.6824 -0.4436
vn 0.6855 -0.5564 -0.4696
vn 0.5058 -0.8550 0.1143
vn 0.0135 -0.9759 0.2178
vn 0.3385 -0.8864 0.3159
vn -0.0699 -0.9159 0.3952
vn 0.5399 -0.8347 0.1087
vn 0.1374 0.2465 -0.9594
vn -0.1553 -0.0145 -0.9878
vn -0.1989 0.2505 -0.9475
vn 0.2279 -0.1891 -0.9552
vn -0.0791 -0.2827 -0.9559
vn -0.0989 -0.1885 -0.9771
vn 0.0747 0.5299 -0.8447
vn 0.1240 0.5702 -0.8121
vn -0.1016 0.4323 -0.8960
vn 0.1984 0.5518 -0.8100
vn 0.5234 0.4385 -0.7306
vn 0.6069 0.5372 -0.5857
vn 0.6927 0.2054 -0.6913
vn 0.3341 0.6873 -0.6450
vn 0.3151 0.6226 -0.7163
vn 0.3933 0.7112 -0.5826
vn 0.5002 0.0501 -0.8645
vn 0.2091 -0.0455 -0.9768
vn 0.5311 -0.2406 -0.8125
vn 0.2345 -0.2711 -0.9336
vn 0.5934 0.1006 -0.7986
vn -0.3462 0.9333 -0.0956
vn -0.5489 0.8283 -0.1125
vn -0.6525 0.7577 0.0075
vn -0.4735 0.8798 0.0416
vn -0.5269 0.7785 0.3410
vn -0.7677 0.5810 0.2703
vn -0.5173 0.7049 0.4854
vn 0.0119 0.9682 0.2497
vn 0.2875 0.6996 0.6541
vn 0.3506 0.9352 0.0501
vn -0.2666 0.6462 0.7151
vn -0.2993 0.8726 0.3860
vn -0.0800 0.6305 0.7721
vn -0.0202 0.9727 -0.2310
vn -0.2098 0.9772 -0.0334
vn -0.0783 0.9807 -0.1792
vn 0.1303 0.9720 -0.1954
vn 0.0384 0.8868 -0.4605
vn 0.1066 0.9375 -0.3313
vn -0.5042 -0.0180 0.8634
vn -0.7628 0.0957 0.6395
vn -0.7285 -0.1831 0.6601
vn -0.4184 -0.3164 0.8514
vn -0.2900 -0.5872 0.7557
vn -0.5485 -0.6915 0.4700
vn -0.1934 -0.7370 0.6476
vn 0.0190 -0.3020 0.9531
vn 0.1950 -0.4772 0.8569
vn 0.0612 -0.1304 0.9896
vn 0.1218 -0.6584 0.7427
vn -0.0345 -0.4493 0.8927
vn 0.2006 -0.6172 0.7608
vn -0.2647 0.1428 0.9537
vn -0.5407 0.2022 0.8165
vn -0.5633 0.2913 0.7732
vn -0.3562 0.2756 0.8928
vn -0.5565 0.3085 0.7714
vn -0.1102 0.0552 0.9924
vn 0.8075 -0.2094 0.5514
vn 0.6184 -0.5630 0.5482
vn 0.7679 -0.4121 0.4905
vn 0.9399 -0.1537 0.3050
vn 0.9555 -0.2944 0.0198
vn 0.9689 -0.2055 0.1376
vn 0.9811 -0.1560 -0.1144
vn 0.8769 -0.3423 -0.3374
vn 0.9521 -0.1218 -0.2805
vn 0.9465 0.1996 -0.2536
vn 0.9954 0.0957 0.0073
vn 0.9056 0.4167 0.0793
vn 0.5739 0.7383 -0.3544
vn 0.7266 0.6870 -0.0129
vn 0.8383 0.0602 0.5418
vn 0.9084 -0.0977 0.4064
vn 0.5740 0.3607 0.7352
vn 0.1773 0.4356 0.8825
vn 0.4717 0.2532 0.8446
vn -0.9967 -0.0408 -0.0695
vn -0.9815 0.1537 0.1146
vn -0.9569 0.2862 -0.0500
vn -0.9435 -0.0001 -0.3313
vn -0.8501 0.3207 -0.4176
vn -0.7957 -0.0218 -0.6052
vn -0.6539 -0.0548 -0.7546
vn -0.6486 0.2019 -0.7339
vn -0.5016 0.0402 -0.8642
vn -0.7476 -0.3288 -0.5770
vn -0.5722 -0.3823 -0.7256
vn -0.6725 -0.5767 -0.4639
vn -0.5475 -0.1298 -0.8267
vn -0.6964 -0.1887 -0.6924
vn -0.9186 -0.3183 -0.2341
vn -0.9866 -0.0334 -0.1599
vn -0.1448 -0.9892 0.0246
vn -0.6133 -0.7891 -0.0340
vn -0.4014 -0.8740 0.2739
vn 0.4024 -0.8092 -0.4280
vn 0.5696 -0.8011 -0.1838
vn -0.1333 0.3878 -0.9121
vn 0.4297 0.3580 -0.8290
vn 0.5099 -0.0994 -0.8545
vn 0.6009 -0.0555 -0.7974
vn 0.6826 -0.0735 -0.7271
vn 0.6492 -0.2196 -0.7282
vn -0.3320 0.8720 -0.3596
vn -0.7172 0.6870 0.1172
vn -0.1907 0.9713 -0.1419
vn -0.7257 0.2704 0.6326
vn -0.6394 -0.4831 0.5982
vn -0.1799 -0.1160 0.9768
vn 0.9353 -0.2903 0.2024
vn 0.6806 -0.0425 0.7315
vn 0.7002 -0.3973 0.5932
vn 0.9329 -0.3213 -0.1628
vn 0.9123 -0.0152 0.4091
vn 0.7977 0.5292 -0.2891
vn 0.7921 0.1190 0.5987
vn 0.7937 0.3154 0.5202
vn -0.9339 0.3296 -0.1385
vn -0.9784 -0.1964 0.0640
vn -0.8504 -0.2422 -0.4670
vn -0.5741 -0.2362 -0.7840
vn -0.9296 -0.3511 -0.1123
vn -0.8516 -0.4608 -0.2498
vn 0.0009 0.0875 0.9962
vn 0.0120 0.0081 0.9999
vn -0.5788 -0.0587 0.8134
vn -0.5863 0.0457 0.8088
vn -0.5894 0.0647 -0.8052
vn -0.5917 0.0420 -0.8051
vn -0.0089 0.1436 -0.9896
vn -0.0042 0.1289 -0.9916
vn 0.9350 0.1832 0.3036
vn 0.9350 0.1871 0.3014
vn 0.5944 0.1152 0.7959
vn 0.5830 0.1535 0.7978
vn -0.9514 0.0107 0.3078
vn -0.9477 -0.0855 0.3074
vn -0.9476 -0.0332 -0.3177
vn -0.9495 0.0326 -0.3121
vn 0.5741 0.1676 -0.8015
vn 0.5639 0.2034 -0.8004
vn 0.9221 0.2302 -0.3110
vn 0.9303 0.1998 -0.3076
vn 0.9326 0.1932 0.3048
vn 0.5945 0.0781 0.8003
vn -0.9325 -0.1872 0.3088
vn -0.9443 -0.1195 -0.3067
vn 0.5529 0.2285 -0.8013
vn 0.9176 0.2547 -0.3053
vn 0.0237 -0.0604 0.9979
vn 0.0285 -0.0648 0.9975
vn -0.5306 -0.2126 0.8205
vn -0.5575 -0.1607 0.8145
vn 0.9036 0.2974 0.3083
vn 0.8891 0.3464 -0.2990
vn 0.9244 0.2546 -0.2841
vn 0.9177 0.2243 0.3278
vn -0.8618 -0.3412 0.3753
vn -0.4820 -0.2239 0.8471
vn -0.3060 -0.1456 0.9408
vn -0.7441 -0.4132 0.5250
vn 0.5204 0.2658 -0.8115
vn -0.0390 0.0899 -0.9952
vn -0.0010 0.0355 -0.9994
vn 0.5267 0.1830 -0.8302
vn 0.0279 -0.0540 0.9982
vn 0.5719 0.1495 0.8066
vn 0.5594 0.1161 0.8207
vn 0.0235 -0.0192 0.9995
vn -0.5617 -0.1198 -0.8186
vn -0.9052 -0.2998 -0.3012
vn -0.8595 -0.4268 -0.2813
vn -0.4897 -0.1727 -0.8546
vn 0.6199 0.1024 -0.7780
vn -0.0307 0.0306 -0.9991
vn 0.0039 0.0279 -0.9996
vn 0.7335 0.1049 -0.6715
vn 0.0617 0.0276 0.9977
vn 0.5806 0.1010 0.8079
vn 0.5450 0.0945 0.8331
vn 0.0516 0.0334 0.9981
vn -0.6022 -0.0309 -0.7978
vn -0.8999 -0.0705 -0.4303
vn -0.9336 -0.0885 -0.3472
vn -0.6218 -0.0458 -0.7819
vn 0.9278 0.1466 0.3431
vn 0.9628 0.1516 -0.2236
vn 0.9857 0.1400 -0.0940
vn 0.9208 0.1347 0.3660
vn 0.2663 0.5443 0.7955
vn 0.5092 0.8599 -0.0365
vn 0.4963 0.8678 0.0249
vn 0.1455 0.5958 0.7899
vn -0.5991 -0.0012 -0.8007
vn -0.5904 -0.0633 -0.8046
vn -0.0195 0.1232 -0.9922
vn -0.0245 0.1370 -0.9903
vn -0.0890 -0.6447 -0.7593
vn -0.4891 -0.8718 0.0294
vn -0.4400 -0.8932 -0.0931
vn -0.0974 -0.6849 -0.7221
vn -0.9823 -0.0815 0.1686
vn -0.5529 -0.0371 0.8324
vn -0.6496 -0.0500 0.7587
vn -0.9853 -0.0967 0.1411
vn -0.3686 -0.3037 -0.8786
vn -0.7450 -0.6410 -0.1846
vn -0.5892 -0.8077 -0.0237
vn -0.2066 -0.4815 -0.8517
vn 0.4811 0.4033 -0.7784
vn 0.2719 -0.1126 -0.9557
vn 0.2441 -0.2040 -0.9481
vn 0.4775 0.3675 -0.7981
vn -0.5669 -0.4863 0.6649
vn -0.1895 -0.0340 0.9813
vn -0.2228 0.0539 0.9734
vn -0.5334 -0.4817 0.6953
vn 0.2026 0.4813 -0.8528
vn -0.0917 0.0543 -0.9943
vn 0.1814 0.0507 -0.9821
vn 0.4614 0.4732 -0.7505
vn -0.0544 0.6453 0.7620
vn 0.3867 0.9219 -0.0239
vn 0.4245 0.8877 -0.1782
vn -0.0615 0.6717 0.7382
vn -0.5096 -0.4288 0.7459
vn -0.3491 0.1121 0.9304
vn -0.3399 0.1648 0.9259
vn -0.5090 -0.4211 0.7507
vn -0.6750 0.5131 -0.5302
vn -0.3032 0.1642 -0.9387
vn -0.5102 0.2921 0.8089
vn -0.9286 -0.2098 -0.3062
vn 0.5933 0.1231 0.7955
vn 0.9022 0.3113 -0.2985
vn 0.5432 0.2593 -0.7985
vn -0.9081 -0.2713 0.3189
vn 0.9176 0.2561 0.3039
vn 0.5842 0.1497 -0.7977
vn 0.9363 0.1826 -0.2999
vn 0.0150 0.1164 -0.9931
vn -0.9500 0.0308 0.3108
vn -0.9483 0.0419 -0.3147
vn -0.5747 0.0665 0.8157
vn 0.9371 0.1745 0.3024
vn 0.5915 0.1559 0.7911
vn -0.5826 0.0634 -0.8103
vn 0.0082 0.1031 0.9946
vn -0.7542 -0.6456 0.1201
vn -0.8232 -0.5277 0.2095
vn -0.8668 -0.3187 0.3835
vn -0.3418 -0.2747 -0.8987
vn -0.2674 -0.4302 -0.8622
vn -0.3522 -0.1680 -0.9207
vn -0.3649 -0.0131 -0.9309
vn -0.3154 0.1664 -0.9343
vn -0.7797 0.6051 -0.1613
vn -0.5399 0.5880 -0.6023
vn -0.8316 0.5553 0.0039
vn -0.9129 -0.0096 0.4081
vn -0.8787 0.2931 0.3767
vn 0.5984 0.6578 0.4573
vn 0.5666 0.8224 -0.0501
vn 0.3207 0.0385 0.9464
vn 0.5014 0.7436 -0.4423
vn 0.2962 0.8525 -0.4307
vn 0.7474 0.5206 -0.4127
vn 0.8576 0.2544 -0.4470
vn 0.8568 -0.0392 -0.5142
vn 0.8109 -0.4108 -0.4168
vn 0.6976 -0.3962 -0.5970
vn 0.8930 -0.3869 -0.2298
vn 0.8896 -0.4445 -0.1048
vn 0.7876 -0.5724 0.2281
vn 0.4509 -0.6491 0.6126
vn 0.4134 -0.7593 0.5025
vn 0.4970 -0.5237 0.6919
vn 0.4260 -0.2734 0.8624
vn -0.1280 0.3507 0.9277
vn 0.1921 -0.7827 0.5920
vn -0.1126 -0.8410 0.5292
vn -0.7390 0.4531 0.4986
vn -0.5304 0.5435 0.6506
vn -0.3070 0.4880 0.8170
vn -0.8779 0.4647 0.1152
vn -0.1260 0.6643 -0.7367
vn 0.1566 0.7118 -0.6847
vn 0.8019 -0.2911 -0.5217
vn 0.2981 0.8020 -0.5176
vn -0.3428 0.2853 -0.8951
vn 0.0083 -0.4224 -0.9064
vn 0.2719 -0.4046 -0.8731
vn 0.5347 -0.3976 -0.7456
vn -0.4216 -0.8148 0.3979
vn 0.0574 0.2137 0.9752
vn 0.4158 0.8326 -0.3660
vn 0.5534 -0.7259 0.4083
usemtl None
s 1
f 1/1/1 134/2/2 180/3/3
f 3/4/4 226/5/5 280/6/6
f 5/7/7 175/8/8 125/9/9
f 7/10/10 221/11/11 271/12/12
f 5/7/7 122/13/13 164/14/14
f 7/10/10 109/15/15 221/11/11
f 1/1/1 159/16/16 134/2/2
f 2/17/17 254/18/18 108/19/19
f 7/10/10 271/12/12 152/20/20
f 13/21/21 113/22/22 156/23/23
f 16/24/24 103/25/25 105/26/26
f 13/27/21 156/28/23 249/29/27
f 17/30/28 287/31/29 129/32/30
f 20/33/31 126/34/32 163/35/33
f 17/30/28 121/36/34 169/37/35
f 20/33/31 214/38/36 126/34/32
f 13/21/21 174/39/37 204/40/38
f 16/24/24 93/41/39 117/42/40
f 20/43/31 163/44/33 275/45/41
f 25/46/42 119/47/43 90/48/44
f 25/46/42 90/48/44 136/49/45
f 27/50/46 179/51/47 227/52/48
f 30/53/49 237/54/50 89/55/51
f 27/50/46 225/56/52 286/57/53
f 30/53/49 138/58/54 237/54/50
f 25/46/42 213/59/55 192/60/56
f 34/61/57 190/62/58 187/63/59
f 30/53/49 89/55/51 265/64/60
f 35/65/61 166/66/62 219/67/63
f 35/65/61 219/67/63 160/68/64
f 37/69/65 116/70/66 262/71/67
f 39/72/68 212/73/69 158/74/70
f 37/69/65 155/75/71 252/76/72
f 39/77/68 251/78/73 212/79/69
f 35/65/61 274/80/74 104/81/75
f 42/82/76 102/83/77 215/84/78
f 39/72/68 158/74/70 258/85/79
f 43/86/80 257/87/81 268/88/82
f 44/89/83 217/90/84 238/91/85
f 45/92/86 267/93/87 88/94/88
f 45/95/86 183/96/89 100/97/90
f 46/98/91 235/99/92 132/100/93
f 44/101/83 130/102/94 189/103/95
f 31/104/96 239/105/97 162/106/98
f 47/107/99 168/108/100 165/109/101
f 48/110/102 216/111/103 250/112/104
f 49/113/105 278/114/106 172/115/107
f 50/116/108 107/117/109 206/118/110
f 49/119/105 273/120/111 143/121/112
f 48/122/102 97/123/113 203/124/114
f 3/4/4 288/125/115 229/126/116
f 2/17/17 108/19/19 137/127/117
f 1/1/1 180/3/3 281/128/118
f 1/1/1 281/128/118 167/129/119
f 5/7/7 125/9/9 122/13/13
f 1/1/1 167/129/119 159/16/16
f 13/21/21 204/40/38 113/22/22
f 16/24/24 117/42/40 103/25/25
f 17/30/28 260/130/120 287/31/29
f 13/27/21 249/29/27 173/131/121
f 17/30/28 129/32/30 121/36/34
f 13/21/21 173/132/121 174/39/37
f 16/24/24 86/133/122 93/41/39
f 24/134/123 259/135/124 290/136/125
f 25/46/42 192/60/56 119/47/43
f 34/61/57 187/63/59 87/137/126
f 27/50/46 234/138/127 179/51/47
f 25/46/42 136/49/45 284/139/128
f 27/50/46 227/52/48 225/56/52
f 25/46/42 284/139/128 213/59/55
f 35/65/61 104/81/75 166/66/62
f 42/82/76 215/84/78 135/140/129
f 37/69/65 269/141/130 116/70/66
f 35/65/61 160/68/64 261/142/131
f 37/69/65 262/71/67 155/75/71
f 35/65/61 261/142/131 274/80/74
f 44/89/83 189/143/95 120/144/132
f 43/145/80 241/146/133 142/147/134
f 43/86/80 142/148/134 257/87/81
f 44/89/83 120/144/132 217/90/84
f 45/92/86 279/149/135 267/93/87
f 44/101/83 238/150/85 178/151/136
f 45/95/86 88/152/88 183/96/89
f 46/98/91 242/153/137 235/99/92
f 44/101/83 178/151/136 130/102/94
f 43/145/80 282/154/138 241/146/133
f 46/98/91 132/100/93 228/155/139
f 48/110/102 203/156/114 210/157/140
f 47/107/99 140/158/141 168/108/100
f 48/110/102 210/157/140 216/111/103
f 48/122/102 250/159/104 154/160/142
f 49/119/105 172/161/107 273/120/111
f 50/116/108 285/162/143 107/117/109
f 48/122/102 154/160/142 97/123/113
f 47/163/99 148/164/144 140/165/141
f 50/116/108 206/118/110 184/166/145
f 319/167/146 85/168/147 53/169/148 131/170/149
f 318/171/150 289/172/151 57/173/152 147/174/153
f 317/175/154 115/176/155 52/177/156 236/178/157
f 316/179/158 222/180/159 56/181/160 232/182/161
f 315/183/162 245/184/163 60/185/164 244/186/165
f 314/187/166 202/188/167 52/177/156 115/176/155
f 313/189/168 127/190/169 56/181/160 222/180/159
f 312/191/170 96/192/171 60/185/164 245/184/163
f 311/193/172 200/194/173 63/195/174 276/196/175
f 310/197/176 157/198/177 66/199/178 270/200/179
f 309/201/180 272/202/181 68/203/182 146/204/183
f 308/205/184 106/206/185 70/207/186 196/208/187
f 307/209/188 209/210/189 67/211/190 205/212/191
f 306/213/192 124/214/193 69/215/194 101/216/195
f 305/217/196 243/218/197 71/219/198 199/220/199
f 304/221/200 248/222/201 73/223/202 92/224/203
f 303/225/204 176/226/205 76/227/206 186/228/207
f 302/229/208 99/230/209 72/231/210 139/232/211
f 301/233/212 224/234/213 77/235/214 95/236/215
f 300/237/216 110/238/217 65/239/218 181/240/219
f 299/241/220 114/242/221 81/243/222 263/244/223
f 298/245/224 177/246/225 74/247/226 283/248/227
f 297/249/228 188/250/229 80/251/230 191/252/231
f 296/253/232 246/254/233 82/255/234 211/256/235
f 295/257/236 185/258/237 78/259/238 91/260/239
f 294/261/240 240/262/241 79/263/242 141/264/243
f 293/265/244 94/266/245 83/267/246 144/268/247
f 292/269/248 247/270/249 84/271/250 145/272/251
f 114/273/221 292/269/248 145/272/251 81/274/222
f 80/275/230 91/260/239 292/269/248 114/273/221
f 91/260/239 78/259/238 247/270/249 292/269/248
f 247/270/249 293/265/244 144/268/247 84/271/250
f 78/259/238 95/236/215 293/265/244 247/270/249
f 95/236/215 77/235/214 94/266/245 293/265/244
f 224/234/213 294/261/240 141/264/243 77/235/214
f 75/276/252 231/277/253 294/261/240 224/234/213
f 231/277/253 70/278/186 240/262/241 294/261/240
f 188/279/229 295/257/236 91/260/239 80/275/230
f 69/280/194 146/281/183 295/257/236 188/279/229
f 146/281/183 68/282/182 185/258/237 295/257/236
f 94/266/245 296/253/232 211/256/235 83/267/246
f 77/235/214 141/264/243 296/253/232 94/266/245
f 141/264/243 79/263/242 246/254/233 296/253/232
f 240/262/241 297/249/228 191/252/231 79/263/242
f 70/278/186 101/283/195 297/249/228 240/262/241
f 101/283/195 69/284/194 188/250/229 297/249/228
f 176/285/205 298/245/224 283/248/227 76/286/206
f 75/287/252 230/288/254 298/245/224 176/285/205
f 230/288/254 68/203/182 177/246/225 298/245/224
f 246/254/233 299/241/220 263/244/223 82/255/234
f 79/263/242 191/252/231 299/241/220 246/254/233
f 191/252/231 80/251/230 114/242/221 299/241/220
f 289/172/151 300/237/216 181/240/219 57/173/152
f 56/289/160 127/290/169 300/237/216 289/172/151
f 127/290/169 64/291/255 110/238/217 300/237/216
f 185/258/237 301/233/212 95/236/215 78/259/238
f 68/282/182 230/292/254 301/233/212 185/258/237
f 230/292/254 75/276/252 224/234/213 301/233/212
f 248/222/201 302/229/208 139/232/211 73/223/202
f 67/211/190 270/200/179 302/229/208 248/222/201
f 270/200/179 66/199/178 99/230/209 302/229/208
f 243/218/197 303/225/204 186/228/207 71/219/198
f 70/207/186 231/293/253 303/225/204 243/218/197
f 231/293/253 75/294/252 176/226/205 303/225/204
f 177/246/225 304/221/200 92/224/203 74/247/226
f 68/203/182 205/212/191 304/221/200 177/246/225
f 205/212/191 67/211/190 248/222/201 304/221/200
f 99/230/209 305/217/196 199/220/199 72/231/210
f 66/199/178 196/208/187 305/217/196 99/230/209
f 196/208/187 70/207/186 243/218/197 305/217/196
f 106/206/185 306/213/192 101/216/195 70/207/186
f 65/239/218 110/238/217 306/213/192 106/206/185
f 110/238/217 64/291/255 124/214/193 306/213/192
f 272/202/181 307/209/188 205/212/191 68/203/182
f 63/195/174 200/194/173 307/209/188 272/202/181
f 200/194/173 62/295/256 209/210/189 307/209/188
f 157/198/177 308/205/184 196/208/187 66/199/178
f 61/296/257 194/297/258 308/205/184 157/198/177
f 194/297/258 65/239/218 106/206/185 308/205/184
f 124/298/193 309/201/180 146/204/183 69/299/194
f 64/300/255 255/301/259 309/201/180 124/298/193
f 255/301/259 63/195/174 272/202/181 309/201/180
f 209/210/189 310/197/176 270/200/179 67/211/190
f 62/295/256 153/302/260 310/197/176 209/210/189
f 153/302/260 61/296/257 157/198/177 310/197/176
f 85/168/147 311/193/172 276/196/175 53/169/148
f 52/177/156 202/188/167 311/193/172 85/168/147
f 202/188/167 62/295/256 200/194/173 311/193/172
f 181/240/219 312/191/170 245/184/163 57/173/152
f 65/239/218 194/297/258 312/191/170 181/240/219
f 194/297/258 61/296/257 96/192/171 312/191/170
f 276/196/175 313/189/168 222/180/159 53/169/148
f 63/195/174 255/301/259 313/189/168 276/196/175
f 255/301/259 64/300/255 127/190/169 313/189/168
f 96/192/171 314/187/166 115/176/155 60/185/164
f 61/296/257 153/302/260 314/187/166 96/192/171
f 153/302/260 62/295/256 202/188/167 314/187/166
f 195/303/261 315/183/162 244/186/165 59/304/262
f 58/305/263 147/174/153 315/183/162 195/303/261
f 147/174/153 57/173/152 245/184/163 315/183/162
f 171/306/264 316/179/158 232/182/161 55/307/265
f 54/308/266 131/170/149 316/179/158 171/306/264
f 131/170/149 53/169/148 222/180/159 316/179/158
f 256/309/267 317/175/154 236/178/157 51/310/268
f 59/304/262 244/186/165 317/175/154 256/309/267
f 244/186/165 60/185/164 115/176/155 317/175/154
f 111/311/269 318/171/150 147/174/153 58/305/263
f 55/312/265 232/313/161 318/171/150 111/311/269
f 232/313/161 56/289/160 289/172/151 318/171/150
f 128/314/270 319/167/146 131/170/149 54/308/266
f 51/310/268 236/178/157 319/167/146 128/314/270
f 236/178/157 52/177/156 85/168/147 319/167/146
f 184/166/145 229/126/116 38/315/271
f 184/166/145 206/118/110 229/126/116
f 206/118/110 3/4/4 229/126/116
f 140/165/141 207/316/272 36/317/273
f 140/165/141 148/164/144 207/316/272
f 148/164/144 38/315/271 207/316/272
f 97/123/113 184/166/145 38/315/271
f 97/123/113 154/160/142 184/166/145
f 154/160/142 50/116/108 184/166/145
f 107/117/109 197/318/274 4/319/275
f 107/117/109 285/162/143 197/318/274
f 285/162/143 14/320/276 197/318/274
f 273/120/111 253/321/277 14/320/276
f 273/120/111 172/161/107 253/321/277
f 172/161/107 15/322/278 253/321/277
f 154/160/142 143/121/112 50/116/108
f 154/160/142 250/159/104 143/121/112
f 250/159/104 49/119/105 143/121/112
f 216/111/103 149/323/279 18/324/280
f 216/111/103 210/157/140 149/323/279
f 210/157/140 26/325/281 149/323/279
f 168/108/100 218/326/282 28/327/283
f 168/108/100 140/158/141 218/326/282
f 140/158/141 36/328/273 218/326/282
f 210/157/140 165/109/101 26/325/281
f 210/157/140 203/156/114 165/109/101
f 203/156/114 47/107/99 165/109/101
f 228/155/139 193/329/284 31/104/96
f 228/155/139 132/100/93 193/329/284
f 132/100/93 32/330/285 193/329/284
f 241/146/133 162/106/98 41/331/286
f 241/146/133 282/154/138 162/106/98
f 282/154/138 31/104/96 162/106/98
f 130/102/94 228/155/139 31/104/96
f 130/102/94 178/151/136 228/155/139
f 178/151/136 46/98/91 228/155/139
f 235/99/92 118/332/287 23/333/288
f 235/99/92 242/153/137 118/332/287
f 242/153/137 21/334/289 118/332/287
f 183/96/89 266/335/290 21/334/289
f 183/96/89 88/152/88 266/335/290
f 88/152/88 22/336/291 266/335/290
f 178/151/136 100/97/90 46/98/91
f 178/151/136 238/150/85 100/97/90
f 238/150/85 45/95/86 100/97/90
f 267/93/87 201/337/292 10/338/293
f 267/93/87 279/149/135 201/337/292
f 279/149/135 8/339/294 201/337/292
f 217/90/84 170/340/295 8/339/294
f 217/90/84 120/144/132 170/340/295
f 120/144/132 9/341/296 170/340/295
f 257/87/81 112/342/297 11/343/298
f 257/87/81 142/148/134 112/342/297
f 142/148/134 40/344/299 112/342/297
f 142/147/134 264/345/300 40/346/299
f 142/147/134 241/146/133 264/345/300
f 241/146/133 41/331/286 264/345/300
f 120/144/132 268/88/82 9/341/296
f 120/144/132 189/143/95 268/88/82
f 189/143/95 43/86/80 268/88/82
f 274/80/74 258/85/79 33/347/301
f 274/80/74 261/142/131 258/85/79
f 261/142/131 39/72/68 258/85/79
f 155/75/71 198/348/302 11/343/298
f 155/75/71 262/71/67 198/348/302
f 262/71/67 12/349/303 198/348/302
f 261/142/131 252/350/72 39/72/68
f 261/142/131 160/68/64 252/350/72
f 160/68/64 37/351/65 252/350/72
f 116/70/66 207/316/272 38/315/271
f 116/70/66 269/141/130 207/316/272
f 269/141/130 36/317/273 207/316/272
f 135/140/129 133/352/304 28/327/283
f 135/140/129 215/84/78 133/352/304
f 215/84/78 29/353/305 133/352/304
f 166/66/62 135/140/129 28/327/283
f 166/66/62 104/81/75 135/140/129
f 104/81/75 42/82/76 135/140/129
f 213/59/55 265/64/60 23/333/288
f 213/59/55 284/139/128 265/64/60
f 284/139/128 30/53/49 265/64/60
f 225/56/52 233/354/306 33/347/301
f 225/56/52 227/52/48 233/354/306
f 227/52/48 29/353/305 233/354/306
f 284/139/128 286/57/53 30/53/49
f 284/139/128 136/49/45 286/57/53
f 136/49/45 27/50/46 286/57/53
f 179/51/47 291/355/307 28/327/283
f 179/51/47 234/138/127 291/355/307
f 234/138/127 26/325/281 291/355/307
f 87/137/126 223/356/308 18/324/280
f 87/137/126 187/63/59 223/356/308
f 187/63/59 19/357/309 223/356/308
f 119/47/43 87/137/126 18/324/280
f 119/47/43 192/60/56 87/137/126
f 192/60/56 34/61/57 87/137/126
f 290/136/125 182/358/310 10/338/293
f 290/136/125 259/135/124 182/358/310
f 259/135/124 22/359/291 182/358/310
f 93/41/39 290/136/125 10/338/293
f 93/41/39 86/133/122 290/136/125
f 86/133/122 24/134/123 290/136/125
f 174/39/37 275/45/41 24/134/123
f 174/39/37 173/132/121 275/45/41
f 173/132/121 20/43/31 275/45/41
f 121/36/34 123/360/311 23/333/288
f 121/36/34 129/32/30 123/360/311
f 129/32/30 19/357/309 123/360/311
f 173/131/121 169/37/35 20/33/31
f 173/131/121 249/29/27 169/37/35
f 249/29/27 17/30/28 169/37/35
f 287/31/29 277/361/312 18/324/280
f 287/31/29 260/130/120 277/361/312
f 260/130/120 15/362/278 277/361/312
f 103/25/25 220/363/313 4/319/275
f 103/25/25 117/42/40 220/363/313
f 117/42/40 6/364/314 220/363/313
f 113/22/22 105/26/26 14/320/276
f 113/22/22 204/40/38 105/26/26
f 204/40/38 16/24/24 105/26/26
f 159/16/16 152/20/20 11/343/298
f 159/16/16 167/129/119 152/20/20
f 167/129/119 7/10/10 152/20/20
f 122/13/13 208/365/315 10/338/293
f 122/13/13 125/9/9 208/365/315
f 125/9/9 6/364/314 208/365/315
f 167/129/119 164/14/14 7/10/10
f 167/129/119 281/128/118 164/14/14
f 281/128/118 5/7/7 164/14/14
f 281/128/118 280/6/6 5/7/7
f 281/128/118 180/3/3 280/6/6
f 180/3/3 3/4/4 280/6/6
f 137/127/117 98/366/316 38/315/271
f 137/127/117 108/19/19 98/366/316
f 108/19/19 12/349/303 98/366/316
f 229/126/116 137/127/117 38/315/271
f 229/126/116 288/125/115 137/127/117
f 288/125/115 2/17/17 137/127/117
f 203/124/114 148/164/144 47/163/99
f 203/124/114 97/123/113 148/164/144
f 97/123/113 38/315/271 148/164/144
f 143/121/112 285/162/143 50/116/108
f 143/121/112 273/120/111 285/162/143
f 273/120/111 14/320/276 285/162/143
f 206/118/110 226/5/5 3/4/4
f 206/118/110 107/117/109 226/5/5
f 107/117/109 4/319/275 226/5/5
f 172/115/107 277/361/312 15/362/278
f 172/115/107 278/114/106 277/361/312
f 278/114/106 18/324/280 277/361/312
f 250/112/104 278/114/106 49/113/105
f 250/112/104 216/111/103 278/114/106
f 216/111/103 18/324/280 278/114/106
f 165/109/101 291/355/307 26/325/281
f 165/109/101 168/108/100 291/355/307
f 168/108/100 28/327/283 291/355/307
f 162/106/98 151/367/317 41/331/286
f 162/106/98 239/105/97 151/367/317
f 239/105/97 33/347/301 151/367/317
f 189/103/95 282/154/138 43/145/80
f 189/103/95 130/102/94 282/154/138
f 130/102/94 31/104/96 282/154/138
f 132/100/93 161/368/318 32/330/285
f 132/100/93 235/99/92 161/368/318
f 235/99/92 23/333/288 161/368/318
f 100/97/90 242/153/137 46/98/91
f 100/97/90 183/96/89 242/153/137
f 183/96/89 21/334/289 242/153/137
f 88/94/88 182/358/310 22/359/291
f 88/94/88 267/93/87 182/358/310
f 267/93/87 10/338/293 182/358/310
f 238/91/85 279/149/135 45/92/86
f 238/91/85 217/90/84 279/149/135
f 217/90/84 8/339/294 279/149/135
f 268/88/82 150/369/319 9/341/296
f 268/88/82 257/87/81 150/369/319
f 257/87/81 11/343/298 150/369/319
f 258/85/79 151/367/317 33/347/301
f 258/85/79 158/74/70 151/367/317
f 158/74/70 41/331/286 151/367/317
f 215/84/78 233/354/306 29/353/305
f 215/84/78 102/83/77 233/354/306
f 102/83/77 33/347/301 233/354/306
f 104/81/75 102/83/77 42/82/76
f 104/81/75 274/80/74 102/83/77
f 274/80/74 33/347/301 102/83/77
f 212/79/69 112/342/297 40/344/299
f 212/79/69 251/78/73 112/342/297
f 251/78/73 11/343/298 112/342/297
f 252/76/72 251/78/73 39/77/68
f 252/76/72 155/75/71 251/78/73
f 155/75/71 11/343/298 251/78/73
f 158/74/70 264/345/300 41/331/286
f 158/74/70 212/73/69 264/345/300
f 212/73/69 40/346/299 264/345/300
f 262/71/67 98/366/316 12/349/303
f 262/71/67 116/70/66 98/366/316
f 116/70/66 38/315/271 98/366/316
f 160/68/64 269/370/130 37/351/65
f 160/68/64 219/67/63 269/370/130
f 219/67/63 36/328/273 269/370/130
f 219/67/63 218/326/282 36/328/273
f 219/67/63 166/66/62 218/326/282
f 166/66/62 28/327/283 218/326/282
f 265/64/60 161/368/318 23/333/288
f 265/64/60 89/55/51 161/368/318
f 89/55/51 32/330/285 161/368/318
f 187/63/59 123/360/311 19/357/309
f 187/63/59 190/62/58 123/360/311
f 190/62/58 23/333/288 123/360/311
f 192/60/56 190/62/58 34/61/57
f 192/60/56 213/59/55 190/62/58
f 213/59/55 23/333/288 190/62/58
f 237/54/50 239/105/97 31/104/96
f 237/54/50 138/58/54 239/105/97
f 138/58/54 33/347/301 239/105/97
f 286/57/53 138/58/54 30/53/49
f 286/57/53 225/56/52 138/58/54
f 225/56/52 33/347/301 138/58/54
f 89/55/51 193/329/284 32/330/285
f 89/55/51 237/54/50 193/329/284
f 237/54/50 31/104/96 193/329/284
f 227/52/48 133/352/304 29/353/305
f 227/52/48 179/51/47 133/352/304
f 179/51/47 28/327/283 133/352/304
f 136/49/45 234/138/127 27/50/46
f 136/49/45 90/48/44 234/138/127
f 90/48/44 26/325/281 234/138/127
f 90/48/44 149/323/279 26/325/281
f 90/48/44 119/47/43 149/323/279
f 119/47/43 18/324/280 149/323/279
f 275/45/41 259/135/124 24/134/123
f 275/45/41 163/44/33 259/135/124
f 163/44/33 22/359/291 259/135/124
f 117/42/40 208/365/315 6/364/314
f 117/42/40 93/41/39 208/365/315
f 93/41/39 10/338/293 208/365/315
f 204/40/38 86/133/122 16/24/24
f 204/40/38 174/39/37 86/133/122
f 174/39/37 24/134/123 86/133/122
f 126/34/32 118/332/287 21/334/289
f 126/34/32 214/38/36 118/332/287
f 214/38/36 23/333/288 118/332/287
f 169/37/35 214/38/36 20/33/31
f 169/37/35 121/36/34 214/38/36
f 121/36/34 23/333/288 214/38/36
f 163/35/33 266/335/290 22/336/291
f 163/35/33 126/34/32 266/335/290
f 126/34/32 21/334/289 266/335/290
f 129/32/30 223/356/308 19/357/309
f 129/32/30 287/31/29 223/356/308
f 287/31/29 18/324/280 223/356/308
f 249/29/27 260/130/120 17/30/28
f 249/29/27 156/28/23 260/130/120
f 156/28/23 15/362/278 260/130/120
f 105/26/26 197/318/274 14/320/276
f 105/26/26 103/25/25 197/318/274
f 103/25/25 4/319/275 197/318/274
f 156/23/23 253/321/277 15/322/278
f 156/23/23 113/22/22 253/321/277
f 113/22/22 14/320/276 253/321/277
f 152/20/20 150/369/319 11/343/298
f 152/20/20 271/12/12 150/369/319
f 271/12/12 9/341/296 150/369/319
f 108/19/19 198/348/302 12/349/303
f 108/19/19 254/18/18 198/348/302
f 254/18/18 11/343/298 198/348/302
f 134/2/2 254/18/18 2/17/17
f 134/2/2 159/16/16 254/18/18
f 159/16/16 11/343/298 254/18/18
f 221/11/11 201/337/292 8/339/294
f 221/11/11 109/15/15 201/337/292
f 109/15/15 10/338/293 201/337/292
f 164/14/14 109/15/15 7/10/10
f 164/14/14 122/13/13 109/15/15
f 122/13/13 10/338/293 109/15/15
f 271/12/12 170/340/295 9/341/296
f 271/12/12 221/11/11 170/340/295
f 221/11/11 8/339/294 170/340/295
f 125/9/9 220/363/313 6/364/314
f 125/9/9 175/8/8 220/363/313
f 175/8/8 4/319/275 220/363/313
f 280/6/6 175/8/8 5/7/7
f 280/6/6 226/5/5 175/8/8
f 226/5/5 4/319/275 175/8/8
f 180/3/3 288/125/115 3/4/4
f 180/3/3 134/2/2 288/125/115
f 134/2/2 2/17/17 288/125/115
